	6130	7799021063677		18	2	10128777	2019-01-05 08:47:20	8:47 AM	10128777934390.5795186PLM121	PLM121
	6137	7799021063677		26	2	10128777	2019-01-05 08:49:52	8:49 AM	10128777934390.5795186PLM121	PLM121
	6132	7799021063677		26	2	10128777	2019-01-05 08:54:54	8:54 AM	10128777934390.5795186PLM121	PLM121
	6138	7799021063677		26	2	10128777	2019-01-05 09:00:07	9:00 AM	10128777934390.5795186PLM121	PLM121
	6140	7799021063677		25	2	10128777	2019-01-05 09:10:45	9:10 AM	10128777934390.5795186PLM121	PLM121
	6134	7799021063677		26	2	10128777	2019-01-05 09:17:31	9:17 AM	10128777934390.5795186PLM121	PLM121
	6136	7799021063677		26	2	10128777	2019-01-05 09:29:41	9:29 AM	10128777934390.5795186PLM121	PLM121
	6141	7799021063677		26	2	10128777	2019-01-05 09:30:16	9:30 AM	10128777934390.5795186PLM121	PLM121
	6139	7799021063677		26	2	10128777	2019-01-05 09:30:54	9:30 AM	10128777934390.5795186PLM121	PLM121
	6131	7799021063677		26	2	10128777	2019-01-05 09:31:40	9:31 AM	10128777934390.5795186PLM121	PLM121
	6135	7799021063677		26	2	10128777	2019-01-05 09:32:24	9:32 AM	10128777934390.5795186PLM121	PLM121
	6133	7799021063677		26	2	10128777	2019-01-05 09:33:54	9:33 AM	10128777934390.5795186PLM121	PLM121
