	5881	7799008104775		30	2	10128777	2019-01-05 17:14:30	5:14 PM	10128777183130.7090379PLM121	PLM121
	5881	7799008104775		30	2	10128777	2019-01-05 17:14:52	5:14 PM	10128777183130.7090379PLM121	PLM121
	5881	7799008104775		30	2	10128777	2019-01-05 17:15:16	5:15 PM	10128777183130.7090379PLM121	PLM121
	5881	7799008104775		30	2	10128777	2019-01-05 17:15:46	5:15 PM	10128777183130.7090379PLM121	PLM121
	5881	7799008104775		30	2	10128777	2019-01-05 17:16:25	5:16 PM	10128777183130.7090379PLM121	PLM121
	5881	7799008104775		30	2	10128777	2019-01-05 17:18:37	5:18 PM	10128777183130.7090379PLM121	PLM121
	5881	7799008104775		30	2	10128777	2019-01-05 17:19:06	5:19 PM	10128777183130.7090379PLM121	PLM121
	5881	7799008104775		30	2	10128777	2019-01-05 17:19:33	5:19 PM	10128777183130.7090379PLM121	PLM121
	5881	7799008104775		30	2	10128777	2019-01-05 17:19:58	5:19 PM	10128777183130.7090379PLM121	PLM121
	5881	7799008104775		30	2	10128777	2019-01-05 17:21:25	5:21 PM	10128777183130.7090379PLM121	PLM121
	5881	7799008104775		30	2	10128777	2019-01-05 17:21:29	5:21 PM	10128777183130.7090379PLM121	PLM121
	5881	7799008104775		30	2	10128777	2019-01-05 17:22:46	5:22 PM	10128777183130.7090379PLM121	PLM121
	5881	7799008104775		30	2	10128777	2019-01-05 17:23:04	5:23 PM	10128777183130.7090379PLM121	PLM121
	5881	7799008104775		30	2	10128777	2019-01-05 17:23:28	5:23 PM	10128777183130.7090379PLM121	PLM121
	5881	7799008104775		30	2	10128777	2019-01-05 17:23:47	5:23 PM	10128777183130.7090379PLM121	PLM121
	5881	7799008104775		30	2	10128777	2019-01-05 17:24:20	5:24 PM	10128777183130.7090379PLM121	PLM121
	5881	7799008104775		8	2	10128777	2019-01-05 17:25:02	5:25 PM	10128777183130.7090379PLM121	PLM121
	5884	7799008323961		20	2	10128777	2019-01-05 17:31:44	5:31 PM	10128777183130.7090379PLM121	PLM121
	5884	7799008323961		10	2	10128777	2019-01-05 17:32:05	5:32 PM	10128777183130.7090379PLM121	PLM121
	5884	7799008323961		10	2	10128777	2019-01-05 17:32:20	5:32 PM	10128777183130.7090379PLM121	PLM121
	5884	7799008323961		10	2	10128777	2019-01-05 17:32:38	5:32 PM	10128777183130.7090379PLM121	PLM121
	5884	7799008323961		10	2	10128777	2019-01-05 17:32:58	5:32 PM	10128777183130.7090379PLM121	PLM121
	5884	7799008323961		10	2	10128777	2019-01-05 17:33:15	5:33 PM	10128777183130.7090379PLM121	PLM121
	5884	7799008323961		10	2	10128777	2019-01-05 17:33:34	5:33 PM	10128777183130.7090379PLM121	PLM121
	5884	7799008323961		10	2	10128777	2019-01-05 17:33:57	5:33 PM	10128777183130.7090379PLM121	PLM121
	5884	7799008323961		10	2	10128777	2019-01-05 17:34:15	5:34 PM	10128777183130.7090379PLM121	PLM121
	5884	7799008323961		10	2	10128777	2019-01-05 17:34:33	5:34 PM	10128777183130.7090379PLM121	PLM121
	5884	7799008323961		10	2	10128777	2019-01-05 17:34:55	5:34 PM	10128777183130.7090379PLM121	PLM121
	5884	7799008323961		10	2	10128777	2019-01-05 17:35:17	5:35 PM	10128777183130.7090379PLM121	PLM121
	5884	7799008323961		10	2	10128777	2019-01-05 17:35:38	5:35 PM	10128777183130.7090379PLM121	PLM121
	5884	7799008323961		10	2	10128777	2019-01-05 17:36:01	5:36 PM	10128777183130.7090379PLM121	PLM121
	5884	7799008323961		10	2	10128777	2019-01-05 17:36:19	5:36 PM	10128777183130.7090379PLM121	PLM121
	5884	7799008323961		10	2	10128777	2019-01-05 17:36:34	5:36 PM	10128777183130.7090379PLM121	PLM121
	5884	7799008323961		10	2	10128777	2019-01-05 17:36:55	5:36 PM	10128777183130.7090379PLM121	PLM121
	5880	7791750134673		10	2	10128777	2019-01-05 17:43:22	5:43 PM	10128777183130.7090379PLM121	PLM121
	5880	7791750134673		10	2	10128777	2019-01-05 17:46:16	5:46 PM	10128777183130.7090379PLM121	PLM121
	5880	7791750134673		10	2	10128777	2019-01-05 17:47:07	5:47 PM	10128777183130.7090379PLM121	PLM121
	5880	7791750134673		10	2	10128777	2019-01-05 17:50:39	5:50 PM	10128777183130.7090379PLM121	PLM121
	5880	7791750134673		10	2	10128777	2019-01-05 17:57:52	5:57 PM	10128777183130.7090379PLM121	PLM121
