	7001	7799008567020		1	1	72050205	2019-01-05 08:26:51	8:26:51 AM	414791742213220.7055475PLM019	PLM030
	7001	7799008443485		1	1	72050205	2019-01-05 08:26:57	8:26:57 AM	414791742213220.7055475PLM019	PLM030
	7001	7799008567020		1	1	72050205	2019-01-05 08:27:12	8:27:12 AM	414791742213220.7055475PLM019	PLM030
	7001	7799008567020		1	1	72050205	2019-01-05 08:27:18	8:27:18 AM	414791742213220.7055475PLM019	PLM030
	7001	7799008567020		1	1	72050205	2019-01-05 08:27:32	8:27:32 AM	414791742213220.7055475PLM019	PLM030
	7001	7799008567020		1	1	72050205	2019-01-05 08:27:38	8:27:38 AM	414791742213220.7055475PLM019	PLM030
	7001	7799008567020		1	1	72050205	2019-01-05 08:27:44	8:27:44 AM	414791742213220.7055475PLM019	PLM030
	7001	7799008443461		1	1	72050205	2019-01-05 08:27:49	8:27:49 AM	414791742213220.7055475PLM019	PLM030
	7001	7799008443461		1	1	72050205	2019-01-05 08:27:57	8:27:57 AM	414791742213220.7055475PLM019	PLM030
	7001	7799008443461		1	1	72050205	2019-01-05 08:28:00	8:28:00 AM	414791742213220.7055475PLM019	PLM030
	7001	7799008567020		1	1	72050205	2019-01-05 08:28:06	8:28:06 AM	414791742213220.7055475PLM019	PLM030
	7001	7799008567020		1	1	72050205	2019-01-05 08:28:14	8:28:14 AM	414791742213220.7055475PLM019	PLM030
	7001	7799008443461		1	1	72050205	2019-01-05 08:28:22	8:28:22 AM	414791742213220.7055475PLM019	PLM030
	7001	7799008443461		1	1	72050205	2019-01-05 08:28:27	8:28:27 AM	414791742213220.7055475PLM019	PLM030
	7001	7799008567020		1	1	72050205	2019-01-05 08:28:30	8:28:30 AM	414791742213220.7055475PLM019	PLM030
	7001	7799008443461		1	1	72050205	2019-01-05 08:28:40	8:28:40 AM	414791742213220.7055475PLM019	PLM030
	7001	7799008443461		1	1	72050205	2019-01-05 08:28:48	8:28:48 AM	414791742213220.7055475PLM019	PLM030
	7001	7799008443461		1	1	72050205	2019-01-05 08:28:54	8:28:54 AM	414791742213220.7055475PLM019	PLM030
	7001	7799008443461		1	1	72050205	2019-01-05 08:29:00	8:29:00 AM	414791742213220.7055475PLM019	PLM030
	7001	7799008443461		1	1	72050205	2019-01-05 08:29:05	8:29:05 AM	414791742213220.7055475PLM019	PLM030
	7001	7799008443485		1	1	72050205	2019-01-05 08:29:11	8:29:11 AM	414791742213220.7055475PLM019	PLM030
	7001	7799008443485		1	1	72050205	2019-01-05 08:29:16	8:29:16 AM	414791742213220.7055475PLM019	PLM030
	7001	7799008443485		1	1	72050205	2019-01-05 08:29:27	8:29:27 AM	414791742213220.7055475PLM019	PLM030
	7001	7799008443485		1	1	72050205	2019-01-05 08:29:35	8:29:35 AM	414791742213220.7055475PLM019	PLM030
	7001	7799008443485		1	1	72050205	2019-01-05 08:29:41	8:29:41 AM	414791742213220.7055475PLM019	PLM030
	7001	7799008443485		1	1	72050205	2019-01-05 08:29:54	8:29:54 AM	414791742213220.7055475PLM019	PLM030
	7009	7799008748412		1	1	72050205	2019-01-05 08:32:08	8:32:08 AM	414791742213220.7055475PLM019	PLM030
	7009	7799008748412		1	1	72050205	2019-01-05 08:32:13	8:32:13 AM	414791742213220.7055475PLM019	PLM030
	7009	7799008748405		1	1	72050205	2019-01-05 08:32:19	8:32:19 AM	414791742213220.7055475PLM019	PLM030
	7009	7799008748412		1	1	72050205	2019-01-05 08:32:28	8:32:28 AM	414791742213220.7055475PLM019	PLM030
	7009	7799008748412		1	1	72050205	2019-01-05 08:32:34	8:32:34 AM	414791742213220.7055475PLM019	PLM030
	7009	7799008599045		1	1	72050205	2019-01-05 08:32:41	8:32:41 AM	414791742213220.7055475PLM019	PLM030
	7009	7799008748412		1	1	72050205	2019-01-05 08:32:52	8:32:52 AM	414791742213220.7055475PLM019	PLM030
	7009	7799008599045		1	1	72050205	2019-01-05 08:32:58	8:32:58 AM	414791742213220.7055475PLM019	PLM030
	7009	7799008599045		1	1	72050205	2019-01-05 08:33:03	8:33:03 AM	414791742213220.7055475PLM019	PLM030
	7009	7799008599045		1	1	72050205	2019-01-05 08:33:08	8:33:08 AM	414791742213220.7055475PLM019	PLM030
	7009	7799008599045		1	1	72050205	2019-01-05 08:33:14	8:33:14 AM	414791742213220.7055475PLM019	PLM030
	7009	7799008748412		1	1	72050205	2019-01-05 08:33:23	8:33:23 AM	414791742213220.7055475PLM019	PLM030
	7009	7799008748405		1	1	72050205	2019-01-05 08:33:33	8:33:33 AM	414791742213220.7055475PLM019	PLM030
	7009	7799008748405		1	1	72050205	2019-01-05 08:33:39	8:33:39 AM	414791742213220.7055475PLM019	PLM030
	7009	7799008599045		1	1	72050205	2019-01-05 08:33:46	8:33:46 AM	414791742213220.7055475PLM019	PLM030
	7009	7799008599045		1	1	72050205	2019-01-05 08:33:58	8:33:58 AM	414791742213220.7055475PLM019	PLM030
	7009	7799008599045		1	1	72050205	2019-01-05 08:34:07	8:34:07 AM	414791742213220.7055475PLM019	PLM030
	7009	7799008599045		1	1	72050205	2019-01-05 08:34:09	8:34:09 AM	414791742213220.7055475PLM019	PLM030
	7009	7799008599045		1	1	72050205	2019-01-05 08:34:17	8:34:17 AM	414791742213220.7055475PLM019	PLM030
	7012	7799008591926		1	1	72050205	2019-01-05 08:37:09	8:37:09 AM	414791742213220.7055475PLM019	PLM030
	7012	7799008591926		1	1	72050205	2019-01-05 08:37:13	8:37:13 AM	414791742213220.7055475PLM019	PLM030
	7012	7799008591926		1	1	72050205	2019-01-05 08:37:16	8:37:16 AM	414791742213220.7055475PLM019	PLM030
	7012	7799008591926		1	1	72050205	2019-01-05 08:37:24	8:37:24 AM	414791742213220.7055475PLM019	PLM030
	7012	7799008666686		1	1	72050205	2019-01-05 08:37:28	8:37:28 AM	414791742213220.7055475PLM019	PLM030
	7012	7799008591926		1	1	72050205	2019-01-05 08:37:35	8:37:35 AM	414791742213220.7055475PLM019	PLM030
	7012	7799008668239		1	1	72050205	2019-01-05 08:37:46	8:37:46 AM	414791742213220.7055475PLM019	PLM030
	7012	7799008668239		1	1	72050205	2019-01-05 08:37:54	8:37:54 AM	414791742213220.7055475PLM019	PLM030
	7012	7799008666686		1	1	72050205	2019-01-05 08:38:01	8:38:01 AM	414791742213220.7055475PLM019	PLM030
	7012	7799008591926		1	1	72050205	2019-01-05 08:38:08	8:38:08 AM	414791742213220.7055475PLM019	PLM030
	7012	7799008567037		1	1	72050205	2019-01-05 08:38:16	8:38:16 AM	414791742213220.7055475PLM019	PLM030
	7012	7799008666686		1	1	72050205	2019-01-05 08:38:31	8:38:31 AM	414791742213220.7055475PLM019	PLM030
	7012	7799008599014		1	1	72050205	2019-01-05 08:38:42	8:38:42 AM	414791742213220.7055475PLM019	PLM030
	7012	7799008599014		1	1	72050205	2019-01-05 08:38:58	8:38:58 AM	414791742213220.7055475PLM019	PLM030
	7012	7799008599014		1	1	72050205	2019-01-05 08:39:04	8:39:04 AM	414791742213220.7055475PLM019	PLM030
	7012	7799008599014		1	1	72050205	2019-01-05 08:39:11	8:39:11 AM	414791742213220.7055475PLM019	PLM030
	7012	7799008567037		1	1	72050205	2019-01-05 08:39:22	8:39:22 AM	414791742213220.7055475PLM019	PLM030
	7012	7799008567037		1	1	72050205	2019-01-05 08:39:31	8:39:31 AM	414791742213220.7055475PLM019	PLM030
	7012	7799008567037		1	1	72050205	2019-01-05 08:39:45	8:39:45 AM	414791742213220.7055475PLM019	PLM030
	7012	7799008567037		1	1	72050205	2019-01-05 08:39:50	8:39:50 AM	414791742213220.7055475PLM019	PLM030
	7012	7799008666686		1	1	72050205	2019-01-05 08:39:57	8:39:57 AM	414791742213220.7055475PLM019	PLM030
	7012	7799008666686		1	1	72050205	2019-01-05 08:40:07	8:40:07 AM	414791742213220.7055475PLM019	PLM030
	7012	7799008840574		1	1	72050205	2019-01-05 08:40:24	8:40:24 AM	414791742213220.7055475PLM019	PLM030
	7012	7799008840574		1	1	72050205	2019-01-05 08:40:29	8:40:29 AM	414791742213220.7055475PLM019	PLM030
	7012	7799008840574		1	1	72050205	2019-01-05 08:40:34	8:40:34 AM	414791742213220.7055475PLM019	PLM030
	7012	7799008840581		1	1	72050205	2019-01-05 08:40:38	8:40:38 AM	414791742213220.7055475PLM019	PLM030
	7012	7799008840581		1	1	72050205	2019-01-05 08:40:44	8:40:44 AM	414791742213220.7055475PLM019	PLM030
	7012	7799008840581		1	1	72050205	2019-01-05 08:40:49	8:40:49 AM	414791742213220.7055475PLM019	PLM030
	7012	7799008840581		1	1	72050205	2019-01-05 08:40:57	8:40:57 AM	414791742213220.7055475PLM019	PLM030
	7012	7799008840581		1	1	72050205	2019-01-05 08:41:03	8:41:03 AM	414791742213220.7055475PLM019	PLM030
	7012	7799008840581		1	1	72050205	2019-01-05 08:41:05	8:41:05 AM	414791742213220.7055475PLM019	PLM030
	7012	7799008840581		1	1	72050205	2019-01-05 08:41:10	8:41:10 AM	414791742213220.7055475PLM019	PLM030
	7012	7799008567037		1	1	72050205	2019-01-05 08:41:15	8:41:15 AM	414791742213220.7055475PLM019	PLM030
	7012	7799008840574		1	1	72050205	2019-01-05 08:41:20	8:41:20 AM	414791742213220.7055475PLM019	PLM030
	7012	7799008840574		1	1	72050205	2019-01-05 08:41:24	8:41:24 AM	414791742213220.7055475PLM019	PLM030
	7012	7799008840574		1	1	72050205	2019-01-05 08:41:28	8:41:28 AM	414791742213220.7055475PLM019	PLM030
	7014	7799021012507		1	1	72050205	2019-01-05 08:44:51	8:44:51 AM	414791742213220.7055475PLM019	PLM030
	7014	7799021012507		1	1	72050205	2019-01-05 08:44:57	8:44:57 AM	414791742213220.7055475PLM019	PLM030
	7014	7799021012507		1	1	72050205	2019-01-05 08:45:01	8:45:01 AM	414791742213220.7055475PLM019	PLM030
	7014	7799021012507		1	1	72050205	2019-01-05 08:45:04	8:45:04 AM	414791742213220.7055475PLM019	PLM030
	7014	7799021012507		1	1	72050205	2019-01-05 08:45:08	8:45:08 AM	414791742213220.7055475PLM019	PLM030
	7014	7799021012507		1	1	72050205	2019-01-05 08:45:11	8:45:11 AM	414791742213220.7055475PLM019	PLM030
	7014	7799021012507		1	1	72050205	2019-01-05 08:45:17	8:45:17 AM	414791742213220.7055475PLM019	PLM030
	7014	7799021012507		1	1	72050205	2019-01-05 08:45:21	8:45:21 AM	414791742213220.7055475PLM019	PLM030
	7014	7799021012507		1	1	72050205	2019-01-05 08:45:25	8:45:25 AM	414791742213220.7055475PLM019	PLM030
	7014	7799021012507		1	1	72050205	2019-01-05 08:45:29	8:45:29 AM	414791742213220.7055475PLM019	PLM030
	7014	7799021012507		1	1	72050205	2019-01-05 08:45:32	8:45:32 AM	414791742213220.7055475PLM019	PLM030
	7014	7799021012507		1	1	72050205	2019-01-05 08:45:37	8:45:37 AM	414791742213220.7055475PLM019	PLM030
	7014	7799021012507		1	1	72050205	2019-01-05 08:45:43	8:45:43 AM	414791742213220.7055475PLM019	PLM030
	7014	7799021012507		1	1	72050205	2019-01-05 08:45:47	8:45:47 AM	414791742213220.7055475PLM019	PLM030
	7014	7799021012507		1	1	72050205	2019-01-05 08:45:53	8:45:53 AM	414791742213220.7055475PLM019	PLM030
	7014	7799021012507		1	1	72050205	2019-01-05 08:45:58	8:45:58 AM	414791742213220.7055475PLM019	PLM030
	7014	7799021012507		1	1	72050205	2019-01-05 08:46:02	8:46:02 AM	414791742213220.7055475PLM019	PLM030
	7014	7799021012507		1	1	72050205	2019-01-05 08:46:08	8:46:08 AM	414791742213220.7055475PLM019	PLM030
	7014	7799021012507		1	1	72050205	2019-01-05 08:46:12	8:46:12 AM	414791742213220.7055475PLM019	PLM030
	7014	7799021012507		1	1	72050205	2019-01-05 08:46:18	8:46:18 AM	414791742213220.7055475PLM019	PLM030
	7014	7799021012507		1	1	72050205	2019-01-05 08:46:26	8:46:26 AM	414791742213220.7055475PLM019	PLM030
	7014	7799021012507		1	1	72050205	2019-01-05 08:46:31	8:46:31 AM	414791742213220.7055475PLM019	PLM030
	7014	7799008748252		1	1	72050205	2019-01-05 08:46:36	8:46:36 AM	414791742213220.7055475PLM019	PLM030
	7014	7799021012507		1	1	72050205	2019-01-05 08:46:40	8:46:40 AM	414791742213220.7055475PLM019	PLM030
	7014	7799008748252		1	1	72050205	2019-01-05 08:46:45	8:46:45 AM	414791742213220.7055475PLM019	PLM030
	7014	7799021012507		1	1	72050205	2019-01-05 08:46:50	8:46:50 AM	414791742213220.7055475PLM019	PLM030
	7014	7799008748252		1	1	72050205	2019-01-05 08:46:55	8:46:55 AM	414791742213220.7055475PLM019	PLM030
	7014	7799008748252		1	1	72050205	2019-01-05 08:46:57	8:46:57 AM	414791742213220.7055475PLM019	PLM030
	7014	7799008748252		1	1	72050205	2019-01-05 08:47:01	8:47:01 AM	414791742213220.7055475PLM019	PLM030
	7014	7799021012507		1	1	72050205	2019-01-05 08:47:05	8:47:05 AM	414791742213220.7055475PLM019	PLM030
	7014	7799008748252		1	1	72050205	2019-01-05 08:47:08	8:47:08 AM	414791742213220.7055475PLM019	PLM030
	7014	7799021012507		1	1	72050205	2019-01-05 08:47:12	8:47:12 AM	414791742213220.7055475PLM019	PLM030
	7014	7799021012507		1	1	72050205	2019-01-05 08:47:17	8:47:17 AM	414791742213220.7055475PLM019	PLM030
	7014	7799008748252		1	1	72050205	2019-01-05 08:47:21	8:47:21 AM	414791742213220.7055475PLM019	PLM030
	7014	7799008748252		1	1	72050205	2019-01-05 08:47:24	8:47:24 AM	414791742213220.7055475PLM019	PLM030
	7014	7799008748252		1	1	72050205	2019-01-05 08:47:29	8:47:29 AM	414791742213220.7055475PLM019	PLM030
	7014	7799021012569		1	1	72050205	2019-01-05 08:47:33	8:47:33 AM	414791742213220.7055475PLM019	PLM030
	7014	7799021012569		1	1	72050205	2019-01-05 08:47:37	8:47:37 AM	414791742213220.7055475PLM019	PLM030
	7014	7799021012569		1	1	72050205	2019-01-05 08:47:43	8:47:43 AM	414791742213220.7055475PLM019	PLM030
	7014	7799021012569		1	1	72050205	2019-01-05 08:47:47	8:47:47 AM	414791742213220.7055475PLM019	PLM030
	7014	7799021012569		1	1	72050205	2019-01-05 08:47:53	8:47:53 AM	414791742213220.7055475PLM019	PLM030
	7014	7799008748252		1	1	72050205	2019-01-05 08:47:58	8:47:58 AM	414791742213220.7055475PLM019	PLM030
	7014	7799008748252		1	1	72050205	2019-01-05 08:48:05	8:48:05 AM	414791742213220.7055475PLM019	PLM030
	7014	7799021012514		1	1	72050205	2019-01-05 08:48:10	8:48:10 AM	414791742213220.7055475PLM019	PLM030
	7014	7799021012514		1	1	72050205	2019-01-05 08:48:17	8:48:17 AM	414791742213220.7055475PLM019	PLM030
	7014	7799021012569		1	1	72050205	2019-01-05 08:48:22	8:48:22 AM	414791742213220.7055475PLM019	PLM030
	7014	7799021012569		1	1	72050205	2019-01-05 08:48:26	8:48:26 AM	414791742213220.7055475PLM019	PLM030
	7014	7799021012521		1	1	72050205	2019-01-05 08:48:30	8:48:30 AM	414791742213220.7055475PLM019	PLM030
	7014	7799021012514		1	1	72050205	2019-01-05 08:48:40	8:48:40 AM	414791742213220.7055475PLM019	PLM030
	7014	7799008748252		1	1	72050205	2019-01-05 08:48:47	8:48:47 AM	414791742213220.7055475PLM019	PLM030
	7014	7799021012514		1	1	72050205	2019-01-05 08:48:55	8:48:55 AM	414791742213220.7055475PLM019	PLM030
	7014	7799021012514		1	1	72050205	2019-01-05 08:48:58	8:48:58 AM	414791742213220.7055475PLM019	PLM030
	7014	7799021012521		1	1	72050205	2019-01-05 08:49:02	8:49:02 AM	414791742213220.7055475PLM019	PLM030
	7014	7799021012521		1	1	72050205	2019-01-05 08:49:06	8:49:06 AM	414791742213220.7055475PLM019	PLM030
	7014	7799021012521		1	1	72050205	2019-01-05 08:49:09	8:49:09 AM	414791742213220.7055475PLM019	PLM030
	7014	7799021012521		1	1	72050205	2019-01-05 08:49:13	8:49:13 AM	414791742213220.7055475PLM019	PLM030
	7014	7799021012521		1	1	72050205	2019-01-05 08:49:16	8:49:16 AM	414791742213220.7055475PLM019	PLM030
	7014	7799021012521		1	1	72050205	2019-01-05 08:49:20	8:49:20 AM	414791742213220.7055475PLM019	PLM030
	7014	7799021012521		1	1	72050205	2019-01-05 08:49:25	8:49:25 AM	414791742213220.7055475PLM019	PLM030
	7014	7799021012521		1	1	72050205	2019-01-05 08:49:30	8:49:30 AM	414791742213220.7055475PLM019	PLM030
	7014	7799021012521		1	1	72050205	2019-01-05 08:49:34	8:49:34 AM	414791742213220.7055475PLM019	PLM030
	7014	7799021012521		1	1	72050205	2019-01-05 08:49:39	8:49:39 AM	414791742213220.7055475PLM019	PLM030
	7014	7799021012521		1	1	72050205	2019-01-05 08:49:42	8:49:42 AM	414791742213220.7055475PLM019	PLM030
	7014	7799021012521		1	1	72050205	2019-01-05 08:49:47	8:49:47 AM	414791742213220.7055475PLM019	PLM030
	7014	7799021012521		1	1	72050205	2019-01-05 08:49:48	8:49:48 AM	414791742213220.7055475PLM019	PLM030
	7014	7799021012521		1	1	72050205	2019-01-05 08:49:55	8:49:55 AM	414791742213220.7055475PLM019	PLM030
	7014	7799021012521		1	1	72050205	2019-01-05 08:49:58	8:49:58 AM	414791742213220.7055475PLM019	PLM030
	7014	7799021012521		1	1	72050205	2019-01-05 08:50:03	8:50:03 AM	414791742213220.7055475PLM019	PLM030
	7014	7799021012521		1	1	72050205	2019-01-05 08:50:07	8:50:07 AM	414791742213220.7055475PLM019	PLM030
	7014	7799021012521		1	1	72050205	2019-01-05 08:50:09	8:50:09 AM	414791742213220.7055475PLM019	PLM030
	7014	7799021012521		1	1	72050205	2019-01-05 08:50:12	8:50:12 AM	414791742213220.7055475PLM019	PLM030
	7014	7799021012521		1	1	72050205	2019-01-05 08:50:22	8:50:22 AM	414791742213220.7055475PLM019	PLM030
	7014	7799021012521		1	1	72050205	2019-01-05 08:50:23	8:50:23 AM	414791742213220.7055475PLM019	PLM030
	7014	7799021012521		1	1	72050205	2019-01-05 08:50:25	8:50:25 AM	414791742213220.7055475PLM019	PLM030
	7014	7799021012521		1	1	72050205	2019-01-05 08:50:28	8:50:28 AM	414791742213220.7055475PLM019	PLM030
	7014	7799021012521		1	1	72050205	2019-01-05 08:50:31	8:50:31 AM	414791742213220.7055475PLM019	PLM030
	7016	7799008580951		1	1	72050205	2019-01-05 08:54:04	8:54:04 AM	414791742213220.7055475PLM019	PLM030
	7016	7799008599144		1	1	72050205	2019-01-05 08:54:10	8:54:10 AM	414791742213220.7055475PLM019	PLM030
	7016	7799008749150		1	1	72050205	2019-01-05 08:54:15	8:54:15 AM	414791742213220.7055475PLM019	PLM030
	7016	7799008599236		1	1	72050205	2019-01-05 08:54:20	8:54:20 AM	414791742213220.7055475PLM019	PLM030
	7016	7799008580951		1	1	72050205	2019-01-05 08:54:25	8:54:25 AM	414791742213220.7055475PLM019	PLM030
	7016	7799008580951		1	1	72050205	2019-01-05 08:54:32	8:54:32 AM	414791742213220.7055475PLM019	PLM030
	7016	7799008749150		1	1	72050205	2019-01-05 08:54:41	8:54:41 AM	414791742213220.7055475PLM019	PLM030
	7016	7799008667850		1	1	72050205	2019-01-05 08:54:52	8:54:52 AM	414791742213220.7055475PLM019	PLM030
	7016	7799008580951		1	1	72050205	2019-01-05 08:54:58	8:54:58 AM	414791742213220.7055475PLM019	PLM030
	7016	7799008749150		1	1	72050205	2019-01-05 08:55:03	8:55:03 AM	414791742213220.7055475PLM019	PLM030
	7016	7799008220000		1	1	72050205	2019-01-05 08:55:08	8:55:08 AM	414791742213220.7055475PLM019	PLM030
	7016	7799008220000		1	1	72050205	2019-01-05 08:55:13	8:55:13 AM	414791742213220.7055475PLM019	PLM030
	7016	7799008749150		1	1	72050205	2019-01-05 08:55:23	8:55:23 AM	414791742213220.7055475PLM019	PLM030
	7016	7799008749150		1	1	72050205	2019-01-05 08:55:32	8:55:32 AM	414791742213220.7055475PLM019	PLM030
	7016	7799008599144		1	1	72050205	2019-01-05 08:55:48	8:55:48 AM	414791742213220.7055475PLM019	PLM030
	7016	7799008599144		1	1	72050205	2019-01-05 08:55:51	8:55:51 AM	414791742213220.7055475PLM019	PLM030
	7016	7799008553672		1	1	72050205	2019-01-05 08:56:06	8:56:06 AM	414791742213220.7055475PLM019	PLM030
	7016	7799008580951		1	1	72050205	2019-01-05 08:56:13	8:56:13 AM	414791742213220.7055475PLM019	PLM030
	7016	7799008580951		1	1	72050205	2019-01-05 08:56:18	8:56:18 AM	414791742213220.7055475PLM019	PLM030
	7016	7799008748528		1	1	72050205	2019-01-05 08:56:25	8:56:25 AM	414791742213220.7055475PLM019	PLM030
	7016	7799008748597		1	1	72050205	2019-01-05 08:56:32	8:56:32 AM	414791742213220.7055475PLM019	PLM030
	7016	7799008599144		1	1	72050205	2019-01-05 08:56:37	8:56:37 AM	414791742213220.7055475PLM019	PLM030
	7016	7799008599144		1	1	72050205	2019-01-05 08:56:47	8:56:47 AM	414791742213220.7055475PLM019	PLM030
	7016	7799008599236		1	1	72050205	2019-01-05 08:56:59	8:56:59 AM	414791742213220.7055475PLM019	PLM030
	7016	7799008599236		1	1	72050205	2019-01-05 08:57:28	8:57:28 AM	414791742213220.7055475PLM019	PLM030
	7016	7799008553672		1	1	72050205	2019-01-05 08:57:44	8:57:44 AM	414791742213220.7055475PLM019	PLM030
	7016	7799008553672		1	1	72050205	2019-01-05 08:57:51	8:57:51 AM	414791742213220.7055475PLM019	PLM030
	7016	7799008553672		1	1	72050205	2019-01-05 08:57:54	8:57:54 AM	414791742213220.7055475PLM019	PLM030
	7016	7799008553672		1	1	72050205	2019-01-05 08:57:58	8:57:58 AM	414791742213220.7055475PLM019	PLM030
	7016	7799008748597		1	1	72050205	2019-01-05 08:58:04	8:58:04 AM	414791742213220.7055475PLM019	PLM030
	7016	7799008667850		1	1	72050205	2019-01-05 08:58:18	8:58:18 AM	414791742213220.7055475PLM019	PLM030
	7016	7799008667850		1	1	72050205	2019-01-05 08:58:26	8:58:26 AM	414791742213220.7055475PLM019	PLM030
	7016	7799008749136		1	1	72050205	2019-01-05 08:58:35	8:58:35 AM	414791742213220.7055475PLM019	PLM030
	7016	7799008599144		1	1	72050205	2019-01-05 08:58:58	8:58:58 AM	414791742213220.7055475PLM019	PLM030
	7016	7799008599144		1	1	72050205	2019-01-05 08:59:00	8:59:00 AM	414791742213220.7055475PLM019	PLM030
	7016	7799008599144		1	1	72050205	2019-01-05 08:59:05	8:59:05 AM	414791742213220.7055475PLM019	PLM030
	7016	7799008599144		1	1	72050205	2019-01-05 08:59:15	8:59:15 AM	414791742213220.7055475PLM019	PLM030
	7016	7799008599144		1	1	72050205	2019-01-05 08:59:22	8:59:22 AM	414791742213220.7055475PLM019	PLM030
	7013	7799008580890		1	1	72050205	2019-01-05 09:02:58	9:02:58 AM	414791742213220.7055475PLM019	PLM030
	7013	7799008580890		1	1	72050205	2019-01-05 09:03:02	9:03:02 AM	414791742213220.7055475PLM019	PLM030
	7013	7799008580890		1	1	72050205	2019-01-05 09:03:05	9:03:05 AM	414791742213220.7055475PLM019	PLM030
	7013	7799008580890		1	1	72050205	2019-01-05 09:03:09	9:03:09 AM	414791742213220.7055475PLM019	PLM030
	7013	7799008580890		1	1	72050205	2019-01-05 09:03:16	9:03:16 AM	414791742213220.7055475PLM019	PLM030
	7013	7799008580890		1	1	72050205	2019-01-05 09:03:26	9:03:26 AM	414791742213220.7055475PLM019	PLM030
	7013	7799008580890		1	1	72050205	2019-01-05 09:03:31	9:03:31 AM	414791742213220.7055475PLM019	PLM030
	7013	7799008668116		1	1	72050205	2019-01-05 09:03:36	9:03:36 AM	414791742213220.7055475PLM019	PLM030
	7013	7799008668116		1	1	72050205	2019-01-05 09:03:45	9:03:45 AM	414791742213220.7055475PLM019	PLM030
	7013	7799008668116		1	1	72050205	2019-01-05 09:03:52	9:03:52 AM	414791742213220.7055475PLM019	PLM030
	7013	7799008566818		1	1	72050205	2019-01-05 09:04:00	9:04:00 AM	414791742213220.7055475PLM019	PLM030
	7013	7799008566818		1	1	72050205	2019-01-05 09:04:07	9:04:07 AM	414791742213220.7055475PLM019	PLM030
	7013	7799008748535		1	1	72050205	2019-01-05 09:04:18	9:04:18 AM	414791742213220.7055475PLM019	PLM030
	7013	7799008748535		1	1	72050205	2019-01-05 09:04:27	9:04:27 AM	414791742213220.7055475PLM019	PLM030
	7013	7799008748535		1	1	72050205	2019-01-05 09:04:32	9:04:32 AM	414791742213220.7055475PLM019	PLM030
	7013	7799008748535		1	1	72050205	2019-01-05 09:04:39	9:04:39 AM	414791742213220.7055475PLM019	PLM030
	7013	7799008566818		1	1	72050205	2019-01-05 09:04:48	9:04:48 AM	414791742213220.7055475PLM019	PLM030
	7013	7799008566818		1	1	72050205	2019-01-05 09:04:55	9:04:55 AM	414791742213220.7055475PLM019	PLM030
	7008	7799008730844		1	1	72050205	2019-01-05 09:07:52	9:07:52 AM	414791742213220.7055475PLM019	PLM030
	7008	7799008730844		1	1	72050205	2019-01-05 09:07:56	9:07:56 AM	414791742213220.7055475PLM019	PLM030
	7008	7799008730844		1	1	72050205	2019-01-05 09:07:59	9:07:59 AM	414791742213220.7055475PLM019	PLM030
	7008	7799008730844		1	1	72050205	2019-01-05 09:08:03	9:08:03 AM	414791742213220.7055475PLM019	PLM030
	7008	7799008730844		1	1	72050205	2019-01-05 09:08:08	9:08:08 AM	414791742213220.7055475PLM019	PLM030
	7008	7799008730844		1	1	72050205	2019-01-05 09:08:10	9:08:10 AM	414791742213220.7055475PLM019	PLM030
	7008	7799008730844		1	1	72050205	2019-01-05 09:08:13	9:08:13 AM	414791742213220.7055475PLM019	PLM030
	7008	7799008775883		1	1	72050205	2019-01-05 09:08:24	9:08:24 AM	414791742213220.7055475PLM019	PLM030
	7008	7799008775883		1	1	72050205	2019-01-05 09:08:27	9:08:27 AM	414791742213220.7055475PLM019	PLM030
	7008	7799008775883		1	1	72050205	2019-01-05 09:08:37	9:08:37 AM	414791742213220.7055475PLM019	PLM030
	7008	7799008775883		1	1	72050205	2019-01-05 09:08:40	9:08:40 AM	414791742213220.7055475PLM019	PLM030
	7008	7799008566825		1	1	72050205	2019-01-05 09:08:42	9:08:42 AM	414791742213220.7055475PLM019	PLM030
	7008	7799008566825		1	1	72050205	2019-01-05 09:08:45	9:08:45 AM	414791742213220.7055475PLM019	PLM030
	7008	7799008566825		1	1	72050205	2019-01-05 09:08:46	9:08:46 AM	414791742213220.7055475PLM019	PLM030
	7008	7799008566825		1	1	72050205	2019-01-05 09:08:50	9:08:50 AM	414791742213220.7055475PLM019	PLM030
	7008	7799008566825		1	1	72050205	2019-01-05 09:09:02	9:09:02 AM	414791742213220.7055475PLM019	PLM030
	7008	7799008566825		1	1	72050205	2019-01-05 09:09:05	9:09:05 AM	414791742213220.7055475PLM019	PLM030
	7008	7799008566825		1	1	72050205	2019-01-05 09:09:08	9:09:08 AM	414791742213220.7055475PLM019	PLM030
	7008	7799008874159		1	1	72050205	2019-01-05 09:09:23	9:09:23 AM	414791742213220.7055475PLM019	PLM030
	7008	7799008874159		1	1	72050205	2019-01-05 09:09:25	9:09:25 AM	414791742213220.7055475PLM019	PLM030
	7008	7799008874159		1	1	72050205	2019-01-05 09:09:28	9:09:28 AM	414791742213220.7055475PLM019	PLM030
	7008	7799008874159		1	1	72050205	2019-01-05 09:09:32	9:09:32 AM	414791742213220.7055475PLM019	PLM030
	7008	7799008874159		1	1	72050205	2019-01-05 09:09:37	9:09:37 AM	414791742213220.7055475PLM019	PLM030
	7008	7799008874159		1	1	72050205	2019-01-05 09:09:42	9:09:42 AM	414791742213220.7055475PLM019	PLM030
	7008	7799008874159		1	1	72050205	2019-01-05 09:09:44	9:09:44 AM	414791742213220.7055475PLM019	PLM030
	7008	7799008874159		1	1	72050205	2019-01-05 09:09:48	9:09:48 AM	414791742213220.7055475PLM019	PLM030
	7008	7799008874159		1	1	72050205	2019-01-05 09:09:50	9:09:50 AM	414791742213220.7055475PLM019	PLM030
	7008	7799008874159		1	1	72050205	2019-01-05 09:09:54	9:09:54 AM	414791742213220.7055475PLM019	PLM030
	7008	7799008874159		1	1	72050205	2019-01-05 09:09:57	9:09:57 AM	414791742213220.7055475PLM019	PLM030
	7008	7799008874159		1	1	72050205	2019-01-05 09:09:59	9:09:59 AM	414791742213220.7055475PLM019	PLM030
	7008	7799008874159		1	1	72050205	2019-01-05 09:10:01	9:10:01 AM	414791742213220.7055475PLM019	PLM030
	7008	7799008874159		1	1	72050205	2019-01-05 09:10:04	9:10:04 AM	414791742213220.7055475PLM019	PLM030
	7008	7799008874159		1	1	72050205	2019-01-05 09:10:06	9:10:06 AM	414791742213220.7055475PLM019	PLM030
	7008	7799008874159		1	1	72050205	2019-01-05 09:10:08	9:10:08 AM	414791742213220.7055475PLM019	PLM030
	7008	7799008874159		1	1	72050205	2019-01-05 09:10:11	9:10:11 AM	414791742213220.7055475PLM019	PLM030
	7008	7799008874159		1	1	72050205	2019-01-05 09:10:13	9:10:13 AM	414791742213220.7055475PLM019	PLM030
	7010	7799008748344		1	1	72050205	2019-01-05 09:11:37	9:11:37 AM	414791742213220.7055475PLM019	PLM030
	7010	7799008748344		1	1	72050205	2019-01-05 09:11:43	9:11:43 AM	414791742213220.7055475PLM019	PLM030
	7010	7799008566610		1	1	72050205	2019-01-05 09:11:48	9:11:48 AM	414791742213220.7055475PLM019	PLM030
	7010	7799008566610		1	1	72050205	2019-01-05 09:11:51	9:11:51 AM	414791742213220.7055475PLM019	PLM030
	7010	7799008748344		1	1	72050205	2019-01-05 09:11:54	9:11:54 AM	414791742213220.7055475PLM019	PLM030
	7010	7799008566610		1	1	72050205	2019-01-05 09:11:58	9:11:58 AM	414791742213220.7055475PLM019	PLM030
	7010	7799008566610		1	1	72050205	2019-01-05 09:12:00	9:12:00 AM	414791742213220.7055475PLM019	PLM030
	7010	7799008566610		1	1	72050205	2019-01-05 09:12:05	9:12:05 AM	414791742213220.7055475PLM019	PLM030
	7010	7799008566610		1	1	72050205	2019-01-05 09:12:08	9:12:08 AM	414791742213220.7055475PLM019	PLM030
	7010	7799008566610		1	1	72050205	2019-01-05 09:12:09	9:12:09 AM	414791742213220.7055475PLM019	PLM030
	7010	7799008566610		1	1	72050205	2019-01-05 09:12:13	9:12:13 AM	414791742213220.7055475PLM019	PLM030
	7010	7799008748344		1	1	72050205	2019-01-05 09:12:16	9:12:16 AM	414791742213220.7055475PLM019	PLM030
	7010	7799008748344		1	1	72050205	2019-01-05 09:12:19	9:12:19 AM	414791742213220.7055475PLM019	PLM030
	7010	7799008748344		1	1	72050205	2019-01-05 09:12:22	9:12:22 AM	414791742213220.7055475PLM019	PLM030
	7010	7799008566610		1	1	72050205	2019-01-05 09:12:25	9:12:25 AM	414791742213220.7055475PLM019	PLM030
	7010	7799008566610		1	1	72050205	2019-01-05 09:12:30	9:12:30 AM	414791742213220.7055475PLM019	PLM030
	7010	7799008566610		1	1	72050205	2019-01-05 09:12:31	9:12:31 AM	414791742213220.7055475PLM019	PLM030
	7010	7799008566610		1	1	72050205	2019-01-05 09:12:35	9:12:35 AM	414791742213220.7055475PLM019	PLM030
	7011	7799008749112		1	1	72050205	2019-01-05 09:15:04	9:15:04 AM	414791742213220.7055475PLM019	PLM030
	7011	7799008749112		1	1	72050205	2019-01-05 09:15:09	9:15:09 AM	414791742213220.7055475PLM019	PLM030
	7011	7799008749105		1	1	72050205	2019-01-05 09:15:15	9:15:15 AM	414791742213220.7055475PLM019	PLM030
	7011	7799008749112		1	1	72050205	2019-01-05 09:15:22	9:15:22 AM	414791742213220.7055475PLM019	PLM030
	7011	7799008749112		1	1	72050205	2019-01-05 09:15:32	9:15:32 AM	414791742213220.7055475PLM019	PLM030
	7011	7799008749112		1	1	72050205	2019-01-05 09:15:38	9:15:38 AM	414791742213220.7055475PLM019	PLM030
	7011	7799008749112		1	1	72050205	2019-01-05 09:15:44	9:15:44 AM	414791742213220.7055475PLM019	PLM030
	7011	7799008749112		1	1	72050205	2019-01-05 09:15:52	9:15:52 AM	414791742213220.7055475PLM019	PLM030
	7011	7799008749112		1	1	72050205	2019-01-05 09:16:02	9:16:02 AM	414791742213220.7055475PLM019	PLM030
	7011	7799008749112		1	1	72050205	2019-01-05 09:16:09	9:16:09 AM	414791742213220.7055475PLM019	PLM030
	7011	7799008749105		1	1	72050205	2019-01-05 09:16:15	9:16:15 AM	414791742213220.7055475PLM019	PLM030
	7011	7799008749105		1	1	72050205	2019-01-05 09:16:18	9:16:18 AM	414791742213220.7055475PLM019	PLM030
	7011	7799008749105		1	1	72050205	2019-01-05 09:16:22	9:16:22 AM	414791742213220.7055475PLM019	PLM030
	7011	7799008749105		1	1	72050205	2019-01-05 09:16:31	9:16:31 AM	414791742213220.7055475PLM019	PLM030
	7011	7799008749105		1	1	72050205	2019-01-05 09:16:37	9:16:37 AM	414791742213220.7055475PLM019	PLM030
	7011	7799008749105		1	1	72050205	2019-01-05 09:16:46	9:16:46 AM	414791742213220.7055475PLM019	PLM030
	7011	7799008749105		1	1	72050205	2019-01-05 09:16:52	9:16:52 AM	414791742213220.7055475PLM019	PLM030
	7011	7799008749105		1	1	72050205	2019-01-05 09:16:57	9:16:57 AM	414791742213220.7055475PLM019	PLM030
	7011	7799008749105		1	1	72050205	2019-01-05 09:17:05	9:17:05 AM	414791742213220.7055475PLM019	PLM030
	7011	7799008749112		1	1	72050205	2019-01-05 09:17:13	9:17:13 AM	414791742213220.7055475PLM019	PLM030
	7015	7799008567327		1	1	72050205	2019-01-05 09:19:36	9:19:36 AM	414791742213220.7055475PLM019	PLM030
	7015	7799008748504		1	1	72050205	2019-01-05 09:19:39	9:19:39 AM	414791742213220.7055475PLM019	PLM030
	7015	7799021012637		1	1	72050205	2019-01-05 09:19:43	9:19:43 AM	414791742213220.7055475PLM019	PLM030
	7015	7799008637778		1	1	72050205	2019-01-05 09:19:47	9:19:47 AM	414791742213220.7055475PLM019	PLM030
	7015	7799008637778		1	1	72050205	2019-01-05 09:19:49	9:19:49 AM	414791742213220.7055475PLM019	PLM030
	7015	7799008748504		1	1	72050205	2019-01-05 09:19:53	9:19:53 AM	414791742213220.7055475PLM019	PLM030
	7015	7799008874180		1	1	72050205	2019-01-05 09:19:55	9:19:55 AM	414791742213220.7055475PLM019	PLM030
	7015	7799008567310		1	1	72050205	2019-01-05 09:19:58	9:19:58 AM	414791742213220.7055475PLM019	PLM030
	7015	7799008567310		1	1	72050205	2019-01-05 09:20:00	9:20:00 AM	414791742213220.7055475PLM019	PLM030
	7015	7799008567327		1	1	72050205	2019-01-05 09:20:04	9:20:04 AM	414791742213220.7055475PLM019	PLM030
	7015	7799021012637		1	1	72050205	2019-01-05 09:20:10	9:20:10 AM	414791742213220.7055475PLM019	PLM030
	7015	7799008567297		1	1	72050205	2019-01-05 09:20:13	9:20:13 AM	414791742213220.7055475PLM019	PLM030
	7015	7799008567297		1	1	72050205	2019-01-05 09:20:17	9:20:17 AM	414791742213220.7055475PLM019	PLM030
	7015	7799008748504		1	1	72050205	2019-01-05 09:20:20	9:20:20 AM	414791742213220.7055475PLM019	PLM030
	7015	7799008748474		1	1	72050205	2019-01-05 09:20:22	9:20:22 AM	414791742213220.7055475PLM019	PLM030
	7015	7799008748504		1	1	72050205	2019-01-05 09:20:25	9:20:25 AM	414791742213220.7055475PLM019	PLM030
	7015	7799008874111		1	1	72050205	2019-01-05 09:20:27	9:20:27 AM	414791742213220.7055475PLM019	PLM030
	7015	7799008748504		1	1	72050205	2019-01-05 09:20:30	9:20:30 AM	414791742213220.7055475PLM019	PLM030
	7015	7799008874180		1	1	72050205	2019-01-05 09:20:32	9:20:32 AM	414791742213220.7055475PLM019	PLM030
	7015	7799008748504		1	1	72050205	2019-01-05 09:20:35	9:20:35 AM	414791742213220.7055475PLM019	PLM030
	7015	7799008748504		1	1	72050205	2019-01-05 09:20:36	9:20:37 AM	414791742213220.7055475PLM019	PLM030
	7015	7799008874111		1	1	72050205	2019-01-05 09:20:39	9:20:39 AM	414791742213220.7055475PLM019	PLM030
	7015	7799008748504		1	1	72050205	2019-01-05 09:20:42	9:20:42 AM	414791742213220.7055475PLM019	PLM030
	7015	7799008874180		1	1	72050205	2019-01-05 09:20:44	9:20:44 AM	414791742213220.7055475PLM019	PLM030
	7015	7799008748504		1	1	72050205	2019-01-05 09:20:48	9:20:48 AM	414791742213220.7055475PLM019	PLM030
	7015	7799008748474		1	1	72050205	2019-01-05 09:20:50	9:20:50 AM	414791742213220.7055475PLM019	PLM030
	7015	7799008874111		1	1	72050205	2019-01-05 09:20:54	9:20:54 AM	414791742213220.7055475PLM019	PLM030
	7015	7799008874111		1	1	72050205	2019-01-05 09:20:54	9:20:54 AM	414791742213220.7055475PLM019	PLM030
	7015	7799008567310		1	1	72050205	2019-01-05 09:21:00	9:21:00 AM	414791742213220.7055475PLM019	PLM030
	7015	7799008637778		1	1	72050205	2019-01-05 09:21:03	9:21:03 AM	414791742213220.7055475PLM019	PLM030
	7015	7799008567310		1	1	72050205	2019-01-05 09:21:08	9:21:08 AM	414791742213220.7055475PLM019	PLM030
	7015	7799008567310		1	1	72050205	2019-01-05 09:21:13	9:21:13 AM	414791742213220.7055475PLM019	PLM030
	7015	7799008748504		1	1	72050205	2019-01-05 09:21:16	9:21:16 AM	414791742213220.7055475PLM019	PLM030
	7015	7799008748504		1	1	72050205	2019-01-05 09:21:19	9:21:19 AM	414791742213220.7055475PLM019	PLM030
	7015	7793730741031		1	1	72050205	2019-01-05 09:21:26	9:21:26 AM	414791742213220.7055475PLM019	PLM030
	7015	7799008567310		1	1	72050205	2019-01-05 09:21:29	9:21:29 AM	414791742213220.7055475PLM019	PLM030
	7015	7799008567297		1	1	72050205	2019-01-05 09:21:31	9:21:31 AM	414791742213220.7055475PLM019	PLM030
	7015	7799008874180		1	1	72050205	2019-01-05 09:21:33	9:21:33 AM	414791742213220.7055475PLM019	PLM030
	7015	7799008874111		1	1	72050205	2019-01-05 09:21:36	9:21:36 AM	414791742213220.7055475PLM019	PLM030
	7015	7799008874111		1	1	72050205	2019-01-05 09:21:38	9:21:38 AM	414791742213220.7055475PLM019	PLM030
	7015	7799008637778		1	1	72050205	2019-01-05 09:21:40	9:21:40 AM	414791742213220.7055475PLM019	PLM030
	7015	7799008567310		1	1	72050205	2019-01-05 09:21:44	9:21:44 AM	414791742213220.7055475PLM019	PLM030
	7015	7799008874180		1	1	72050205	2019-01-05 09:21:46	9:21:46 AM	414791742213220.7055475PLM019	PLM030
	7015	7799008874111		1	1	72050205	2019-01-05 09:21:50	9:21:50 AM	414791742213220.7055475PLM019	PLM030
	7015	7799008567327		1	1	72050205	2019-01-05 09:21:53	9:21:53 AM	414791742213220.7055475PLM019	PLM030
	7015	7799008748474		1	1	72050205	2019-01-05 09:21:55	9:21:55 AM	414791742213220.7055475PLM019	PLM030
	7015	7799008874111		1	1	72050205	2019-01-05 09:21:57	9:21:57 AM	414791742213220.7055475PLM019	PLM030
	7015	7799008748504		1	1	72050205	2019-01-05 09:22:01	9:22:01 AM	414791742213220.7055475PLM019	PLM030
	7015	7799008701158		1	1	72050205	2019-01-05 09:22:08	9:22:08 AM	414791742213220.7055475PLM019	PLM030
	7015	7799008701158		1	1	72050205	2019-01-05 09:22:11	9:22:11 AM	414791742213220.7055475PLM019	PLM030
	7015	7799008748474		1	1	72050205	2019-01-05 09:22:16	9:22:16 AM	414791742213220.7055475PLM019	PLM030
	7015	7799008637778		1	1	72050205	2019-01-05 09:22:19	9:22:19 AM	414791742213220.7055475PLM019	PLM030
	7015	7799008874180		1	1	72050205	2019-01-05 09:22:21	9:22:21 AM	414791742213220.7055475PLM019	PLM030
	7015	7799008637778		1	1	72050205	2019-01-05 09:22:24	9:22:24 AM	414791742213220.7055475PLM019	PLM030
	7015	7799008637778		1	1	72050205	2019-01-05 09:22:26	9:22:26 AM	414791742213220.7055475PLM019	PLM030
	7015	7799008637778		1	1	72050205	2019-01-05 09:22:28	9:22:28 AM	414791742213220.7055475PLM019	PLM030
	7015	7799008567297		1	1	72050205	2019-01-05 09:22:31	9:22:31 AM	414791742213220.7055475PLM019	PLM030
	7015	7799008874180		1	1	72050205	2019-01-05 09:22:33	9:22:33 AM	414791742213220.7055475PLM019	PLM030
	7015	7799008748504		1	1	72050205	2019-01-05 09:22:36	9:22:36 AM	414791742213220.7055475PLM019	PLM030
	7015	7799008701158		1	1	72050205	2019-01-05 09:22:40	9:22:40 AM	414791742213220.7055475PLM019	PLM030
	7015	7799008874111		1	1	72050205	2019-01-05 09:22:46	9:22:46 AM	414791742213220.7055475PLM019	PLM030
	7015	7799008748474		1	1	72050205	2019-01-05 09:22:49	9:22:49 AM	414791742213220.7055475PLM019	PLM030
	7015	7799008748474		1	1	72050205	2019-01-05 09:22:51	9:22:51 AM	414791742213220.7055475PLM019	PLM030
	7015	7799008701158		1	1	72050205	2019-01-05 09:22:53	9:22:53 AM	414791742213220.7055475PLM019	PLM030
	7015	7799008637778		1	1	72050205	2019-01-05 09:23:10	9:23:10 AM	414791742213220.7055475PLM019	PLM030
	7015	7799008567297		1	1	72050205	2019-01-05 09:23:13	9:23:13 AM	414791742213220.7055475PLM019	PLM030
	7015	7799021012637		1	1	72050205	2019-01-05 09:23:17	9:23:17 AM	414791742213220.7055475PLM019	PLM030
	7015	7799008874111		1	1	72050205	2019-01-05 09:23:22	9:23:22 AM	414791742213220.7055475PLM019	PLM030
	7015	7799008701158		1	1	72050205	2019-01-05 09:23:26	9:23:26 AM	414791742213220.7055475PLM019	PLM030
	7015	7799008701158		1	1	72050205	2019-01-05 09:23:32	9:23:32 AM	414791742213220.7055475PLM019	PLM030
	7015	7799008701158		1	1	72050205	2019-01-05 09:23:33	9:23:33 AM	414791742213220.7055475PLM019	PLM030
	7015	7799008567310		1	1	72050205	2019-01-05 09:23:38	9:23:38 AM	414791742213220.7055475PLM019	PLM030
	7015	7799008567310		1	1	72050205	2019-01-05 09:23:43	9:23:43 AM	414791742213220.7055475PLM019	PLM030
	7015	7799008701158		1	1	72050205	2019-01-05 09:23:56	9:23:56 AM	414791742213220.7055475PLM019	PLM030
	7015	7799008701158		1	1	72050205	2019-01-05 09:23:57	9:23:57 AM	414791742213220.7055475PLM019	PLM030
	7015	7799008701158		1	1	72050205	2019-01-05 09:24:00	9:24:00 AM	414791742213220.7055475PLM019	PLM030
	7015	7799008701158		1	1	72050205	2019-01-05 09:24:01	9:24:01 AM	414791742213220.7055475PLM019	PLM030
	7015	7799008701158		1	1	72050205	2019-01-05 09:24:08	9:24:08 AM	414791742213220.7055475PLM019	PLM030
	7015	7799008701158		1	1	72050205	2019-01-05 09:24:18	9:24:18 AM	414791742213220.7055475PLM019	PLM030
	7015	7799008701158		1	1	72050205	2019-01-05 09:24:19	9:24:19 AM	414791742213220.7055475PLM019	PLM030
	7015	7799008701158		1	1	72050205	2019-01-05 09:24:21	9:24:21 AM	414791742213220.7055475PLM019	PLM030
	7015	7799008701158		1	1	72050205	2019-01-05 09:24:21	9:24:21 AM	414791742213220.7055475PLM019	PLM030
	7015	7799008701158		1	1	72050205	2019-01-05 09:24:22	9:24:22 AM	414791742213220.7055475PLM019	PLM030
	7015	7799008748504		1	1	72050205	2019-01-05 09:24:29	9:24:29 AM	414791742213220.7055475PLM019	PLM030
	7015	7799008749075		1	1	72050205	2019-01-05 09:24:39	9:24:39 AM	414791742213220.7055475PLM019	PLM030
	7015	7799008600109		1	1	72050205	2019-01-05 09:24:48	9:24:48 AM	414791742213220.7055475PLM019	PLM030
	7015	7799008776613		1	1	72050205	2019-01-05 09:24:58	9:24:58 AM	414791742213220.7055475PLM019	PLM030
	7015	7799008600079		1	1	72050205	2019-01-05 09:25:02	9:25:02 AM	414791742213220.7055475PLM019	PLM030
	7015	7799008600079		1	1	72050205	2019-01-05 09:25:10	9:25:10 AM	414791742213220.7055475PLM019	PLM030
	7015	7799008600079		1	1	72050205	2019-01-05 09:25:14	9:25:14 AM	414791742213220.7055475PLM019	PLM030
	7015	7799008776613		1	1	72050205	2019-01-05 09:25:21	9:25:21 AM	414791742213220.7055475PLM019	PLM030
	7015	7799008776613		1	1	72050205	2019-01-05 09:25:23	9:25:23 AM	414791742213220.7055475PLM019	PLM030
	7015	7799008776613		1	1	72050205	2019-01-05 09:25:30	9:25:30 AM	414791742213220.7055475PLM019	PLM030
	7015	7799008776613		1	1	72050205	2019-01-05 09:25:37	9:25:37 AM	414791742213220.7055475PLM019	PLM030
	7015	7799008776613		1	1	72050205	2019-01-05 09:25:43	9:25:43 AM	414791742213220.7055475PLM019	PLM030
	7015	7799008776613		1	1	72050205	2019-01-05 09:25:46	9:25:46 AM	414791742213220.7055475PLM019	PLM030
	7015	7799008749082		1	1	72050205	2019-01-05 09:26:19	9:26:19 AM	414791742213220.7055475PLM019	PLM030
	7015	7799008749082		1	1	72050205	2019-01-05 09:26:20	9:26:20 AM	414791742213220.7055475PLM019	PLM030
	7015	7799008734743		1	1	72050205	2019-01-05 09:26:25	9:26:25 AM	414791742213220.7055475PLM019	PLM030
	7015	7799008748870		1	1	72050205	2019-01-05 09:26:42	9:26:42 AM	414791742213220.7055475PLM019	PLM030
	7015	7799008748870		1	1	72050205	2019-01-05 09:26:43	9:26:43 AM	414791742213220.7055475PLM019	PLM030
	7015	7799008776613		1	1	72050205	2019-01-05 09:26:51	9:26:51 AM	414791742213220.7055475PLM019	PLM030
	7015	7799008776613		1	1	72050205	2019-01-05 09:26:54	9:26:54 AM	414791742213220.7055475PLM019	PLM030
	7015	7799008776613		1	1	72050205	2019-01-05 09:26:57	9:26:57 AM	414791742213220.7055475PLM019	PLM030
	7015	7799008778105		1	1	72050205	2019-01-05 09:27:07	9:27:07 AM	414791742213220.7055475PLM019	PLM030
	7015	7799008778105		1	1	72050205	2019-01-05 09:27:15	9:27:15 AM	414791742213220.7055475PLM019	PLM030
	7015	7799008748870		1	1	72050205	2019-01-05 09:27:23	9:27:23 AM	414791742213220.7055475PLM019	PLM030
	7015	7799008778105		1	1	72050205	2019-01-05 09:27:37	9:27:37 AM	414791742213220.7055475PLM019	PLM030
	7015	7799008778105		1	1	72050205	2019-01-05 09:27:46	9:27:46 AM	414791742213220.7055475PLM019	PLM030
	7015	7799008778105		1	1	72050205	2019-01-05 09:27:55	9:27:55 AM	414791742213220.7055475PLM019	PLM030
	7015	7799008749075		1	1	72050205	2019-01-05 09:28:06	9:28:06 AM	414791742213220.7055475PLM019	PLM030
	7015	7799008457819		1	1	72050205	2019-01-05 09:28:21	9:28:21 AM	414791742213220.7055475PLM019	PLM030
	7015	7799008701158		1	1	72050205	2019-01-05 09:28:28	9:28:28 AM	414791742213220.7055475PLM019	PLM030
	7015	7799008701158		1	1	72050205	2019-01-05 09:28:34	9:28:34 AM	414791742213220.7055475PLM019	PLM030
	7015	7799008701158		1	1	72050205	2019-01-05 09:28:39	9:28:39 AM	414791742213220.7055475PLM019	PLM030
	7015	7799008701158		1	1	72050205	2019-01-05 09:28:41	9:28:41 AM	414791742213220.7055475PLM019	PLM030
	7015	7799008567310		1	1	72050205	2019-01-05 09:28:44	9:28:44 AM	414791742213220.7055475PLM019	PLM030
	7015	7799008567310		1	1	72050205	2019-01-05 09:28:48	9:28:48 AM	414791742213220.7055475PLM019	PLM030
	7015	7799008701158		1	1	72050205	2019-01-05 09:28:52	9:28:52 AM	414791742213220.7055475PLM019	PLM030
	7015	7799008874111		1	1	72050205	2019-01-05 09:29:04	9:29:04 AM	414791742213220.7055475PLM019	PLM030
	7015	7799008749082		1	1	72050205	2019-01-05 09:29:12	9:29:12 AM	414791742213220.7055475PLM019	PLM030
	7015	7799008874180		1	1	72050205	2019-01-05 09:29:18	9:29:18 AM	414791742213220.7055475PLM019	PLM030
	7015	7799021005530		1	1	72050205	2019-01-05 09:29:25	9:29:25 AM	414791742213220.7055475PLM019	PLM030
	7015	7799008748467		1	1	72050205	2019-01-05 09:30:04	9:30:04 AM	414791742213220.7055475PLM019	PLM030
	7015	7799008456669		1	1	72050205	2019-01-05 09:30:09	9:30:09 AM	414791742213220.7055475PLM019	PLM030
	7015	7799008567303		1	1	72050205	2019-01-05 09:30:16	9:30:16 AM	414791742213220.7055475PLM019	PLM030
	7015	7799008226866		1	1	72050205	2019-01-05 09:30:27	9:30:27 AM	414791742213220.7055475PLM019	PLM030
	7015	7799008599168		1	1	72050205	2019-01-05 09:30:37	9:30:37 AM	414791742213220.7055475PLM019	PLM030
	7015	7799008566467		1	1	72050205	2019-01-05 09:30:50	9:30:50 AM	414791742213220.7055475PLM019	PLM030
	7015	7799008338347		1	1	72050205	2019-01-05 09:30:56	9:30:56 AM	414791742213220.7055475PLM019	PLM030
	7015	7799008637440		1	1	72050205	2019-01-05 09:31:00	9:31:00 AM	414791742213220.7055475PLM019	PLM030
	7015	7799008637433		1	1	72050205	2019-01-05 09:31:05	9:31:05 AM	414791742213220.7055475PLM019	PLM030
	7015	7799008637433		1	1	72050205	2019-01-05 09:31:08	9:31:08 AM	414791742213220.7055475PLM019	PLM030
	7015	7799008637433		1	1	72050205	2019-01-05 09:31:19	9:31:19 AM	414791742213220.7055475PLM019	PLM030
	7015	7799008637433		1	1	72050205	2019-01-05 09:31:22	9:31:22 AM	414791742213220.7055475PLM019	PLM030
	7015	7791750389097		1	1	72050205	2019-01-05 09:31:25	9:31:25 AM	414791742213220.7055475PLM019	PLM030
	7015	7799008637440		1	1	72050205	2019-01-05 09:31:29	9:31:29 AM	414791742213220.7055475PLM019	PLM030
	7015	7799008637440		1	1	72050205	2019-01-05 09:31:43	9:31:43 AM	414791742213220.7055475PLM019	PLM030
	7015	7799008637440		1	1	72050205	2019-01-05 09:31:47	9:31:47 AM	414791742213220.7055475PLM019	PLM030
	7015	73012401		1	1	72050205	2019-01-05 09:31:58	9:31:58 AM	414791742213220.7055475PLM019	PLM030
	7015	7799008637433		1	1	72050205	2019-01-05 09:32:03	9:32:03 AM	414791742213220.7055475PLM019	PLM030
	7015	7799008141329		1	1	72050205	2019-01-05 09:32:08	9:32:08 AM	414791742213220.7055475PLM019	PLM030
	7015	7799008083087		1	1	72050205	2019-01-05 09:32:31	9:32:31 AM	414791742213220.7055475PLM019	PLM030
	7015	7793730808222		1	1	72050205	2019-01-05 09:32:38	9:32:38 AM	414791742213220.7055475PLM019	PLM030
	7015	7799008748870		1	1	72050205	2019-01-05 09:32:52	9:32:52 AM	414791742213220.7055475PLM019	PLM030
	7015	7799008778105		1	1	72050205	2019-01-05 09:32:57	9:32:57 AM	414791742213220.7055475PLM019	PLM030
	7015	7799008734743		1	1	72050205	2019-01-05 09:33:06	9:33:06 AM	414791742213220.7055475PLM019	PLM030
	7015	7799008749167		1	1	72050205	2019-01-05 09:33:16	9:33:16 AM	414791742213220.7055475PLM019	PLM030
	7015	7799008664682		1	1	72050205	2019-01-05 09:33:22	9:33:22 AM	414791742213220.7055475PLM019	PLM030
	7015	7799021005523		1	1	72050205	2019-01-05 09:33:26	9:33:26 AM	414791742213220.7055475PLM019	PLM030
	7015	7799008776613		1	1	72050205	2019-01-05 09:33:36	9:33:36 AM	414791742213220.7055475PLM019	PLM030
	7015	7799008736471		1	1	72050205	2019-01-05 09:33:42	9:33:42 AM	414791742213220.7055475PLM019	PLM030
	7015	7799008566467		1	1	72050205	2019-01-05 09:33:54	9:33:54 AM	414791742213220.7055475PLM019	PLM030
	7015	7799008566467		1	1	72050205	2019-01-05 09:34:01	9:34:01 AM	414791742213220.7055475PLM019	PLM030
	7015	7799008566467		1	1	72050205	2019-01-05 09:34:07	9:34:07 AM	414791742213220.7055475PLM019	PLM030
	7015	7799008566467		1	1	72050205	2019-01-05 09:34:13	9:34:13 AM	414791742213220.7055475PLM019	PLM030
	7015	7799008566467		1	1	72050205	2019-01-05 09:34:17	9:34:17 AM	414791742213220.7055475PLM019	PLM030
	7015	7799008566467		1	1	72050205	2019-01-05 09:34:28	9:34:28 AM	414791742213220.7055475PLM019	PLM030
	7015	7799008566467		1	1	72050205	2019-01-05 09:34:49	9:34:49 AM	414791742213220.7055475PLM019	PLM030
	7015	7799008566467		1	1	72050205	2019-01-05 09:34:59	9:34:59 AM	414791742213220.7055475PLM019	PLM030
	7015	7799008566467		1	1	72050205	2019-01-05 09:35:06	9:35:06 AM	414791742213220.7055475PLM019	PLM030
	7015	7799008566467		1	1	72050205	2019-01-05 09:35:11	9:35:11 AM	414791742213220.7055475PLM019	PLM030
	7015	7799008566467		1	1	72050205	2019-01-05 09:35:17	9:35:17 AM	414791742213220.7055475PLM019	PLM030
	7015	7799008566467		1	1	72050205	2019-01-05 09:35:24	9:35:24 AM	414791742213220.7055475PLM019	PLM030
	7015	7799008566467		1	1	72050205	2019-01-05 09:35:29	9:35:29 AM	414791742213220.7055475PLM019	PLM030
	7015	7799008566467		1	1	72050205	2019-01-05 09:35:35	9:35:35 AM	414791742213220.7055475PLM019	PLM030
	7015	7799008566467		1	1	72050205	2019-01-05 09:35:40	9:35:40 AM	414791742213220.7055475PLM019	PLM030
	7015	7799008566467		1	1	72050205	2019-01-05 09:35:45	9:35:45 AM	414791742213220.7055475PLM019	PLM030
	7015	7799008566467		1	1	72050205	2019-01-05 09:35:57	9:35:57 AM	414791742213220.7055475PLM019	PLM030
	7015	7799008566467		1	1	72050205	2019-01-05 09:36:05	9:36:05 AM	414791742213220.7055475PLM019	PLM030
	7015	7799008566467		1	1	72050205	2019-01-05 09:36:15	9:36:15 AM	414791742213220.7055475PLM019	PLM030
	7015	7799008566467		1	1	72050205	2019-01-05 09:36:24	9:36:24 AM	414791742213220.7055475PLM019	PLM030
	7015	7799008566467		1	1	72050205	2019-01-05 09:36:30	9:36:30 AM	414791742213220.7055475PLM019	PLM030
	7015	7799008566467		1	1	72050205	2019-01-05 09:36:39	9:36:39 AM	414791742213220.7055475PLM019	PLM030
	7015	7799008566467		1	1	72050205	2019-01-05 09:36:44	9:36:44 AM	414791742213220.7055475PLM019	PLM030
	7015	7799008308951		1	1	72050205	2019-01-05 09:36:51	9:36:51 AM	414791742213220.7055475PLM019	PLM030
	7015	7799008457819		1	1	72050205	2019-01-05 09:37:07	9:37:07 AM	414791742213220.7055475PLM019	PLM030
	7015	7791750389097		1	1	72050205	2019-01-05 09:37:18	9:37:18 AM	414791742213220.7055475PLM019	PLM030
	7015	7799008637440		1	1	72050205	2019-01-05 09:37:22	9:37:22 AM	414791742213220.7055475PLM019	PLM030
	7015	7799008338347		1	1	72050205	2019-01-05 09:37:27	9:37:27 AM	414791742213220.7055475PLM019	PLM030
	7015	7799008338347		1	1	72050205	2019-01-05 09:37:34	9:37:34 AM	414791742213220.7055475PLM019	PLM030
	7015	7799008338347		1	1	72050205	2019-01-05 09:37:40	9:37:40 AM	414791742213220.7055475PLM019	PLM030
	7015	7799021005493		1	1	72050205	2019-01-05 09:37:47	9:37:47 AM	414791742213220.7055475PLM019	PLM030
	7015	7799008749129		1	1	72050205	2019-01-05 09:38:01	9:38:01 AM	414791742213220.7055475PLM019	PLM030
	7015	7799008603490		1	1	72050205	2019-01-05 09:38:22	9:38:22 AM	414791742213220.7055475PLM019	PLM030
	7015	7799008603490		1	1	72050205	2019-01-05 09:38:25	9:38:25 AM	414791742213220.7055475PLM019	PLM030
	7015	7799008600109		1	1	72050205	2019-01-05 09:38:36	9:38:36 AM	414791742213220.7055475PLM019	PLM030
	7015	7799008603490		1	1	72050205	2019-01-05 09:38:41	9:38:41 AM	414791742213220.7055475PLM019	PLM030
	7015	7799008600109		1	1	72050205	2019-01-05 09:38:46	9:38:46 AM	414791742213220.7055475PLM019	PLM030
	7015	7799008603490		1	1	72050205	2019-01-05 09:39:35	9:39:35 AM	414791742213220.7055475PLM019	PLM030
	7015	7799008603490		1	1	72050205	2019-01-05 09:39:41	9:39:41 AM	414791742213220.7055475PLM019	PLM030
	7015	7799008603490		1	1	72050205	2019-01-05 09:39:48	9:39:48 AM	414791742213220.7055475PLM019	PLM030
	7015	7799008603490		1	1	72050205	2019-01-05 09:39:55	9:39:55 AM	414791742213220.7055475PLM019	PLM030
	7015	7799008603490		1	1	72050205	2019-01-05 09:40:00	9:40:00 AM	414791742213220.7055475PLM019	PLM030
	7015	7799008603490		1	1	72050205	2019-01-05 09:40:04	9:40:04 AM	414791742213220.7055475PLM019	PLM030
	7015	7799008600109		1	1	72050205	2019-01-05 09:40:22	9:40:22 AM	414791742213220.7055475PLM019	PLM030
	7015	7799008566399		1	1	72050205	2019-01-05 09:40:27	9:40:27 AM	414791742213220.7055475PLM019	PLM030
	7015	7799008600109		1	1	72050205	2019-01-05 09:40:36	9:40:36 AM	414791742213220.7055475PLM019	PLM030
	7015	7799008600109		1	1	72050205	2019-01-05 09:40:45	9:40:45 AM	414791742213220.7055475PLM019	PLM030
	7015	7799008600109		1	1	72050205	2019-01-05 09:41:09	9:41:09 AM	414791742213220.7055475PLM019	PLM030
	7015	7799008600109		1	1	72050205	2019-01-05 09:41:18	9:41:18 AM	414791742213220.7055475PLM019	PLM030
	7015	7799008600109		1	1	72050205	2019-01-05 09:41:24	9:41:24 AM	414791742213220.7055475PLM019	PLM030
	7015	7799008600109		1	1	72050205	2019-01-05 09:41:29	9:41:29 AM	414791742213220.7055475PLM019	PLM030
	7015	7799008600109		1	1	72050205	2019-01-05 09:41:39	9:41:39 AM	414791742213220.7055475PLM019	PLM030
	7015	7799008600109		1	1	72050205	2019-01-05 09:41:45	9:41:45 AM	414791742213220.7055475PLM019	PLM030
	7015	7799008600109		1	1	72050205	2019-01-05 09:41:52	9:41:52 AM	414791742213220.7055475PLM019	PLM030
	7015	7799008600109		1	1	72050205	2019-01-05 09:41:57	9:41:57 AM	414791742213220.7055475PLM019	PLM030
	7015	7799008600109		1	1	72050205	2019-01-05 09:42:02	9:42:02 AM	414791742213220.7055475PLM019	PLM030
	7015	7799008600109		1	1	72050205	2019-01-05 09:42:14	9:42:14 AM	414791742213220.7055475PLM019	PLM030
	7015	7799008600109		1	1	72050205	2019-01-05 09:42:17	9:42:17 AM	414791742213220.7055475PLM019	PLM030
	7015	7793730741031		1	1	72050205	2019-01-05 09:42:25	9:42:25 AM	414791742213220.7055475PLM019	PLM030
	7015	7799008749075		1	1	72050205	2019-01-05 09:42:31	9:42:31 AM	414791742213220.7055475PLM019	PLM030
	7015	7799008778105		1	1	72050205	2019-01-05 09:42:36	9:42:36 AM	414791742213220.7055475PLM019	PLM030
	7015	7799008749075		1	1	72050205	2019-01-05 09:42:41	9:42:41 AM	414791742213220.7055475PLM019	PLM030
	7015	7799021005523		1	1	72050205	2019-01-05 09:42:47	9:42:47 AM	414791742213220.7055475PLM019	PLM030
	7015	7799008741352		1	1	72050205	2019-01-05 09:42:51	9:42:51 AM	414791742213220.7055475PLM019	PLM030
	7015	7799008741352		1	1	72050205	2019-01-05 09:43:05	9:43:05 AM	414791742213220.7055475PLM019	PLM030
	7015	7799008741352		1	1	72050205	2019-01-05 09:43:24	9:43:24 AM	414791742213220.7055475PLM019	PLM030
	7015	7799008741352		1	1	72050205	2019-01-05 09:43:29	9:43:29 AM	414791742213220.7055475PLM019	PLM030
	7015	7799008741352		1	1	72050205	2019-01-05 09:43:34	9:43:34 AM	414791742213220.7055475PLM019	PLM030
	7015	7799008741352		1	1	72050205	2019-01-05 09:43:39	9:43:39 AM	414791742213220.7055475PLM019	PLM030
	7015	7799008778105		1	1	72050205	2019-01-05 09:43:53	9:43:53 AM	414791742213220.7055475PLM019	PLM030
	7015	7799008748634		1	1	72050205	2019-01-05 09:44:02	9:44:02 AM	414791742213220.7055475PLM019	PLM030
	7015	7799008741352		1	1	72050205	2019-01-05 09:44:13	9:44:13 AM	414791742213220.7055475PLM019	PLM030
	7015	7799008738987		1	1	72050205	2019-01-05 09:44:21	9:44:21 AM	414791742213220.7055475PLM019	PLM030
	7015	7799008566771		1	1	72050205	2019-01-05 09:44:32	9:44:32 AM	414791742213220.7055475PLM019	PLM030
	7015	7799008695013		1	1	72050205	2019-01-05 09:44:58	9:44:58 AM	414791742213220.7055475PLM019	PLM030
	7015	7799008695013		1	1	72050205	2019-01-05 09:44:59	9:44:59 AM	414791742213220.7055475PLM019	PLM030
	7015	7799008748566		1	1	72050205	2019-01-05 09:45:04	9:45:04 AM	414791742213220.7055475PLM019	PLM030
	7015	7799008599014		1	1	72050205	2019-01-05 09:45:09	9:45:09 AM	414791742213220.7055475PLM019	PLM030
	7015	7799008695006		1	1	72050205	2019-01-05 09:45:19	9:45:19 AM	414791742213220.7055475PLM019	PLM030
	7015	7799008840680		1	1	72050205	2019-01-05 09:45:34	9:45:34 AM	414791742213220.7055475PLM019	PLM030
	7015	7799008840680		1	1	72050205	2019-01-05 09:45:48	9:45:48 AM	414791742213220.7055475PLM019	PLM030
	7015	7799008840680		1	1	72050205	2019-01-05 09:45:58	9:45:58 AM	414791742213220.7055475PLM019	PLM030
	7015	7799008749129		1	1	72050205	2019-01-05 09:46:08	9:46:08 AM	414791742213220.7055475PLM019	PLM030
	7015	7799008749129		1	1	72050205	2019-01-05 09:46:12	9:46:12 AM	414791742213220.7055475PLM019	PLM030
	7015	7799008749129		1	1	72050205	2019-01-05 09:46:19	9:46:19 AM	414791742213220.7055475PLM019	PLM030
	7015	7799008749129		1	1	72050205	2019-01-05 09:46:54	9:46:54 AM	414791742213220.7055475PLM019	PLM030
	7015	7799008749129		1	1	72050205	2019-01-05 09:47:03	9:47:03 AM	414791742213220.7055475PLM019	PLM030
	7015	7799008749129		1	1	72050205	2019-01-05 09:47:12	9:47:12 AM	414791742213220.7055475PLM019	PLM030
	7015	7799008749129		1	1	72050205	2019-01-05 09:47:14	9:47:14 AM	414791742213220.7055475PLM019	PLM030
