	3299	7799008945477		1	1	41479174	2019-01-04 16:44:59	4:44:59 PM	414791741645510.533424PLM121	PLM121
	3299	7799008945477		1	1	41479174	2019-01-04 16:45:00	4:45:00 PM	414791741645510.533424PLM121	PLM121
	3299	7799008945477		1	1	41479174	2019-01-04 16:45:00	4:45:00 PM	414791741645510.533424PLM121	PLM121
	3299	7799008945477		1	1	41479174	2019-01-04 16:45:02	4:45:02 PM	414791741645510.533424PLM121	PLM121
	3299	7799008945477		1	1	41479174	2019-01-04 16:45:03	4:45:03 PM	414791741645510.533424PLM121	PLM121
	3299	7799008945477		1	1	41479174	2019-01-04 16:45:03	4:45:03 PM	414791741645510.533424PLM121	PLM121
	3299	7799008945477		1	1	41479174	2019-01-04 16:45:06	4:45:06 PM	414791741645510.533424PLM121	PLM121
	3299	7799008945477		1	1	41479174	2019-01-04 16:45:07	4:45:07 PM	414791741645510.533424PLM121	PLM121
	3299	7799008945477		1	1	41479174	2019-01-04 16:45:07	4:45:07 PM	414791741645510.533424PLM121	PLM121
	3299	7799008990842		1	1	41479174	2019-01-04 16:45:10	4:45:10 PM	414791741645510.533424PLM121	PLM121
	3299	7799008990842		1	1	41479174	2019-01-04 16:45:13	4:45:13 PM	414791741645510.533424PLM121	PLM121
	3299	7799008990842		1	1	41479174	2019-01-04 16:45:14	4:45:14 PM	414791741645510.533424PLM121	PLM121
	3299	7799008990842		1	1	41479174	2019-01-04 16:45:17	4:45:17 PM	414791741645510.533424PLM121	PLM121
	3299	7799008990842		1	1	41479174	2019-01-04 16:45:18	4:45:18 PM	414791741645510.533424PLM121	PLM121
	3299	7799008990842		1	1	41479174	2019-01-04 16:45:19	4:45:19 PM	414791741645510.533424PLM121	PLM121
	3299	7799008945477		1	1	41479174	2019-01-04 16:45:22	4:45:22 PM	414791741645510.533424PLM121	PLM121
	3299	7799008945477		1	1	41479174	2019-01-04 16:45:22	4:45:22 PM	414791741645510.533424PLM121	PLM121
	3299	7799008945477		1	1	41479174	2019-01-04 16:45:23	4:45:23 PM	414791741645510.533424PLM121	PLM121
	3299	7799008990842		1	1	41479174	2019-01-04 16:45:26	4:45:26 PM	414791741645510.533424PLM121	PLM121
	3299	7799008990842		1	1	41479174	2019-01-04 16:45:26	4:45:26 PM	414791741645510.533424PLM121	PLM121
	3299	7799008990842		1	1	41479174	2019-01-04 16:45:27	4:45:27 PM	414791741645510.533424PLM121	PLM121
	3299	7799008945477		1	1	41479174	2019-01-04 16:45:32	4:45:32 PM	414791741645510.533424PLM121	PLM121
	3299	7799008945477		1	1	41479174	2019-01-04 16:45:33	4:45:33 PM	414791741645510.533424PLM121	PLM121
	3299	7799008945477		1	1	41479174	2019-01-04 16:45:34	4:45:34 PM	414791741645510.533424PLM121	PLM121
	3299	7799008992440		1	1	41479174	2019-01-04 16:45:37	4:45:37 PM	414791741645510.533424PLM121	PLM121
	3299	7799008945477		1	1	41479174	2019-01-04 16:45:40	4:45:40 PM	414791741645510.533424PLM121	PLM121
