	5138	7799021021820		30	2	41479174	2013-01-09 15:09:12	3:09 PM	41479174153530.533424PLM051	PLM051
	5139	7799021021820		30	2	41479174	2013-01-09 15:12:24	3:12 PM	41479174153530.533424PLM051	PLM051
	5131	7799021021820		30	2	41479174	2013-01-09 15:15:21	3:15 PM	41479174153530.533424PLM051	PLM051
	5140	7799021021820		30	2	41479174	2013-01-09 15:19:04	3:19 PM	41479174153530.533424PLM051	PLM051
	5141	7799021055443		219	2	41479174	2013-01-09 15:25:08	3:25 PM	41479174153530.533424PLM051	PLM051
	5133	7791750294858		498	2	41479174	2013-01-09 15:32:47	3:32 PM	41479174153530.533424PLM051	PLM051
