	1478	7799008995014		1	1	41479174	2019-01-03 14:45:51	2:45:51 PM	414791741446530.7055475HASR101	HASR101
	1488	7799008618845		1	1	41479174	2019-01-03 14:46:29	2:46:29 PM	414791741446530.7055475HASR101	HASR101
	1490	7799021098716		1	1	41479174	2019-01-03 14:46:49	2:46:49 PM	414791741446530.7055475HASR101	HASR101
