	5481	7799008243436		740	2	42960039	2013-01-08 09:04:21	9:04 AM	429600391129150.3735362PLM072	PLM072
	5481	7799008243436		3	2	42960039	2013-01-08 09:05:35	9:05 AM	429600391129150.3735362PLM072	PLM072
	5480	7799008909363		3	2	42960039	2013-01-08 09:06:31	9:06 AM	429600391129150.3735362PLM072	PLM072
	5488	7799021055740		123	2	42960039	2013-01-08 09:10:29	9:10 AM	429600391129150.3735362PLM072	PLM072
	5486	7799021057713		130	2	42960039	2013-01-08 09:20:19	9:20 AM	429600391129150.3735362PLM072	PLM072
	5487	7799021058741		249	2	42960039	2013-01-08 09:24:41	9:24 AM	429600391129150.3735362PLM072	PLM072
	5515	7799008144177		232	2	42960039	2013-01-08 09:35:51	9:35 AM	429600391129150.3735362PLM072	PLM072
	5508	7791750355184		243	2	42960039	2013-01-08 09:40:57	9:40 AM	429600391129150.3735362PLM072	PLM072
	5508	7799021094268		1	2	42960039	2013-01-08 09:41:08	9:41 AM	429600391129150.3735362PLM072	PLM072
	5508	7791750355184		1	2	42960039	2013-01-08 09:41:30	9:41 AM	429600391129150.3735362PLM072	PLM072
	5508	7799021094268		1	2	42960039	2013-01-08 09:41:34	9:41 AM	429600391129150.3735362PLM072	PLM072
	5506	7799021050509		29	2	42960039	2013-01-08 09:43:05	9:43 AM	429600391129150.3735362PLM072	PLM072
	5506	7799021050509		30	2	42960039	2013-01-08 09:43:38	9:43 AM	429600391129150.3735362PLM072	PLM072
	5498	7791750204703		999	2	42960039	2013-01-08 10:08:33	10:08 AM	429600391129150.3735362PLM072	PLM072
	5498	7791750204703		248	2	42960039	2013-01-08 10:09:11	10:09 AM	429600391129150.3735362PLM072	PLM072
	5507	7799021088007		174	2	42960039	2013-01-08 10:15:04	10:15 AM	429600391129150.3735362PLM072	PLM072
	5505	7799021000405		592	2	42960039	2013-01-08 10:30:48	10:30 AM	429600391129150.3735362PLM072	PLM072
	5505	7799008401621		3	2	42960039	2013-01-08 10:31:23	10:31 AM	429600391129150.3735362PLM072	PLM072
	5505	7799021000405		1	2	42960039	2013-01-08 10:32:00	10:32 AM	429600391129150.3735362PLM072	PLM072
	5514	7799008323657		180	2	42960039	2013-01-08 10:48:42	10:48 AM	429600391129150.3735362PLM072	PLM072
	5514	7799008323657		67	2	42960039	2013-01-08 10:49:38	10:49 AM	429600391129150.3735362PLM072	PLM072
	5514	7799008323657		3	2	42960039	2013-01-08 10:50:33	10:50 AM	429600391129150.3735362PLM072	PLM072
	5625	7799008685670		59	2	42960039	2013-01-08 10:54:43	10:54 AM	429600391129150.3735362PLM072	PLM072
	5626	7799008685670		90	2	42960039	2013-01-08 10:57:25	10:57 AM	429600391129150.3735362PLM072	PLM072
	5627	7799008685670		90	2	42960039	2013-01-08 10:59:23	10:59 AM	429600391129150.3735362PLM072	PLM072
	5650	7799008685670		90	2	42960039	2013-01-08 11:01:20	11:01 AM	429600391129150.3735362PLM072	PLM072
	5651	7799008979526		186	2	42960039	2013-01-08 11:05:54	11:05 AM	429600391129150.3735362PLM072	PLM072
	5652	7793730724287		408	2	42960039	2013-01-08 11:13:41	11:13 AM	429600391129150.3735362PLM072	PLM072
	5662	7799008323831		150	2	42960039	2013-01-08 11:19:07	11:19 AM	429600391129150.3735362PLM072	PLM072
	5662	7799008323831		3	2	42960039	2013-01-08 11:19:47	11:19 AM	429600391129150.3735362PLM072	PLM072
	5628	7799008767666		72	2	42960039	2013-01-08 11:24:43	11:24 AM	429600391129150.3735362PLM072	PLM072
	5629	7799008323831		150	2	42960039	2013-01-08 11:28:24	11:28 AM	429600391129150.3735362PLM072	PLM072
