	2813	7799008992297		1	1	42960039	2013-01-07 05:34:22	5:34:22 AM	42960039714160.7747401PLM070	PLM070
	2813	7799008992297		1	1	42960039	2013-01-07 05:35:20	5:35:20 AM	42960039714160.7747401PLM070	PLM070
	2813	7799008992297		1	1	42960039	2013-01-07 05:35:29	5:35:29 AM	42960039714160.7747401PLM070	PLM070
	2813	7799008992297		1	1	42960039	2013-01-07 05:35:35	5:35:35 AM	42960039714160.7747401PLM070	PLM070
	2813	7799008992297		1	1	42960039	2013-01-07 05:35:54	5:35:54 AM	42960039714160.7747401PLM070	PLM070
	2813	7799008992297		1	1	42960039	2013-01-07 05:35:58	5:35:58 AM	42960039714160.7747401PLM070	PLM070
	2813	7799008992297		1	1	42960039	2013-01-07 05:36:04	5:36:04 AM	42960039714160.7747401PLM070	PLM070
	2813	7799008992297		1	1	42960039	2013-01-07 05:36:12	5:36:12 AM	42960039714160.7747401PLM070	PLM070
	2813	7799008992297		1	1	42960039	2013-01-07 05:36:16	5:36:16 AM	42960039714160.7747401PLM070	PLM070
	2813	7799008992297		1	1	42960039	2013-01-07 05:36:20	5:36:20 AM	42960039714160.7747401PLM070	PLM070
	2813	7799008992297		1	1	42960039	2013-01-07 05:36:26	5:36:26 AM	42960039714160.7747401PLM070	PLM070
	2813	7799008992297		1	1	42960039	2013-01-07 05:36:31	5:36:31 AM	42960039714160.7747401PLM070	PLM070
	2813	7799008992297		1	1	42960039	2013-01-07 05:36:34	5:36:34 AM	42960039714160.7747401PLM070	PLM070
	2813	7799008992297		1	1	42960039	2013-01-07 05:36:40	5:36:40 AM	42960039714160.7747401PLM070	PLM070
	2815	7799008992761		1	1	42960039	2013-01-07 05:38:50	5:38:50 AM	42960039714160.7747401PLM070	PLM070
	2815	7799008992761		1	1	42960039	2013-01-07 05:38:58	5:38:58 AM	42960039714160.7747401PLM070	PLM070
	2815	7799008992761		1	1	42960039	2013-01-07 05:39:03	5:39:03 AM	42960039714160.7747401PLM070	PLM070
	2815	7799008992761		1	1	42960039	2013-01-07 05:39:07	5:39:07 AM	42960039714160.7747401PLM070	PLM070
	2815	7799008992761		1	1	42960039	2013-01-07 05:39:12	5:39:12 AM	42960039714160.7747401PLM070	PLM070
	2815	7799008992761		1	1	42960039	2013-01-07 05:39:20	5:39:20 AM	42960039714160.7747401PLM070	PLM070
	2815	7799008992761		1	1	42960039	2013-01-07 05:39:26	5:39:26 AM	42960039714160.7747401PLM070	PLM070
	2815	7799008992761		1	1	42960039	2013-01-07 05:39:31	5:39:31 AM	42960039714160.7747401PLM070	PLM070
	2815	7799008992761		1	1	42960039	2013-01-07 05:39:35	5:39:35 AM	42960039714160.7747401PLM070	PLM070
	2815	7799008992761		1	1	42960039	2013-01-07 05:39:41	5:39:41 AM	42960039714160.7747401PLM070	PLM070
	2815	7799008992761		1	1	42960039	2013-01-07 05:39:53	5:39:53 AM	42960039714160.7747401PLM070	PLM070
	2815	7799008992761		1	1	42960039	2013-01-07 05:40:00	5:40:00 AM	42960039714160.7747401PLM070	PLM070
	2815	7799008992761		1	1	42960039	2013-01-07 05:40:06	5:40:06 AM	42960039714160.7747401PLM070	PLM070
	2815	7799008992761		1	1	42960039	2013-01-07 05:40:11	5:40:11 AM	42960039714160.7747401PLM070	PLM070
	2815	7799008992761		1	1	42960039	2013-01-07 05:40:18	5:40:18 AM	42960039714160.7747401PLM070	PLM070
	2817	7799008992297		1	1	42960039	2013-01-07 05:41:37	5:41:37 AM	42960039714160.7747401PLM070	PLM070
	2817	7799008992297		1	1	42960039	2013-01-07 05:41:42	5:41:42 AM	42960039714160.7747401PLM070	PLM070
	2817	7799008992297		1	1	42960039	2013-01-07 05:41:46	5:41:46 AM	42960039714160.7747401PLM070	PLM070
	2817	7799008992297		1	1	42960039	2013-01-07 05:41:56	5:41:56 AM	42960039714160.7747401PLM070	PLM070
	2817	7799008992297		1	1	42960039	2013-01-07 05:42:02	5:42:02 AM	42960039714160.7747401PLM070	PLM070
	2817	7799008992297		1	1	42960039	2013-01-07 05:42:13	5:42:13 AM	42960039714160.7747401PLM070	PLM070
	2817	7799008992297		1	1	42960039	2013-01-07 05:42:19	5:42:19 AM	42960039714160.7747401PLM070	PLM070
	2817	7799008992297		1	1	42960039	2013-01-07 05:42:27	5:42:27 AM	42960039714160.7747401PLM070	PLM070
	2817	7799008992297		1	1	42960039	2013-01-07 05:42:34	5:42:34 AM	42960039714160.7747401PLM070	PLM070
	2817	7799008992297		1	1	42960039	2013-01-07 05:42:39	5:42:39 AM	42960039714160.7747401PLM070	PLM070
	2818	7799008992297		1	1	42960039	2013-01-07 05:44:24	5:44:24 AM	42960039714160.7747401PLM070	PLM070
	2818	7799008992297		1	1	42960039	2013-01-07 05:44:36	5:44:36 AM	42960039714160.7747401PLM070	PLM070
	2818	7799008992297		1	1	42960039	2013-01-07 05:44:58	5:44:58 AM	42960039714160.7747401PLM070	PLM070
	2818	7799008992297		1	1	42960039	2013-01-07 05:45:08	5:45:08 AM	42960039714160.7747401PLM070	PLM070
	2818	7799008992297		1	1	42960039	2013-01-07 05:45:24	5:45:24 AM	42960039714160.7747401PLM070	PLM070
	2818	7799008992297		1	1	42960039	2013-01-07 05:45:27	5:45:27 AM	42960039714160.7747401PLM070	PLM070
	2818	7799008992297		1	1	42960039	2013-01-07 05:45:30	5:45:30 AM	42960039714160.7747401PLM070	PLM070
	2818	7799008992297		1	1	42960039	2013-01-07 05:45:33	5:45:33 AM	42960039714160.7747401PLM070	PLM070
	2818	7799008992297		1	1	42960039	2013-01-07 05:45:37	5:45:37 AM	42960039714160.7747401PLM070	PLM070
	2818	7799008992297		1	1	42960039	2013-01-07 05:45:40	5:45:40 AM	42960039714160.7747401PLM070	PLM070
	2803	7799008993843		1	1	42960039	2013-01-07 05:47:01	5:47:01 AM	42960039714160.7747401PLM070	PLM070
	2803	7799008993843		1	1	42960039	2013-01-07 05:47:05	5:47:05 AM	42960039714160.7747401PLM070	PLM070
	2803	7799008993843		1	1	42960039	2013-01-07 05:47:10	5:47:10 AM	42960039714160.7747401PLM070	PLM070
	2803	7799008993843		1	1	42960039	2013-01-07 05:47:16	5:47:16 AM	42960039714160.7747401PLM070	PLM070
	2803	7799008993843		1	1	42960039	2013-01-07 05:47:20	5:47:20 AM	42960039714160.7747401PLM070	PLM070
	2803	7799008993843		1	1	42960039	2013-01-07 05:47:42	5:47:42 AM	42960039714160.7747401PLM070	PLM070
	2803	7799008993843		1	1	42960039	2013-01-07 05:47:45	5:47:45 AM	42960039714160.7747401PLM070	PLM070
	2803	7799008993843		1	1	42960039	2013-01-07 05:47:52	5:47:52 AM	42960039714160.7747401PLM070	PLM070
	2803	7799008993843		1	1	42960039	2013-01-07 05:47:57	5:47:57 AM	42960039714160.7747401PLM070	PLM070
	2803	7799008993843		1	1	42960039	2013-01-07 05:48:01	5:48:01 AM	42960039714160.7747401PLM070	PLM070
	2803	7799008993843		1	1	42960039	2013-01-07 05:48:11	5:48:11 AM	42960039714160.7747401PLM070	PLM070
	2803	7799008993843		1	1	42960039	2013-01-07 05:48:32	5:48:32 AM	42960039714160.7747401PLM070	PLM070
	2803	7799008993843		1	1	42960039	2013-01-07 05:48:39	5:48:39 AM	42960039714160.7747401PLM070	PLM070
	2803	7799008993843		1	1	42960039	2013-01-07 05:48:56	5:48:56 AM	42960039714160.7747401PLM070	PLM070
	2803	7799008993843		1	1	42960039	2013-01-07 05:49:08	5:49:08 AM	42960039714160.7747401PLM070	PLM070
	2803	7799008993843		1	1	42960039	2013-01-07 05:49:25	5:49:25 AM	42960039714160.7747401PLM070	PLM070
	2803	7799008993843		1	1	42960039	2013-01-07 05:49:38	5:49:38 AM	42960039714160.7747401PLM070	PLM070
	2803	7799008993843		1	1	42960039	2013-01-07 05:50:13	5:50:13 AM	42960039714160.7747401PLM070	PLM070
	2803	7799008993843		1	1	42960039	2013-01-07 05:50:21	5:50:21 AM	42960039714160.7747401PLM070	PLM070
	2803	7799008993843		1	1	42960039	2013-01-07 05:50:29	5:50:29 AM	42960039714160.7747401PLM070	PLM070
	2803	7799008993843		1	1	42960039	2013-01-07 05:50:34	5:50:34 AM	42960039714160.7747401PLM070	PLM070
	2803	7799008993843		1	1	42960039	2013-01-07 05:50:42	5:50:42 AM	42960039714160.7747401PLM070	PLM070
	2804	7799008993843		1	1	42960039	2013-01-07 05:52:41	5:52:41 AM	42960039714160.7747401PLM070	PLM070
	2804	7799008993843		1	1	42960039	2013-01-07 05:52:48	5:52:48 AM	42960039714160.7747401PLM070	PLM070
	2804	7799008993843		1	1	42960039	2013-01-07 05:52:51	5:52:51 AM	42960039714160.7747401PLM070	PLM070
	2804	7799008993843		1	1	42960039	2013-01-07 05:52:58	5:52:58 AM	42960039714160.7747401PLM070	PLM070
	2804	7799008993843		1	1	42960039	2013-01-07 05:53:09	5:53:09 AM	42960039714160.7747401PLM070	PLM070
	2804	7799008993843		1	1	42960039	2013-01-07 05:53:15	5:53:15 AM	42960039714160.7747401PLM070	PLM070
	2804	7799008993843		1	1	42960039	2013-01-07 05:53:23	5:53:23 AM	42960039714160.7747401PLM070	PLM070
	2804	7799008993843		1	1	42960039	2013-01-07 05:53:35	5:53:35 AM	42960039714160.7747401PLM070	PLM070
	2804	7799008993843		1	1	42960039	2013-01-07 05:53:43	5:53:43 AM	42960039714160.7747401PLM070	PLM070
	2804	7799008993843		1	1	42960039	2013-01-07 05:53:50	5:53:50 AM	42960039714160.7747401PLM070	PLM070
	2804	7799008993843		1	1	42960039	2013-01-07 05:53:56	5:53:56 AM	42960039714160.7747401PLM070	PLM070
	2804	7799008993843		1	1	42960039	2013-01-07 05:54:10	5:54:10 AM	42960039714160.7747401PLM070	PLM070
	2804	7799008993843		1	1	42960039	2013-01-07 05:54:17	5:54:17 AM	42960039714160.7747401PLM070	PLM070
	2804	7799008993843		1	1	42960039	2013-01-07 05:54:23	5:54:23 AM	42960039714160.7747401PLM070	PLM070
	2804	7799008993843		1	1	42960039	2013-01-07 05:54:29	5:54:29 AM	42960039714160.7747401PLM070	PLM070
	2804	7799008993843		1	1	42960039	2013-01-07 05:54:37	5:54:37 AM	42960039714160.7747401PLM070	PLM070
	2804	7799008993843		1	1	42960039	2013-01-07 05:54:47	5:54:47 AM	42960039714160.7747401PLM070	PLM070
	2804	7799008993843		1	1	42960039	2013-01-07 05:54:55	5:54:55 AM	42960039714160.7747401PLM070	PLM070
	2804	7799008993843		1	1	42960039	2013-01-07 05:55:03	5:55:03 AM	42960039714160.7747401PLM070	PLM070
	2804	7799008993843		1	1	42960039	2013-01-07 05:55:06	5:55:06 AM	42960039714160.7747401PLM070	PLM070
	2805	7799008993843		1	1	42960039	2013-01-07 05:57:49	5:57:49 AM	42960039714160.7747401PLM070	PLM070
	2805	7799008993843		1	1	42960039	2013-01-07 05:58:02	5:58:02 AM	42960039714160.7747401PLM070	PLM070
	2805	7799008993843		1	1	42960039	2013-01-07 05:58:13	5:58:13 AM	42960039714160.7747401PLM070	PLM070
	2805	7799008993843		1	1	42960039	2013-01-07 05:58:18	5:58:18 AM	42960039714160.7747401PLM070	PLM070
	2805	7799008993843		1	1	42960039	2013-01-07 05:58:24	5:58:24 AM	42960039714160.7747401PLM070	PLM070
	2805	7799008993843		1	1	42960039	2013-01-07 05:58:31	5:58:31 AM	42960039714160.7747401PLM070	PLM070
	2805	7799008993843		1	1	42960039	2013-01-07 05:58:39	5:58:39 AM	42960039714160.7747401PLM070	PLM070
	2805	7799008993843		1	1	42960039	2013-01-07 05:58:45	5:58:45 AM	42960039714160.7747401PLM070	PLM070
	2805	7799008993843		1	1	42960039	2013-01-07 05:58:51	5:58:51 AM	42960039714160.7747401PLM070	PLM070
	2805	7799008993843		1	1	42960039	2013-01-07 05:58:56	5:58:56 AM	42960039714160.7747401PLM070	PLM070
	2805	7799008993843		1	1	42960039	2013-01-07 05:59:01	5:59:01 AM	42960039714160.7747401PLM070	PLM070
	2805	7799008993843		1	1	42960039	2013-01-07 05:59:07	5:59:07 AM	42960039714160.7747401PLM070	PLM070
	2805	7799008993843		1	1	42960039	2013-01-07 05:59:16	5:59:16 AM	42960039714160.7747401PLM070	PLM070
	2805	7799008993843		1	1	42960039	2013-01-07 05:59:22	5:59:22 AM	42960039714160.7747401PLM070	PLM070
	2805	7799008993843		1	1	42960039	2013-01-07 05:59:32	5:59:32 AM	42960039714160.7747401PLM070	PLM070
	2805	7799008993843		1	1	42960039	2013-01-07 05:59:40	5:59:40 AM	42960039714160.7747401PLM070	PLM070
	2805	7799008993843		1	1	42960039	2013-01-07 05:59:49	5:59:49 AM	42960039714160.7747401PLM070	PLM070
	2805	7799008993843		1	1	42960039	2013-01-07 06:00:04	6:00:04 AM	42960039714160.7747401PLM070	PLM070
	2805	7799008993843		1	1	42960039	2013-01-07 06:00:12	6:00:12 AM	42960039714160.7747401PLM070	PLM070
	2805	7799008993843		1	1	42960039	2013-01-07 06:00:16	6:00:16 AM	42960039714160.7747401PLM070	PLM070
	2806	7799008993843		1	1	42960039	2013-01-07 06:03:41	6:03:41 AM	42960039714160.7747401PLM070	PLM070
	2806	7799008993843		1	1	42960039	2013-01-07 06:03:57	6:03:57 AM	42960039714160.7747401PLM070	PLM070
	2806	7799008993843		1	1	42960039	2013-01-07 06:04:08	6:04:08 AM	42960039714160.7747401PLM070	PLM070
	2806	7799008993843		1	1	42960039	2013-01-07 06:04:16	6:04:16 AM	42960039714160.7747401PLM070	PLM070
	2806	7799008993843		1	1	42960039	2013-01-07 06:04:23	6:04:23 AM	42960039714160.7747401PLM070	PLM070
	2806	7799008993843		1	1	42960039	2013-01-07 06:04:31	6:04:31 AM	42960039714160.7747401PLM070	PLM070
	2806	7799008993843		1	1	42960039	2013-01-07 06:04:37	6:04:37 AM	42960039714160.7747401PLM070	PLM070
	2806	7799008993843		1	1	42960039	2013-01-07 06:04:44	6:04:44 AM	42960039714160.7747401PLM070	PLM070
	2806	7799008993843		1	1	42960039	2013-01-07 06:04:52	6:04:52 AM	42960039714160.7747401PLM070	PLM070
	2806	7799008993843		1	1	42960039	2013-01-07 06:04:59	6:04:59 AM	42960039714160.7747401PLM070	PLM070
	2806	7799008993843		1	1	42960039	2013-01-07 06:05:04	6:05:04 AM	42960039714160.7747401PLM070	PLM070
	2806	7799008993843		1	1	42960039	2013-01-07 06:05:10	6:05:10 AM	42960039714160.7747401PLM070	PLM070
	2806	7799008993843		1	1	42960039	2013-01-07 06:05:17	6:05:17 AM	42960039714160.7747401PLM070	PLM070
	2806	7799008993843		1	1	42960039	2013-01-07 06:05:24	6:05:24 AM	42960039714160.7747401PLM070	PLM070
	2806	7799008993843		1	1	42960039	2013-01-07 06:05:29	6:05:29 AM	42960039714160.7747401PLM070	PLM070
	2806	7799008993843		1	1	42960039	2013-01-07 06:05:35	6:05:35 AM	42960039714160.7747401PLM070	PLM070
	2806	7799008993843		1	1	42960039	2013-01-07 06:05:41	6:05:41 AM	42960039714160.7747401PLM070	PLM070
	2806	7799008993843		1	1	42960039	2013-01-07 06:05:50	6:05:50 AM	42960039714160.7747401PLM070	PLM070
	2806	7799008993843		1	1	42960039	2013-01-07 06:05:59	6:05:59 AM	42960039714160.7747401PLM070	PLM070
	2806	7799008993843		1	1	42960039	2013-01-07 06:06:14	6:06:14 AM	42960039714160.7747401PLM070	PLM070
	2807	7799008993843		1	1	42960039	2013-01-07 06:09:39	6:09:39 AM	42960039714160.7747401PLM070	PLM070
	2807	7799008993843		1	1	42960039	2013-01-07 06:09:45	6:09:45 AM	42960039714160.7747401PLM070	PLM070
	2807	7799008993843		1	1	42960039	2013-01-07 06:09:58	6:09:58 AM	42960039714160.7747401PLM070	PLM070
	2807	7799008993843		1	1	42960039	2013-01-07 06:10:10	6:10:10 AM	42960039714160.7747401PLM070	PLM070
	2807	7799008993843		1	1	42960039	2013-01-07 06:10:18	6:10:18 AM	42960039714160.7747401PLM070	PLM070
	2807	7799008993843		1	1	42960039	2013-01-07 06:10:25	6:10:25 AM	42960039714160.7747401PLM070	PLM070
	2807	7799008993843		1	1	42960039	2013-01-07 06:10:35	6:10:35 AM	42960039714160.7747401PLM070	PLM070
	2807	7799008993843		1	1	42960039	2013-01-07 06:10:51	6:10:51 AM	42960039714160.7747401PLM070	PLM070
	2807	7799008993843		1	1	42960039	2013-01-07 06:10:58	6:10:58 AM	42960039714160.7747401PLM070	PLM070
	2807	7799008993843		1	1	42960039	2013-01-07 06:11:06	6:11:06 AM	42960039714160.7747401PLM070	PLM070
	2807	7799008993843		1	1	42960039	2013-01-07 06:11:12	6:11:12 AM	42960039714160.7747401PLM070	PLM070
	2807	7799008993843		1	1	42960039	2013-01-07 06:11:20	6:11:20 AM	42960039714160.7747401PLM070	PLM070
	2807	7799008993843		1	1	42960039	2013-01-07 06:11:25	6:11:25 AM	42960039714160.7747401PLM070	PLM070
	2807	7799008993843		1	1	42960039	2013-01-07 06:11:31	6:11:31 AM	42960039714160.7747401PLM070	PLM070
	2807	7799008993843		1	1	42960039	2013-01-07 06:11:36	6:11:36 AM	42960039714160.7747401PLM070	PLM070
	2807	7799008993843		1	1	42960039	2013-01-07 06:11:45	6:11:45 AM	42960039714160.7747401PLM070	PLM070
	2807	7799008993843		1	1	42960039	2013-01-07 06:11:57	6:11:57 AM	42960039714160.7747401PLM070	PLM070
	2807	7799008993843		1	1	42960039	2013-01-07 06:12:04	6:12:04 AM	42960039714160.7747401PLM070	PLM070
	2807	7799008993843		1	1	42960039	2013-01-07 06:12:10	6:12:10 AM	42960039714160.7747401PLM070	PLM070
	2807	7799008993843		1	1	42960039	2013-01-07 06:12:17	6:12:17 AM	42960039714160.7747401PLM070	PLM070
	2808	7799008993843		1	1	42960039	2013-01-07 06:14:13	6:14:13 AM	42960039714160.7747401PLM070	PLM070
	2808	7799008993843		1	1	42960039	2013-01-07 06:14:17	6:14:17 AM	42960039714160.7747401PLM070	PLM070
	2808	7799008993843		1	1	42960039	2013-01-07 06:14:25	6:14:25 AM	42960039714160.7747401PLM070	PLM070
	2808	7799008993843		1	1	42960039	2013-01-07 06:14:30	6:14:30 AM	42960039714160.7747401PLM070	PLM070
	2808	7799008993843		1	1	42960039	2013-01-07 06:14:35	6:14:35 AM	42960039714160.7747401PLM070	PLM070
	2808	7799008993843		1	1	42960039	2013-01-07 06:14:40	6:14:40 AM	42960039714160.7747401PLM070	PLM070
	2808	7799008993843		1	1	42960039	2013-01-07 06:14:48	6:14:48 AM	42960039714160.7747401PLM070	PLM070
	2808	7799008993843		1	1	42960039	2013-01-07 06:14:54	6:14:54 AM	42960039714160.7747401PLM070	PLM070
	2808	7799008993843		1	1	42960039	2013-01-07 06:15:00	6:15:00 AM	42960039714160.7747401PLM070	PLM070
	2808	7799008993843		1	1	42960039	2013-01-07 06:15:08	6:15:08 AM	42960039714160.7747401PLM070	PLM070
	2808	7799008993843		1	1	42960039	2013-01-07 06:15:20	6:15:20 AM	42960039714160.7747401PLM070	PLM070
	2808	7799008993843		1	1	42960039	2013-01-07 06:15:27	6:15:27 AM	42960039714160.7747401PLM070	PLM070
	2808	7799008993843		1	1	42960039	2013-01-07 06:15:32	6:15:32 AM	42960039714160.7747401PLM070	PLM070
	2808	7799008993843		1	1	42960039	2013-01-07 06:15:41	6:15:41 AM	42960039714160.7747401PLM070	PLM070
	2808	7799008993843		1	1	42960039	2013-01-07 06:15:50	6:15:50 AM	42960039714160.7747401PLM070	PLM070
	2808	7799008993843		1	1	42960039	2013-01-07 06:15:57	6:15:57 AM	42960039714160.7747401PLM070	PLM070
	2808	7799008993843		1	1	42960039	2013-01-07 06:16:02	6:16:02 AM	42960039714160.7747401PLM070	PLM070
	2808	7799008993843		1	1	42960039	2013-01-07 06:16:11	6:16:11 AM	42960039714160.7747401PLM070	PLM070
	2808	7799008993843		1	1	42960039	2013-01-07 06:16:22	6:16:22 AM	42960039714160.7747401PLM070	PLM070
	2808	7799008993843		1	1	42960039	2013-01-07 06:16:34	6:16:34 AM	42960039714160.7747401PLM070	PLM070
	2809	7799008993843		1	1	42960039	2013-01-07 06:19:06	6:19:06 AM	42960039714160.7747401PLM070	PLM070
	2809	7799008993843		1	1	42960039	2013-01-07 06:19:09	6:19:09 AM	42960039714160.7747401PLM070	PLM070
	2809	7799008993843		1	1	42960039	2013-01-07 06:19:12	6:19:12 AM	42960039714160.7747401PLM070	PLM070
	2809	7799008993843		1	1	42960039	2013-01-07 06:19:13	6:19:13 AM	42960039714160.7747401PLM070	PLM070
	2809	7799008993843		1	1	42960039	2013-01-07 06:19:16	6:19:16 AM	42960039714160.7747401PLM070	PLM070
	2809	7799008993843		1	1	42960039	2013-01-07 06:19:17	6:19:17 AM	42960039714160.7747401PLM070	PLM070
	2809	7799008993843		1	1	42960039	2013-01-07 06:19:22	6:19:22 AM	42960039714160.7747401PLM070	PLM070
	2809	7799008993843		1	1	42960039	2013-01-07 06:19:23	6:19:23 AM	42960039714160.7747401PLM070	PLM070
	2809	7799008993843		1	1	42960039	2013-01-07 06:19:29	6:19:29 AM	42960039714160.7747401PLM070	PLM070
	2809	7799008993843		1	1	42960039	2013-01-07 06:19:31	6:19:31 AM	42960039714160.7747401PLM070	PLM070
	2809	7799008993843		1	1	42960039	2013-01-07 06:19:38	6:19:38 AM	42960039714160.7747401PLM070	PLM070
	2809	7799008993843		1	1	42960039	2013-01-07 06:19:40	6:19:40 AM	42960039714160.7747401PLM070	PLM070
	2809	7799008993843		1	1	42960039	2013-01-07 06:19:44	6:19:44 AM	42960039714160.7747401PLM070	PLM070
	2809	7799008993843		1	1	42960039	2013-01-07 06:19:47	6:19:47 AM	42960039714160.7747401PLM070	PLM070
	2809	7799008993843		1	1	42960039	2013-01-07 06:19:51	6:19:51 AM	42960039714160.7747401PLM070	PLM070
	2809	7799008993843		1	1	42960039	2013-01-07 06:19:55	6:19:55 AM	42960039714160.7747401PLM070	PLM070
	2809	7799008993843		1	1	42960039	2013-01-07 06:20:00	6:20:00 AM	42960039714160.7747401PLM070	PLM070
	2809	7799008993843		1	1	42960039	2013-01-07 06:20:03	6:20:03 AM	42960039714160.7747401PLM070	PLM070
	2809	7799008993843		1	1	42960039	2013-01-07 06:20:10	6:20:10 AM	42960039714160.7747401PLM070	PLM070
	2809	7799008993843		1	1	42960039	2013-01-07 06:20:12	6:20:12 AM	42960039714160.7747401PLM070	PLM070
	2797	7799021057119		1	1	42960039	2013-01-07 06:21:51	6:21:51 AM	42960039714160.7747401PLM070	PLM070
	2797	7799021057119		1	1	42960039	2013-01-07 06:22:06	6:22:06 AM	42960039714160.7747401PLM070	PLM070
	2797	7799021057119		1	1	42960039	2013-01-07 06:22:12	6:22:12 AM	42960039714160.7747401PLM070	PLM070
	2797	7799021057119		1	1	42960039	2013-01-07 06:22:19	6:22:19 AM	42960039714160.7747401PLM070	PLM070
	2797	7799021057119		1	1	42960039	2013-01-07 06:22:27	6:22:27 AM	42960039714160.7747401PLM070	PLM070
	2797	7799021057119		1	1	42960039	2013-01-07 06:22:36	6:22:36 AM	42960039714160.7747401PLM070	PLM070
	2797	7799021057119		1	1	42960039	2013-01-07 06:22:43	6:22:43 AM	42960039714160.7747401PLM070	PLM070
	2797	7799021057119		1	1	42960039	2013-01-07 06:22:52	6:22:52 AM	42960039714160.7747401PLM070	PLM070
	2797	7799021057119		1	1	42960039	2013-01-07 06:23:01	6:23:01 AM	42960039714160.7747401PLM070	PLM070
	2797	7799021057119		1	1	42960039	2013-01-07 06:23:09	6:23:09 AM	42960039714160.7747401PLM070	PLM070
	2797	7799021057119		1	1	42960039	2013-01-07 06:23:15	6:23:15 AM	42960039714160.7747401PLM070	PLM070
	2797	7799021057119		1	1	42960039	2013-01-07 06:23:25	6:23:25 AM	42960039714160.7747401PLM070	PLM070
	2797	7799021057119		1	1	42960039	2013-01-07 06:23:31	6:23:31 AM	42960039714160.7747401PLM070	PLM070
	2797	7799021057119		1	1	42960039	2013-01-07 06:23:42	6:23:42 AM	42960039714160.7747401PLM070	PLM070
	2797	7799021057119		1	1	42960039	2013-01-07 06:23:52	6:23:52 AM	42960039714160.7747401PLM070	PLM070
	2797	7799021057119		1	1	42960039	2013-01-07 06:24:03	6:24:03 AM	42960039714160.7747401PLM070	PLM070
	2797	7799021057119		1	1	42960039	2013-01-07 06:24:18	6:24:18 AM	42960039714160.7747401PLM070	PLM070
	2797	7799021057119		1	1	42960039	2013-01-07 06:24:30	6:24:30 AM	42960039714160.7747401PLM070	PLM070
	2797	7799021057119		1	1	42960039	2013-01-07 06:24:39	6:24:39 AM	42960039714160.7747401PLM070	PLM070
	2797	7799021057119		1	1	42960039	2013-01-07 06:24:46	6:24:46 AM	42960039714160.7747401PLM070	PLM070
	2796	7799021057119		1	1	42960039	2013-01-07 06:25:49	6:25:49 AM	42960039714160.7747401PLM070	PLM070
	2796	7799021057119		1	1	42960039	2013-01-07 06:25:53	6:25:53 AM	42960039714160.7747401PLM070	PLM070
	2796	7799021057119		1	1	42960039	2013-01-07 06:25:59	6:25:59 AM	42960039714160.7747401PLM070	PLM070
	2796	7799021057119		1	1	42960039	2013-01-07 06:26:03	6:26:03 AM	42960039714160.7747401PLM070	PLM070
	2796	7799021057119		1	1	42960039	2013-01-07 06:26:07	6:26:07 AM	42960039714160.7747401PLM070	PLM070
	2796	7799021057119		1	1	42960039	2013-01-07 06:26:13	6:26:13 AM	42960039714160.7747401PLM070	PLM070
	2796	7799021057119		1	1	42960039	2013-01-07 06:26:18	6:26:18 AM	42960039714160.7747401PLM070	PLM070
	2796	7799021057119		1	1	42960039	2013-01-07 06:26:26	6:26:26 AM	42960039714160.7747401PLM070	PLM070
	2796	7799021057119		1	1	42960039	2013-01-07 06:26:35	6:26:35 AM	42960039714160.7747401PLM070	PLM070
	2796	7799021057119		1	1	42960039	2013-01-07 06:26:46	6:26:46 AM	42960039714160.7747401PLM070	PLM070
	2796	7799021057119		1	1	42960039	2013-01-07 06:26:58	6:26:58 AM	42960039714160.7747401PLM070	PLM070
	2796	7799021057119		1	1	42960039	2013-01-07 06:27:06	6:27:06 AM	42960039714160.7747401PLM070	PLM070
	2796	7799021057119		1	1	42960039	2013-01-07 06:27:16	6:27:16 AM	42960039714160.7747401PLM070	PLM070
	2796	7799021057119		1	1	42960039	2013-01-07 06:27:24	6:27:24 AM	42960039714160.7747401PLM070	PLM070
	2796	7799021057119		1	1	42960039	2013-01-07 06:27:31	6:27:31 AM	42960039714160.7747401PLM070	PLM070
	2796	7799021057119		1	1	42960039	2013-01-07 06:27:39	6:27:39 AM	42960039714160.7747401PLM070	PLM070
	2796	7799021057119		1	1	42960039	2013-01-07 06:27:45	6:27:45 AM	42960039714160.7747401PLM070	PLM070
	2796	7799021057119		1	1	42960039	2013-01-07 06:27:52	6:27:52 AM	42960039714160.7747401PLM070	PLM070
	2796	7799021057119		1	1	42960039	2013-01-07 06:27:59	6:27:59 AM	42960039714160.7747401PLM070	PLM070
	2796	7799021057119		1	1	42960039	2013-01-07 06:28:03	6:28:03 AM	42960039714160.7747401PLM070	PLM070
	2790	7799021057119		1	1	42960039	2013-01-07 06:28:31	6:28:31 AM	42960039714160.7747401PLM070	PLM070
	2790	7799021057119		1	1	42960039	2013-01-07 06:28:41	6:28:41 AM	42960039714160.7747401PLM070	PLM070
	2790	7799021057119		1	1	42960039	2013-01-07 06:28:46	6:28:46 AM	42960039714160.7747401PLM070	PLM070
	2790	7799021057119		1	1	42960039	2013-01-07 06:28:49	6:28:49 AM	42960039714160.7747401PLM070	PLM070
	2790	7799021057119		1	1	42960039	2013-01-07 06:28:55	6:28:55 AM	42960039714160.7747401PLM070	PLM070
	2790	7799021057119		1	1	42960039	2013-01-07 06:29:07	6:29:07 AM	42960039714160.7747401PLM070	PLM070
	2790	7799021057119		1	1	42960039	2013-01-07 06:29:13	6:29:13 AM	42960039714160.7747401PLM070	PLM070
	2790	7799021057119		1	1	42960039	2013-01-07 06:29:19	6:29:19 AM	42960039714160.7747401PLM070	PLM070
	2790	7799021057119		1	1	42960039	2013-01-07 06:29:25	6:29:25 AM	42960039714160.7747401PLM070	PLM070
	2790	7799021057119		1	1	42960039	2013-01-07 06:29:33	6:29:33 AM	42960039714160.7747401PLM070	PLM070
	2790	7799021057119		1	1	42960039	2013-01-07 06:29:45	6:29:45 AM	42960039714160.7747401PLM070	PLM070
	2790	7799021057119		1	1	42960039	2013-01-07 06:29:54	6:29:54 AM	42960039714160.7747401PLM070	PLM070
	2790	7799021057119		1	1	42960039	2013-01-07 06:30:04	6:30:04 AM	42960039714160.7747401PLM070	PLM070
	2790	7799021057119		1	1	42960039	2013-01-07 06:30:11	6:30:11 AM	42960039714160.7747401PLM070	PLM070
	2790	7799021057119		1	1	42960039	2013-01-07 06:30:22	6:30:22 AM	42960039714160.7747401PLM070	PLM070
	2790	7799021057119		1	1	42960039	2013-01-07 06:30:30	6:30:30 AM	42960039714160.7747401PLM070	PLM070
	2790	7799021057119		1	1	42960039	2013-01-07 06:30:46	6:30:46 AM	42960039714160.7747401PLM070	PLM070
	2790	7799021057119		1	1	42960039	2013-01-07 06:30:55	6:30:55 AM	42960039714160.7747401PLM070	PLM070
	2790	7799021057119		1	1	42960039	2013-01-07 06:31:04	6:31:04 AM	42960039714160.7747401PLM070	PLM070
	2790	7799021057119		1	1	42960039	2013-01-07 06:31:18	6:31:18 AM	42960039714160.7747401PLM070	PLM070
	2789	7799021057119		1	1	42960039	2013-01-07 06:31:57	6:31:57 AM	42960039714160.7747401PLM070	PLM070
	2789	7799021057119		1	1	42960039	2013-01-07 06:32:01	6:32:01 AM	42960039714160.7747401PLM070	PLM070
	2789	7799021057119		1	1	42960039	2013-01-07 06:32:08	6:32:08 AM	42960039714160.7747401PLM070	PLM070
	2789	7799021057119		1	1	42960039	2013-01-07 06:32:11	6:32:11 AM	42960039714160.7747401PLM070	PLM070
	2789	7799021057119		1	1	42960039	2013-01-07 06:32:15	6:32:15 AM	42960039714160.7747401PLM070	PLM070
	2789	7799021057119		1	1	42960039	2013-01-07 06:32:20	6:32:20 AM	42960039714160.7747401PLM070	PLM070
	2789	7799021057119		1	1	42960039	2013-01-07 06:32:24	6:32:24 AM	42960039714160.7747401PLM070	PLM070
	2789	7799021057119		1	1	42960039	2013-01-07 06:32:29	6:32:29 AM	42960039714160.7747401PLM070	PLM070
	2789	7799021057119		1	1	42960039	2013-01-07 06:32:34	6:32:34 AM	42960039714160.7747401PLM070	PLM070
	2789	7799021057119		1	1	42960039	2013-01-07 06:32:39	6:32:39 AM	42960039714160.7747401PLM070	PLM070
	2789	7799021057119		1	1	42960039	2013-01-07 06:32:45	6:32:45 AM	42960039714160.7747401PLM070	PLM070
	2789	7799021057119		1	1	42960039	2013-01-07 06:32:52	6:32:52 AM	42960039714160.7747401PLM070	PLM070
	2789	7799021057119		1	1	42960039	2013-01-07 06:32:56	6:32:56 AM	42960039714160.7747401PLM070	PLM070
	2789	7799021057119		1	1	42960039	2013-01-07 06:33:25	6:33:25 AM	42960039714160.7747401PLM070	PLM070
	2789	7799021057119		1	1	42960039	2013-01-07 06:33:35	6:33:35 AM	42960039714160.7747401PLM070	PLM070
	2789	7799021057119		1	1	42960039	2013-01-07 06:33:46	6:33:46 AM	42960039714160.7747401PLM070	PLM070
	2789	7799021057119		1	1	42960039	2013-01-07 06:33:53	6:33:53 AM	42960039714160.7747401PLM070	PLM070
	2789	7799021057119		1	1	42960039	2013-01-07 06:33:58	6:33:58 AM	42960039714160.7747401PLM070	PLM070
	2789	7799021057119		1	1	42960039	2013-01-07 06:34:06	6:34:06 AM	42960039714160.7747401PLM070	PLM070
	2789	7799021057119		1	1	42960039	2013-01-07 06:34:11	6:34:11 AM	42960039714160.7747401PLM070	PLM070
	2788	7799021057119		1	1	42960039	2013-01-07 06:35:22	6:35:22 AM	42960039714160.7747401PLM070	PLM070
	2788	7799021057119		1	1	42960039	2013-01-07 06:35:28	6:35:28 AM	42960039714160.7747401PLM070	PLM070
	2788	7799021057119		1	1	42960039	2013-01-07 06:35:32	6:35:32 AM	42960039714160.7747401PLM070	PLM070
	2788	7799021057119		1	1	42960039	2013-01-07 06:35:36	6:35:36 AM	42960039714160.7747401PLM070	PLM070
	2788	7799021057119		1	1	42960039	2013-01-07 06:35:40	6:35:40 AM	42960039714160.7747401PLM070	PLM070
	2788	7799021057119		1	1	42960039	2013-01-07 06:35:45	6:35:45 AM	42960039714160.7747401PLM070	PLM070
	2788	7799021057119		1	1	42960039	2013-01-07 06:35:50	6:35:50 AM	42960039714160.7747401PLM070	PLM070
	2788	7799021057119		1	1	42960039	2013-01-07 06:35:54	6:35:54 AM	42960039714160.7747401PLM070	PLM070
	2788	7799021057119		1	1	42960039	2013-01-07 06:35:58	6:35:58 AM	42960039714160.7747401PLM070	PLM070
	2788	7799021057119		1	1	42960039	2013-01-07 06:36:02	6:36:02 AM	42960039714160.7747401PLM070	PLM070
	2788	7799021057119		1	1	42960039	2013-01-07 06:36:07	6:36:07 AM	42960039714160.7747401PLM070	PLM070
	2788	7799021057119		1	1	42960039	2013-01-07 06:36:13	6:36:13 AM	42960039714160.7747401PLM070	PLM070
	2788	7799021057119		1	1	42960039	2013-01-07 06:36:18	6:36:18 AM	42960039714160.7747401PLM070	PLM070
	2788	7799021057119		1	1	42960039	2013-01-07 06:36:24	6:36:24 AM	42960039714160.7747401PLM070	PLM070
	2788	7799021057119		1	1	42960039	2013-01-07 06:36:29	6:36:29 AM	42960039714160.7747401PLM070	PLM070
	2788	7799021057119		1	1	42960039	2013-01-07 06:36:34	6:36:34 AM	42960039714160.7747401PLM070	PLM070
	2788	7799021057119		1	1	42960039	2013-01-07 06:36:40	6:36:40 AM	42960039714160.7747401PLM070	PLM070
	2788	7799021057119		1	1	42960039	2013-01-07 06:36:44	6:36:44 AM	42960039714160.7747401PLM070	PLM070
	2788	7799021057119		1	1	42960039	2013-01-07 06:36:48	6:36:48 AM	42960039714160.7747401PLM070	PLM070
	2788	7799021057119		1	1	42960039	2013-01-07 06:36:53	6:36:53 AM	42960039714160.7747401PLM070	PLM070
	2791	7799021057119		1	1	42960039	2013-01-07 06:39:08	6:39:08 AM	42960039714160.7747401PLM070	PLM070
	2791	7799021057119		1	1	42960039	2013-01-07 06:39:12	6:39:12 AM	42960039714160.7747401PLM070	PLM070
	2791	7799021057119		1	1	42960039	2013-01-07 06:39:19	6:39:19 AM	42960039714160.7747401PLM070	PLM070
	2791	7799021057119		1	1	42960039	2013-01-07 06:39:27	6:39:27 AM	42960039714160.7747401PLM070	PLM070
	2791	7799021057119		1	1	42960039	2013-01-07 06:39:32	6:39:32 AM	42960039714160.7747401PLM070	PLM070
	2791	7799021057119		1	1	42960039	2013-01-07 06:39:35	6:39:35 AM	42960039714160.7747401PLM070	PLM070
	2791	7799021057119		1	1	42960039	2013-01-07 06:39:39	6:39:39 AM	42960039714160.7747401PLM070	PLM070
	2791	7799021057119		1	1	42960039	2013-01-07 06:39:42	6:39:42 AM	42960039714160.7747401PLM070	PLM070
	2791	7799021057119		1	1	42960039	2013-01-07 06:39:46	6:39:46 AM	42960039714160.7747401PLM070	PLM070
	2791	7799021057119		1	1	42960039	2013-01-07 06:39:51	6:39:51 AM	42960039714160.7747401PLM070	PLM070
	2791	7799021057119		1	1	42960039	2013-01-07 06:39:58	6:39:58 AM	42960039714160.7747401PLM070	PLM070
	2791	7799021057119		1	1	42960039	2013-01-07 06:40:07	6:40:07 AM	42960039714160.7747401PLM070	PLM070
	2791	7799021057119		1	1	42960039	2013-01-07 06:40:10	6:40:10 AM	42960039714160.7747401PLM070	PLM070
	2791	7799021057119		1	1	42960039	2013-01-07 06:40:16	6:40:16 AM	42960039714160.7747401PLM070	PLM070
	2791	7799021057119		1	1	42960039	2013-01-07 06:40:24	6:40:24 AM	42960039714160.7747401PLM070	PLM070
	2791	7799021057119		1	1	42960039	2013-01-07 06:40:31	6:40:31 AM	42960039714160.7747401PLM070	PLM070
	2791	7799021057119		1	1	42960039	2013-01-07 06:40:37	6:40:37 AM	42960039714160.7747401PLM070	PLM070
	2791	7799021057119		1	1	42960039	2013-01-07 06:40:43	6:40:43 AM	42960039714160.7747401PLM070	PLM070
	2791	7799021057119		1	1	42960039	2013-01-07 06:40:48	6:40:48 AM	42960039714160.7747401PLM070	PLM070
	2791	7799021057119		1	1	42960039	2013-01-07 06:40:51	6:40:51 AM	42960039714160.7747401PLM070	PLM070
	2792	7799021057119		1	1	42960039	2013-01-07 06:43:09	6:43:09 AM	42960039714160.7747401PLM070	PLM070
	2792	7799021057119		1	1	42960039	2013-01-07 06:43:14	6:43:14 AM	42960039714160.7747401PLM070	PLM070
	2792	7799021057119		1	1	42960039	2013-01-07 06:43:18	6:43:18 AM	42960039714160.7747401PLM070	PLM070
	2792	7799021057119		1	1	42960039	2013-01-07 06:43:22	6:43:22 AM	42960039714160.7747401PLM070	PLM070
	2792	7799021057119		1	1	42960039	2013-01-07 06:43:27	6:43:27 AM	42960039714160.7747401PLM070	PLM070
	2792	7799021057119		1	1	42960039	2013-01-07 06:43:33	6:43:33 AM	42960039714160.7747401PLM070	PLM070
	2792	7799021057119		1	1	42960039	2013-01-07 06:43:40	6:43:40 AM	42960039714160.7747401PLM070	PLM070
	2792	7799021057119		1	1	42960039	2013-01-07 06:43:59	6:43:59 AM	42960039714160.7747401PLM070	PLM070
	2792	7799021057119		1	1	42960039	2013-01-07 06:44:06	6:44:06 AM	42960039714160.7747401PLM070	PLM070
	2792	7799021057119		1	1	42960039	2013-01-07 06:44:12	6:44:12 AM	42960039714160.7747401PLM070	PLM070
	2792	7799021057119		1	1	42960039	2013-01-07 06:44:17	6:44:17 AM	42960039714160.7747401PLM070	PLM070
	2792	7799021057119		1	1	42960039	2013-01-07 06:44:22	6:44:22 AM	42960039714160.7747401PLM070	PLM070
	2792	7799021057119		1	1	42960039	2013-01-07 06:44:27	6:44:27 AM	42960039714160.7747401PLM070	PLM070
	2792	7799021057119		1	1	42960039	2013-01-07 06:44:32	6:44:32 AM	42960039714160.7747401PLM070	PLM070
	2792	7799021057119		1	1	42960039	2013-01-07 06:44:47	6:44:47 AM	42960039714160.7747401PLM070	PLM070
	2792	7799021057119		1	1	42960039	2013-01-07 06:44:59	6:44:59 AM	42960039714160.7747401PLM070	PLM070
	2792	7799021057119		1	1	42960039	2013-01-07 06:45:03	6:45:03 AM	42960039714160.7747401PLM070	PLM070
	2792	7799021057119		1	1	42960039	2013-01-07 06:45:08	6:45:08 AM	42960039714160.7747401PLM070	PLM070
	2792	7799021057119		1	1	42960039	2013-01-07 06:45:20	6:45:20 AM	42960039714160.7747401PLM070	PLM070
	2794	7799021057119		1	1	42960039	2013-01-07 06:49:12	6:49:12 AM	42960039714160.7747401PLM070	PLM070
	2794	7799021057119		1	1	42960039	2013-01-07 06:49:48	6:49:48 AM	42960039714160.7747401PLM070	PLM070
	2794	7799021057119		1	1	42960039	2013-01-07 06:49:57	6:49:57 AM	42960039714160.7747401PLM070	PLM070
	2794	7799021057119		1	1	42960039	2013-01-07 06:50:09	6:50:09 AM	42960039714160.7747401PLM070	PLM070
	2794	7799021057119		1	1	42960039	2013-01-07 06:50:25	6:50:25 AM	42960039714160.7747401PLM070	PLM070
	2794	7799021057119		1	1	42960039	2013-01-07 06:50:31	6:50:31 AM	42960039714160.7747401PLM070	PLM070
	2794	7799021057119		1	1	42960039	2013-01-07 06:50:49	6:50:49 AM	42960039714160.7747401PLM070	PLM070
	2794	7799021057119		1	1	42960039	2013-01-07 06:50:55	6:50:55 AM	42960039714160.7747401PLM070	PLM070
	2794	7799021057119		1	1	42960039	2013-01-07 06:51:04	6:51:04 AM	42960039714160.7747401PLM070	PLM070
	2794	7799021057119		1	1	42960039	2013-01-07 06:51:11	6:51:11 AM	42960039714160.7747401PLM070	PLM070
	2794	7799021057119		1	1	42960039	2013-01-07 06:51:16	6:51:16 AM	42960039714160.7747401PLM070	PLM070
	2794	7799021057119		1	1	42960039	2013-01-07 06:51:20	6:51:20 AM	42960039714160.7747401PLM070	PLM070
	2794	7799021057119		1	1	42960039	2013-01-07 06:51:31	6:51:31 AM	42960039714160.7747401PLM070	PLM070
	2794	7799021057119		1	1	42960039	2013-01-07 06:51:37	6:51:37 AM	42960039714160.7747401PLM070	PLM070
	2794	7799021057119		1	1	42960039	2013-01-07 06:51:52	6:51:52 AM	42960039714160.7747401PLM070	PLM070
	2794	7799021057119		1	1	42960039	2013-01-07 06:52:03	6:52:03 AM	42960039714160.7747401PLM070	PLM070
	2794	7799021057119		1	1	42960039	2013-01-07 06:52:12	6:52:12 AM	42960039714160.7747401PLM070	PLM070
	2794	7799021057119		1	1	42960039	2013-01-07 06:52:16	6:52:16 AM	42960039714160.7747401PLM070	PLM070
	2794	7799021057119		1	1	42960039	2013-01-07 06:52:24	6:52:24 AM	42960039714160.7747401PLM070	PLM070
	2794	7799021057119		1	1	42960039	2013-01-07 06:52:30	6:52:30 AM	42960039714160.7747401PLM070	PLM070
	2795	7799021057119		1	1	42960039	2013-01-07 06:54:27	6:54:27 AM	42960039714160.7747401PLM070	PLM070
	2795	7799021057119		1	1	42960039	2013-01-07 06:54:32	6:54:32 AM	42960039714160.7747401PLM070	PLM070
	2795	7799021057119		1	1	42960039	2013-01-07 06:54:36	6:54:36 AM	42960039714160.7747401PLM070	PLM070
	2795	7799021057119		1	1	42960039	2013-01-07 06:54:41	6:54:41 AM	42960039714160.7747401PLM070	PLM070
	2795	7799021057119		1	1	42960039	2013-01-07 06:54:46	6:54:46 AM	42960039714160.7747401PLM070	PLM070
	2795	7799021057119		1	1	42960039	2013-01-07 06:54:51	6:54:51 AM	42960039714160.7747401PLM070	PLM070
	2795	7799021057119		1	1	42960039	2013-01-07 06:54:55	6:54:55 AM	42960039714160.7747401PLM070	PLM070
	2795	7799021057119		1	1	42960039	2013-01-07 06:55:01	6:55:01 AM	42960039714160.7747401PLM070	PLM070
	2795	7799021057119		1	1	42960039	2013-01-07 06:55:05	6:55:05 AM	42960039714160.7747401PLM070	PLM070
	2795	7799021057119		1	1	42960039	2013-01-07 06:55:10	6:55:10 AM	42960039714160.7747401PLM070	PLM070
	2795	7799021057119		1	1	42960039	2013-01-07 06:55:14	6:55:14 AM	42960039714160.7747401PLM070	PLM070
	2795	7799021057119		1	1	42960039	2013-01-07 06:55:18	6:55:18 AM	42960039714160.7747401PLM070	PLM070
	2795	7799021057119		1	1	42960039	2013-01-07 06:55:22	6:55:22 AM	42960039714160.7747401PLM070	PLM070
	2795	7799021057119		1	1	42960039	2013-01-07 06:55:28	6:55:28 AM	42960039714160.7747401PLM070	PLM070
	2795	7799021057119		1	1	42960039	2013-01-07 06:55:32	6:55:32 AM	42960039714160.7747401PLM070	PLM070
	2795	7799021057119		1	1	42960039	2013-01-07 06:55:38	6:55:38 AM	42960039714160.7747401PLM070	PLM070
	2795	7799021057119		1	1	42960039	2013-01-07 06:55:41	6:55:41 AM	42960039714160.7747401PLM070	PLM070
	2795	7799021057119		1	1	42960039	2013-01-07 06:55:45	6:55:45 AM	42960039714160.7747401PLM070	PLM070
	2795	7799021057119		1	1	42960039	2013-01-07 06:55:50	6:55:50 AM	42960039714160.7747401PLM070	PLM070
	2795	7799021057119		1	1	42960039	2013-01-07 06:56:05	6:56:05 AM	42960039714160.7747401PLM070	PLM070
	2793	7799021057119		1	1	42960039	2013-01-07 06:58:07	6:58:07 AM	42960039714160.7747401PLM070	PLM070
	2793	7799021057119		1	1	42960039	2013-01-07 06:58:12	6:58:12 AM	42960039714160.7747401PLM070	PLM070
	2793	7799021057119		1	1	42960039	2013-01-07 06:58:19	6:58:19 AM	42960039714160.7747401PLM070	PLM070
	2793	7799021057119		1	1	42960039	2013-01-07 06:58:24	6:58:24 AM	42960039714160.7747401PLM070	PLM070
	2793	7799021057119		1	1	42960039	2013-01-07 06:58:28	6:58:28 AM	42960039714160.7747401PLM070	PLM070
	2793	7799021057119		1	1	42960039	2013-01-07 06:58:32	6:58:32 AM	42960039714160.7747401PLM070	PLM070
	2793	7799021057119		1	1	42960039	2013-01-07 06:58:40	6:58:40 AM	42960039714160.7747401PLM070	PLM070
	2793	7799021057119		1	1	42960039	2013-01-07 06:58:50	6:58:50 AM	42960039714160.7747401PLM070	PLM070
	2793	7799021057119		1	1	42960039	2013-01-07 06:58:57	6:58:57 AM	42960039714160.7747401PLM070	PLM070
	2793	7799021057119		1	1	42960039	2013-01-07 06:59:01	6:59:01 AM	42960039714160.7747401PLM070	PLM070
	2793	7799021057119		1	1	42960039	2013-01-07 06:59:05	6:59:05 AM	42960039714160.7747401PLM070	PLM070
	2793	7799021057119		1	1	42960039	2013-01-07 06:59:10	6:59:10 AM	42960039714160.7747401PLM070	PLM070
	2793	7799021057119		1	1	42960039	2013-01-07 06:59:15	6:59:15 AM	42960039714160.7747401PLM070	PLM070
	2793	7799021057119		1	1	42960039	2013-01-07 06:59:21	6:59:21 AM	42960039714160.7747401PLM070	PLM070
	2793	7799021057119		1	1	42960039	2013-01-07 06:59:25	6:59:25 AM	42960039714160.7747401PLM070	PLM070
	2793	7799021057119		1	1	42960039	2013-01-07 06:59:30	6:59:30 AM	42960039714160.7747401PLM070	PLM070
	2793	7799021057119		1	1	42960039	2013-01-07 06:59:37	6:59:37 AM	42960039714160.7747401PLM070	PLM070
	2793	7799021057119		1	1	42960039	2013-01-07 06:59:43	6:59:43 AM	42960039714160.7747401PLM070	PLM070
	2793	7799021057119		1	1	42960039	2013-01-07 06:59:50	6:59:50 AM	42960039714160.7747401PLM070	PLM070
	2793	7799021057119		1	1	42960039	2013-01-07 06:59:56	6:59:56 AM	42960039714160.7747401PLM070	PLM070
	2801	7799021057119		1	1	42960039	2013-01-07 07:01:46	7:01:46 AM	42960039714160.7747401PLM070	PLM070
	2801	7799021057119		1	1	42960039	2013-01-07 07:01:50	7:01:50 AM	42960039714160.7747401PLM070	PLM070
	2801	7799021057119		1	1	42960039	2013-01-07 07:01:54	7:01:54 AM	42960039714160.7747401PLM070	PLM070
	2801	7799021057119		1	1	42960039	2013-01-07 07:01:58	7:01:58 AM	42960039714160.7747401PLM070	PLM070
	2801	7799021057119		1	1	42960039	2013-01-07 07:02:03	7:02:03 AM	42960039714160.7747401PLM070	PLM070
	2801	7799021057119		1	1	42960039	2013-01-07 07:02:09	7:02:09 AM	42960039714160.7747401PLM070	PLM070
	2801	7799021057119		1	1	42960039	2013-01-07 07:02:17	7:02:17 AM	42960039714160.7747401PLM070	PLM070
	2801	7799021057119		1	1	42960039	2013-01-07 07:02:19	7:02:19 AM	42960039714160.7747401PLM070	PLM070
	2801	7799021057119		1	1	42960039	2013-01-07 07:02:23	7:02:23 AM	42960039714160.7747401PLM070	PLM070
	2801	7799021057119		1	1	42960039	2013-01-07 07:02:28	7:02:28 AM	42960039714160.7747401PLM070	PLM070
	2801	7799021057119		1	1	42960039	2013-01-07 07:02:41	7:02:41 AM	42960039714160.7747401PLM070	PLM070
	2801	7799021057119		1	1	42960039	2013-01-07 07:02:45	7:02:45 AM	42960039714160.7747401PLM070	PLM070
	2801	7799021057119		1	1	42960039	2013-01-07 07:02:49	7:02:49 AM	42960039714160.7747401PLM070	PLM070
	2801	7799021057119		1	1	42960039	2013-01-07 07:02:57	7:02:57 AM	42960039714160.7747401PLM070	PLM070
	2801	7799021057119		1	1	42960039	2013-01-07 07:03:01	7:03:01 AM	42960039714160.7747401PLM070	PLM070
	2801	7799021057119		1	1	42960039	2013-01-07 07:03:05	7:03:05 AM	42960039714160.7747401PLM070	PLM070
	2801	7799021057119		1	1	42960039	2013-01-07 07:03:09	7:03:09 AM	42960039714160.7747401PLM070	PLM070
	2801	7799021057119		1	1	42960039	2013-01-07 07:03:13	7:03:13 AM	42960039714160.7747401PLM070	PLM070
	2801	7799021057119		1	1	42960039	2013-01-07 07:03:17	7:03:17 AM	42960039714160.7747401PLM070	PLM070
	2801	7799021057119		1	1	42960039	2013-01-07 07:03:24	7:03:24 AM	42960039714160.7747401PLM070	PLM070
	2779	7799008954066		1	1	42960039	2013-01-07 07:08:14	7:08:14 AM	42960039714160.7747401PLM070	PLM070
	2779	7799008954066		1	1	42960039	2013-01-07 07:08:21	7:08:21 AM	42960039714160.7747401PLM070	PLM070
	2779	7799008954066		1	1	42960039	2013-01-07 07:08:51	7:08:51 AM	42960039714160.7747401PLM070	PLM070
	2779	7799008954066		1	1	42960039	2013-01-07 07:08:55	7:08:55 AM	42960039714160.7747401PLM070	PLM070
	2779	7799008954066		1	1	42960039	2013-01-07 07:09:00	7:09:00 AM	42960039714160.7747401PLM070	PLM070
	2779	7799008954066		1	1	42960039	2013-01-07 07:09:04	7:09:04 AM	42960039714160.7747401PLM070	PLM070
	2779	7799008954066		1	1	42960039	2013-01-07 07:09:10	7:09:10 AM	42960039714160.7747401PLM070	PLM070
	2779	7799008954066		1	1	42960039	2013-01-07 07:09:12	7:09:12 AM	42960039714160.7747401PLM070	PLM070
	2771	7799008954066		8	2	42960039	2013-01-07 07:10:45	7:10 AM	42960039714160.7747401PLM070	PLM070
	2780	7799008954066		8	2	42960039	2013-01-07 07:11:41	7:11 AM	42960039714160.7747401PLM070	PLM070
