	3292	7799021087031		25	2	44548974	2019-01-04 14:23:36	2:23 PM	44548974153760.2895625PLM030	PLM030
	3293	7799021087031		25	2	44548974	2019-01-04 14:26:50	2:26 PM	44548974153760.2895625PLM030	PLM030
	3294	7799021087031		25	2	44548974	2019-01-04 14:29:04	2:29 PM	44548974153760.2895625PLM030	PLM030
	3286	7799021087031		3	2	44548974	2019-01-04 14:31:19	2:31 PM	44548974153760.2895625PLM030	PLM030
	3289	7799021087031		25	2	44548974	2019-01-04 14:32:59	2:32 PM	44548974153760.2895625PLM030	PLM030
	3285	7799008903408		29	2	44548974	2019-01-04 14:35:29	2:35 PM	44548974153760.2895625PLM030	PLM030
	3288	7799021087031		25	2	44548974	2019-01-04 14:36:23	2:36 PM	44548974153760.2895625PLM030	PLM030
	3287	7799021087031		25	2	44548974	2019-01-04 14:39:01	2:39 PM	44548974153760.2895625PLM030	PLM030
	3291	7799021087031		25	2	44548974	2019-01-04 14:41:28	2:41 PM	44548974153760.2895625PLM030	PLM030
	3290	7799021087031		25	2	44548974	2019-01-04 14:42:43	2:42 PM	44548974153760.2895625PLM030	PLM030
	3296	7799021087031		25	2	44548974	2019-01-04 14:45:52	2:45 PM	44548974153760.2895625PLM030	PLM030
	3295	7799021087031		25	2	44548974	2019-01-04 14:47:29	2:47 PM	44548974153760.2895625PLM030	PLM030
	3297	7799021087031		25	2	44548974	2019-01-04 14:50:33	2:50 PM	44548974153760.2895625PLM030	PLM030
	3269	7799021087024		20	2	44548974	2019-01-04 14:52:37	2:52 PM	44548974153760.2895625PLM030	PLM030
	3272	7799021087024		25	2	44548974	2019-01-04 14:55:05	2:55 PM	44548974153760.2895625PLM030	PLM030
	3271	7799021087024		24	2	44548974	2019-01-04 14:58:13	2:58 PM	44548974153760.2895625PLM030	PLM030
	3274	7799021087024		25	2	44548974	2019-01-04 15:00:40	3:00 PM	44548974153760.2895625PLM030	PLM030
	3274	7799021087024		25	2	44548974	2019-01-04 15:01:20	3:01 PM	44548974153760.2895625PLM030	PLM030
	3278	7799021087024		25	2	44548974	2019-01-04 15:03:01	3:03 PM	44548974153760.2895625PLM030	PLM030
	3280	7799021087024		25	2	44548974	2019-01-04 15:04:47	3:04 PM	44548974153760.2895625PLM030	PLM030
	3277	7799021087024		25	2	44548974	2019-01-04 15:07:23	3:07 PM	44548974153760.2895625PLM030	PLM030
	3223	7799021087024		19	2	44548974	2019-01-04 15:09:30	3:09 PM	44548974153760.2895625PLM030	PLM030
	3270	7799021087024		9	2	44548974	2019-01-04 15:10:39	3:10 PM	44548974153760.2895625PLM030	PLM030
	3270	7799021087024		10	2	44548974	2019-01-04 15:12:10	3:12 PM	44548974153760.2895625PLM030	PLM030
	3273	7799021087024		15	2	44548974	2019-01-04 15:12:49	3:12 PM	44548974153760.2895625PLM030	PLM030
	3279	7799021087024		25	2	44548974	2019-01-04 15:14:53	3:14 PM	44548974153760.2895625PLM030	PLM030
	3281	7799021087024		25	2	44548974	2019-01-04 15:16:56	3:16 PM	44548974153760.2895625PLM030	PLM030
	3282	7799021087024		25	2	44548974	2019-01-04 15:18:34	3:18 PM	44548974153760.2895625PLM030	PLM030
	3283	7799021087024		25	2	44548974	2019-01-04 15:20:32	3:20 PM	44548974153760.2895625PLM030	PLM030
	3276	7799021087024		25	2	44548974	2019-01-04 15:22:05	3:22 PM	44548974153760.2895625PLM030	PLM030
	3275	7799021087024		25	2	44548974	2019-01-04 15:24:18	3:24 PM	44548974153760.2895625PLM030	PLM030
	3284	7799021087024		25	2	44548974	2019-01-04 15:25:50	3:25 PM	44548974153760.2895625PLM030	PLM030
	3265	7799008370712		1	1	44548974	2019-01-04 15:28:05	3:28:05 PM	44548974153760.2895625PLM030	PLM030
	3265	7799008370712		1	1	44548974	2019-01-04 15:28:05	3:28:05 PM	44548974153760.2895625PLM030	PLM030
	3265	7799008370712		1	1	44548974	2019-01-04 15:28:07	3:28:07 PM	44548974153760.2895625PLM030	PLM030
	3265	7799008370712		1	1	44548974	2019-01-04 15:28:13	3:28:13 PM	44548974153760.2895625PLM030	PLM030
	3265	7799008370712		1	1	44548974	2019-01-04 15:28:14	3:28:14 PM	44548974153760.2895625PLM030	PLM030
	3265	7799008370712		1	1	44548974	2019-01-04 15:28:16	3:28:16 PM	44548974153760.2895625PLM030	PLM030
	3265	7799008370712		1	1	44548974	2019-01-04 15:28:20	3:28:20 PM	44548974153760.2895625PLM030	PLM030
	3265	7799008370712		1	1	44548974	2019-01-04 15:28:20	3:28:20 PM	44548974153760.2895625PLM030	PLM030
	3265	7799008370712		1	1	44548974	2019-01-04 15:28:21	3:28:21 PM	44548974153760.2895625PLM030	PLM030
	3265	7799008370712		1	1	44548974	2019-01-04 15:28:25	3:28:25 PM	44548974153760.2895625PLM030	PLM030
	3265	7799008370712		1	1	44548974	2019-01-04 15:28:26	3:28:26 PM	44548974153760.2895625PLM030	PLM030
	3265	7799008370712		1	1	44548974	2019-01-04 15:28:28	3:28:28 PM	44548974153760.2895625PLM030	PLM030
	3265	7799008370712		1	1	44548974	2019-01-04 15:28:33	3:28:33 PM	44548974153760.2895625PLM030	PLM030
	3265	7799008370712		1	1	44548974	2019-01-04 15:28:34	3:28:34 PM	44548974153760.2895625PLM030	PLM030
	3265	7799008370712		1	1	44548974	2019-01-04 15:28:36	3:28:36 PM	44548974153760.2895625PLM030	PLM030
	3265	7799008370712		1	1	44548974	2019-01-04 15:28:41	3:28:41 PM	44548974153760.2895625PLM030	PLM030
	3265	7799008370712		1	1	44548974	2019-01-04 15:28:43	3:28:43 PM	44548974153760.2895625PLM030	PLM030
	3265	7799008370712		1	1	44548974	2019-01-04 15:28:45	3:28:45 PM	44548974153760.2895625PLM030	PLM030
	3265	7799008370712		1	1	44548974	2019-01-04 15:28:52	3:28:52 PM	44548974153760.2895625PLM030	PLM030
	3265	7799008370712		1	1	44548974	2019-01-04 15:28:53	3:28:53 PM	44548974153760.2895625PLM030	PLM030
	3265	7799008370712		1	1	44548974	2019-01-04 15:28:55	3:28:55 PM	44548974153760.2895625PLM030	PLM030
	3265	7799008370712		1	1	44548974	2019-01-04 15:29:02	3:29:02 PM	44548974153760.2895625PLM030	PLM030
	3265	7799008370712		1	1	44548974	2019-01-04 15:29:12	3:29:12 PM	44548974153760.2895625PLM030	PLM030
	3265	7799008370712		1	1	44548974	2019-01-04 15:29:13	3:29:13 PM	44548974153760.2895625PLM030	PLM030
	3265	7799008370712		1	1	44548974	2019-01-04 15:29:19	3:29:19 PM	44548974153760.2895625PLM030	PLM030
	3265	7799008370712		1	1	44548974	2019-01-04 15:29:20	3:29:20 PM	44548974153760.2895625PLM030	PLM030
	3265	7799008370712		1	1	44548974	2019-01-04 15:29:21	3:29:21 PM	44548974153760.2895625PLM030	PLM030
	3265	7799008370712		1	1	44548974	2019-01-04 15:29:24	3:29:24 PM	44548974153760.2895625PLM030	PLM030
	3265	7799008370712		1	1	44548974	2019-01-04 15:29:25	3:29:25 PM	44548974153760.2895625PLM030	PLM030
	3265	7799008370712		1	1	44548974	2019-01-04 15:29:26	3:29:26 PM	44548974153760.2895625PLM030	PLM030
	3265	7799008370712		1	1	44548974	2019-01-04 15:29:31	3:29:31 PM	44548974153760.2895625PLM030	PLM030
	3265	7799008370712		1	1	44548974	2019-01-04 15:29:32	3:29:32 PM	44548974153760.2895625PLM030	PLM030
	3265	7799008370712		1	1	44548974	2019-01-04 15:29:32	3:29:32 PM	44548974153760.2895625PLM030	PLM030
	3265	7799008370712		1	1	44548974	2019-01-04 15:29:36	3:29:36 PM	44548974153760.2895625PLM030	PLM030
	3265	7799008370712		1	1	44548974	2019-01-04 15:29:37	3:29:37 PM	44548974153760.2895625PLM030	PLM030
	3265	7799008370712		1	1	44548974	2019-01-04 15:29:37	3:29:37 PM	44548974153760.2895625PLM030	PLM030
	3265	7799008370712		1	1	44548974	2019-01-04 15:29:39	3:29:39 PM	44548974153760.2895625PLM030	PLM030
	3265	7799008370712		1	1	44548974	2019-01-04 15:29:40	3:29:40 PM	44548974153760.2895625PLM030	PLM030
	3265	7799008370712		1	1	44548974	2019-01-04 15:29:41	3:29:41 PM	44548974153760.2895625PLM030	PLM030
	3265	7799008370712		1	1	44548974	2019-01-04 15:29:44	3:29:44 PM	44548974153760.2895625PLM030	PLM030
	3265	7799008370712		1	1	44548974	2019-01-04 15:29:44	3:29:44 PM	44548974153760.2895625PLM030	PLM030
	3265	7799008370712		1	1	44548974	2019-01-04 15:29:46	3:29:46 PM	44548974153760.2895625PLM030	PLM030
	3265	7799008370712		1	1	44548974	2019-01-04 15:29:48	3:29:48 PM	44548974153760.2895625PLM030	PLM030
	3265	7799008370712		1	1	44548974	2019-01-04 15:29:49	3:29:49 PM	44548974153760.2895625PLM030	PLM030
	3265	7799008370712		1	1	44548974	2019-01-04 15:29:50	3:29:50 PM	44548974153760.2895625PLM030	PLM030
	3265	7799008370712		1	1	44548974	2019-01-04 15:29:52	3:29:52 PM	44548974153760.2895625PLM030	PLM030
	3265	7799008370712		1	1	44548974	2019-01-04 15:29:53	3:29:53 PM	44548974153760.2895625PLM030	PLM030
	3265	7799008370712		1	1	44548974	2019-01-04 15:29:54	3:29:54 PM	44548974153760.2895625PLM030	PLM030
	3265	7799008370712		1	1	44548974	2019-01-04 15:29:57	3:29:57 PM	44548974153760.2895625PLM030	PLM030
	3265	7799008370712		1	1	44548974	2019-01-04 15:29:58	3:29:58 PM	44548974153760.2895625PLM030	PLM030
	3265	7799008370712		1	1	44548974	2019-01-04 15:29:58	3:29:58 PM	44548974153760.2895625PLM030	PLM030
	3265	7799008370712		1	1	44548974	2019-01-04 15:30:19	3:30:19 PM	44548974153760.2895625PLM030	PLM030
	3265	7799008370712		1	1	44548974	2019-01-04 15:30:20	3:30:20 PM	44548974153760.2895625PLM030	PLM030
	3265	7799008370712		1	1	44548974	2019-01-04 15:30:20	3:30:20 PM	44548974153760.2895625PLM030	PLM030
	3265	7799008370712		1	1	44548974	2019-01-04 15:30:23	3:30:23 PM	44548974153760.2895625PLM030	PLM030
	3265	7799008370712		1	1	44548974	2019-01-04 15:30:24	3:30:24 PM	44548974153760.2895625PLM030	PLM030
	3265	7799008370712		1	1	44548974	2019-01-04 15:30:24	3:30:24 PM	44548974153760.2895625PLM030	PLM030
	3265	7799008370712		1	1	44548974	2019-01-04 15:30:27	3:30:27 PM	44548974153760.2895625PLM030	PLM030
	3265	7799008370712		1	1	44548974	2019-01-04 15:30:28	3:30:28 PM	44548974153760.2895625PLM030	PLM030
	3265	7799008370712		1	1	44548974	2019-01-04 15:30:29	3:30:29 PM	44548974153760.2895625PLM030	PLM030
	3265	7799008370712		1	1	44548974	2019-01-04 15:30:31	3:30:31 PM	44548974153760.2895625PLM030	PLM030
	3265	7799008370712		1	1	44548974	2019-01-04 15:30:32	3:30:32 PM	44548974153760.2895625PLM030	PLM030
	3265	7799008370712		1	1	44548974	2019-01-04 15:30:33	3:30:33 PM	44548974153760.2895625PLM030	PLM030
	3265	7799008370712		1	1	44548974	2019-01-04 15:30:33	3:30:33 PM	44548974153760.2895625PLM030	PLM030
	3265	7799008370712		1	1	44548974	2019-01-04 15:30:36	3:30:36 PM	44548974153760.2895625PLM030	PLM030
	3265	7799008370712		1	1	44548974	2019-01-04 15:30:38	3:30:38 PM	44548974153760.2895625PLM030	PLM030
	3265	7799008370712		1	1	44548974	2019-01-04 15:30:42	3:30:42 PM	44548974153760.2895625PLM030	PLM030
	3265	7799008370712		1	1	44548974	2019-01-04 15:30:43	3:30:43 PM	44548974153760.2895625PLM030	PLM030
	3265	7799008370712		1	1	44548974	2019-01-04 15:30:44	3:30:44 PM	44548974153760.2895625PLM030	PLM030
	3265	7799008370712		1	1	44548974	2019-01-04 15:30:51	3:30:51 PM	44548974153760.2895625PLM030	PLM030
	3265	7799008370712		1	1	44548974	2019-01-04 15:30:52	3:30:52 PM	44548974153760.2895625PLM030	PLM030
	3265	7799008370712		1	1	44548974	2019-01-04 15:30:53	3:30:53 PM	44548974153760.2895625PLM030	PLM030
	3265	7799008370712		1	1	44548974	2019-01-04 15:30:54	3:30:54 PM	44548974153760.2895625PLM030	PLM030
	3265	7799008370712		1	1	44548974	2019-01-04 15:30:55	3:30:55 PM	44548974153760.2895625PLM030	PLM030
	3265	7799008370712		1	1	44548974	2019-01-04 15:31:00	3:31:00 PM	44548974153760.2895625PLM030	PLM030
	3265	7799008370712		1	1	44548974	2019-01-04 15:31:03	3:31:03 PM	44548974153760.2895625PLM030	PLM030
	3265	7799008370712		1	1	44548974	2019-01-04 15:31:04	3:31:04 PM	44548974153760.2895625PLM030	PLM030
	3265	7799008370712		1	1	44548974	2019-01-04 15:31:04	3:31:04 PM	44548974153760.2895625PLM030	PLM030
	3265	7799008370712		1	1	44548974	2019-01-04 15:31:07	3:31:07 PM	44548974153760.2895625PLM030	PLM030
	3265	7799008370712		1	1	44548974	2019-01-04 15:31:08	3:31:08 PM	44548974153760.2895625PLM030	PLM030
	3265	7799008370712		1	1	44548974	2019-01-04 15:31:10	3:31:10 PM	44548974153760.2895625PLM030	PLM030
	3265	7799008370712		1	1	44548974	2019-01-04 15:31:14	3:31:14 PM	44548974153760.2895625PLM030	PLM030
	3265	7799008370712		1	1	44548974	2019-01-04 15:31:15	3:31:15 PM	44548974153760.2895625PLM030	PLM030
	3265	7799008370712		1	1	44548974	2019-01-04 15:31:16	3:31:16 PM	44548974153760.2895625PLM030	PLM030
	3265	7799008370712		1	1	44548974	2019-01-04 15:31:20	3:31:20 PM	44548974153760.2895625PLM030	PLM030
	3265	7799008370712		1	1	44548974	2019-01-04 15:31:21	3:31:21 PM	44548974153760.2895625PLM030	PLM030
	3265	7799008370712		1	1	44548974	2019-01-04 15:31:22	3:31:22 PM	44548974153760.2895625PLM030	PLM030
	3265	7799008370712		1	1	44548974	2019-01-04 15:31:25	3:31:25 PM	44548974153760.2895625PLM030	PLM030
	3265	7799008370712		1	1	44548974	2019-01-04 15:31:26	3:31:26 PM	44548974153760.2895625PLM030	PLM030
	3265	7799008370712		1	1	44548974	2019-01-04 15:31:26	3:31:26 PM	44548974153760.2895625PLM030	PLM030
	3265	7799008370712		1	1	44548974	2019-01-04 15:31:30	3:31:30 PM	44548974153760.2895625PLM030	PLM030
	3265	7799008370712		1	1	44548974	2019-01-04 15:31:32	3:31:32 PM	44548974153760.2895625PLM030	PLM030
	3265	7799008370712		1	1	44548974	2019-01-04 15:31:32	3:31:32 PM	44548974153760.2895625PLM030	PLM030
	3265	7799008370712		1	1	44548974	2019-01-04 15:31:37	3:31:37 PM	44548974153760.2895625PLM030	PLM030
	3265	7799008370712		1	1	44548974	2019-01-04 15:31:37	3:31:37 PM	44548974153760.2895625PLM030	PLM030
	3265	7799008370712		1	1	44548974	2019-01-04 15:31:38	3:31:38 PM	44548974153760.2895625PLM030	PLM030
	3265	7799008370712		1	1	44548974	2019-01-04 15:31:41	3:31:41 PM	44548974153760.2895625PLM030	PLM030
	3265	7799008370712		1	1	44548974	2019-01-04 15:31:42	3:31:42 PM	44548974153760.2895625PLM030	PLM030
	3265	7799008370712		1	1	44548974	2019-01-04 15:31:43	3:31:43 PM	44548974153760.2895625PLM030	PLM030
	3265	7799008370712		1	1	44548974	2019-01-04 15:31:46	3:31:46 PM	44548974153760.2895625PLM030	PLM030
	3265	7799008370712		1	1	44548974	2019-01-04 15:31:47	3:31:47 PM	44548974153760.2895625PLM030	PLM030
	3265	7799008370712		1	1	44548974	2019-01-04 15:31:48	3:31:48 PM	44548974153760.2895625PLM030	PLM030
	3265	7799008370712		1	1	44548974	2019-01-04 15:31:51	3:31:51 PM	44548974153760.2895625PLM030	PLM030
	3265	7799008370712		1	1	44548974	2019-01-04 15:31:51	3:31:51 PM	44548974153760.2895625PLM030	PLM030
	3265	7799008370712		1	1	44548974	2019-01-04 15:31:52	3:31:52 PM	44548974153760.2895625PLM030	PLM030
	3265	7799008370712		1	1	44548974	2019-01-04 15:32:02	3:32:02 PM	44548974153760.2895625PLM030	PLM030
	3265	7799008370712		1	1	44548974	2019-01-04 15:32:03	3:32:03 PM	44548974153760.2895625PLM030	PLM030
	3265	7799008370712		1	1	44548974	2019-01-04 15:32:04	3:32:04 PM	44548974153760.2895625PLM030	PLM030
	3265	7799008370712		1	1	44548974	2019-01-04 15:32:05	3:32:05 PM	44548974153760.2895625PLM030	PLM030
	3265	7799008370712		1	1	44548974	2019-01-04 15:32:06	3:32:06 PM	44548974153760.2895625PLM030	PLM030
	3265	7799008370712		1	1	44548974	2019-01-04 15:32:07	3:32:07 PM	44548974153760.2895625PLM030	PLM030
	3265	7799008370712		1	1	44548974	2019-01-04 15:32:12	3:32:12 PM	44548974153760.2895625PLM030	PLM030
	3265	7799008370712		1	1	44548974	2019-01-04 15:32:13	3:32:13 PM	44548974153760.2895625PLM030	PLM030
	3265	7799008370712		1	1	44548974	2019-01-04 15:32:13	3:32:13 PM	44548974153760.2895625PLM030	PLM030
	3265	7799008370712		1	1	44548974	2019-01-04 15:32:17	3:32:17 PM	44548974153760.2895625PLM030	PLM030
	3265	7799008370712		1	1	44548974	2019-01-04 15:32:18	3:32:18 PM	44548974153760.2895625PLM030	PLM030
	3265	7799008370712		1	1	44548974	2019-01-04 15:32:18	3:32:18 PM	44548974153760.2895625PLM030	PLM030
	3265	7799008370712		1	1	44548974	2019-01-04 15:32:24	3:32:24 PM	44548974153760.2895625PLM030	PLM030
	3265	7799008370712		1	1	44548974	2019-01-04 15:32:24	3:32:24 PM	44548974153760.2895625PLM030	PLM030
	3265	7799008370712		1	1	44548974	2019-01-04 15:32:25	3:32:25 PM	44548974153760.2895625PLM030	PLM030
	3265	7799008370712		1	1	44548974	2019-01-04 15:32:29	3:32:29 PM	44548974153760.2895625PLM030	PLM030
	3265	7799008370712		1	1	44548974	2019-01-04 15:32:29	3:32:29 PM	44548974153760.2895625PLM030	PLM030
	3265	7799008370712		1	1	44548974	2019-01-04 15:32:30	3:32:30 PM	44548974153760.2895625PLM030	PLM030
	3265	7799008370712		1	1	44548974	2019-01-04 15:32:34	3:32:34 PM	44548974153760.2895625PLM030	PLM030
	3265	7799008370712		1	1	44548974	2019-01-04 15:32:37	3:32:37 PM	44548974153760.2895625PLM030	PLM030
	3265	7799008370712		1	1	44548974	2019-01-04 15:32:38	3:32:38 PM	44548974153760.2895625PLM030	PLM030
	3265	7799008370712		1	1	44548974	2019-01-04 15:32:42	3:32:42 PM	44548974153760.2895625PLM030	PLM030
	3265	7799008370712		1	1	44548974	2019-01-04 15:32:43	3:32:43 PM	44548974153760.2895625PLM030	PLM030
	3265	7799008370712		1	1	44548974	2019-01-04 15:32:44	3:32:44 PM	44548974153760.2895625PLM030	PLM030
	3265	7799008370712		1	1	44548974	2019-01-04 15:32:50	3:32:50 PM	44548974153760.2895625PLM030	PLM030
	3265	7799008370712		1	1	44548974	2019-01-04 15:32:51	3:32:51 PM	44548974153760.2895625PLM030	PLM030
	3265	7799008370712		1	1	44548974	2019-01-04 15:32:52	3:32:52 PM	44548974153760.2895625PLM030	PLM030
	3265	7799008370712		1	1	44548974	2019-01-04 15:32:58	3:32:58 PM	44548974153760.2895625PLM030	PLM030
	3265	7799008370712		1	1	44548974	2019-01-04 15:32:58	3:32:58 PM	44548974153760.2895625PLM030	PLM030
	3265	7799008370712		1	1	44548974	2019-01-04 15:32:59	3:32:59 PM	44548974153760.2895625PLM030	PLM030
	3265	7799008370712		111	2	44548974	2019-01-04 15:34:01	3:34 PM	44548974153760.2895625PLM030	PLM030
	3265	7799008370712		36	2	44548974	2019-01-04 15:34:32	3:34 PM	44548974153760.2895625PLM030	PLM030
	3265	7799008370712		39	2	44548974	2019-01-04 15:34:50	3:34 PM	44548974153760.2895625PLM030	PLM030
	3265	7799008370712		27	2	44548974	2019-01-04 15:35:02	3:35 PM	44548974153760.2895625PLM030	PLM030
