	1097	7799008760094		1	1	44548974	2013-01-06 10:21:02	10:21:02 AM	44548974126500.2895625PLM070	PLM070
	1097	7799008760094		1	1	44548974	2013-01-06 10:21:03	10:21:03 AM	44548974126500.2895625PLM070	PLM070
	1097	7799008760094		1	1	44548974	2013-01-06 10:21:04	10:21:04 AM	44548974126500.2895625PLM070	PLM070
	1097	7799008760094		1	1	44548974	2013-01-06 10:21:06	10:21:06 AM	44548974126500.2895625PLM070	PLM070
	1097	7799008760094		1	1	44548974	2013-01-06 10:21:07	10:21:07 AM	44548974126500.2895625PLM070	PLM070
	1097	7799008760094		1	1	44548974	2013-01-06 10:21:11	10:21:11 AM	44548974126500.2895625PLM070	PLM070
	1097	7799008760094		1	1	44548974	2013-01-06 10:21:11	10:21:11 AM	44548974126500.2895625PLM070	PLM070
	1097	7799008760094		1	1	44548974	2013-01-06 10:21:38	10:21:38 AM	44548974126500.2895625PLM070	PLM070
	1097	7799008760094		1	1	44548974	2013-01-06 10:21:40	10:21:40 AM	44548974126500.2895625PLM070	PLM070
	1097	7799008760094		1	1	44548974	2013-01-06 10:21:54	10:21:54 AM	44548974126500.2895625PLM070	PLM070
	1097	7799008760094		1	1	44548974	2013-01-06 10:21:55	10:21:55 AM	44548974126500.2895625PLM070	PLM070
	1097	7799008760094		1	1	44548974	2013-01-06 10:21:55	10:21:55 AM	44548974126500.2895625PLM070	PLM070
	1097	7799008760094		1	1	44548974	2013-01-06 10:21:58	10:21:58 AM	44548974126500.2895625PLM070	PLM070
	1097	7799008760094		1	1	44548974	2013-01-06 10:22:00	10:22:00 AM	44548974126500.2895625PLM070	PLM070
	1097	7799008760094		1	1	44548974	2013-01-06 10:22:01	10:22:01 AM	44548974126500.2895625PLM070	PLM070
	1097	7799008760094		1	1	44548974	2013-01-06 10:22:06	10:22:06 AM	44548974126500.2895625PLM070	PLM070
	1097	7799008760094		1	1	44548974	2013-01-06 10:22:07	10:22:07 AM	44548974126500.2895625PLM070	PLM070
	1097	7799008760094		1	1	44548974	2013-01-06 10:22:07	10:22:07 AM	44548974126500.2895625PLM070	PLM070
	1097	7799008760094		1	1	44548974	2013-01-06 10:22:12	10:22:12 AM	44548974126500.2895625PLM070	PLM070
	1097	7799008760094		1	1	44548974	2013-01-06 10:22:13	10:22:13 AM	44548974126500.2895625PLM070	PLM070
	1097	7799008760094		1	1	44548974	2013-01-06 10:22:16	10:22:16 AM	44548974126500.2895625PLM070	PLM070
	1097	7799008760094		1	1	44548974	2013-01-06 10:22:21	10:22:21 AM	44548974126500.2895625PLM070	PLM070
	1097	7799008760094		1	1	44548974	2013-01-06 10:22:21	10:22:21 AM	44548974126500.2895625PLM070	PLM070
	1097	7799008760094		1	1	44548974	2013-01-06 10:22:22	10:22:22 AM	44548974126500.2895625PLM070	PLM070
	1097	7799008760094		1	1	44548974	2013-01-06 10:22:29	10:22:29 AM	44548974126500.2895625PLM070	PLM070
	1097	7799008760094		1	1	44548974	2013-01-06 10:22:30	10:22:30 AM	44548974126500.2895625PLM070	PLM070
	1097	7799008760094		1	1	44548974	2013-01-06 10:22:31	10:22:31 AM	44548974126500.2895625PLM070	PLM070
	1097	7799008760094		1	1	44548974	2013-01-06 10:22:37	10:22:37 AM	44548974126500.2895625PLM070	PLM070
	1097	7799008760094		1	1	44548974	2013-01-06 10:22:38	10:22:38 AM	44548974126500.2895625PLM070	PLM070
	1097	7799008760094		1	1	44548974	2013-01-06 10:22:39	10:22:39 AM	44548974126500.2895625PLM070	PLM070
	1097	7799008760094		1	1	44548974	2013-01-06 10:22:42	10:22:42 AM	44548974126500.2895625PLM070	PLM070
	1097	7799008760094		1	1	44548974	2013-01-06 10:22:42	10:22:42 AM	44548974126500.2895625PLM070	PLM070
	1097	7799008760094		1	1	44548974	2013-01-06 10:22:43	10:22:43 AM	44548974126500.2895625PLM070	PLM070
	1097	7799008760094		1	1	44548974	2013-01-06 10:22:44	10:22:44 AM	44548974126500.2895625PLM070	PLM070
	1097	7799008760094		1	1	44548974	2013-01-06 10:22:46	10:22:46 AM	44548974126500.2895625PLM070	PLM070
	1097	7799008760094		1	1	44548974	2013-01-06 10:22:50	10:22:50 AM	44548974126500.2895625PLM070	PLM070
	1097	7799008760094		1	1	44548974	2013-01-06 10:22:57	10:22:57 AM	44548974126500.2895625PLM070	PLM070
	1097	7799008760094		1	1	44548974	2013-01-06 10:22:59	10:22:59 AM	44548974126500.2895625PLM070	PLM070
	1097	7799008760094		1	1	44548974	2013-01-06 10:23:01	10:23:01 AM	44548974126500.2895625PLM070	PLM070
	1097	7799008760094		1	1	44548974	2013-01-06 10:23:10	10:23:10 AM	44548974126500.2895625PLM070	PLM070
	1097	7799008760094		1	1	44548974	2013-01-06 10:23:11	10:23:11 AM	44548974126500.2895625PLM070	PLM070
	1097	7799008760094		1	1	44548974	2013-01-06 10:23:13	10:23:13 AM	44548974126500.2895625PLM070	PLM070
	1097	7799008760094		1	1	44548974	2013-01-06 10:23:17	10:23:17 AM	44548974126500.2895625PLM070	PLM070
	1097	7799008760094		1	1	44548974	2013-01-06 10:23:18	10:23:18 AM	44548974126500.2895625PLM070	PLM070
	1097	7799008760094		1	1	44548974	2013-01-06 10:23:18	10:23:18 AM	44548974126500.2895625PLM070	PLM070
	1097	7799008760094		1	1	44548974	2013-01-06 10:23:22	10:23:22 AM	44548974126500.2895625PLM070	PLM070
	1097	7799008760094		1	1	44548974	2013-01-06 10:23:23	10:23:23 AM	44548974126500.2895625PLM070	PLM070
	1097	7799008760094		1	1	44548974	2013-01-06 10:23:23	10:23:23 AM	44548974126500.2895625PLM070	PLM070
	1097	7799008760094		1	1	44548974	2013-01-06 10:23:29	10:23:29 AM	44548974126500.2895625PLM070	PLM070
	1097	7799008760094		1	1	44548974	2013-01-06 10:23:30	10:23:30 AM	44548974126500.2895625PLM070	PLM070
	1097	7799008760094		1	1	44548974	2013-01-06 10:23:30	10:23:30 AM	44548974126500.2895625PLM070	PLM070
	1097	7799008760094		1	1	44548974	2013-01-06 10:23:34	10:23:34 AM	44548974126500.2895625PLM070	PLM070
	1097	7799008760094		1	1	44548974	2013-01-06 10:23:35	10:23:35 AM	44548974126500.2895625PLM070	PLM070
	1097	7799008760094		1	1	44548974	2013-01-06 10:23:35	10:23:35 AM	44548974126500.2895625PLM070	PLM070
	1097	7799008760094		1	1	44548974	2013-01-06 10:23:41	10:23:41 AM	44548974126500.2895625PLM070	PLM070
	1097	7799008760094		1	1	44548974	2013-01-06 10:23:41	10:23:41 AM	44548974126500.2895625PLM070	PLM070
	1097	7799008760094		1	1	44548974	2013-01-06 10:23:42	10:23:42 AM	44548974126500.2895625PLM070	PLM070
	1097	7799008760094		1	1	44548974	2013-01-06 10:23:46	10:23:46 AM	44548974126500.2895625PLM070	PLM070
	1097	7799008760094		1	1	44548974	2013-01-06 10:23:47	10:23:47 AM	44548974126500.2895625PLM070	PLM070
	1097	7799008760094		1	1	44548974	2013-01-06 10:23:48	10:23:48 AM	44548974126500.2895625PLM070	PLM070
	1097	7799008760094		1	1	44548974	2013-01-06 10:23:55	10:23:55 AM	44548974126500.2895625PLM070	PLM070
	1097	7799008760094		1	1	44548974	2013-01-06 10:23:56	10:23:56 AM	44548974126500.2895625PLM070	PLM070
	1097	7799008760094		1	1	44548974	2013-01-06 10:23:56	10:23:56 AM	44548974126500.2895625PLM070	PLM070
	1097	7799008760094		1	1	44548974	2013-01-06 10:24:06	10:24:06 AM	44548974126500.2895625PLM070	PLM070
	1097	7799008760094		1	1	44548974	2013-01-06 10:24:07	10:24:07 AM	44548974126500.2895625PLM070	PLM070
	1097	7799008760094		1	1	44548974	2013-01-06 10:24:12	10:24:12 AM	44548974126500.2895625PLM070	PLM070
	1097	7799008760094		1	1	44548974	2013-01-06 10:24:19	10:24:19 AM	44548974126500.2895625PLM070	PLM070
	1097	7799008760094		1	1	44548974	2013-01-06 10:24:22	10:24:22 AM	44548974126500.2895625PLM070	PLM070
	1097	7799008760094		1	1	44548974	2013-01-06 10:24:23	10:24:23 AM	44548974126500.2895625PLM070	PLM070
	1097	7799008760094		1	1	44548974	2013-01-06 10:24:27	10:24:27 AM	44548974126500.2895625PLM070	PLM070
	1097	7799008760094		1	1	44548974	2013-01-06 10:24:29	10:24:29 AM	44548974126500.2895625PLM070	PLM070
	1097	7799008760094		1	1	44548974	2013-01-06 10:24:30	10:24:30 AM	44548974126500.2895625PLM070	PLM070
	1097	7799008760094		1	1	44548974	2013-01-06 10:24:35	10:24:35 AM	44548974126500.2895625PLM070	PLM070
	1097	7799008760094		1	1	44548974	2013-01-06 10:24:35	10:24:35 AM	44548974126500.2895625PLM070	PLM070
	1097	7799008760094		1	1	44548974	2013-01-06 10:24:36	10:24:36 AM	44548974126500.2895625PLM070	PLM070
	1097	7799008760094		1	1	44548974	2013-01-06 10:24:43	10:24:43 AM	44548974126500.2895625PLM070	PLM070
	1097	7799008760094		1	1	44548974	2013-01-06 10:24:44	10:24:44 AM	44548974126500.2895625PLM070	PLM070
	1097	7799008760094		1	1	44548974	2013-01-06 10:24:45	10:24:45 AM	44548974126500.2895625PLM070	PLM070
	1097	7799008760094		1	1	44548974	2013-01-06 10:24:49	10:24:49 AM	44548974126500.2895625PLM070	PLM070
	1097	7799008760094		1	1	44548974	2013-01-06 10:24:49	10:24:49 AM	44548974126500.2895625PLM070	PLM070
	1097	7799008760094		1	1	44548974	2013-01-06 10:24:50	10:24:50 AM	44548974126500.2895625PLM070	PLM070
	1097	7799008760094		1	1	44548974	2013-01-06 10:24:54	10:24:54 AM	44548974126500.2895625PLM070	PLM070
	1097	7799008760094		1	1	44548974	2013-01-06 10:24:55	10:24:55 AM	44548974126500.2895625PLM070	PLM070
	1097	7799008760094		1	1	44548974	2013-01-06 10:24:55	10:24:55 AM	44548974126500.2895625PLM070	PLM070
	1097	7799008760094		1	1	44548974	2013-01-06 10:24:59	10:24:59 AM	44548974126500.2895625PLM070	PLM070
	1097	7799008760094		1	1	44548974	2013-01-06 10:25:00	10:25:00 AM	44548974126500.2895625PLM070	PLM070
	1097	7799008760094		1	1	44548974	2013-01-06 10:25:01	10:25:01 AM	44548974126500.2895625PLM070	PLM070
	1097	7799008760094		1	1	44548974	2013-01-06 10:25:05	10:25:05 AM	44548974126500.2895625PLM070	PLM070
	1097	7799008760094		1	1	44548974	2013-01-06 10:25:05	10:25:05 AM	44548974126500.2895625PLM070	PLM070
	1097	7799008760094		1	1	44548974	2013-01-06 10:25:06	10:25:06 AM	44548974126500.2895625PLM070	PLM070
	1097	7799008760094		1	1	44548974	2013-01-06 10:25:10	10:25:10 AM	44548974126500.2895625PLM070	PLM070
	1097	7799008760094		1	1	44548974	2013-01-06 10:25:11	10:25:11 AM	44548974126500.2895625PLM070	PLM070
	1097	7799008760094		1	1	44548974	2013-01-06 10:25:11	10:25:11 AM	44548974126500.2895625PLM070	PLM070
	1097	7799008760094		1	1	44548974	2013-01-06 10:25:15	10:25:15 AM	44548974126500.2895625PLM070	PLM070
	1097	7799008760094		1	1	44548974	2013-01-06 10:25:15	10:25:15 AM	44548974126500.2895625PLM070	PLM070
	1097	7799008760094		1	1	44548974	2013-01-06 10:25:16	10:25:16 AM	44548974126500.2895625PLM070	PLM070
	1097	7799008760094		1	1	44548974	2013-01-06 10:25:21	10:25:21 AM	44548974126500.2895625PLM070	PLM070
	1097	7799008760094		1	1	44548974	2013-01-06 10:25:22	10:25:22 AM	44548974126500.2895625PLM070	PLM070
	1097	7799008760094		1	1	44548974	2013-01-06 10:25:23	10:25:23 AM	44548974126500.2895625PLM070	PLM070
	1097	7799008760094		1	1	44548974	2013-01-06 10:25:28	10:25:28 AM	44548974126500.2895625PLM070	PLM070
	1097	7799008760094		1	1	44548974	2013-01-06 10:25:29	10:25:29 AM	44548974126500.2895625PLM070	PLM070
	1097	7799008760094		1	1	44548974	2013-01-06 10:25:30	10:25:30 AM	44548974126500.2895625PLM070	PLM070
	1097	7799008760094		1	1	44548974	2013-01-06 10:25:35	10:25:35 AM	44548974126500.2895625PLM070	PLM070
	1097	7799008760094		1	1	44548974	2013-01-06 10:25:37	10:25:37 AM	44548974126500.2895625PLM070	PLM070
	1097	7799008760094		1	1	44548974	2013-01-06 10:25:38	10:25:38 AM	44548974126500.2895625PLM070	PLM070
	1097	7799008760094		1	1	44548974	2013-01-06 10:25:44	10:25:44 AM	44548974126500.2895625PLM070	PLM070
	1097	7799008760094		1	1	44548974	2013-01-06 10:25:46	10:25:46 AM	44548974126500.2895625PLM070	PLM070
	1097	7799008760094		1	1	44548974	2013-01-06 10:25:47	10:25:47 AM	44548974126500.2895625PLM070	PLM070
	1097	7799008760094		1	1	44548974	2013-01-06 10:25:50	10:25:50 AM	44548974126500.2895625PLM070	PLM070
	1097	7799008760094		1	1	44548974	2013-01-06 10:25:51	10:25:51 AM	44548974126500.2895625PLM070	PLM070
	1097	7799008760094		1	1	44548974	2013-01-06 10:25:52	10:25:52 AM	44548974126500.2895625PLM070	PLM070
	1097	7799008760094		1	1	44548974	2013-01-06 10:25:59	10:25:59 AM	44548974126500.2895625PLM070	PLM070
	1097	7799008760094		1	1	44548974	2013-01-06 10:25:59	10:25:59 AM	44548974126500.2895625PLM070	PLM070
	1097	7799008760094		1	1	44548974	2013-01-06 10:26:00	10:26:00 AM	44548974126500.2895625PLM070	PLM070
	1097	7799021037357		1	1	44548974	2013-01-06 10:27:41	10:27:41 AM	44548974126500.2895625PLM070	PLM070
	1097	7799021037357		1	1	44548974	2013-01-06 10:27:43	10:27:43 AM	44548974126500.2895625PLM070	PLM070
	1097	7799021037357		1	1	44548974	2013-01-06 10:27:46	10:27:46 AM	44548974126500.2895625PLM070	PLM070
	1097	7799021037357		1	1	44548974	2013-01-06 10:27:50	10:27:50 AM	44548974126500.2895625PLM070	PLM070
	1097	7799021037357		1	1	44548974	2013-01-06 10:27:51	10:27:51 AM	44548974126500.2895625PLM070	PLM070
	1097	7799021037357		1	1	44548974	2013-01-06 10:27:53	10:27:53 AM	44548974126500.2895625PLM070	PLM070
	1097	7799021037357		1	1	44548974	2013-01-06 10:27:56	10:27:56 AM	44548974126500.2895625PLM070	PLM070
	1097	7799021037357		1	1	44548974	2013-01-06 10:28:00	10:28:00 AM	44548974126500.2895625PLM070	PLM070
	1097	7799021037357		1	1	44548974	2013-01-06 10:28:02	10:28:02 AM	44548974126500.2895625PLM070	PLM070
	1097	7799021037357		1	1	44548974	2013-01-06 10:28:08	10:28:08 AM	44548974126500.2895625PLM070	PLM070
	1097	7799021037357		1	1	44548974	2013-01-06 10:28:09	10:28:09 AM	44548974126500.2895625PLM070	PLM070
	1097	7799021037357		1	1	44548974	2013-01-06 10:28:12	10:28:12 AM	44548974126500.2895625PLM070	PLM070
	1097	7799021037357		1	1	44548974	2013-01-06 10:28:15	10:28:15 AM	44548974126500.2895625PLM070	PLM070
	1097	7799021037357		1	1	44548974	2013-01-06 10:28:17	10:28:17 AM	44548974126500.2895625PLM070	PLM070
	1097	7799021037357		1	1	44548974	2013-01-06 10:28:19	10:28:19 AM	44548974126500.2895625PLM070	PLM070
	1097	7799021037357		1	1	44548974	2013-01-06 10:28:22	10:28:22 AM	44548974126500.2895625PLM070	PLM070
	1097	7799021037357		1	1	44548974	2013-01-06 10:28:25	10:28:25 AM	44548974126500.2895625PLM070	PLM070
	1097	7799021037357		1	1	44548974	2013-01-06 10:28:26	10:28:26 AM	44548974126500.2895625PLM070	PLM070
	1097	7799021037357		1	1	44548974	2013-01-06 10:28:29	10:28:29 AM	44548974126500.2895625PLM070	PLM070
	1097	7799021037357		1	1	44548974	2013-01-06 10:28:31	10:28:31 AM	44548974126500.2895625PLM070	PLM070
	1097	7799021037357		1	1	44548974	2013-01-06 10:28:33	10:28:33 AM	44548974126500.2895625PLM070	PLM070
	1097	7799021037357		1	1	44548974	2013-01-06 10:28:36	10:28:36 AM	44548974126500.2895625PLM070	PLM070
	1097	7799021037357		1	1	44548974	2013-01-06 10:28:38	10:28:38 AM	44548974126500.2895625PLM070	PLM070
	1097	7799021037357		1	1	44548974	2013-01-06 10:28:41	10:28:41 AM	44548974126500.2895625PLM070	PLM070
	1097	7799021037357		1	1	44548974	2013-01-06 10:28:45	10:28:45 AM	44548974126500.2895625PLM070	PLM070
	1097	7799021037357		1	1	44548974	2013-01-06 10:28:47	10:28:47 AM	44548974126500.2895625PLM070	PLM070
	1097	7799021037357		1	1	44548974	2013-01-06 10:28:52	10:28:52 AM	44548974126500.2895625PLM070	PLM070
	1097	7799021037357		1	1	44548974	2013-01-06 10:28:56	10:28:56 AM	44548974126500.2895625PLM070	PLM070
	1097	7799021037357		1	1	44548974	2013-01-06 10:28:57	10:28:57 AM	44548974126500.2895625PLM070	PLM070
	1097	7799021037357		1	1	44548974	2013-01-06 10:29:00	10:29:00 AM	44548974126500.2895625PLM070	PLM070
	1097	7799021037357		1	1	44548974	2013-01-06 10:29:02	10:29:02 AM	44548974126500.2895625PLM070	PLM070
	1097	7799021037357		1	1	44548974	2013-01-06 10:29:03	10:29:03 AM	44548974126500.2895625PLM070	PLM070
	1097	7799021037357		1	1	44548974	2013-01-06 10:29:07	10:29:07 AM	44548974126500.2895625PLM070	PLM070
	1097	7799021037357		1	1	44548974	2013-01-06 10:29:09	10:29:09 AM	44548974126500.2895625PLM070	PLM070
	1097	7799021037357		1	1	44548974	2013-01-06 10:29:11	10:29:11 AM	44548974126500.2895625PLM070	PLM070
	1097	7799021037357		1	1	44548974	2013-01-06 10:29:15	10:29:15 AM	44548974126500.2895625PLM070	PLM070
	1097	7799021037357		1	1	44548974	2013-01-06 10:29:18	10:29:18 AM	44548974126500.2895625PLM070	PLM070
	1097	7799021037357		1	1	44548974	2013-01-06 10:29:20	10:29:20 AM	44548974126500.2895625PLM070	PLM070
	1097	7799021037357		1	1	44548974	2013-01-06 10:29:23	10:29:23 AM	44548974126500.2895625PLM070	PLM070
	1097	7799021037357		1	1	44548974	2013-01-06 10:29:25	10:29:25 AM	44548974126500.2895625PLM070	PLM070
	1097	7799021037357		1	1	44548974	2013-01-06 10:29:28	10:29:28 AM	44548974126500.2895625PLM070	PLM070
	1097	7799021037357		1	1	44548974	2013-01-06 10:29:30	10:29:30 AM	44548974126500.2895625PLM070	PLM070
	1097	7799021037357		1	1	44548974	2013-01-06 10:29:32	10:29:32 AM	44548974126500.2895625PLM070	PLM070
	1097	7799021037357		1	1	44548974	2013-01-06 10:29:35	10:29:35 AM	44548974126500.2895625PLM070	PLM070
	1097	7799008760094		1	1	44548974	2013-01-06 10:29:48	10:29:48 AM	44548974126500.2895625PLM070	PLM070
	1097	7799008760094		1	1	44548974	2013-01-06 10:29:49	10:29:49 AM	44548974126500.2895625PLM070	PLM070
	1097	7799008760094		1	1	44548974	2013-01-06 10:29:50	10:29:50 AM	44548974126500.2895625PLM070	PLM070
	1097	7799021037357		1	1	44548974	2013-01-06 10:29:58	10:29:58 AM	44548974126500.2895625PLM070	PLM070
	1097	7799021037357		1	1	44548974	2013-01-06 10:30:11	10:30:11 AM	44548974126500.2895625PLM070	PLM070
	1097	7799021037357		1	1	44548974	2013-01-06 10:30:11	10:30:11 AM	44548974126500.2895625PLM070	PLM070
	1097	7799021037357		1	1	44548974	2013-01-06 10:30:15	10:30:15 AM	44548974126500.2895625PLM070	PLM070
	1097	7799021037357		1	1	44548974	2013-01-06 10:30:16	10:30:16 AM	44548974126500.2895625PLM070	PLM070
	1097	7799021037357		1	1	44548974	2013-01-06 10:30:20	10:30:20 AM	44548974126500.2895625PLM070	PLM070
	1097	7799021037357		1	1	44548974	2013-01-06 10:30:22	10:30:22 AM	44548974126500.2895625PLM070	PLM070
	1097	7799021037357		1	1	44548974	2013-01-06 10:30:29	10:30:29 AM	44548974126500.2895625PLM070	PLM070
	1097	7799021037357		1	1	44548974	2013-01-06 10:30:31	10:30:31 AM	44548974126500.2895625PLM070	PLM070
	1097	7799021037357		1	1	44548974	2013-01-06 10:30:34	10:30:34 AM	44548974126500.2895625PLM070	PLM070
	1097	7799021037357		1	1	44548974	2013-01-06 10:30:38	10:30:38 AM	44548974126500.2895625PLM070	PLM070
	1097	7799021037357		1	1	44548974	2013-01-06 10:30:39	10:30:39 AM	44548974126500.2895625PLM070	PLM070
	1097	7799021037357		1	1	44548974	2013-01-06 10:30:47	10:30:47 AM	44548974126500.2895625PLM070	PLM070
	1097	7799021037340		1	1	44548974	2013-01-06 10:30:50	10:30:50 AM	44548974126500.2895625PLM070	PLM070
	1097	7799021037357		1	1	44548974	2013-01-06 10:30:53	10:30:53 AM	44548974126500.2895625PLM070	PLM070
	1097	7799021037357		1	1	44548974	2013-01-06 10:30:56	10:30:56 AM	44548974126500.2895625PLM070	PLM070
	1097	7799021037357		1	1	44548974	2013-01-06 10:31:04	10:31:04 AM	44548974126500.2895625PLM070	PLM070
	1097	7799021037357		1	1	44548974	2013-01-06 10:31:05	10:31:05 AM	44548974126500.2895625PLM070	PLM070
	1097	7799021037357		1	1	44548974	2013-01-06 10:31:15	10:31:15 AM	44548974126500.2895625PLM070	PLM070
	1097	7799021037357		1	1	44548974	2013-01-06 10:31:20	10:31:20 AM	44548974126500.2895625PLM070	PLM070
	1097	7799021037357		1	1	44548974	2013-01-06 10:31:33	10:31:33 AM	44548974126500.2895625PLM070	PLM070
	1097	7799021037357		1	1	44548974	2013-01-06 10:31:34	10:31:34 AM	44548974126500.2895625PLM070	PLM070
	1097	7799021037357		1	1	44548974	2013-01-06 10:31:37	10:31:37 AM	44548974126500.2895625PLM070	PLM070
	1097	7799021037357		1	1	44548974	2013-01-06 10:31:40	10:31:40 AM	44548974126500.2895625PLM070	PLM070
	1097	7799021037357		1	1	44548974	2013-01-06 10:31:42	10:31:42 AM	44548974126500.2895625PLM070	PLM070
	1097	7799021037357		1	1	44548974	2013-01-06 10:31:45	10:31:45 AM	44548974126500.2895625PLM070	PLM070
	1097	7799021037357		1	1	44548974	2013-01-06 10:31:52	10:31:52 AM	44548974126500.2895625PLM070	PLM070
	1097	7799021037357		1	1	44548974	2013-01-06 10:31:55	10:31:55 AM	44548974126500.2895625PLM070	PLM070
	1097	7799021037357		1	1	44548974	2013-01-06 10:32:06	10:32:06 AM	44548974126500.2895625PLM070	PLM070
	1097	7799021037357		1	1	44548974	2013-01-06 10:32:11	10:32:11 AM	44548974126500.2895625PLM070	PLM070
	1097	7799021037357		1	1	44548974	2013-01-06 10:32:15	10:32:15 AM	44548974126500.2895625PLM070	PLM070
	1097	7799021037357		1	1	44548974	2013-01-06 10:32:20	10:32:20 AM	44548974126500.2895625PLM070	PLM070
	1097	7799021037357		1	1	44548974	2013-01-06 10:32:23	10:32:23 AM	44548974126500.2895625PLM070	PLM070
	1097	7799021037357		1	1	44548974	2013-01-06 10:32:27	10:32:27 AM	44548974126500.2895625PLM070	PLM070
	1097	7799021037357		1	1	44548974	2013-01-06 10:32:29	10:32:29 AM	44548974126500.2895625PLM070	PLM070
	1097	7799021037357		1	1	44548974	2013-01-06 10:32:34	10:32:34 AM	44548974126500.2895625PLM070	PLM070
	1097	7799021037357		1	1	44548974	2013-01-06 10:32:34	10:32:34 AM	44548974126500.2895625PLM070	PLM070
	1097	7799021037357		1	1	44548974	2013-01-06 10:32:38	10:32:38 AM	44548974126500.2895625PLM070	PLM070
	1097	7799021037357		1	1	44548974	2013-01-06 10:32:41	10:32:41 AM	44548974126500.2895625PLM070	PLM070
	1097	7799021037357		1	1	44548974	2013-01-06 10:32:44	10:32:44 AM	44548974126500.2895625PLM070	PLM070
	1097	7799021037357		1	1	44548974	2013-01-06 10:32:47	10:32:47 AM	44548974126500.2895625PLM070	PLM070
	1097	7799021037357		1	1	44548974	2013-01-06 10:32:53	10:32:53 AM	44548974126500.2895625PLM070	PLM070
	1097	7799021037357		1	1	44548974	2013-01-06 10:32:55	10:32:55 AM	44548974126500.2895625PLM070	PLM070
	1097	7799021037357		1	1	44548974	2013-01-06 10:33:00	10:33:00 AM	44548974126500.2895625PLM070	PLM070
	1097	7799021037357		1	1	44548974	2013-01-06 10:33:03	10:33:03 AM	44548974126500.2895625PLM070	PLM070
	1097	7799021037357		1	1	44548974	2013-01-06 10:33:05	10:33:05 AM	44548974126500.2895625PLM070	PLM070
	1097	7799021037357		1	1	44548974	2013-01-06 10:33:08	10:33:08 AM	44548974126500.2895625PLM070	PLM070
	1097	7799021037357		1	1	44548974	2013-01-06 10:33:11	10:33:11 AM	44548974126500.2895625PLM070	PLM070
	1097	7799021037357		1	1	44548974	2013-01-06 10:33:14	10:33:14 AM	44548974126500.2895625PLM070	PLM070
	1097	7799021037357		1	1	44548974	2013-01-06 10:33:18	10:33:18 AM	44548974126500.2895625PLM070	PLM070
	1097	7799021037357		1	1	44548974	2013-01-06 10:33:22	10:33:22 AM	44548974126500.2895625PLM070	PLM070
	1097	7799021037357		1	1	44548974	2013-01-06 10:33:23	10:33:23 AM	44548974126500.2895625PLM070	PLM070
	1097	7799021037357		1	1	44548974	2013-01-06 10:33:26	10:33:26 AM	44548974126500.2895625PLM070	PLM070
	1097	7799021037357		1	1	44548974	2013-01-06 10:33:31	10:33:31 AM	44548974126500.2895625PLM070	PLM070
	1097	7799021037357		1	1	44548974	2013-01-06 10:33:32	10:33:32 AM	44548974126500.2895625PLM070	PLM070
	1097	7799021037357		1	1	44548974	2013-01-06 10:33:43	10:33:43 AM	44548974126500.2895625PLM070	PLM070
	1097	7799021037357		1	1	44548974	2013-01-06 10:33:44	10:33:44 AM	44548974126500.2895625PLM070	PLM070
	1097	7799021037357		1	1	44548974	2013-01-06 10:33:47	10:33:47 AM	44548974126500.2895625PLM070	PLM070
	1097	7799021037357		1	1	44548974	2013-01-06 10:33:48	10:33:48 AM	44548974126500.2895625PLM070	PLM070
	1097	7799021037357		1	1	44548974	2013-01-06 10:33:56	10:33:56 AM	44548974126500.2895625PLM070	PLM070
	1097	7799021037357		1	1	44548974	2013-01-06 10:33:58	10:33:58 AM	44548974126500.2895625PLM070	PLM070
	1097	7799021037357		1	1	44548974	2013-01-06 10:34:01	10:34:01 AM	44548974126500.2895625PLM070	PLM070
	1097	7799021037357		1	1	44548974	2013-01-06 10:34:05	10:34:05 AM	44548974126500.2895625PLM070	PLM070
	1097	7799021037357		1	1	44548974	2013-01-06 10:34:07	10:34:07 AM	44548974126500.2895625PLM070	PLM070
	1097	7799021037340		1	1	44548974	2013-01-06 10:34:12	10:34:12 AM	44548974126500.2895625PLM070	PLM070
	1097	7799021037357		1	1	44548974	2013-01-06 10:34:12	10:34:12 AM	44548974126500.2895625PLM070	PLM070
	1097	7799021037357		1	1	44548974	2013-01-06 10:34:17	10:34:17 AM	44548974126500.2895625PLM070	PLM070
	1097	7799008760094		1	1	44548974	2013-01-06 10:34:19	10:34:19 AM	44548974126500.2895625PLM070	PLM070
	1097	7799021037357		1	1	44548974	2013-01-06 10:34:23	10:34:23 AM	44548974126500.2895625PLM070	PLM070
	1097	7799021037357		1	1	44548974	2013-01-06 10:34:26	10:34:26 AM	44548974126500.2895625PLM070	PLM070
	1097	7799021037357		1	1	44548974	2013-01-06 10:34:31	10:34:31 AM	44548974126500.2895625PLM070	PLM070
	1097	7799021037357		1	1	44548974	2013-01-06 10:34:35	10:34:35 AM	44548974126500.2895625PLM070	PLM070
	1097	7799021037357		1	1	44548974	2013-01-06 10:34:42	10:34:42 AM	44548974126500.2895625PLM070	PLM070
	1097	7799021037357		1	1	44548974	2013-01-06 10:34:52	10:34:52 AM	44548974126500.2895625PLM070	PLM070
	1097	7799021037357		1	1	44548974	2013-01-06 10:34:56	10:34:56 AM	44548974126500.2895625PLM070	PLM070
	1097	7799021037357		1	1	44548974	2013-01-06 10:35:01	10:35:01 AM	44548974126500.2895625PLM070	PLM070
	1097	7799021037357		1	1	44548974	2013-01-06 10:35:02	10:35:02 AM	44548974126500.2895625PLM070	PLM070
	1097	7799021037357		1	1	44548974	2013-01-06 10:35:07	10:35:07 AM	44548974126500.2895625PLM070	PLM070
	1097	7799021037357		1	1	44548974	2013-01-06 10:35:08	10:35:08 AM	44548974126500.2895625PLM070	PLM070
	1097	7799021037357		1	1	44548974	2013-01-06 10:35:13	10:35:13 AM	44548974126500.2895625PLM070	PLM070
	1097	7799021037357		1	1	44548974	2013-01-06 10:35:14	10:35:14 AM	44548974126500.2895625PLM070	PLM070
	1097	7799021037357		1	1	44548974	2013-01-06 10:35:19	10:35:19 AM	44548974126500.2895625PLM070	PLM070
	1097	7799021037357		1	1	44548974	2013-01-06 10:35:33	10:35:33 AM	44548974126500.2895625PLM070	PLM070
	1097	7799021037357		1	1	44548974	2013-01-06 10:35:34	10:35:34 AM	44548974126500.2895625PLM070	PLM070
	1097	7799008760094		1	1	44548974	2013-01-06 10:35:40	10:35:40 AM	44548974126500.2895625PLM070	PLM070
	1097	7799008760094		1	1	44548974	2013-01-06 10:35:41	10:35:41 AM	44548974126500.2895625PLM070	PLM070
	1097	7799008760094		1	1	44548974	2013-01-06 10:35:42	10:35:42 AM	44548974126500.2895625PLM070	PLM070
	1097	7799021037357		1	1	44548974	2013-01-06 10:35:55	10:35:55 AM	44548974126500.2895625PLM070	PLM070
	1097	7799021037357		1	1	44548974	2013-01-06 10:35:58	10:35:58 AM	44548974126500.2895625PLM070	PLM070
	1097	7799021037357		1	1	44548974	2013-01-06 10:36:01	10:36:01 AM	44548974126500.2895625PLM070	PLM070
	1097	7799021037357		1	1	44548974	2013-01-06 10:36:03	10:36:03 AM	44548974126500.2895625PLM070	PLM070
	1097	7799021037357		1	1	44548974	2013-01-06 10:36:06	10:36:06 AM	44548974126500.2895625PLM070	PLM070
	1097	7799021037357		1	1	44548974	2013-01-06 10:36:09	10:36:09 AM	44548974126500.2895625PLM070	PLM070
	1097	7799021037357		1	1	44548974	2013-01-06 10:36:11	10:36:11 AM	44548974126500.2895625PLM070	PLM070
	1097	7799021037357		1	1	44548974	2013-01-06 10:36:24	10:36:24 AM	44548974126500.2895625PLM070	PLM070
	1097	7799021037357		1	1	44548974	2013-01-06 10:36:25	10:36:25 AM	44548974126500.2895625PLM070	PLM070
	1097	7799021037357		1	1	44548974	2013-01-06 10:36:30	10:36:30 AM	44548974126500.2895625PLM070	PLM070
	1097	7799021037357		1	1	44548974	2013-01-06 10:36:32	10:36:32 AM	44548974126500.2895625PLM070	PLM070
	1097	7799021037357		1	1	44548974	2013-01-06 10:36:38	10:36:38 AM	44548974126500.2895625PLM070	PLM070
	1097	7799021037357		1	1	44548974	2013-01-06 10:36:39	10:36:39 AM	44548974126500.2895625PLM070	PLM070
	1097	7799021037357		1	1	44548974	2013-01-06 10:37:42	10:37:42 AM	44548974126500.2895625PLM070	PLM070
	1097	7799021037357		1	1	44548974	2013-01-06 10:37:47	10:37:47 AM	44548974126500.2895625PLM070	PLM070
	1097	7799021037357		1	1	44548974	2013-01-06 10:37:48	10:37:48 AM	44548974126500.2895625PLM070	PLM070
	1097	7799021037357		1	1	44548974	2013-01-06 10:37:48	10:37:48 AM	44548974126500.2895625PLM070	PLM070
	1097	7799021037357		1	1	44548974	2013-01-06 10:38:07	10:38:07 AM	44548974126500.2895625PLM070	PLM070
	1097	7799021037357		1	1	44548974	2013-01-06 10:38:08	10:38:08 AM	44548974126500.2895625PLM070	PLM070
	1097	7799021037357		1	1	44548974	2013-01-06 10:38:11	10:38:11 AM	44548974126500.2895625PLM070	PLM070
	1097	7799021037357		1	1	44548974	2013-01-06 10:38:13	10:38:13 AM	44548974126500.2895625PLM070	PLM070
	1097	7799021037357		1	1	44548974	2013-01-06 10:38:14	10:38:14 AM	44548974126500.2895625PLM070	PLM070
	1097	7799021037357		1	1	44548974	2013-01-06 10:38:17	10:38:17 AM	44548974126500.2895625PLM070	PLM070
	1097	7799021037357		1	1	44548974	2013-01-06 10:38:18	10:38:18 AM	44548974126500.2895625PLM070	PLM070
	1097	7799021037357		1	1	44548974	2013-01-06 10:38:22	10:38:22 AM	44548974126500.2895625PLM070	PLM070
	1097	7799021037357		1	1	44548974	2013-01-06 10:38:25	10:38:25 AM	44548974126500.2895625PLM070	PLM070
	1097	7799021037357		1	1	44548974	2013-01-06 10:38:29	10:38:29 AM	44548974126500.2895625PLM070	PLM070
	1097	7799021037357		1	1	44548974	2013-01-06 10:38:31	10:38:31 AM	44548974126500.2895625PLM070	PLM070
	1097	7799021037357		1	1	44548974	2013-01-06 10:38:33	10:38:33 AM	44548974126500.2895625PLM070	PLM070
	1097	7799021037357		1	1	44548974	2013-01-06 10:38:35	10:38:35 AM	44548974126500.2895625PLM070	PLM070
	1097	7799008760094		1	1	44548974	2013-01-06 10:38:54	10:38:54 AM	44548974126500.2895625PLM070	PLM070
	1097	7799008760094		1	1	44548974	2013-01-06 10:38:57	10:38:57 AM	44548974126500.2895625PLM070	PLM070
	1097	7799008760094		1	1	44548974	2013-01-06 10:38:58	10:38:58 AM	44548974126500.2895625PLM070	PLM070
	1097	7799008760094		1	1	44548974	2013-01-06 10:39:01	10:39:01 AM	44548974126500.2895625PLM070	PLM070
	1097	7799008760094		1	1	44548974	2013-01-06 10:39:01	10:39:01 AM	44548974126500.2895625PLM070	PLM070
	1097	7799008760094		1	1	44548974	2013-01-06 10:39:03	10:39:03 AM	44548974126500.2895625PLM070	PLM070
	1097	7799021037357		1	1	44548974	2013-01-06 10:39:06	10:39:06 AM	44548974126500.2895625PLM070	PLM070
	1097	7799021037357		1	1	44548974	2013-01-06 10:39:06	10:39:06 AM	44548974126500.2895625PLM070	PLM070
	1097	7799021037357		1	1	44548974	2013-01-06 10:39:07	10:39:07 AM	44548974126500.2895625PLM070	PLM070
	1097	7799021037357		1	1	44548974	2013-01-06 10:39:17	10:39:17 AM	44548974126500.2895625PLM070	PLM070
	1097	7799021037357		1	1	44548974	2013-01-06 10:39:18	10:39:18 AM	44548974126500.2895625PLM070	PLM070
	1097	7799021037357		1	1	44548974	2013-01-06 10:39:20	10:39:20 AM	44548974126500.2895625PLM070	PLM070
	1097	7799021037357		1	1	44548974	2013-01-06 10:39:23	10:39:23 AM	44548974126500.2895625PLM070	PLM070
	1097	7799021037357		1	1	44548974	2013-01-06 10:39:24	10:39:24 AM	44548974126500.2895625PLM070	PLM070
	1097	7799021037357		1	1	44548974	2013-01-06 10:39:26	10:39:26 AM	44548974126500.2895625PLM070	PLM070
	1097	7799021037357		1	1	44548974	2013-01-06 10:39:28	10:39:28 AM	44548974126500.2895625PLM070	PLM070
	1097	7799021037357		1	1	44548974	2013-01-06 10:39:29	10:39:29 AM	44548974126500.2895625PLM070	PLM070
	1097	7799021037357		1	1	44548974	2013-01-06 10:39:31	10:39:31 AM	44548974126500.2895625PLM070	PLM070
	1097	7799021037357		1	1	44548974	2013-01-06 10:39:36	10:39:36 AM	44548974126500.2895625PLM070	PLM070
	1097	7799021037357		1	1	44548974	2013-01-06 10:39:38	10:39:38 AM	44548974126500.2895625PLM070	PLM070
	1097	7799021037357		1	1	44548974	2013-01-06 10:39:40	10:39:40 AM	44548974126500.2895625PLM070	PLM070
	1097	7799021037357		1	1	44548974	2013-01-06 10:39:42	10:39:42 AM	44548974126500.2895625PLM070	PLM070
	1096	7799021037159		1	1	44548974	2013-01-06 10:42:20	10:42:20 AM	44548974126500.2895625PLM070	PLM070
	1096	7799021037159		1	1	44548974	2013-01-06 10:42:21	10:42:21 AM	44548974126500.2895625PLM070	PLM070
	1096	7799021037159		1	1	44548974	2013-01-06 10:42:22	10:42:22 AM	44548974126500.2895625PLM070	PLM070
	1096	7799021037159		1	1	44548974	2013-01-06 10:42:52	10:42:52 AM	44548974126500.2895625PLM070	PLM070
	1096	7799021037159		1	1	44548974	2013-01-06 10:42:55	10:42:55 AM	44548974126500.2895625PLM070	PLM070
	1096	7799021037159		1	1	44548974	2013-01-06 10:43:04	10:43:04 AM	44548974126500.2895625PLM070	PLM070
	1096	7799021037159		1	1	44548974	2013-01-06 10:43:15	10:43:15 AM	44548974126500.2895625PLM070	PLM070
	1096	7799021037159		1	1	44548974	2013-01-06 10:43:32	10:43:32 AM	44548974126500.2895625PLM070	PLM070
	1096	7799021037159		1	1	44548974	2013-01-06 10:43:58	10:43:58 AM	44548974126500.2895625PLM070	PLM070
	1096	7799021037159		1	1	44548974	2013-01-06 10:44:16	10:44:16 AM	44548974126500.2895625PLM070	PLM070
	1096	7799021037159		1	1	44548974	2013-01-06 10:44:16	10:44:16 AM	44548974126500.2895625PLM070	PLM070
	1096	7799021037159		1	1	44548974	2013-01-06 10:44:18	10:44:18 AM	44548974126500.2895625PLM070	PLM070
	1096	7799008912417		1	1	44548974	2013-01-06 10:44:32	10:44:32 AM	44548974126500.2895625PLM070	PLM070
	1096	7799008912417		1	1	44548974	2013-01-06 10:44:33	10:44:33 AM	44548974126500.2895625PLM070	PLM070
	1096	7799008912417		1	1	44548974	2013-01-06 10:44:35	10:44:35 AM	44548974126500.2895625PLM070	PLM070
	1096	7799021037159		1	1	44548974	2013-01-06 10:45:04	10:45:04 AM	44548974126500.2895625PLM070	PLM070
	1096	7799021037159		1	1	44548974	2013-01-06 10:45:07	10:45:07 AM	44548974126500.2895625PLM070	PLM070
	1096	7799021037159		1	1	44548974	2013-01-06 10:45:16	10:45:16 AM	44548974126500.2895625PLM070	PLM070
	1096	7799021037159		1	1	44548974	2013-01-06 10:45:45	10:45:45 AM	44548974126500.2895625PLM070	PLM070
	1096	7799021037159		1	1	44548974	2013-01-06 10:45:54	10:45:54 AM	44548974126500.2895625PLM070	PLM070
	1096	7799021037159		1	1	44548974	2013-01-06 10:45:59	10:45:59 AM	44548974126500.2895625PLM070	PLM070
	1096	7799008912417		1	1	44548974	2013-01-06 10:46:04	10:46:04 AM	44548974126500.2895625PLM070	PLM070
	1096	7799021037159		1	1	44548974	2013-01-06 10:46:28	10:46:28 AM	44548974126500.2895625PLM070	PLM070
	1096	7799021037159		1	1	44548974	2013-01-06 10:46:29	10:46:29 AM	44548974126500.2895625PLM070	PLM070
	1096	7799021037159		1	1	44548974	2013-01-06 10:46:32	10:46:32 AM	44548974126500.2895625PLM070	PLM070
	1096	7799021037159		1	1	44548974	2013-01-06 10:46:57	10:46:57 AM	44548974126500.2895625PLM070	PLM070
	1096	7799021037159		1	1	44548974	2013-01-06 10:47:02	10:47:02 AM	44548974126500.2895625PLM070	PLM070
	1096	7799021037159		1	1	44548974	2013-01-06 10:47:23	10:47:23 AM	44548974126500.2895625PLM070	PLM070
	1096	7799008912417		1	1	44548974	2013-01-06 10:47:28	10:47:29 AM	44548974126500.2895625PLM070	PLM070
	1096	7799021037159		1	1	44548974	2013-01-06 10:47:39	10:47:39 AM	44548974126500.2895625PLM070	PLM070
	1096	7799021037159		1	1	44548974	2013-01-06 10:47:45	10:47:45 AM	44548974126500.2895625PLM070	PLM070
	1096	7799021037159		1	1	44548974	2013-01-06 10:47:56	10:47:56 AM	44548974126500.2895625PLM070	PLM070
	1096	7799021037159		1	1	44548974	2013-01-06 10:48:33	10:48:33 AM	44548974126500.2895625PLM070	PLM070
	1096	7799021037159		1	1	44548974	2013-01-06 10:48:33	10:48:33 AM	44548974126500.2895625PLM070	PLM070
	1096	7799021037159		1	1	44548974	2013-01-06 10:48:34	10:48:34 AM	44548974126500.2895625PLM070	PLM070
	1096	7799021037159		1	1	44548974	2013-01-06 10:48:55	10:48:55 AM	44548974126500.2895625PLM070	PLM070
	1096	7799021037159		1	1	44548974	2013-01-06 10:48:57	10:48:57 AM	44548974126500.2895625PLM070	PLM070
	1096	7799021037159		1	1	44548974	2013-01-06 10:48:58	10:48:58 AM	44548974126500.2895625PLM070	PLM070
	1096	7799021037159		1	1	44548974	2013-01-06 10:49:09	10:49:09 AM	44548974126500.2895625PLM070	PLM070
	1096	7799021037159		1	1	44548974	2013-01-06 10:49:17	10:49:17 AM	44548974126500.2895625PLM070	PLM070
	1096	7799021037159		1	1	44548974	2013-01-06 10:49:46	10:49:46 AM	44548974126500.2895625PLM070	PLM070
	1096	7799021037159		1	1	44548974	2013-01-06 10:49:47	10:49:47 AM	44548974126500.2895625PLM070	PLM070
	1096	7799021037159		1	1	44548974	2013-01-06 10:49:48	10:49:48 AM	44548974126500.2895625PLM070	PLM070
	1096	7799021037159		1	1	44548974	2013-01-06 10:50:13	10:50:13 AM	44548974126500.2895625PLM070	PLM070
	1096	7799021037159		1	1	44548974	2013-01-06 10:50:14	10:50:14 AM	44548974126500.2895625PLM070	PLM070
	1096	7799021037159		1	1	44548974	2013-01-06 10:50:14	10:50:14 AM	44548974126500.2895625PLM070	PLM070
	1096	7799021037159		1	1	44548974	2013-01-06 10:50:34	10:50:34 AM	44548974126500.2895625PLM070	PLM070
	1096	7799021037159		1	1	44548974	2013-01-06 10:50:35	10:50:35 AM	44548974126500.2895625PLM070	PLM070
	1096	7799021037159		1	1	44548974	2013-01-06 10:50:40	10:50:40 AM	44548974126500.2895625PLM070	PLM070
	1096	7799021037159		1	1	44548974	2013-01-06 10:50:59	10:50:59 AM	44548974126500.2895625PLM070	PLM070
	1096	7799021037159		1	1	44548974	2013-01-06 10:50:59	10:50:59 AM	44548974126500.2895625PLM070	PLM070
	1096	7799021037159		1	1	44548974	2013-01-06 10:51:00	10:51:00 AM	44548974126500.2895625PLM070	PLM070
	1098	7799008967004		1	1	44548974	2013-01-06 10:52:35	10:52:35 AM	44548974126500.2895625PLM070	PLM070
	1098	7799008967004		1	1	44548974	2013-01-06 10:52:35	10:52:35 AM	44548974126500.2895625PLM070	PLM070
	1098	7799008967004		1	1	44548974	2013-01-06 10:52:36	10:52:36 AM	44548974126500.2895625PLM070	PLM070
	1098	7799008967004		1	1	44548974	2013-01-06 10:52:41	10:52:41 AM	44548974126500.2895625PLM070	PLM070
	1098	7799008967004		1	1	44548974	2013-01-06 10:52:43	10:52:43 AM	44548974126500.2895625PLM070	PLM070
	1098	7799008967004		1	1	44548974	2013-01-06 10:52:44	10:52:44 AM	44548974126500.2895625PLM070	PLM070
	1098	7799008967004		1	1	44548974	2013-01-06 10:52:48	10:52:48 AM	44548974126500.2895625PLM070	PLM070
	1098	7799008967004		1	1	44548974	2013-01-06 10:52:50	10:52:50 AM	44548974126500.2895625PLM070	PLM070
	1098	7799008967004		1	1	44548974	2013-01-06 10:52:51	10:52:51 AM	44548974126500.2895625PLM070	PLM070
	1098	7799008967004		1	1	44548974	2013-01-06 10:52:58	10:52:58 AM	44548974126500.2895625PLM070	PLM070
	1098	7799008967004		1	1	44548974	2013-01-06 10:52:59	10:52:59 AM	44548974126500.2895625PLM070	PLM070
	1098	7799008967004		1	1	44548974	2013-01-06 10:53:00	10:53:00 AM	44548974126500.2895625PLM070	PLM070
	1098	7799008967004		1	1	44548974	2013-01-06 10:53:05	10:53:05 AM	44548974126500.2895625PLM070	PLM070
	1098	7799008967004		1	1	44548974	2013-01-06 10:53:06	10:53:06 AM	44548974126500.2895625PLM070	PLM070
	1098	7799008967004		1	1	44548974	2013-01-06 10:53:07	10:53:07 AM	44548974126500.2895625PLM070	PLM070
	1098	7799008967004		1	1	44548974	2013-01-06 10:53:11	10:53:11 AM	44548974126500.2895625PLM070	PLM070
	1098	7799008967004		1	1	44548974	2013-01-06 10:53:12	10:53:12 AM	44548974126500.2895625PLM070	PLM070
	1098	7799008967004		1	1	44548974	2013-01-06 10:53:12	10:53:12 AM	44548974126500.2895625PLM070	PLM070
	1098	7799008967004		1	1	44548974	2013-01-06 10:53:17	10:53:17 AM	44548974126500.2895625PLM070	PLM070
	1098	7799008967004		1	1	44548974	2013-01-06 10:53:20	10:53:20 AM	44548974126500.2895625PLM070	PLM070
	1098	7799008967004		1	1	44548974	2013-01-06 10:53:24	10:53:24 AM	44548974126500.2895625PLM070	PLM070
	1098	7799008967004		1	1	44548974	2013-01-06 10:53:28	10:53:28 AM	44548974126500.2895625PLM070	PLM070
	1098	7799008967004		1	1	44548974	2013-01-06 10:53:29	10:53:29 AM	44548974126500.2895625PLM070	PLM070
	1098	7799008967004		1	1	44548974	2013-01-06 10:53:30	10:53:30 AM	44548974126500.2895625PLM070	PLM070
	1098	7799008967004		1	1	44548974	2013-01-06 10:53:33	10:53:33 AM	44548974126500.2895625PLM070	PLM070
	1098	7799008967004		1	1	44548974	2013-01-06 10:53:34	10:53:34 AM	44548974126500.2895625PLM070	PLM070
	1098	7799008967004		1	1	44548974	2013-01-06 10:53:35	10:53:35 AM	44548974126500.2895625PLM070	PLM070
	1098	7799008967004		1	1	44548974	2013-01-06 10:53:38	10:53:38 AM	44548974126500.2895625PLM070	PLM070
	1098	7799008967004		1	1	44548974	2013-01-06 10:53:39	10:53:39 AM	44548974126500.2895625PLM070	PLM070
	1098	7799008967004		1	1	44548974	2013-01-06 10:53:40	10:53:40 AM	44548974126500.2895625PLM070	PLM070
	1098	7799008967004		1	1	44548974	2013-01-06 10:53:46	10:53:46 AM	44548974126500.2895625PLM070	PLM070
	1098	7799008967004		1	1	44548974	2013-01-06 10:53:46	10:53:46 AM	44548974126500.2895625PLM070	PLM070
	1098	7799008967004		1	1	44548974	2013-01-06 10:53:47	10:53:47 AM	44548974126500.2895625PLM070	PLM070
	1098	7799008967004		1	1	44548974	2013-01-06 10:53:49	10:53:49 AM	44548974126500.2895625PLM070	PLM070
	1098	7799008967004		1	1	44548974	2013-01-06 10:53:51	10:53:51 AM	44548974126500.2895625PLM070	PLM070
	1098	7799008967004		1	1	44548974	2013-01-06 10:53:52	10:53:52 AM	44548974126500.2895625PLM070	PLM070
	1098	7799008967004		1	1	44548974	2013-01-06 10:53:55	10:53:55 AM	44548974126500.2895625PLM070	PLM070
	1098	7799008967004		1	1	44548974	2013-01-06 10:53:57	10:53:57 AM	44548974126500.2895625PLM070	PLM070
	1098	7799008967004		1	1	44548974	2013-01-06 10:53:58	10:53:58 AM	44548974126500.2895625PLM070	PLM070
	1098	7799008967004		1	1	44548974	2013-01-06 10:54:02	10:54:02 AM	44548974126500.2895625PLM070	PLM070
	1098	7799008967004		1	1	44548974	2013-01-06 10:54:03	10:54:03 AM	44548974126500.2895625PLM070	PLM070
	1098	7799008967004		1	1	44548974	2013-01-06 10:54:04	10:54:04 AM	44548974126500.2895625PLM070	PLM070
	1098	7799008967004		1	1	44548974	2013-01-06 10:54:08	10:54:08 AM	44548974126500.2895625PLM070	PLM070
	1098	7799008967004		1	1	44548974	2013-01-06 10:54:09	10:54:09 AM	44548974126500.2895625PLM070	PLM070
	1098	7799008967004		1	1	44548974	2013-01-06 10:54:10	10:54:10 AM	44548974126500.2895625PLM070	PLM070
	1098	7799008967004		1	1	44548974	2013-01-06 10:54:14	10:54:14 AM	44548974126500.2895625PLM070	PLM070
	1098	7799008967004		1	1	44548974	2013-01-06 10:54:15	10:54:15 AM	44548974126500.2895625PLM070	PLM070
	1098	7799008967004		1	1	44548974	2013-01-06 10:54:17	10:54:17 AM	44548974126500.2895625PLM070	PLM070
	1098	7799008967004		1	1	44548974	2013-01-06 10:54:24	10:54:24 AM	44548974126500.2895625PLM070	PLM070
	1098	7799008967004		1	1	44548974	2013-01-06 10:54:24	10:54:24 AM	44548974126500.2895625PLM070	PLM070
	1098	7799008967004		1	1	44548974	2013-01-06 10:54:26	10:54:26 AM	44548974126500.2895625PLM070	PLM070
	1098	7799008967004		1	1	44548974	2013-01-06 10:54:29	10:54:29 AM	44548974126500.2895625PLM070	PLM070
	1098	7799008967004		1	1	44548974	2013-01-06 10:54:30	10:54:30 AM	44548974126500.2895625PLM070	PLM070
	1098	7799008967004		1	1	44548974	2013-01-06 10:54:30	10:54:30 AM	44548974126500.2895625PLM070	PLM070
	1098	7799008967004		1	1	44548974	2013-01-06 10:54:33	10:54:33 AM	44548974126500.2895625PLM070	PLM070
	1098	7799008967004		1	1	44548974	2013-01-06 10:54:34	10:54:34 AM	44548974126500.2895625PLM070	PLM070
	1098	7799008967004		1	1	44548974	2013-01-06 10:54:36	10:54:36 AM	44548974126500.2895625PLM070	PLM070
	1098	7799008967004		1	1	44548974	2013-01-06 10:54:39	10:54:39 AM	44548974126500.2895625PLM070	PLM070
	1098	7799008967004		1	1	44548974	2013-01-06 10:54:40	10:54:40 AM	44548974126500.2895625PLM070	PLM070
	1098	7799008967004		1	1	44548974	2013-01-06 10:54:41	10:54:41 AM	44548974126500.2895625PLM070	PLM070
	1098	7799008967004		1	1	44548974	2013-01-06 10:54:45	10:54:45 AM	44548974126500.2895625PLM070	PLM070
	1098	7799008967004		1	1	44548974	2013-01-06 10:54:46	10:54:46 AM	44548974126500.2895625PLM070	PLM070
	1098	7799008967004		1	1	44548974	2013-01-06 10:54:51	10:54:51 AM	44548974126500.2895625PLM070	PLM070
	1098	7799008967004		1	1	44548974	2013-01-06 10:54:54	10:54:54 AM	44548974126500.2895625PLM070	PLM070
	1098	7799008967004		1	1	44548974	2013-01-06 10:54:55	10:54:55 AM	44548974126500.2895625PLM070	PLM070
	1098	7799008967004		1	1	44548974	2013-01-06 10:54:56	10:54:56 AM	44548974126500.2895625PLM070	PLM070
	1098	7799008967004		1	1	44548974	2013-01-06 10:55:02	10:55:02 AM	44548974126500.2895625PLM070	PLM070
	1098	7799008967004		1	1	44548974	2013-01-06 10:55:03	10:55:03 AM	44548974126500.2895625PLM070	PLM070
	1098	7799008967004		1	1	44548974	2013-01-06 10:55:05	10:55:05 AM	44548974126500.2895625PLM070	PLM070
	1098	7799008967004		1	1	44548974	2013-01-06 10:55:09	10:55:09 AM	44548974126500.2895625PLM070	PLM070
	1098	7799008967004		1	1	44548974	2013-01-06 10:55:10	10:55:10 AM	44548974126500.2895625PLM070	PLM070
	1098	7799008967004		1	1	44548974	2013-01-06 10:55:11	10:55:11 AM	44548974126500.2895625PLM070	PLM070
	1098	7799008967004		1	1	44548974	2013-01-06 10:55:14	10:55:14 AM	44548974126500.2895625PLM070	PLM070
	1098	7799008967004		1	1	44548974	2013-01-06 10:55:14	10:55:14 AM	44548974126500.2895625PLM070	PLM070
	1098	7799008967004		1	1	44548974	2013-01-06 10:55:15	10:55:15 AM	44548974126500.2895625PLM070	PLM070
	1098	7799008967004		1	1	44548974	2013-01-06 10:55:17	10:55:17 AM	44548974126500.2895625PLM070	PLM070
	1098	7799008967004		1	1	44548974	2013-01-06 10:55:18	10:55:18 AM	44548974126500.2895625PLM070	PLM070
	1098	7799008967004		1	1	44548974	2013-01-06 10:55:25	10:55:25 AM	44548974126500.2895625PLM070	PLM070
	1098	7799008967004		1	1	44548974	2013-01-06 10:55:25	10:55:25 AM	44548974126500.2895625PLM070	PLM070
	1098	7799008967004		1	1	44548974	2013-01-06 10:55:28	10:55:28 AM	44548974126500.2895625PLM070	PLM070
	1098	7799008967004		1	1	44548974	2013-01-06 10:55:30	10:55:30 AM	44548974126500.2895625PLM070	PLM070
	1098	7799008967004		1	1	44548974	2013-01-06 10:55:32	10:55:32 AM	44548974126500.2895625PLM070	PLM070
	1098	7799008967004		1	1	44548974	2013-01-06 10:55:33	10:55:33 AM	44548974126500.2895625PLM070	PLM070
	1098	7799008760094		1	1	44548974	2013-01-06 10:55:35	10:55:35 AM	44548974126500.2895625PLM070	PLM070
	1099	7799021050288		1	1	44548974	2013-01-06 11:02:06	11:02:06 AM	44548974126500.2895625PLM070	PLM070
	1099	7799021050288		1	1	44548974	2013-01-06 11:02:19	11:02:19 AM	44548974126500.2895625PLM070	PLM070
	1099	7799008895185		1	1	44548974	2013-01-06 11:03:12	11:03:12 AM	44548974126500.2895625PLM070	PLM070
	1099	7799008895185		1	1	44548974	2013-01-06 11:03:37	11:03:37 AM	44548974126500.2895625PLM070	PLM070
	1099	7799008895185		1	1	44548974	2013-01-06 11:03:59	11:03:59 AM	44548974126500.2895625PLM070	PLM070
	1099	7799008895185		1	1	44548974	2013-01-06 11:04:51	11:04:51 AM	44548974126500.2895625PLM070	PLM070
	1099	7799008895185		1	1	44548974	2013-01-06 11:05:08	11:05:08 AM	44548974126500.2895625PLM070	PLM070
	1099	7799008895185		1	1	44548974	2013-01-06 11:05:46	11:05:46 AM	44548974126500.2895625PLM070	PLM070
	1099	7799008895185		1	1	44548974	2013-01-06 11:06:19	11:06:19 AM	44548974126500.2895625PLM070	PLM070
	1099	7799008895185		1	1	44548974	2013-01-06 11:06:44	11:06:44 AM	44548974126500.2895625PLM070	PLM070
	1099	7799008895185		1	1	44548974	2013-01-06 11:07:01	11:07:01 AM	44548974126500.2895625PLM070	PLM070
	1099	7799008895185		1	1	44548974	2013-01-06 11:07:34	11:07:34 AM	44548974126500.2895625PLM070	PLM070
	1099	7799008895185		1	1	44548974	2013-01-06 11:07:54	11:07:54 AM	44548974126500.2895625PLM070	PLM070
	1099	7799008895185		1	1	44548974	2013-01-06 11:08:09	11:08:09 AM	44548974126500.2895625PLM070	PLM070
	1099	7799008895185		1	1	44548974	2013-01-06 11:08:30	11:08:30 AM	44548974126500.2895625PLM070	PLM070
	1099	7799008895185		1	1	44548974	2013-01-06 11:08:31	11:08:31 AM	44548974126500.2895625PLM070	PLM070
	1099	7799008895185		1	1	44548974	2013-01-06 11:08:32	11:08:32 AM	44548974126500.2895625PLM070	PLM070
	1099	7799008895185		1	1	44548974	2013-01-06 11:08:52	11:08:52 AM	44548974126500.2895625PLM070	PLM070
	1099	7799008895185		1	1	44548974	2013-01-06 11:08:52	11:08:52 AM	44548974126500.2895625PLM070	PLM070
	1099	7799008895185		1	1	44548974	2013-01-06 11:08:53	11:08:53 AM	44548974126500.2895625PLM070	PLM070
	1099	7799008895185		1	1	44548974	2013-01-06 11:09:18	11:09:18 AM	44548974126500.2895625PLM070	PLM070
	1099	7799008895185		1	1	44548974	2013-01-06 11:09:23	11:09:23 AM	44548974126500.2895625PLM070	PLM070
	1099	7799008895185		1	1	44548974	2013-01-06 11:09:26	11:09:26 AM	44548974126500.2895625PLM070	PLM070
	1099	7799008895185		1	1	44548974	2013-01-06 11:09:56	11:09:56 AM	44548974126500.2895625PLM070	PLM070
	1099	7799008895185		1	1	44548974	2013-01-06 11:09:57	11:09:57 AM	44548974126500.2895625PLM070	PLM070
	1099	7799008895185		1	1	44548974	2013-01-06 11:09:57	11:09:57 AM	44548974126500.2895625PLM070	PLM070
	1099	7799008895185		1	1	44548974	2013-01-06 11:10:31	11:10:31 AM	44548974126500.2895625PLM070	PLM070
	1099	7799008895185		1	1	44548974	2013-01-06 11:10:48	11:10:48 AM	44548974126500.2895625PLM070	PLM070
	1099	7799008895185		1	1	44548974	2013-01-06 11:11:09	11:11:09 AM	44548974126500.2895625PLM070	PLM070
	1099	7799008895185		1	1	44548974	2013-01-06 11:11:32	11:11:32 AM	44548974126500.2895625PLM070	PLM070
	1099	7799008895185		1	1	44548974	2013-01-06 11:11:32	11:11:32 AM	44548974126500.2895625PLM070	PLM070
	1099	7799008895185		1	1	44548974	2013-01-06 11:11:33	11:11:33 AM	44548974126500.2895625PLM070	PLM070
	1099	7799008895185		1	1	44548974	2013-01-06 11:12:08	11:12:08 AM	44548974126500.2895625PLM070	PLM070
	1099	7799008895185		1	1	44548974	2013-01-06 11:12:09	11:12:09 AM	44548974126500.2895625PLM070	PLM070
	1099	7799008895185		1	1	44548974	2013-01-06 11:12:09	11:12:09 AM	44548974126500.2895625PLM070	PLM070
	1099	7799008895185		1	1	44548974	2013-01-06 11:13:01	11:13:01 AM	44548974126500.2895625PLM070	PLM070
	1099	7799008895185		1	1	44548974	2013-01-06 11:13:03	11:13:03 AM	44548974126500.2895625PLM070	PLM070
	1099	7799008895185		1	1	44548974	2013-01-06 11:13:04	11:13:04 AM	44548974126500.2895625PLM070	PLM070
	1099	7799008895185		1	1	44548974	2013-01-06 11:13:32	11:13:32 AM	44548974126500.2895625PLM070	PLM070
	1099	7799008895185		1	1	44548974	2013-01-06 11:13:36	11:13:36 AM	44548974126500.2895625PLM070	PLM070
	1099	7799008895185		1	1	44548974	2013-01-06 11:13:37	11:13:37 AM	44548974126500.2895625PLM070	PLM070
	1099	7799008895185		1	1	44548974	2013-01-06 11:14:13	11:14:13 AM	44548974126500.2895625PLM070	PLM070
	1099	7799008895185		1	1	44548974	2013-01-06 11:14:13	11:14:13 AM	44548974126500.2895625PLM070	PLM070
	1099	7799008895185		1	1	44548974	2013-01-06 11:14:14	11:14:14 AM	44548974126500.2895625PLM070	PLM070
	1099	7799008895185		1	1	44548974	2013-01-06 11:15:03	11:15:03 AM	44548974126500.2895625PLM070	PLM070
	1099	7799008895185		1	1	44548974	2013-01-06 11:15:08	11:15:08 AM	44548974126500.2895625PLM070	PLM070
	1099	7799008895185		1	1	44548974	2013-01-06 11:15:09	11:15:09 AM	44548974126500.2895625PLM070	PLM070
	1099	7799008895185		1	1	44548974	2013-01-06 11:15:40	11:15:40 AM	44548974126500.2895625PLM070	PLM070
	1099	7799008895185		1	1	44548974	2013-01-06 11:15:41	11:15:41 AM	44548974126500.2895625PLM070	PLM070
	1099	7799008895185		1	1	44548974	2013-01-06 11:15:41	11:15:41 AM	44548974126500.2895625PLM070	PLM070
	1099	7799008895185		1	1	44548974	2013-01-06 11:16:12	11:16:12 AM	44548974126500.2895625PLM070	PLM070
	1099	7799008895185		1	1	44548974	2013-01-06 11:16:13	11:16:13 AM	44548974126500.2895625PLM070	PLM070
	1099	7799008895185		1	1	44548974	2013-01-06 11:16:14	11:16:14 AM	44548974126500.2895625PLM070	PLM070
	1099	7799008895185		1	1	44548974	2013-01-06 11:16:36	11:16:36 AM	44548974126500.2895625PLM070	PLM070
	1099	7799008895185		1	1	44548974	2013-01-06 11:16:37	11:16:37 AM	44548974126500.2895625PLM070	PLM070
	1099	7799008895185		1	1	44548974	2013-01-06 11:17:02	11:17:02 AM	44548974126500.2895625PLM070	PLM070
	1099	7799008895185		1	1	44548974	2013-01-06 11:18:17	11:18:17 AM	44548974126500.2895625PLM070	PLM070
	1099	7799008895185		1	1	44548974	2013-01-06 11:18:18	11:18:18 AM	44548974126500.2895625PLM070	PLM070
	1099	7799008895185		1	1	44548974	2013-01-06 11:18:19	11:18:19 AM	44548974126500.2895625PLM070	PLM070
	1099	7799008895185		1	1	44548974	2013-01-06 11:18:39	11:18:39 AM	44548974126500.2895625PLM070	PLM070
	1099	7799008895185		1	1	44548974	2013-01-06 11:18:39	11:18:39 AM	44548974126500.2895625PLM070	PLM070
	1099	7799008895185		1	1	44548974	2013-01-06 11:18:40	11:18:40 AM	44548974126500.2895625PLM070	PLM070
	1099	7799008895185		1	1	44548974	2013-01-06 11:18:47	11:18:47 AM	44548974126500.2895625PLM070	PLM070
	1099	7799008895185		1	1	44548974	2013-01-06 11:19:10	11:19:10 AM	44548974126500.2895625PLM070	PLM070
	1099	7799008895185		1	1	44548974	2013-01-06 11:19:11	11:19:11 AM	44548974126500.2895625PLM070	PLM070
	1099	7799008895185		1	1	44548974	2013-01-06 11:19:11	11:19:11 AM	44548974126500.2895625PLM070	PLM070
	1099	7799008895185		1	1	44548974	2013-01-06 11:19:28	11:19:28 AM	44548974126500.2895625PLM070	PLM070
	1099	7799008895185		1	1	44548974	2013-01-06 11:19:28	11:19:28 AM	44548974126500.2895625PLM070	PLM070
	1099	7799008895185		1	1	44548974	2013-01-06 11:19:29	11:19:29 AM	44548974126500.2895625PLM070	PLM070
	1099	7799008895185		1	1	44548974	2013-01-06 11:19:48	11:19:48 AM	44548974126500.2895625PLM070	PLM070
	1099	7799008895185		1	1	44548974	2013-01-06 11:19:48	11:19:48 AM	44548974126500.2895625PLM070	PLM070
	1099	7799008895185		1	1	44548974	2013-01-06 11:19:49	11:19:49 AM	44548974126500.2895625PLM070	PLM070
	1099	7799008895185		1	1	44548974	2013-01-06 11:20:03	11:20:03 AM	44548974126500.2895625PLM070	PLM070
	1099	7799008895185		1	1	44548974	2013-01-06 11:20:03	11:20:03 AM	44548974126500.2895625PLM070	PLM070
	1099	7799008895185		1	1	44548974	2013-01-06 11:20:04	11:20:04 AM	44548974126500.2895625PLM070	PLM070
	1099	7799008895185		1	1	44548974	2013-01-06 11:20:35	11:20:35 AM	44548974126500.2895625PLM070	PLM070
	1099	7799008895185		1	1	44548974	2013-01-06 11:20:35	11:20:35 AM	44548974126500.2895625PLM070	PLM070
	1099	7799008895185		1	1	44548974	2013-01-06 11:20:36	11:20:36 AM	44548974126500.2895625PLM070	PLM070
	1099	7799008895185		1	1	44548974	2013-01-06 11:21:06	11:21:06 AM	44548974126500.2895625PLM070	PLM070
	1099	7799008895185		1	1	44548974	2013-01-06 11:21:40	11:21:40 AM	44548974126500.2895625PLM070	PLM070
	1099	7799008895185		1	1	44548974	2013-01-06 11:21:40	11:21:40 AM	44548974126500.2895625PLM070	PLM070
	1099	7799008895185		1	1	44548974	2013-01-06 11:22:07	11:22:07 AM	44548974126500.2895625PLM070	PLM070
	1099	7799008895185		1	1	44548974	2013-01-06 11:22:07	11:22:07 AM	44548974126500.2895625PLM070	PLM070
	1099	7799008895185		1	1	44548974	2013-01-06 11:22:08	11:22:08 AM	44548974126500.2895625PLM070	PLM070
	1099	7799008895185		1	1	44548974	2013-01-06 11:22:43	11:22:43 AM	44548974126500.2895625PLM070	PLM070
	1099	7799008895185		1	1	44548974	2013-01-06 11:23:01	11:23:01 AM	44548974126500.2895625PLM070	PLM070
	1099	7799008895185		1	1	44548974	2013-01-06 11:23:01	11:23:01 AM	44548974126500.2895625PLM070	PLM070
	1099	7799008895185		1	1	44548974	2013-01-06 11:23:36	11:23:36 AM	44548974126500.2895625PLM070	PLM070
	1099	7799008895185		1	1	44548974	2013-01-06 11:23:51	11:23:51 AM	44548974126500.2895625PLM070	PLM070
	1099	7799008895185		1	1	44548974	2013-01-06 11:24:06	11:24:06 AM	44548974126500.2895625PLM070	PLM070
	1099	7799008895185		1	1	44548974	2013-01-06 11:24:42	11:24:42 AM	44548974126500.2895625PLM070	PLM070
	1099	7799008895185		1	1	44548974	2013-01-06 11:24:59	11:24:59 AM	44548974126500.2895625PLM070	PLM070
	1099	7799008895185		1	1	44548974	2013-01-06 11:25:14	11:25:14 AM	44548974126500.2895625PLM070	PLM070
	1099	7799008895185		1	1	44548974	2013-01-06 11:25:49	11:25:49 AM	44548974126500.2895625PLM070	PLM070
	1099	7799008895185		1	1	44548974	2013-01-06 11:26:05	11:26:05 AM	44548974126500.2895625PLM070	PLM070
	1099	7799008895185		1	1	44548974	2013-01-06 11:26:30	11:26:30 AM	44548974126500.2895625PLM070	PLM070
	1099	7799008895185		1	1	44548974	2013-01-06 11:27:04	11:27:04 AM	44548974126500.2895625PLM070	PLM070
	1099	7799008895185		1	1	44548974	2013-01-06 11:27:21	11:27:21 AM	44548974126500.2895625PLM070	PLM070
	1099	7799008895185		1	1	44548974	2013-01-06 11:27:40	11:27:40 AM	44548974126500.2895625PLM070	PLM070
	1099	7799008895185		1	1	44548974	2013-01-06 11:28:21	11:28:21 AM	44548974126500.2895625PLM070	PLM070
	1099	7799008895185		1	1	44548974	2013-01-06 11:28:43	11:28:43 AM	44548974126500.2895625PLM070	PLM070
	1099	7799008895185		1	1	44548974	2013-01-06 11:28:58	11:28:58 AM	44548974126500.2895625PLM070	PLM070
	1099	7799008895185		1	1	44548974	2013-01-06 11:29:27	11:29:27 AM	44548974126500.2895625PLM070	PLM070
	1099	7799008895185		1	1	44548974	2013-01-06 11:29:44	11:29:44 AM	44548974126500.2895625PLM070	PLM070
	1099	7799008895185		1	1	44548974	2013-01-06 11:30:05	11:30:05 AM	44548974126500.2895625PLM070	PLM070
	1099	7799008895185		1	1	44548974	2013-01-06 11:30:39	11:30:39 AM	44548974126500.2895625PLM070	PLM070
	1099	7799008895185		1	1	44548974	2013-01-06 11:30:54	11:30:54 AM	44548974126500.2895625PLM070	PLM070
	1099	7799008895185		1	1	44548974	2013-01-06 11:31:18	11:31:18 AM	44548974126500.2895625PLM070	PLM070
	1099	7799008895185		1	1	44548974	2013-01-06 11:31:44	11:31:44 AM	44548974126500.2895625PLM070	PLM070
	1099	7799008895185		1	1	44548974	2013-01-06 11:31:59	11:31:59 AM	44548974126500.2895625PLM070	PLM070
	1099	7799008895185		1	1	44548974	2013-01-06 11:32:40	11:32:40 AM	44548974126500.2895625PLM070	PLM070
	1099	7799008895185		1	1	44548974	2013-01-06 11:33:02	11:33:02 AM	44548974126500.2895625PLM070	PLM070
	1099	7799008895185		1	1	44548974	2013-01-06 11:33:13	11:33:13 AM	44548974126500.2895625PLM070	PLM070
	1099	7799008895185		1	1	44548974	2013-01-06 11:33:29	11:33:29 AM	44548974126500.2895625PLM070	PLM070
	1099	7799008895185		1	1	44548974	2013-01-06 11:33:56	11:33:56 AM	44548974126500.2895625PLM070	PLM070
	1099	7799008895185		1	1	44548974	2013-01-06 11:34:17	11:34:17 AM	44548974126500.2895625PLM070	PLM070
	1099	7799008895185		1	1	44548974	2013-01-06 11:34:36	11:34:36 AM	44548974126500.2895625PLM070	PLM070
	1099	7799008895185		1	1	44548974	2013-01-06 11:35:16	11:35:16 AM	44548974126500.2895625PLM070	PLM070
	1099	7799008895185		1	1	44548974	2013-01-06 11:36:05	11:36:05 AM	44548974126500.2895625PLM070	PLM070
	1099	7799008895185		1	1	44548974	2013-01-06 11:36:05	11:36:05 AM	44548974126500.2895625PLM070	PLM070
	1099	7799008895185		1	1	44548974	2013-01-06 11:36:06	11:36:06 AM	44548974126500.2895625PLM070	PLM070
	1099	7799008895185		1	1	44548974	2013-01-06 11:36:34	11:36:34 AM	44548974126500.2895625PLM070	PLM070
	1099	7799008895185		1	1	44548974	2013-01-06 11:36:35	11:36:35 AM	44548974126500.2895625PLM070	PLM070
	1099	7799008895185		1	1	44548974	2013-01-06 11:36:35	11:36:35 AM	44548974126500.2895625PLM070	PLM070
	1099	7799008895185		1	1	44548974	2013-01-06 11:37:16	11:37:16 AM	44548974126500.2895625PLM070	PLM070
	1099	7799008895185		1	1	44548974	2013-01-06 11:37:30	11:37:30 AM	44548974126500.2895625PLM070	PLM070
	1099	7799008895185		1	1	44548974	2013-01-06 11:37:49	11:37:49 AM	44548974126500.2895625PLM070	PLM070
	1099	7799008895185		1	1	44548974	2013-01-06 11:38:25	11:38:25 AM	44548974126500.2895625PLM070	PLM070
	1099	7799008895185		1	1	44548974	2013-01-06 11:38:43	11:38:43 AM	44548974126500.2895625PLM070	PLM070
	1099	7799008895185		1	1	44548974	2013-01-06 11:39:11	11:39:11 AM	44548974126500.2895625PLM070	PLM070
	1099	7799008895185		1	1	44548974	2013-01-06 11:40:38	11:40:38 AM	44548974126500.2895625PLM070	PLM070
	1099	7799008895185		1	1	44548974	2013-01-06 11:40:39	11:40:39 AM	44548974126500.2895625PLM070	PLM070
	1099	7799008895185		1	1	44548974	2013-01-06 11:40:40	11:40:40 AM	44548974126500.2895625PLM070	PLM070
	1099	7799008895185		1	1	44548974	2013-01-06 11:41:27	11:41:27 AM	44548974126500.2895625PLM070	PLM070
	1099	7799008895185		1	1	44548974	2013-01-06 11:41:28	11:41:28 AM	44548974126500.2895625PLM070	PLM070
	1099	7799008895185		1	1	44548974	2013-01-06 11:41:30	11:41:30 AM	44548974126500.2895625PLM070	PLM070
	1099	7799008895185		1	1	44548974	2013-01-06 11:42:10	11:42:10 AM	44548974126500.2895625PLM070	PLM070
	1099	7799008895185		1	1	44548974	2013-01-06 11:42:11	11:42:11 AM	44548974126500.2895625PLM070	PLM070
	1099	7799008895185		1	1	44548974	2013-01-06 11:42:51	11:42:51 AM	44548974126500.2895625PLM070	PLM070
	1099	7799008895185		1	1	44548974	2013-01-06 11:42:52	11:42:52 AM	44548974126500.2895625PLM070	PLM070
	1099	7799008895185		1	1	44548974	2013-01-06 11:42:52	11:42:52 AM	44548974126500.2895625PLM070	PLM070
	1099	7799008895185		1	1	44548974	2013-01-06 11:43:37	11:43:37 AM	44548974126500.2895625PLM070	PLM070
	1099	7799008895185		1	1	44548974	2013-01-06 11:43:38	11:43:38 AM	44548974126500.2895625PLM070	PLM070
	1099	7799008895185		1	1	44548974	2013-01-06 11:43:38	11:43:38 AM	44548974126500.2895625PLM070	PLM070
	1099	7799008895185		1	1	44548974	2013-01-06 11:44:08	11:44:08 AM	44548974126500.2895625PLM070	PLM070
	1099	7799008895185		1	1	44548974	2013-01-06 11:44:08	11:44:08 AM	44548974126500.2895625PLM070	PLM070
	1099	7799008895185		1	1	44548974	2013-01-06 11:44:09	11:44:09 AM	44548974126500.2895625PLM070	PLM070
	1099	7799008895185		1	1	44548974	2013-01-06 11:44:50	11:44:50 AM	44548974126500.2895625PLM070	PLM070
	1099	7799008895185		1	1	44548974	2013-01-06 11:44:51	11:44:51 AM	44548974126500.2895625PLM070	PLM070
	1099	7799008895185		1	1	44548974	2013-01-06 11:44:52	11:44:52 AM	44548974126500.2895625PLM070	PLM070
	1099	7799008895185		1	1	44548974	2013-01-06 11:45:46	11:45:46 AM	44548974126500.2895625PLM070	PLM070
	1099	7799008895185		1	1	44548974	2013-01-06 11:45:47	11:45:47 AM	44548974126500.2895625PLM070	PLM070
	1099	7799008895185		1	1	44548974	2013-01-06 11:45:48	11:45:48 AM	44548974126500.2895625PLM070	PLM070
	1099	7799008895185		1	1	44548974	2013-01-06 11:46:07	11:46:07 AM	44548974126500.2895625PLM070	PLM070
	1099	7799008895185		1	1	44548974	2013-01-06 11:46:09	11:46:09 AM	44548974126500.2895625PLM070	PLM070
	1099	7799008895185		1	1	44548974	2013-01-06 11:46:09	11:46:09 AM	44548974126500.2895625PLM070	PLM070
	1099	7799008895185		1	1	44548974	2013-01-06 11:46:34	11:46:34 AM	44548974126500.2895625PLM070	PLM070
	1099	7799008895185		1	1	44548974	2013-01-06 11:46:36	11:46:36 AM	44548974126500.2895625PLM070	PLM070
	1099	7799008895185		1	1	44548974	2013-01-06 11:46:36	11:46:36 AM	44548974126500.2895625PLM070	PLM070
	1099	7799008895185		1	1	44548974	2013-01-06 11:47:06	11:47:06 AM	44548974126500.2895625PLM070	PLM070
	1099	7799008895185		1	1	44548974	2013-01-06 11:47:06	11:47:06 AM	44548974126500.2895625PLM070	PLM070
	1099	7799008895185		1	1	44548974	2013-01-06 11:47:07	11:47:07 AM	44548974126500.2895625PLM070	PLM070
	1099	7799008895185		1	1	44548974	2013-01-06 11:47:43	11:47:43 AM	44548974126500.2895625PLM070	PLM070
	1099	7799008895185		1	1	44548974	2013-01-06 11:47:44	11:47:44 AM	44548974126500.2895625PLM070	PLM070
	1099	7799008895185		1	1	44548974	2013-01-06 11:47:44	11:47:44 AM	44548974126500.2895625PLM070	PLM070
	1099	7799008895185		1	1	44548974	2013-01-06 11:48:28	11:48:28 AM	44548974126500.2895625PLM070	PLM070
	1099	7799008895185		1	1	44548974	2013-01-06 11:48:28	11:48:28 AM	44548974126500.2895625PLM070	PLM070
	1099	7799008895185		1	1	44548974	2013-01-06 11:48:29	11:48:29 AM	44548974126500.2895625PLM070	PLM070
	1099	7799008895185		1	1	44548974	2013-01-06 11:48:59	11:48:59 AM	44548974126500.2895625PLM070	PLM070
	1099	7799008895185		1	1	44548974	2013-01-06 11:48:59	11:48:59 AM	44548974126500.2895625PLM070	PLM070
	1099	7799008895185		1	1	44548974	2013-01-06 11:49:00	11:49:00 AM	44548974126500.2895625PLM070	PLM070
	1099	7799008895185		1	1	44548974	2013-01-06 11:49:42	11:49:42 AM	44548974126500.2895625PLM070	PLM070
	1099	7799008895185		1	1	44548974	2013-01-06 11:49:42	11:49:42 AM	44548974126500.2895625PLM070	PLM070
	1099	7799008895185		1	1	44548974	2013-01-06 11:49:43	11:49:43 AM	44548974126500.2895625PLM070	PLM070
	1099	7799008895185		1	1	44548974	2013-01-06 11:50:06	11:50:06 AM	44548974126500.2895625PLM070	PLM070
	1099	7799008895185		1	1	44548974	2013-01-06 11:50:06	11:50:06 AM	44548974126500.2895625PLM070	PLM070
	1099	7799008895185		1	1	44548974	2013-01-06 11:50:07	11:50:07 AM	44548974126500.2895625PLM070	PLM070
	1099	7799008895185		1	1	44548974	2013-01-06 11:50:32	11:50:32 AM	44548974126500.2895625PLM070	PLM070
	1099	7799008895185		1	1	44548974	2013-01-06 11:50:33	11:50:33 AM	44548974126500.2895625PLM070	PLM070
	1099	7799008895185		1	1	44548974	2013-01-06 11:50:33	11:50:33 AM	44548974126500.2895625PLM070	PLM070
	1099	7799008895185		1	1	44548974	2013-01-06 11:50:59	11:50:59 AM	44548974126500.2895625PLM070	PLM070
	1099	7799008895185		1	1	44548974	2013-01-06 11:51:28	11:51:28 AM	44548974126500.2895625PLM070	PLM070
	1099	7799008895185		1	1	44548974	2013-01-06 11:51:51	11:51:51 AM	44548974126500.2895625PLM070	PLM070
	1099	7799008895185		1	1	44548974	2013-01-06 11:52:27	11:52:27 AM	44548974126500.2895625PLM070	PLM070
	1099	7799008895185		1	1	44548974	2013-01-06 11:52:44	11:52:44 AM	44548974126500.2895625PLM070	PLM070
	1099	7799008895185		1	1	44548974	2013-01-06 11:52:44	11:52:44 AM	44548974126500.2895625PLM070	PLM070
	1099	7799008895185		1	1	44548974	2013-01-06 11:52:58	11:52:58 AM	44548974126500.2895625PLM070	PLM070
	1099	7799008895185		1	1	44548974	2013-01-06 11:52:58	11:52:58 AM	44548974126500.2895625PLM070	PLM070
	1099	7799008895185		1	1	44548974	2013-01-06 11:52:59	11:52:59 AM	44548974126500.2895625PLM070	PLM070
	1099	7799008895185		1	1	44548974	2013-01-06 11:53:34	11:53:34 AM	44548974126500.2895625PLM070	PLM070
	1099	7799008895185		1	1	44548974	2013-01-06 11:53:46	11:53:46 AM	44548974126500.2895625PLM070	PLM070
	1099	7799008895185		1	1	44548974	2013-01-06 11:53:58	11:53:58 AM	44548974126500.2895625PLM070	PLM070
	1099	7799008895185		1	1	44548974	2013-01-06 11:54:23	11:54:23 AM	44548974126500.2895625PLM070	PLM070
	1099	7799008895185		1	1	44548974	2013-01-06 11:54:23	11:54:23 AM	44548974126500.2895625PLM070	PLM070
	1099	7799008895185		1	1	44548974	2013-01-06 11:54:24	11:54:24 AM	44548974126500.2895625PLM070	PLM070
	1099	7799008895185		1	1	44548974	2013-01-06 11:54:50	11:54:50 AM	44548974126500.2895625PLM070	PLM070
	1099	7799008895185		1	1	44548974	2013-01-06 11:55:04	11:55:04 AM	44548974126500.2895625PLM070	PLM070
	1099	7799008895185		1	1	44548974	2013-01-06 11:55:06	11:55:06 AM	44548974126500.2895625PLM070	PLM070
	1099	7799008895185		1	1	44548974	2013-01-06 11:55:38	11:55:38 AM	44548974126500.2895625PLM070	PLM070
	1099	7799008895185		1	1	44548974	2013-01-06 11:55:39	11:55:39 AM	44548974126500.2895625PLM070	PLM070
	1099	7799008895185		1	1	44548974	2013-01-06 11:55:40	11:55:40 AM	44548974126500.2895625PLM070	PLM070
	1099	7799008895185		1	1	44548974	2013-01-06 11:56:21	11:56:21 AM	44548974126500.2895625PLM070	PLM070
	1099	7799008895185		1	1	44548974	2013-01-06 11:56:21	11:56:21 AM	44548974126500.2895625PLM070	PLM070
	1099	7799008895185		1	1	44548974	2013-01-06 11:56:22	11:56:22 AM	44548974126500.2895625PLM070	PLM070
	1099	7799008895185		1	1	44548974	2013-01-06 11:56:47	11:56:47 AM	44548974126500.2895625PLM070	PLM070
	1099	7799008895185		1	1	44548974	2013-01-06 11:57:01	11:57:01 AM	44548974126500.2895625PLM070	PLM070
	1099	7799008895185		1	1	44548974	2013-01-06 11:57:23	11:57:23 AM	44548974126500.2895625PLM070	PLM070
	1099	7799008895185		1	1	44548974	2013-01-06 11:57:58	11:57:58 AM	44548974126500.2895625PLM070	PLM070
	1099	7799008895185		1	1	44548974	2013-01-06 11:58:18	11:58:18 AM	44548974126500.2895625PLM070	PLM070
	1099	7799008895185		1	1	44548974	2013-01-06 11:58:32	11:58:32 AM	44548974126500.2895625PLM070	PLM070
	1099	7799008895185		1	1	44548974	2013-01-06 11:58:57	11:58:57 AM	44548974126500.2895625PLM070	PLM070
	1099	7799008895185		1	1	44548974	2013-01-06 11:59:12	11:59:12 AM	44548974126500.2895625PLM070	PLM070
	1099	7799008895185		1	1	44548974	2013-01-06 11:59:23	11:59:23 AM	44548974126500.2895625PLM070	PLM070
	1099	7799008895185		1	1	44548974	2013-01-06 11:59:45	11:59:45 AM	44548974126500.2895625PLM070	PLM070
	1099	7799008895185		1	1	44548974	2013-01-06 11:59:57	11:59:57 AM	44548974126500.2895625PLM070	PLM070
	1099	7799008895185		1	1	44548974	2013-01-06 12:00:09	12:00:09 PM	44548974126500.2895625PLM070	PLM070
	1099	7799008895185		1	1	44548974	2013-01-06 12:00:32	12:00:32 PM	44548974126500.2895625PLM070	PLM070
	1099	7799008895185		1	1	44548974	2013-01-06 12:01:12	12:01:12 PM	44548974126500.2895625PLM070	PLM070
	1099	7799008895185		1	1	44548974	2013-01-06 12:01:39	12:01:39 PM	44548974126500.2895625PLM070	PLM070
	1099	7799008895185		1	1	44548974	2013-01-06 12:01:42	12:01:42 PM	44548974126500.2895625PLM070	PLM070
	1099	7799008895185		1	1	44548974	2013-01-06 12:01:43	12:01:43 PM	44548974126500.2895625PLM070	PLM070
	1099	7799008895185		1	1	44548974	2013-01-06 12:01:43	12:01:43 PM	44548974126500.2895625PLM070	PLM070
	1099	7799008895185		1	1	44548974	2013-01-06 12:01:44	12:01:44 PM	44548974126500.2895625PLM070	PLM070
	1099	7799008895185		1	1	44548974	2013-01-06 12:02:15	12:02:15 PM	44548974126500.2895625PLM070	PLM070
	1099	7799008895185		1	1	44548974	2013-01-06 12:02:16	12:02:16 PM	44548974126500.2895625PLM070	PLM070
	1099	7799008895185		1	1	44548974	2013-01-06 12:02:17	12:02:17 PM	44548974126500.2895625PLM070	PLM070
	1099	7799008895185		1	1	44548974	2013-01-06 12:02:40	12:02:40 PM	44548974126500.2895625PLM070	PLM070
	1099	7799008895185		1	1	44548974	2013-01-06 12:02:55	12:02:55 PM	44548974126500.2895625PLM070	PLM070
	1099	7799008895185		1	1	44548974	2013-01-06 12:02:55	12:02:55 PM	44548974126500.2895625PLM070	PLM070
	1099	7799008895185		1	1	44548974	2013-01-06 12:02:56	12:02:56 PM	44548974126500.2895625PLM070	PLM070
	1099	7799008895185		1	1	44548974	2013-01-06 12:02:56	12:02:56 PM	44548974126500.2895625PLM070	PLM070
	1099	7799008895185		1	1	44548974	2013-01-06 12:03:33	12:03:33 PM	44548974126500.2895625PLM070	PLM070
	1099	7799008895185		1	1	44548974	2013-01-06 12:03:34	12:03:34 PM	44548974126500.2895625PLM070	PLM070
	1099	7799008895185		1	1	44548974	2013-01-06 12:03:35	12:03:35 PM	44548974126500.2895625PLM070	PLM070
	1099	7799008895185		1	1	44548974	2013-01-06 12:03:35	12:03:35 PM	44548974126500.2895625PLM070	PLM070
	1099	7799008895185		1	1	44548974	2013-01-06 12:03:36	12:03:36 PM	44548974126500.2895625PLM070	PLM070
