	3475	7799008979595		3	2	44548974	2019-01-04 15:41:26	3:41 PM	445489741555280.301948PLM030	PLM030
	3475	7799008979595		147	2	44548974	2019-01-04 15:44:16	3:44 PM	445489741555280.301948PLM030	PLM030
	3486	7799008822990		50	2	44548974	2019-01-04 15:48:03	3:48 PM	445489741555280.301948PLM030	PLM030
	3486	7799008822990		50	2	44548974	2019-01-04 15:49:49	3:49 PM	445489741555280.301948PLM030	PLM030
	3486	7799008822990		50	2	44548974	2019-01-04 15:51:18	3:51 PM	445489741555280.301948PLM030	PLM030
	3486	7799008822990		60	2	44548974	2019-01-04 15:52:32	3:52 PM	445489741555280.301948PLM030	PLM030
