	2882	7799008831770		28	2	44548974	2019-01-04 11:57:10	11:57 AM	445489741226210.7055475PLM030	PLM030
	2885	7799008831770		18	2	44548974	2019-01-04 11:58:33	11:58 AM	445489741226210.7055475PLM030	PLM030
	2885	7799008831770		16	2	44548974	2019-01-04 11:58:35	11:58 AM	445489741226210.7055475PLM030	PLM030
	2884	7799008831770		36	2	44548974	2019-01-04 12:00:01	12:00 PM	445489741226210.7055475PLM030	PLM030
	2894	7799008384498		96	2	44548974	2019-01-04 12:02:48	12:02 PM	445489741226210.7055475PLM030	PLM030
	2895	7799008384498		96	2	44548974	2019-01-04 12:04:08	12:04 PM	445489741226210.7055475PLM030	PLM030
	2896	7799008384498		96	2	44548974	2019-01-04 12:04:57	12:04 PM	445489741226210.7055475PLM030	PLM030
	2897	7799008384498		95	2	44548974	2019-01-04 12:05:50	12:05 PM	445489741226210.7055475PLM030	PLM030
	2899	7799008384498		96	2	44548974	2019-01-04 12:07:23	12:07 PM	445489741226210.7055475PLM030	PLM030
	2900	7799008384498		96	2	44548974	2019-01-04 12:08:35	12:08 PM	445489741226210.7055475PLM030	PLM030
	2901	7799008384498		96	2	44548974	2019-01-04 12:10:15	12:10 PM	445489741226210.7055475PLM030	PLM030
	2914	7799008384498		96	2	44548974	2019-01-04 12:10:44	12:10 PM	445489741226210.7055475PLM030	PLM030
	2915	7799008384498		96	2	44548974	2019-01-04 12:11:33	12:11 PM	445489741226210.7055475PLM030	PLM030
	2916	7799008384498		96	2	44548974	2019-01-04 12:13:06	12:13 PM	445489741226210.7055475PLM030	PLM030
	2918	7799008384498		96	2	44548974	2019-01-04 12:14:05	12:14 PM	445489741226210.7055475PLM030	PLM030
	2919	7799008384498		96	2	44548974	2019-01-04 12:15:41	12:15 PM	445489741226210.7055475PLM030	PLM030
	2920	7799008384498		96	2	44548974	2019-01-04 12:16:42	12:16 PM	445489741226210.7055475PLM030	PLM030
	2917	7799008384498		96	2	44548974	2019-01-04 12:17:27	12:17 PM	445489741226210.7055475PLM030	PLM030
	2922	7799008384498		96	2	44548974	2019-01-04 12:19:20	12:19 PM	445489741226210.7055475PLM030	PLM030
	2923	7799008384498		96	2	44548974	2019-01-04 12:20:29	12:20 PM	445489741226210.7055475PLM030	PLM030
	2924	7799008384498		96	2	44548974	2019-01-04 12:21:29	12:21 PM	445489741226210.7055475PLM030	PLM030
	2926	7799008384498		96	2	44548974	2019-01-04 12:22:29	12:22 PM	445489741226210.7055475PLM030	PLM030
	2927	7799008384498		93	2	44548974	2019-01-04 12:23:51	12:23 PM	445489741226210.7055475PLM030	PLM030
	2925	7799008384498		96	2	44548974	2019-01-04 12:25:09	12:25 PM	445489741226210.7055475PLM030	PLM030
