	1259	7791750008141		1	1	44825349	2019-01-03 14:11:48	2:11:48 PM	448253491511140.7055475HASR101	HASR101
	1259	7791750008141		1	1	44825349	2019-01-03 14:11:48	2:11:48 PM	448253491511140.7055475HASR101	HASR101
	1259	7791750008141		1	1	44825349	2019-01-03 14:11:49	2:11:49 PM	448253491511140.7055475HASR101	HASR101
	1259	7791750008141		1	1	44825349	2019-01-03 14:12:22	2:12:22 PM	448253491511140.7055475HASR101	HASR101
	1259	7791750008141		1	1	44825349	2019-01-03 14:12:22	2:12:22 PM	448253491511140.7055475HASR101	HASR101
	1259	7791750008141		1	1	44825349	2019-01-03 14:12:23	2:12:23 PM	448253491511140.7055475HASR101	HASR101
	1259	7791750008141		1	1	44825349	2019-01-03 14:12:47	2:12:47 PM	448253491511140.7055475HASR101	HASR101
	1259	7791750008141		1	1	44825349	2019-01-03 14:12:48	2:12:48 PM	448253491511140.7055475HASR101	HASR101
	1259	7791750008141		1	1	44825349	2019-01-03 14:13:06	2:13:06 PM	448253491511140.7055475HASR101	HASR101
	1259	7791750008141		1	1	44825349	2019-01-03 14:13:06	2:13:06 PM	448253491511140.7055475HASR101	HASR101
	1259	7791750008141		1	1	44825349	2019-01-03 14:13:07	2:13:07 PM	448253491511140.7055475HASR101	HASR101
	1259	7791750008141		1	1	44825349	2019-01-03 14:13:34	2:13:34 PM	448253491511140.7055475HASR101	HASR101
	1259	7791750008141		1	1	44825349	2019-01-03 14:13:35	2:13:35 PM	448253491511140.7055475HASR101	HASR101
	1259	7791750008141		1	1	44825349	2019-01-03 14:13:36	2:13:36 PM	448253491511140.7055475HASR101	HASR101
	1259	7791750008141		1	1	44825349	2019-01-03 14:13:55	2:13:55 PM	448253491511140.7055475HASR101	HASR101
	1259	7791750008141		1	1	44825349	2019-01-03 14:13:56	2:13:56 PM	448253491511140.7055475HASR101	HASR101
	1259	7791750008141		1	1	44825349	2019-01-03 14:13:56	2:13:56 PM	448253491511140.7055475HASR101	HASR101
	1259	7791750008141		1	1	44825349	2019-01-03 14:14:15	2:14:15 PM	448253491511140.7055475HASR101	HASR101
	1259	7791750008141		1	1	44825349	2019-01-03 14:14:16	2:14:16 PM	448253491511140.7055475HASR101	HASR101
	1259	7791750008141		1	1	44825349	2019-01-03 14:14:17	2:14:17 PM	448253491511140.7055475HASR101	HASR101
	1259	7791750008141		1	1	44825349	2019-01-03 14:14:43	2:14:43 PM	448253491511140.7055475HASR101	HASR101
	1259	7791750008141		1	1	44825349	2019-01-03 14:14:44	2:14:44 PM	448253491511140.7055475HASR101	HASR101
	1259	7791750008141		1	1	44825349	2019-01-03 14:14:44	2:14:44 PM	448253491511140.7055475HASR101	HASR101
	1259	7791750008141		1	1	44825349	2019-01-03 14:15:15	2:15:15 PM	448253491511140.7055475HASR101	HASR101
	1259	7791750008141		1	1	44825349	2019-01-03 14:15:15	2:15:15 PM	448253491511140.7055475HASR101	HASR101
	1259	7791750008141		1	1	44825349	2019-01-03 14:15:16	2:15:16 PM	448253491511140.7055475HASR101	HASR101
	1259	7791750008141		1	1	44825349	2019-01-03 14:15:43	2:15:43 PM	448253491511140.7055475HASR101	HASR101
	1259	7791750008141		1	1	44825349	2019-01-03 14:15:44	2:15:44 PM	448253491511140.7055475HASR101	HASR101
	1259	7791750008141		1	1	44825349	2019-01-03 14:15:44	2:15:44 PM	448253491511140.7055475HASR101	HASR101
	1259	7791750008141		1	1	44825349	2019-01-03 14:16:04	2:16:04 PM	448253491511140.7055475HASR101	HASR101
	1259	7791750008141		1	1	44825349	2019-01-03 14:16:05	2:16:05 PM	448253491511140.7055475HASR101	HASR101
	1259	7791750008141		1	1	44825349	2019-01-03 14:16:06	2:16:06 PM	448253491511140.7055475HASR101	HASR101
	1259	7791750008141		1	1	44825349	2019-01-03 14:16:27	2:16:27 PM	448253491511140.7055475HASR101	HASR101
	1259	7791750008141		1	1	44825349	2019-01-03 14:16:28	2:16:28 PM	448253491511140.7055475HASR101	HASR101
	1259	7791750008141		1	1	44825349	2019-01-03 14:16:29	2:16:29 PM	448253491511140.7055475HASR101	HASR101
	1259	7791750008141		1	1	44825349	2019-01-03 14:16:54	2:16:54 PM	448253491511140.7055475HASR101	HASR101
	1259	7791750008141		1	1	44825349	2019-01-03 14:16:55	2:16:55 PM	448253491511140.7055475HASR101	HASR101
	1259	7791750008141		1	1	44825349	2019-01-03 14:16:55	2:16:55 PM	448253491511140.7055475HASR101	HASR101
	1259	7791750008141		1	1	44825349	2019-01-03 14:17:21	2:17:21 PM	448253491511140.7055475HASR101	HASR101
	1259	7791750008141		1	1	44825349	2019-01-03 14:17:21	2:17:21 PM	448253491511140.7055475HASR101	HASR101
	1259	7791750008141		1	1	44825349	2019-01-03 14:17:22	2:17:22 PM	448253491511140.7055475HASR101	HASR101
	1259	7791750008141		1	1	44825349	2019-01-03 14:17:52	2:17:52 PM	448253491511140.7055475HASR101	HASR101
	1259	7791750008141		1	1	44825349	2019-01-03 14:17:53	2:17:53 PM	448253491511140.7055475HASR101	HASR101
	1259	7791750008141		1	1	44825349	2019-01-03 14:17:53	2:17:53 PM	448253491511140.7055475HASR101	HASR101
	1259	7791750008141		1	1	44825349	2019-01-03 14:18:16	2:18:16 PM	448253491511140.7055475HASR101	HASR101
	1259	7791750008141		1	1	44825349	2019-01-03 14:18:17	2:18:17 PM	448253491511140.7055475HASR101	HASR101
	1259	7791750008141		1	1	44825349	2019-01-03 14:18:17	2:18:17 PM	448253491511140.7055475HASR101	HASR101
	1259	7791750008141		1	1	44825349	2019-01-03 14:18:36	2:18:36 PM	448253491511140.7055475HASR101	HASR101
	1259	7791750008141		1	1	44825349	2019-01-03 14:18:37	2:18:37 PM	448253491511140.7055475HASR101	HASR101
	1259	7791750008141		1	1	44825349	2019-01-03 14:18:37	2:18:37 PM	448253491511140.7055475HASR101	HASR101
	1259	7791750008141		1	1	44825349	2019-01-03 14:18:49	2:18:49 PM	448253491511140.7055475HASR101	HASR101
	1259	7791750008141		1	1	44825349	2019-01-03 14:19:03	2:19:03 PM	448253491511140.7055475HASR101	HASR101
	1259	7791750008141		1	1	44825349	2019-01-03 14:19:04	2:19:04 PM	448253491511140.7055475HASR101	HASR101
	1259	7791750008141		1	1	44825349	2019-01-03 14:19:04	2:19:04 PM	448253491511140.7055475HASR101	HASR101
	1259	7791750008141		1	1	44825349	2019-01-03 14:19:27	2:19:27 PM	448253491511140.7055475HASR101	HASR101
	1259	7791750008141		1	1	44825349	2019-01-03 14:19:27	2:19:27 PM	448253491511140.7055475HASR101	HASR101
	1259	7791750008141		1	1	44825349	2019-01-03 14:19:28	2:19:28 PM	448253491511140.7055475HASR101	HASR101
	1259	7791750008141		1	1	44825349	2019-01-03 14:19:51	2:19:51 PM	448253491511140.7055475HASR101	HASR101
	1259	7791750008141		1	1	44825349	2019-01-03 14:19:52	2:19:52 PM	448253491511140.7055475HASR101	HASR101
	1259	7791750008141		1	1	44825349	2019-01-03 14:19:52	2:19:52 PM	448253491511140.7055475HASR101	HASR101
	1259	7791750008141		1	1	44825349	2019-01-03 14:20:14	2:20:14 PM	448253491511140.7055475HASR101	HASR101
	1259	7791750008141		1	1	44825349	2019-01-03 14:20:15	2:20:15 PM	448253491511140.7055475HASR101	HASR101
	1259	7791750008141		1	1	44825349	2019-01-03 14:20:15	2:20:15 PM	448253491511140.7055475HASR101	HASR101
	1259	7791750008141		1	1	44825349	2019-01-03 14:20:43	2:20:43 PM	448253491511140.7055475HASR101	HASR101
	1259	7791750008141		1	1	44825349	2019-01-03 14:20:44	2:20:44 PM	448253491511140.7055475HASR101	HASR101
	1259	7791750008141		1	1	44825349	2019-01-03 14:20:44	2:20:44 PM	448253491511140.7055475HASR101	HASR101
	1259	7791750008141		1	1	44825349	2019-01-03 14:21:15	2:21:15 PM	448253491511140.7055475HASR101	HASR101
	1259	7791750008141		1	1	44825349	2019-01-03 14:21:15	2:21:15 PM	448253491511140.7055475HASR101	HASR101
	1259	7791750008141		1	1	44825349	2019-01-03 14:21:16	2:21:16 PM	448253491511140.7055475HASR101	HASR101
	1259	7791750008141		1	1	44825349	2019-01-03 14:21:40	2:21:40 PM	448253491511140.7055475HASR101	HASR101
	1259	7791750008141		1	1	44825349	2019-01-03 14:21:40	2:21:40 PM	448253491511140.7055475HASR101	HASR101
	1259	7791750008141		1	1	44825349	2019-01-03 14:21:42	2:21:42 PM	448253491511140.7055475HASR101	HASR101
	1259	7791750008141		1	1	44825349	2019-01-03 14:22:12	2:22:12 PM	448253491511140.7055475HASR101	HASR101
	1259	7791750008141		1	1	44825349	2019-01-03 14:22:12	2:22:12 PM	448253491511140.7055475HASR101	HASR101
	1259	7791750008141		1	1	44825349	2019-01-03 14:22:13	2:22:13 PM	448253491511140.7055475HASR101	HASR101
	1259	7791750008141		1	1	44825349	2019-01-03 14:22:44	2:22:44 PM	448253491511140.7055475HASR101	HASR101
	1259	7791750008141		1	1	44825349	2019-01-03 14:22:45	2:22:45 PM	448253491511140.7055475HASR101	HASR101
	1259	7791750008141		1	1	44825349	2019-01-03 14:22:45	2:22:45 PM	448253491511140.7055475HASR101	HASR101
	1259	7791750008141		1	1	44825349	2019-01-03 14:23:08	2:23:08 PM	448253491511140.7055475HASR101	HASR101
	1259	7791750008141		1	1	44825349	2019-01-03 14:23:08	2:23:08 PM	448253491511140.7055475HASR101	HASR101
	1259	7791750008141		1	1	44825349	2019-01-03 14:23:09	2:23:09 PM	448253491511140.7055475HASR101	HASR101
	1259	7791750008141		1	1	44825349	2019-01-03 14:23:32	2:23:32 PM	448253491511140.7055475HASR101	HASR101
	1259	7791750008141		1	1	44825349	2019-01-03 14:23:32	2:23:32 PM	448253491511140.7055475HASR101	HASR101
	1259	7791750008141		1	1	44825349	2019-01-03 14:23:33	2:23:33 PM	448253491511140.7055475HASR101	HASR101
	1259	7791750008141		1	1	44825349	2019-01-03 14:23:54	2:23:54 PM	448253491511140.7055475HASR101	HASR101
	1259	7791750008141		1	1	44825349	2019-01-03 14:23:54	2:23:54 PM	448253491511140.7055475HASR101	HASR101
	1259	7791750008141		1	1	44825349	2019-01-03 14:23:55	2:23:55 PM	448253491511140.7055475HASR101	HASR101
	1259	7791750008141		1	1	44825349	2019-01-03 14:24:11	2:24:11 PM	448253491511140.7055475HASR101	HASR101
	1259	7791750008141		1	1	44825349	2019-01-03 14:24:12	2:24:12 PM	448253491511140.7055475HASR101	HASR101
	1259	7791750008141		1	1	44825349	2019-01-03 14:24:13	2:24:13 PM	448253491511140.7055475HASR101	HASR101
	1259	7791750008141		1	1	44825349	2019-01-03 14:24:23	2:24:23 PM	448253491511140.7055475HASR101	HASR101
	1259	7791750008141		1	1	44825349	2019-01-03 14:24:24	2:24:24 PM	448253491511140.7055475HASR101	HASR101
	1259	7791750008141		1	1	44825349	2019-01-03 14:24:44	2:24:44 PM	448253491511140.7055475HASR101	HASR101
	1259	7791750008141		1	1	44825349	2019-01-03 14:24:44	2:24:44 PM	448253491511140.7055475HASR101	HASR101
	1259	7791750008141		1	1	44825349	2019-01-03 14:24:45	2:24:45 PM	448253491511140.7055475HASR101	HASR101
	1259	7791750008141		1	1	44825349	2019-01-03 14:25:11	2:25:11 PM	448253491511140.7055475HASR101	HASR101
	1259	7791750008141		1	1	44825349	2019-01-03 14:25:12	2:25:12 PM	448253491511140.7055475HASR101	HASR101
	1259	7791750008141		1	1	44825349	2019-01-03 14:25:12	2:25:12 PM	448253491511140.7055475HASR101	HASR101
	1259	7791750008141		1	1	44825349	2019-01-03 14:25:35	2:25:35 PM	448253491511140.7055475HASR101	HASR101
	1259	7791750008141		1	1	44825349	2019-01-03 14:25:36	2:25:36 PM	448253491511140.7055475HASR101	HASR101
	1259	7791750008141		1	1	44825349	2019-01-03 14:25:37	2:25:37 PM	448253491511140.7055475HASR101	HASR101
	1259	7791750008141		1	1	44825349	2019-01-03 14:26:07	2:26:07 PM	448253491511140.7055475HASR101	HASR101
	1259	7791750008141		1	1	44825349	2019-01-03 14:26:07	2:26:07 PM	448253491511140.7055475HASR101	HASR101
	1259	7791750008141		1	1	44825349	2019-01-03 14:26:08	2:26:08 PM	448253491511140.7055475HASR101	HASR101
	1259	7791750008141		1	1	44825349	2019-01-03 14:26:27	2:26:27 PM	448253491511140.7055475HASR101	HASR101
	1259	7791750008141		1	1	44825349	2019-01-03 14:26:28	2:26:28 PM	448253491511140.7055475HASR101	HASR101
	1259	7791750008141		1	1	44825349	2019-01-03 14:26:30	2:26:30 PM	448253491511140.7055475HASR101	HASR101
	1259	7791750008141		1	1	44825349	2019-01-03 14:26:58	2:26:58 PM	448253491511140.7055475HASR101	HASR101
	1259	7791750008141		1	1	44825349	2019-01-03 14:26:59	2:26:59 PM	448253491511140.7055475HASR101	HASR101
	1259	7791750008141		1	1	44825349	2019-01-03 14:26:59	2:26:59 PM	448253491511140.7055475HASR101	HASR101
	1259	7791750008141		1	1	44825349	2019-01-03 14:27:19	2:27:19 PM	448253491511140.7055475HASR101	HASR101
	1259	7791750008141		1	1	44825349	2019-01-03 14:27:19	2:27:19 PM	448253491511140.7055475HASR101	HASR101
	1259	7791750008141		1	1	44825349	2019-01-03 14:27:20	2:27:20 PM	448253491511140.7055475HASR101	HASR101
	1259	7791750008141		1	1	44825349	2019-01-03 14:27:44	2:27:44 PM	448253491511140.7055475HASR101	HASR101
	1259	7791750008141		1	1	44825349	2019-01-03 14:27:45	2:27:45 PM	448253491511140.7055475HASR101	HASR101
	1259	7791750008141		1	1	44825349	2019-01-03 14:27:46	2:27:46 PM	448253491511140.7055475HASR101	HASR101
	1259	7791750008141		1	1	44825349	2019-01-03 14:28:06	2:28:06 PM	448253491511140.7055475HASR101	HASR101
	1259	7791750008141		1	1	44825349	2019-01-03 14:28:07	2:28:07 PM	448253491511140.7055475HASR101	HASR101
	1259	7791750008141		1	1	44825349	2019-01-03 14:28:07	2:28:08 PM	448253491511140.7055475HASR101	HASR101
	1259	7791750008141		1	1	44825349	2019-01-03 14:28:30	2:28:30 PM	448253491511140.7055475HASR101	HASR101
	1259	7791750008141		1	1	44825349	2019-01-03 14:28:30	2:28:30 PM	448253491511140.7055475HASR101	HASR101
	1259	7791750008141		1	1	44825349	2019-01-03 14:28:33	2:28:33 PM	448253491511140.7055475HASR101	HASR101
	1259	7791750008141		1	1	44825349	2019-01-03 14:28:55	2:28:55 PM	448253491511140.7055475HASR101	HASR101
	1259	7791750008141		1	1	44825349	2019-01-03 14:28:56	2:28:56 PM	448253491511140.7055475HASR101	HASR101
	1259	7791750008141		1	1	44825349	2019-01-03 14:28:57	2:28:57 PM	448253491511140.7055475HASR101	HASR101
	1259	7791750008141		1	1	44825349	2019-01-03 14:29:23	2:29:23 PM	448253491511140.7055475HASR101	HASR101
	1259	7791750008141		1	1	44825349	2019-01-03 14:29:24	2:29:24 PM	448253491511140.7055475HASR101	HASR101
	1259	7791750008141		1	1	44825349	2019-01-03 14:29:25	2:29:25 PM	448253491511140.7055475HASR101	HASR101
	1259	7791750008141		1	1	44825349	2019-01-03 14:29:53	2:29:53 PM	448253491511140.7055475HASR101	HASR101
	1259	7791750008141		1	1	44825349	2019-01-03 14:29:54	2:29:54 PM	448253491511140.7055475HASR101	HASR101
	1259	7791750008141		1	1	44825349	2019-01-03 14:29:55	2:29:55 PM	448253491511140.7055475HASR101	HASR101
	1259	7791750008141		1	1	44825349	2019-01-03 14:30:27	2:30:27 PM	448253491511140.7055475HASR101	HASR101
	1259	7791750008141		1	1	44825349	2019-01-03 14:30:28	2:30:28 PM	448253491511140.7055475HASR101	HASR101
	1259	7791750008141		1	1	44825349	2019-01-03 14:30:28	2:30:28 PM	448253491511140.7055475HASR101	HASR101
	1259	7791750008141		1	1	44825349	2019-01-03 14:30:52	2:30:52 PM	448253491511140.7055475HASR101	HASR101
	1259	7791750008141		1	1	44825349	2019-01-03 14:30:53	2:30:53 PM	448253491511140.7055475HASR101	HASR101
	1259	7791750008141		1	1	44825349	2019-01-03 14:30:54	2:30:54 PM	448253491511140.7055475HASR101	HASR101
	1259	7791750008141		1	1	44825349	2019-01-03 14:31:20	2:31:20 PM	448253491511140.7055475HASR101	HASR101
	1259	7791750008141		1	1	44825349	2019-01-03 14:31:22	2:31:22 PM	448253491511140.7055475HASR101	HASR101
	1259	7791750008141		1	1	44825349	2019-01-03 14:31:23	2:31:23 PM	448253491511140.7055475HASR101	HASR101
	1259	7791750008141		1	1	44825349	2019-01-03 14:31:57	2:31:57 PM	448253491511140.7055475HASR101	HASR101
	1259	7791750008141		1	1	44825349	2019-01-03 14:31:59	2:31:59 PM	448253491511140.7055475HASR101	HASR101
	1259	7791750008141		1	1	44825349	2019-01-03 14:32:00	2:32:00 PM	448253491511140.7055475HASR101	HASR101
	1259	7791750008141		1	1	44825349	2019-01-03 14:32:34	2:32:34 PM	448253491511140.7055475HASR101	HASR101
	1259	7791750008141		1	1	44825349	2019-01-03 14:32:34	2:32:34 PM	448253491511140.7055475HASR101	HASR101
	1259	7791750008141		1	1	44825349	2019-01-03 14:32:35	2:32:35 PM	448253491511140.7055475HASR101	HASR101
	1259	7791750008141		1	1	44825349	2019-01-03 14:32:51	2:32:51 PM	448253491511140.7055475HASR101	HASR101
	1259	7791750008141		1	1	44825349	2019-01-03 14:32:52	2:32:52 PM	448253491511140.7055475HASR101	HASR101
	1259	7791750008141		1	1	44825349	2019-01-03 14:32:52	2:32:52 PM	448253491511140.7055475HASR101	HASR101
	1259	7791750008141		1	1	44825349	2019-01-03 14:33:13	2:33:13 PM	448253491511140.7055475HASR101	HASR101
	1259	7791750008141		1	1	44825349	2019-01-03 14:33:13	2:33:13 PM	448253491511140.7055475HASR101	HASR101
	1259	7791750008141		1	1	44825349	2019-01-03 14:33:14	2:33:14 PM	448253491511140.7055475HASR101	HASR101
	1259	7791750008141		1	1	44825349	2019-01-03 14:33:37	2:33:37 PM	448253491511140.7055475HASR101	HASR101
	1259	7791750008141		1	1	44825349	2019-01-03 14:33:38	2:33:38 PM	448253491511140.7055475HASR101	HASR101
	1259	7791750008141		1	1	44825349	2019-01-03 14:33:39	2:33:39 PM	448253491511140.7055475HASR101	HASR101
	1259	7791750008141		1	1	44825349	2019-01-03 14:33:55	2:33:55 PM	448253491511140.7055475HASR101	HASR101
	1259	7791750008141		1	1	44825349	2019-01-03 14:33:56	2:33:56 PM	448253491511140.7055475HASR101	HASR101
	1259	7791750008141		1	1	44825349	2019-01-03 14:33:56	2:33:56 PM	448253491511140.7055475HASR101	HASR101
	1259	7791750008141		1	1	44825349	2019-01-03 14:34:17	2:34:17 PM	448253491511140.7055475HASR101	HASR101
	1259	7791750008141		1	1	44825349	2019-01-03 14:34:18	2:34:18 PM	448253491511140.7055475HASR101	HASR101
	1259	7791750008141		1	1	44825349	2019-01-03 14:34:19	2:34:19 PM	448253491511140.7055475HASR101	HASR101
	1259	7791750008141		1	1	44825349	2019-01-03 14:34:26	2:34:26 PM	448253491511140.7055475HASR101	HASR101
	1259	7791750008141		1	1	44825349	2019-01-03 14:34:46	2:34:46 PM	448253491511140.7055475HASR101	HASR101
	1259	7791750008141		1	1	44825349	2019-01-03 14:34:46	2:34:46 PM	448253491511140.7055475HASR101	HASR101
	1259	7791750008141		1	1	44825349	2019-01-03 14:34:47	2:34:47 PM	448253491511140.7055475HASR101	HASR101
	1259	7791750008141		1	1	44825349	2019-01-03 14:35:02	2:35:02 PM	448253491511140.7055475HASR101	HASR101
	1259	7791750008141		1	1	44825349	2019-01-03 14:35:03	2:35:03 PM	448253491511140.7055475HASR101	HASR101
	1259	7791750008141		1	1	44825349	2019-01-03 14:35:04	2:35:04 PM	448253491511140.7055475HASR101	HASR101
	1259	7791750008141		1	1	44825349	2019-01-03 14:35:21	2:35:21 PM	448253491511140.7055475HASR101	HASR101
	1259	7791750008141		1	1	44825349	2019-01-03 14:35:22	2:35:22 PM	448253491511140.7055475HASR101	HASR101
	1259	7791750008141		1	1	44825349	2019-01-03 14:35:22	2:35:22 PM	448253491511140.7055475HASR101	HASR101
	1259	7791750008141		1	1	44825349	2019-01-03 14:35:38	2:35:38 PM	448253491511140.7055475HASR101	HASR101
	1259	7791750008141		1	1	44825349	2019-01-03 14:35:38	2:35:38 PM	448253491511140.7055475HASR101	HASR101
	1259	7791750008141		1	1	44825349	2019-01-03 14:35:40	2:35:40 PM	448253491511140.7055475HASR101	HASR101
	1259	7791750008141		1	1	44825349	2019-01-03 14:36:04	2:36:04 PM	448253491511140.7055475HASR101	HASR101
	1259	7791750008141		1	1	44825349	2019-01-03 14:36:05	2:36:05 PM	448253491511140.7055475HASR101	HASR101
	1259	7791750008141		1	1	44825349	2019-01-03 14:36:05	2:36:05 PM	448253491511140.7055475HASR101	HASR101
	1259	7791750008141		1	1	44825349	2019-01-03 14:36:28	2:36:28 PM	448253491511140.7055475HASR101	HASR101
	1259	7791750008141		1	1	44825349	2019-01-03 14:36:29	2:36:29 PM	448253491511140.7055475HASR101	HASR101
	1259	7791750008141		1	1	44825349	2019-01-03 14:36:30	2:36:30 PM	448253491511140.7055475HASR101	HASR101
	1259	7791750008141		1	1	44825349	2019-01-03 14:36:51	2:36:51 PM	448253491511140.7055475HASR101	HASR101
	1259	7791750008141		1	1	44825349	2019-01-03 14:36:52	2:36:52 PM	448253491511140.7055475HASR101	HASR101
	1259	7791750008141		1	1	44825349	2019-01-03 14:36:53	2:36:53 PM	448253491511140.7055475HASR101	HASR101
	1268	7799008914848		1	1	44825349	2019-01-03 14:38:08	2:38:08 PM	448253491511140.7055475HASR101	HASR101
	1268	7799008914848		1	1	44825349	2019-01-03 14:38:09	2:38:09 PM	448253491511140.7055475HASR101	HASR101
	1268	7799008914848		1	1	44825349	2019-01-03 14:38:36	2:38:36 PM	448253491511140.7055475HASR101	HASR101
	1268	7799008914848		1	1	44825349	2019-01-03 14:38:48	2:38:48 PM	448253491511140.7055475HASR101	HASR101
	1268	7799008914848		1	1	44825349	2019-01-03 14:38:50	2:38:50 PM	448253491511140.7055475HASR101	HASR101
	1268	7799008914848		1	1	44825349	2019-01-03 14:39:04	2:39:04 PM	448253491511140.7055475HASR101	HASR101
	1268	7799008914848		1	1	44825349	2019-01-03 14:39:05	2:39:05 PM	448253491511140.7055475HASR101	HASR101
	1269	7799008914329		1	1	44825349	2019-01-03 14:39:46	2:39:46 PM	448253491511140.7055475HASR101	HASR101
	1269	7799008914329		1	1	44825349	2019-01-03 14:39:47	2:39:47 PM	448253491511140.7055475HASR101	HASR101
	1269	7799008914329		1	1	44825349	2019-01-03 14:40:01	2:40:01 PM	448253491511140.7055475HASR101	HASR101
	1269	7799008914329		1	1	44825349	2019-01-03 14:40:01	2:40:01 PM	448253491511140.7055475HASR101	HASR101
	1269	7799008914329		1	1	44825349	2019-01-03 14:40:06	2:40:06 PM	448253491511140.7055475HASR101	HASR101
	1269	7799008914329		1	1	44825349	2019-01-03 14:40:07	2:40:07 PM	448253491511140.7055475HASR101	HASR101
	1270	7799008914794		1	1	44825349	2019-01-03 14:40:58	2:40:58 PM	448253491511140.7055475HASR101	HASR101
	1270	7799008914794		1	1	44825349	2019-01-03 14:41:02	2:41:02 PM	448253491511140.7055475HASR101	HASR101
	1270	7799008914794		1	1	44825349	2019-01-03 14:41:05	2:41:05 PM	448253491511140.7055475HASR101	HASR101
	1270	7799008914794		1	1	44825349	2019-01-03 14:41:07	2:41:07 PM	448253491511140.7055475HASR101	HASR101
	1270	7799008914794		1	1	44825349	2019-01-03 14:41:10	2:41:10 PM	448253491511140.7055475HASR101	HASR101
	1270	7799008914794		1	1	44825349	2019-01-03 14:41:12	2:41:12 PM	448253491511140.7055475HASR101	HASR101
	1270	7799008914794		1	1	44825349	2019-01-03 14:41:13	2:41:13 PM	448253491511140.7055475HASR101	HASR101
	1270	7799008914794		1	1	44825349	2019-01-03 14:41:16	2:41:16 PM	448253491511140.7055475HASR101	HASR101
	1270	7799008914794		1	1	44825349	2019-01-03 14:41:20	2:41:20 PM	448253491511140.7055475HASR101	HASR101
	1270	7799008914794		1	1	44825349	2019-01-03 14:41:23	2:41:23 PM	448253491511140.7055475HASR101	HASR101
	1270	7799008914794		1	1	44825349	2019-01-03 14:41:31	2:41:31 PM	448253491511140.7055475HASR101	HASR101
	1270	7799008914794		1	1	44825349	2019-01-03 14:41:37	2:41:37 PM	448253491511140.7055475HASR101	HASR101
	1270	7799008914794		1	1	44825349	2019-01-03 14:41:40	2:41:40 PM	448253491511140.7055475HASR101	HASR101
	1270	7799008914794		1	1	44825349	2019-01-03 14:41:43	2:41:43 PM	448253491511140.7055475HASR101	HASR101
	1270	7799008914794		1	1	44825349	2019-01-03 14:41:50	2:41:50 PM	448253491511140.7055475HASR101	HASR101
	1270	7799008914794		1	1	44825349	2019-01-03 14:41:58	2:41:58 PM	448253491511140.7055475HASR101	HASR101
	1270	7799008914794		1	1	44825349	2019-01-03 14:42:02	2:42:02 PM	448253491511140.7055475HASR101	HASR101
	1270	7799008914794		1	1	44825349	2019-01-03 14:42:04	2:42:04 PM	448253491511140.7055475HASR101	HASR101
	1270	7799008914794		1	1	44825349	2019-01-03 14:42:06	2:42:06 PM	448253491511140.7055475HASR101	HASR101
	1270	7799008914794		1	1	44825349	2019-01-03 14:42:08	2:42:08 PM	448253491511140.7055475HASR101	HASR101
	1270	7799008914794		1	1	44825349	2019-01-03 14:42:11	2:42:11 PM	448253491511140.7055475HASR101	HASR101
	1270	7799008914794		1	1	44825349	2019-01-03 14:42:13	2:42:13 PM	448253491511140.7055475HASR101	HASR101
	1270	7799008914794		1	1	44825349	2019-01-03 14:42:16	2:42:16 PM	448253491511140.7055475HASR101	HASR101
	1270	7799008914794		1	1	44825349	2019-01-03 14:42:21	2:42:21 PM	448253491511140.7055475HASR101	HASR101
	1270	7799008914794		1	1	44825349	2019-01-03 14:42:23	2:42:23 PM	448253491511140.7055475HASR101	HASR101
	1270	7799008979847		1	1	44825349	2019-01-03 14:42:27	2:42:27 PM	448253491511140.7055475HASR101	HASR101
	1270	7799008914794		1	1	44825349	2019-01-03 14:42:31	2:42:31 PM	448253491511140.7055475HASR101	HASR101
	1270	7799008914794		1	1	44825349	2019-01-03 14:42:34	2:42:34 PM	448253491511140.7055475HASR101	HASR101
	1270	7799008914794		1	1	44825349	2019-01-03 14:42:37	2:42:37 PM	448253491511140.7055475HASR101	HASR101
	1270	7799008914794		1	1	44825349	2019-01-03 14:42:40	2:42:40 PM	448253491511140.7055475HASR101	HASR101
	1270	7799008914794		1	1	44825349	2019-01-03 14:42:42	2:42:42 PM	448253491511140.7055475HASR101	HASR101
	1270	7799008914794		1	1	44825349	2019-01-03 14:42:45	2:42:45 PM	448253491511140.7055475HASR101	HASR101
	1270	7799008914794		1	1	44825349	2019-01-03 14:42:48	2:42:48 PM	448253491511140.7055475HASR101	HASR101
	1270	7799008914794		1	1	44825349	2019-01-03 14:42:52	2:42:52 PM	448253491511140.7055475HASR101	HASR101
	1270	7799008914794		1	1	44825349	2019-01-03 14:42:57	2:42:57 PM	448253491511140.7055475HASR101	HASR101
	1270	7799008914794		1	1	44825349	2019-01-03 14:42:59	2:42:59 PM	448253491511140.7055475HASR101	HASR101
	1270	7799008914794		1	1	44825349	2019-01-03 14:43:04	2:43:04 PM	448253491511140.7055475HASR101	HASR101
	1270	7799008979847		1	1	44825349	2019-01-03 14:43:06	2:43:06 PM	448253491511140.7055475HASR101	HASR101
	1270	7799008979847		1	1	44825349	2019-01-03 14:43:10	2:43:10 PM	448253491511140.7055475HASR101	HASR101
	1270	7799008914794		1	1	44825349	2019-01-03 14:43:14	2:43:14 PM	448253491511140.7055475HASR101	HASR101
	1270	7799008914794		1	1	44825349	2019-01-03 14:43:17	2:43:17 PM	448253491511140.7055475HASR101	HASR101
	1270	7799008914794		1	1	44825349	2019-01-03 14:43:22	2:43:22 PM	448253491511140.7055475HASR101	HASR101
	1270	7799008914794		1	1	44825349	2019-01-03 14:43:23	2:43:23 PM	448253491511140.7055475HASR101	HASR101
	1270	7799008914794		1	1	44825349	2019-01-03 14:43:27	2:43:27 PM	448253491511140.7055475HASR101	HASR101
	1270	7799008979847		1	1	44825349	2019-01-03 14:43:29	2:43:29 PM	448253491511140.7055475HASR101	HASR101
	1270	7799008914794		1	1	44825349	2019-01-03 14:43:32	2:43:32 PM	448253491511140.7055475HASR101	HASR101
	1270	7799008914794		1	1	44825349	2019-01-03 14:43:34	2:43:34 PM	448253491511140.7055475HASR101	HASR101
	1270	7799008914794		1	1	44825349	2019-01-03 14:43:36	2:43:36 PM	448253491511140.7055475HASR101	HASR101
	1270	7799008914794		1	1	44825349	2019-01-03 14:43:37	2:43:37 PM	448253491511140.7055475HASR101	HASR101
	1270	7799008914794		1	1	44825349	2019-01-03 14:43:39	2:43:39 PM	448253491511140.7055475HASR101	HASR101
	1270	7799008914794		1	1	44825349	2019-01-03 14:43:41	2:43:41 PM	448253491511140.7055475HASR101	HASR101
	1270	7799008914794		1	1	44825349	2019-01-03 14:43:43	2:43:43 PM	448253491511140.7055475HASR101	HASR101
	1270	7799008914794		1	1	44825349	2019-01-03 14:43:45	2:43:45 PM	448253491511140.7055475HASR101	HASR101
	1270	7799008914794		1	1	44825349	2019-01-03 14:43:52	2:43:52 PM	448253491511140.7055475HASR101	HASR101
	1270	7799008914794		1	1	44825349	2019-01-03 14:43:56	2:43:56 PM	448253491511140.7055475HASR101	HASR101
	1270	7799008914794		1	1	44825349	2019-01-03 14:43:58	2:43:58 PM	448253491511140.7055475HASR101	HASR101
	1270	7799008914794		1	1	44825349	2019-01-03 14:44:00	2:44:00 PM	448253491511140.7055475HASR101	HASR101
	1270	7799008914794		1	1	44825349	2019-01-03 14:44:01	2:44:01 PM	448253491511140.7055475HASR101	HASR101
	1270	7799008914794		1	1	44825349	2019-01-03 14:44:04	2:44:04 PM	448253491511140.7055475HASR101	HASR101
	1270	7799008914794		1	1	44825349	2019-01-03 14:44:07	2:44:07 PM	448253491511140.7055475HASR101	HASR101
	1270	7799008914794		1	1	44825349	2019-01-03 14:44:09	2:44:09 PM	448253491511140.7055475HASR101	HASR101
	1270	7799008914794		1	1	44825349	2019-01-03 14:44:11	2:44:11 PM	448253491511140.7055475HASR101	HASR101
	1270	7799008914794		1	1	44825349	2019-01-03 14:44:13	2:44:13 PM	448253491511140.7055475HASR101	HASR101
	1270	7799008914794		1	1	44825349	2019-01-03 14:44:14	2:44:14 PM	448253491511140.7055475HASR101	HASR101
	1270	7799008914794		1	1	44825349	2019-01-03 14:44:17	2:44:17 PM	448253491511140.7055475HASR101	HASR101
	1270	7799008914794		1	1	44825349	2019-01-03 14:44:20	2:44:20 PM	448253491511140.7055475HASR101	HASR101
	1270	7799008914794		1	1	44825349	2019-01-03 14:44:25	2:44:25 PM	448253491511140.7055475HASR101	HASR101
	1270	7799008914794		1	1	44825349	2019-01-03 14:44:26	2:44:26 PM	448253491511140.7055475HASR101	HASR101
	1270	7799008914794		1	1	44825349	2019-01-03 14:44:29	2:44:29 PM	448253491511140.7055475HASR101	HASR101
	1270	7799008914794		1	1	44825349	2019-01-03 14:44:31	2:44:31 PM	448253491511140.7055475HASR101	HASR101
	1270	7799008914794		1	1	44825349	2019-01-03 14:44:33	2:44:33 PM	448253491511140.7055475HASR101	HASR101
	1270	7799008914794		1	1	44825349	2019-01-03 14:44:35	2:44:35 PM	448253491511140.7055475HASR101	HASR101
	1270	7799008914794		1	1	44825349	2019-01-03 14:44:37	2:44:37 PM	448253491511140.7055475HASR101	HASR101
	1270	7799008914794		1	1	44825349	2019-01-03 14:44:38	2:44:38 PM	448253491511140.7055475HASR101	HASR101
	1270	7799008914794		1	1	44825349	2019-01-03 14:44:39	2:44:39 PM	448253491511140.7055475HASR101	HASR101
	1270	7799008914794		1	1	44825349	2019-01-03 14:44:41	2:44:41 PM	448253491511140.7055475HASR101	HASR101
	1274	7799008914350		1	1	44825349	2019-01-03 14:46:30	2:46:30 PM	448253491511140.7055475HASR101	HASR101
	1274	7799008914350		1	1	44825349	2019-01-03 14:46:57	2:46:57 PM	448253491511140.7055475HASR101	HASR101
	1274	7799008914350		1	1	44825349	2019-01-03 14:47:02	2:47:02 PM	448253491511140.7055475HASR101	HASR101
	1274	7799008914350		1	1	44825349	2019-01-03 14:47:22	2:47:22 PM	448253491511140.7055475HASR101	HASR101
	1274	7799008914350		1	1	44825349	2019-01-03 14:47:23	2:47:23 PM	448253491511140.7055475HASR101	HASR101
	1274	7799008914350		1	1	44825349	2019-01-03 14:47:39	2:47:39 PM	448253491511140.7055475HASR101	HASR101
	1274	7799008914350		1	1	44825349	2019-01-03 14:47:56	2:47:56 PM	448253491511140.7055475HASR101	HASR101
	1274	7799008914350		1	1	44825349	2019-01-03 14:47:58	2:47:58 PM	448253491511140.7055475HASR101	HASR101
	1275	7799008979809		1	1	44825349	2019-01-03 14:49:01	2:49:01 PM	448253491511140.7055475HASR101	HASR101
	1275	7799008979809		1	1	44825349	2019-01-03 14:49:01	2:49:01 PM	448253491511140.7055475HASR101	HASR101
	1275	7799008979809		1	1	44825349	2019-01-03 14:49:26	2:49:26 PM	448253491511140.7055475HASR101	HASR101
	1275	7799008979809		1	1	44825349	2019-01-03 14:49:26	2:49:26 PM	448253491511140.7055475HASR101	HASR101
	1275	7799008979809		1	1	44825349	2019-01-03 14:49:29	2:49:29 PM	448253491511140.7055475HASR101	HASR101
	1275	7799008979809		1	1	44825349	2019-01-03 14:49:30	2:49:30 PM	448253491511140.7055475HASR101	HASR101
	1275	7799008979809		1	1	44825349	2019-01-03 14:49:33	2:49:33 PM	448253491511140.7055475HASR101	HASR101
	1275	7799008979809		1	1	44825349	2019-01-03 14:49:34	2:49:34 PM	448253491511140.7055475HASR101	HASR101
	1271	7799008914633		1	1	44825349	2019-01-03 14:50:26	2:50:26 PM	448253491511140.7055475HASR101	HASR101
	1271	7799008914633		1	1	44825349	2019-01-03 14:50:42	2:50:42 PM	448253491511140.7055475HASR101	HASR101
	1271	7799008914633		1	1	44825349	2019-01-03 14:50:52	2:50:52 PM	448253491511140.7055475HASR101	HASR101
	1271	7799008914633		1	1	44825349	2019-01-03 14:51:15	2:51:15 PM	448253491511140.7055475HASR101	HASR101
	1271	7799008914633		1	1	44825349	2019-01-03 14:51:30	2:51:30 PM	448253491511140.7055475HASR101	HASR101
	1271	7799008914633		1	1	44825349	2019-01-03 14:52:16	2:52:16 PM	448253491511140.7055475HASR101	HASR101
	1271	7799008914633		1	1	44825349	2019-01-03 14:52:29	2:52:29 PM	448253491511140.7055475HASR101	HASR101
	1271	7799008914633		1	1	44825349	2019-01-03 14:52:44	2:52:44 PM	448253491511140.7055475HASR101	HASR101
	1271	7799008914633		1	1	44825349	2019-01-03 14:52:58	2:52:58 PM	448253491511140.7055475HASR101	HASR101
	1271	7799008914633		1	1	44825349	2019-01-03 14:53:01	2:53:01 PM	448253491511140.7055475HASR101	HASR101
	1271	7799008914633		1	1	44825349	2019-01-03 14:53:15	2:53:15 PM	448253491511140.7055475HASR101	HASR101
	1271	7799008914633		1	1	44825349	2019-01-03 14:53:25	2:53:25 PM	448253491511140.7055475HASR101	HASR101
	1271	7799008914633		1	1	44825349	2019-01-03 14:53:25	2:53:25 PM	448253491511140.7055475HASR101	HASR101
	1271	7799008914633		1	1	44825349	2019-01-03 14:53:37	2:53:37 PM	448253491511140.7055475HASR101	HASR101
	1271	7799008914633		1	1	44825349	2019-01-03 14:53:48	2:53:48 PM	448253491511140.7055475HASR101	HASR101
	1271	7799008914633		1	1	44825349	2019-01-03 14:53:56	2:53:56 PM	448253491511140.7055475HASR101	HASR101
	1271	7799008914633		1	1	44825349	2019-01-03 14:54:09	2:54:09 PM	448253491511140.7055475HASR101	HASR101
	1271	7799008914633		1	1	44825349	2019-01-03 14:54:20	2:54:20 PM	448253491511140.7055475HASR101	HASR101
	1271	7799008914633		1	1	44825349	2019-01-03 14:54:53	2:54:53 PM	448253491511140.7055475HASR101	HASR101
	1271	7799008914633		1	1	44825349	2019-01-03 14:55:14	2:55:14 PM	448253491511140.7055475HASR101	HASR101
	1271	7799008914633		1	1	44825349	2019-01-03 14:55:15	2:55:15 PM	448253491511140.7055475HASR101	HASR101
	1271	7799008914633		1	1	44825349	2019-01-03 14:55:35	2:55:35 PM	448253491511140.7055475HASR101	HASR101
	1271	7799008914633		1	1	44825349	2019-01-03 14:55:44	2:55:44 PM	448253491511140.7055475HASR101	HASR101
	1271	7799008914633		1	1	44825349	2019-01-03 14:56:02	2:56:02 PM	448253491511140.7055475HASR101	HASR101
	1271	7799008914633		1	1	44825349	2019-01-03 14:56:18	2:56:18 PM	448253491511140.7055475HASR101	HASR101
	1271	7799008914633		1	1	44825349	2019-01-03 14:56:36	2:56:36 PM	448253491511140.7055475HASR101	HASR101
	1271	7799008914633		1	1	44825349	2019-01-03 14:56:47	2:56:47 PM	448253491511140.7055475HASR101	HASR101
	1271	7799008914633		1	1	44825349	2019-01-03 14:57:01	2:57:01 PM	448253491511140.7055475HASR101	HASR101
	1271	7799008914633		1	1	44825349	2019-01-03 14:57:35	2:57:35 PM	448253491511140.7055475HASR101	HASR101
	1271	7799008914633		1	1	44825349	2019-01-03 14:57:35	2:57:35 PM	448253491511140.7055475HASR101	HASR101
	1271	7799008914633		1	1	44825349	2019-01-03 14:58:23	2:58:23 PM	448253491511140.7055475HASR101	HASR101
	1271	7799008914633		1	1	44825349	2019-01-03 14:58:23	2:58:23 PM	448253491511140.7055475HASR101	HASR101
	1271	7799008914633		1	1	44825349	2019-01-03 14:58:47	2:58:47 PM	448253491511140.7055475HASR101	HASR101
	1271	7799008914633		1	1	44825349	2019-01-03 14:58:48	2:58:48 PM	448253491511140.7055475HASR101	HASR101
	1271	7799008914633		1	1	44825349	2019-01-03 14:59:08	2:59:08 PM	448253491511140.7055475HASR101	HASR101
	1271	7799008914633		1	1	44825349	2019-01-03 14:59:24	2:59:24 PM	448253491511140.7055475HASR101	HASR101
	1271	7799008914633		1	1	44825349	2019-01-03 14:59:40	2:59:40 PM	448253491511140.7055475HASR101	HASR101
	1271	7799008914633		1	1	44825349	2019-01-03 14:59:42	2:59:42 PM	448253491511140.7055475HASR101	HASR101
	1271	7799008914633		1	1	44825349	2019-01-03 15:00:03	3:00:03 PM	448253491511140.7055475HASR101	HASR101
	1271	7799008914633		1	1	44825349	2019-01-03 15:00:04	3:00:04 PM	448253491511140.7055475HASR101	HASR101
	1271	7799008914633		1	1	44825349	2019-01-03 15:00:25	3:00:25 PM	448253491511140.7055475HASR101	HASR101
	1271	7799008914633		1	1	44825349	2019-01-03 15:00:26	3:00:26 PM	448253491511140.7055475HASR101	HASR101
	1271	7799008914633		1	1	44825349	2019-01-03 15:00:52	3:00:52 PM	448253491511140.7055475HASR101	HASR101
	1271	7799008914633		1	1	44825349	2019-01-03 15:01:05	3:01:05 PM	448253491511140.7055475HASR101	HASR101
	1271	7799008914633		1	1	44825349	2019-01-03 15:01:28	3:01:28 PM	448253491511140.7055475HASR101	HASR101
	1271	7799008914633		1	1	44825349	2019-01-03 15:01:30	3:01:30 PM	448253491511140.7055475HASR101	HASR101
	1271	7799008914633		1	1	44825349	2019-01-03 15:01:48	3:01:48 PM	448253491511140.7055475HASR101	HASR101
	1271	7799008914633		1	1	44825349	2019-01-03 15:01:59	3:01:59 PM	448253491511140.7055475HASR101	HASR101
	1271	7799008914633		1	1	44825349	2019-01-03 15:02:12	3:02:12 PM	448253491511140.7055475HASR101	HASR101
	1271	7799008914633		1	1	44825349	2019-01-03 15:02:19	3:02:19 PM	448253491511140.7055475HASR101	HASR101
	1271	7799008914633		1	1	44825349	2019-01-03 15:02:26	3:02:26 PM	448253491511140.7055475HASR101	HASR101
	1271	7799008914633		1	1	44825349	2019-01-03 15:02:35	3:02:35 PM	448253491511140.7055475HASR101	HASR101
	1271	7799008914633		1	1	44825349	2019-01-03 15:02:47	3:02:47 PM	448253491511140.7055475HASR101	HASR101
	1271	7799008914633		1	1	44825349	2019-01-03 15:02:56	3:02:56 PM	448253491511140.7055475HASR101	HASR101
	1271	7799008914633		1	1	44825349	2019-01-03 15:03:04	3:03:04 PM	448253491511140.7055475HASR101	HASR101
	1271	7799008914633		1	1	44825349	2019-01-03 15:03:29	3:03:29 PM	448253491511140.7055475HASR101	HASR101
	1271	7799008914633		1	1	44825349	2019-01-03 15:03:30	3:03:30 PM	448253491511140.7055475HASR101	HASR101
	1271	7799008914633		1	1	44825349	2019-01-03 15:03:57	3:03:57 PM	448253491511140.7055475HASR101	HASR101
	1271	7799008914633		1	1	44825349	2019-01-03 15:04:00	3:04:00 PM	448253491511140.7055475HASR101	HASR101
	1271	7799008914633		1	1	44825349	2019-01-03 15:04:32	3:04:32 PM	448253491511140.7055475HASR101	HASR101
	1271	7799008914633		1	1	44825349	2019-01-03 15:04:40	3:04:40 PM	448253491511140.7055475HASR101	HASR101
	1271	7799008914633		1	1	44825349	2019-01-03 15:05:00	3:05:00 PM	448253491511140.7055475HASR101	HASR101
	1271	7799008914633		1	1	44825349	2019-01-03 15:05:07	3:05:07 PM	448253491511140.7055475HASR101	HASR101
	1271	7799008914633		1	1	44825349	2019-01-03 15:05:16	3:05:16 PM	448253491511140.7055475HASR101	HASR101
	1271	7799008914633		1	1	44825349	2019-01-03 15:05:22	3:05:22 PM	448253491511140.7055475HASR101	HASR101
	1271	7799008914633		1	1	44825349	2019-01-03 15:05:28	3:05:28 PM	448253491511140.7055475HASR101	HASR101
	1271	7799008914633		1	1	44825349	2019-01-03 15:05:42	3:05:42 PM	448253491511140.7055475HASR101	HASR101
	1271	7799008914633		1	1	44825349	2019-01-03 15:05:56	3:05:56 PM	448253491511140.7055475HASR101	HASR101
	1271	7799008914633		1	1	44825349	2019-01-03 15:05:57	3:05:57 PM	448253491511140.7055475HASR101	HASR101
	1271	7799008914633		1	1	44825349	2019-01-03 15:06:17	3:06:17 PM	448253491511140.7055475HASR101	HASR101
	1271	7799008914633		1	1	44825349	2019-01-03 15:06:18	3:06:18 PM	448253491511140.7055475HASR101	HASR101
	1271	7799008914633		1	1	44825349	2019-01-03 15:06:42	3:06:42 PM	448253491511140.7055475HASR101	HASR101
	1271	7799008914633		1	1	44825349	2019-01-03 15:06:50	3:06:50 PM	448253491511140.7055475HASR101	HASR101
	1271	7799008914633		1	1	44825349	2019-01-03 15:06:56	3:06:56 PM	448253491511140.7055475HASR101	HASR101
	1271	7799008914633		1	1	44825349	2019-01-03 15:07:06	3:07:06 PM	448253491511140.7055475HASR101	HASR101
	1271	7799008914633		1	1	44825349	2019-01-03 15:07:13	3:07:13 PM	448253491511140.7055475HASR101	HASR101
	1271	7799008914633		1	1	44825349	2019-01-03 15:07:22	3:07:22 PM	448253491511140.7055475HASR101	HASR101
	1271	7799008914633		1	1	44825349	2019-01-03 15:07:30	3:07:30 PM	448253491511140.7055475HASR101	HASR101
	1271	7799008914633		1	1	44825349	2019-01-03 15:07:45	3:07:45 PM	448253491511140.7055475HASR101	HASR101
	1271	7799008914633		1	1	44825349	2019-01-03 15:07:52	3:07:52 PM	448253491511140.7055475HASR101	HASR101
	1271	7799008914633		1	1	44825349	2019-01-03 15:08:01	3:08:01 PM	448253491511140.7055475HASR101	HASR101
	1271	7799008914633		1	1	44825349	2019-01-03 15:08:04	3:08:04 PM	448253491511140.7055475HASR101	HASR101
	1271	7799008914633		1	1	44825349	2019-01-03 15:08:13	3:08:13 PM	448253491511140.7055475HASR101	HASR101
	1271	7799008914633		1	1	44825349	2019-01-03 15:08:24	3:08:24 PM	448253491511140.7055475HASR101	HASR101
	1271	7799008914633		1	1	44825349	2019-01-03 15:08:34	3:08:34 PM	448253491511140.7055475HASR101	HASR101
	1271	7799008914633		1	1	44825349	2019-01-03 15:08:49	3:08:49 PM	448253491511140.7055475HASR101	HASR101
	1271	7799008914633		1	1	44825349	2019-01-03 15:08:54	3:08:54 PM	448253491511140.7055475HASR101	HASR101
