	5494	7799021080438		135	2	45798043	2019-01-05 12:53:23	12:53 PM	457980431345270.3735362PLM078	PLM078
	5495	7799021080452		144	2	45798043	2019-01-05 13:02:46	1:02 PM	457980431345270.3735362PLM078	PLM078
	5496	7799021080452		144	2	45798043	2019-01-05 13:12:14	1:12 PM	457980431345270.3735362PLM078	PLM078
	5489	7799021080452		144	2	45798043	2019-01-05 13:28:31	1:28 PM	457980431345270.3735362PLM078	PLM078
	5497	7799021080438		289	2	45798043	2019-01-05 13:41:40	1:41 PM	457980431345270.3735362PLM078	PLM078
