	4970	7799008996769		23	2	45798043	2019-01-05 09:58:25	9:58 AM	457980431052230.8626193PLM078	PLM078
	4969	7799008979205		34	2	45798043	2019-01-05 10:00:16	10:00 AM	457980431052230.8626193PLM078	PLM078
	4974	7799008996912		214	2	45798043	2019-01-05 10:05:55	10:05 AM	457980431052230.8626193PLM078	PLM078
	4973	7799008996097		200	2	45798043	2019-01-05 10:18:10	10:18 AM	457980431052230.8626193PLM078	PLM078
	4976	7799008991184		27	2	45798043	2019-01-05 10:24:06	10:24 AM	457980431052230.8626193PLM078	PLM078
	4976	7799008991184		2	2	45798043	2019-01-05 10:25:41	10:25 AM	457980431052230.8626193PLM078	PLM078
	4968	7799008979236		54	2	45798043	2019-01-05 10:30:01	10:30 AM	457980431052230.8626193PLM078	PLM078
	4967	7799008979502		156	2	45798043	2019-01-05 10:33:07	10:33 AM	457980431052230.8626193PLM078	PLM078
	4972	7799008979250		46	2	45798043	2019-01-05 10:34:47	10:34 AM	457980431052230.8626193PLM078	PLM078
	4971	7799008991986		23	2	45798043	2019-01-05 10:43:26	10:43 AM	457980431052230.8626193PLM078	PLM078
	4959	7799008979236		39	2	45798043	2019-01-05 10:45:13	10:45 AM	457980431052230.8626193PLM078	PLM078
	4966	7799008991986		23	2	45798043	2019-01-05 10:52:14	10:52 AM	457980431052230.8626193PLM078	PLM078
