	2631	7799021056532		5	2	45798043	2019-01-04 15:04:57	3:04 PM	457980431533240.4140327PLM043	PLM043
	2630	7799021056495		35	2	45798043	2019-01-04 15:06:50	3:06 PM	457980431533240.4140327PLM043	PLM043
	2634	7799021056471		18	2	45798043	2019-01-04 15:08:34	3:08 PM	457980431533240.4140327PLM043	PLM043
	2633	7799008953649		26	2	45798043	2019-01-04 15:17:48	3:17 PM	457980431533240.4140327PLM043	PLM043
	2632	7799021056464		33	2	45798043	2019-01-04 15:22:03	3:22 PM	457980431533240.4140327PLM043	PLM043
	2636	7799021056471		33	2	45798043	2019-01-04 15:24:56	3:24 PM	457980431533240.4140327PLM043	PLM043
	2635	7799008953649		26	2	45798043	2019-01-04 15:26:42	3:26 PM	457980431533240.4140327PLM043	PLM043
	2639	7799008953649		26	2	45798043	2019-01-04 15:28:28	3:28 PM	457980431533240.4140327PLM043	PLM043
	2638	7799021056464		32	2	45798043	2019-01-04 15:30:36	3:30 PM	457980431533240.4140327PLM043	PLM043
