	2670	7799021056594		8	2	45798043	2019-01-04 16:03:20	4:03 PM	457980431611250.3735362PLM043	PLM043
	2669	7799021056594		8	2	45798043	2019-01-04 16:04:22	4:04 PM	457980431611250.3735362PLM043	PLM043
	2672	7799021056594		8	2	45798043	2019-01-04 16:05:17	4:05 PM	457980431611250.3735362PLM043	PLM043
	2671	7799021056594		8	2	45798043	2019-01-04 16:06:38	4:06 PM	457980431611250.3735362PLM043	PLM043
	2673	7799021056594		8	2	45798043	2019-01-04 16:07:58	4:07 PM	457980431611250.3735362PLM043	PLM043
	2674	7799021056594		8	2	45798043	2019-01-04 16:09:48	4:09 PM	457980431611250.3735362PLM043	PLM043
	2675	7799021056594		8	2	45798043	2019-01-04 16:10:45	4:10 PM	457980431611250.3735362PLM043	PLM043
