	5158	7799021056143		197	2	46294267	2019-01-04 18:07:34	6:07 PM	462942671816440.5795186PLM067	PLM067
	5160	7799021074338		135	2	46294267	2019-01-04 18:10:50	6:10 PM	462942671816440.5795186PLM067	PLM067
	5162	7799021079258		132	2	46294267	2019-01-04 18:11:55	6:11 PM	462942671816440.5795186PLM067	PLM067
	5165	7799008357997		300	2	46294267	2019-01-04 18:12:05	6:12 PM	462942671816440.5795186PLM067	PLM067
