	0652	7799008940441		1	1	46294267	2019-01-03 18:25:39	6:25:39 PM	462942671842140.2895625HASR101	HASR101
	0652	7799008940441		1	1	46294267	2019-01-03 18:25:41	6:25:41 PM	462942671842140.2895625HASR101	HASR101
	0652	7799008940441		1	1	46294267	2019-01-03 18:25:43	6:25:43 PM	462942671842140.2895625HASR101	HASR101
	0652	7799008940441		1	1	46294267	2019-01-03 18:25:44	6:25:44 PM	462942671842140.2895625HASR101	HASR101
	0652	7799008940441		1	1	46294267	2019-01-03 18:25:46	6:25:46 PM	462942671842140.2895625HASR101	HASR101
	0652	7799008940441		1	1	46294267	2019-01-03 18:25:48	6:25:48 PM	462942671842140.2895625HASR101	HASR101
	0652	7799008940441		1	1	46294267	2019-01-03 18:25:49	6:25:49 PM	462942671842140.2895625HASR101	HASR101
	0652	7799008940441		1	1	46294267	2019-01-03 18:25:51	6:25:51 PM	462942671842140.2895625HASR101	HASR101
	0652	7799008940441		1	1	46294267	2019-01-03 18:25:53	6:25:53 PM	462942671842140.2895625HASR101	HASR101
	0652	7799008940441		1	1	46294267	2019-01-03 18:25:54	6:25:54 PM	462942671842140.2895625HASR101	HASR101
	0652	7799008940441		1	1	46294267	2019-01-03 18:25:56	6:25:56 PM	462942671842140.2895625HASR101	HASR101
	0652	7799008940441		1	1	46294267	2019-01-03 18:25:59	6:25:59 PM	462942671842140.2895625HASR101	HASR101
	0652	7799008940441		1	1	46294267	2019-01-03 18:26:00	6:26:00 PM	462942671842140.2895625HASR101	HASR101
	0652	7799008940441		1	1	46294267	2019-01-03 18:26:02	6:26:02 PM	462942671842140.2895625HASR101	HASR101
	0652	7799008940441		1	1	46294267	2019-01-03 18:26:03	6:26:03 PM	462942671842140.2895625HASR101	HASR101
	0652	7799008940441		1	1	46294267	2019-01-03 18:26:05	6:26:05 PM	462942671842140.2895625HASR101	HASR101
	0652	7799008940441		1	1	46294267	2019-01-03 18:26:06	6:26:06 PM	462942671842140.2895625HASR101	HASR101
	0652	7799008940441		1	1	46294267	2019-01-03 18:26:07	6:26:07 PM	462942671842140.2895625HASR101	HASR101
	0652	7799008940441		1	1	46294267	2019-01-03 18:26:09	6:26:09 PM	462942671842140.2895625HASR101	HASR101
	0652	7799008940441		1	1	46294267	2019-01-03 18:26:11	6:26:11 PM	462942671842140.2895625HASR101	HASR101
	0652	7799008940441		1	1	46294267	2019-01-03 18:26:13	6:26:13 PM	462942671842140.2895625HASR101	HASR101
	0652	7799008940441		1	1	46294267	2019-01-03 18:26:14	6:26:14 PM	462942671842140.2895625HASR101	HASR101
	0652	7799008940441		1	1	46294267	2019-01-03 18:26:16	6:26:16 PM	462942671842140.2895625HASR101	HASR101
	0652	7799008940441		1	1	46294267	2019-01-03 18:26:18	6:26:18 PM	462942671842140.2895625HASR101	HASR101
	0652	7799008940441		1	1	46294267	2019-01-03 18:26:20	6:26:20 PM	462942671842140.2895625HASR101	HASR101
	0652	7799008940441		1	1	46294267	2019-01-03 18:26:21	6:26:21 PM	462942671842140.2895625HASR101	HASR101
	0652	7799008940441		1	1	46294267	2019-01-03 18:26:22	6:26:22 PM	462942671842140.2895625HASR101	HASR101
	0652	7799008940441		1	1	46294267	2019-01-03 18:26:24	6:26:24 PM	462942671842140.2895625HASR101	HASR101
	0652	7799008940441		1	1	46294267	2019-01-03 18:26:26	6:26:26 PM	462942671842140.2895625HASR101	HASR101
	0652	7799008940441		1	1	46294267	2019-01-03 18:26:28	6:26:28 PM	462942671842140.2895625HASR101	HASR101
	0652	7799008940441		1	1	46294267	2019-01-03 18:26:29	6:26:29 PM	462942671842140.2895625HASR101	HASR101
	0652	7799008940441		1	1	46294267	2019-01-03 18:26:30	6:26:30 PM	462942671842140.2895625HASR101	HASR101
	0652	7799008940441		1	1	46294267	2019-01-03 18:26:32	6:26:32 PM	462942671842140.2895625HASR101	HASR101
	0652	7799008940441		1	1	46294267	2019-01-03 18:26:34	6:26:34 PM	462942671842140.2895625HASR101	HASR101
	0652	7799008940441		1	1	46294267	2019-01-03 18:26:36	6:26:36 PM	462942671842140.2895625HASR101	HASR101
	0652	7799008940441		1	1	46294267	2019-01-03 18:26:36	6:26:36 PM	462942671842140.2895625HASR101	HASR101
	0652	7799008940441		1	1	46294267	2019-01-03 18:26:37	6:26:37 PM	462942671842140.2895625HASR101	HASR101
	0652	7799008940441		1	1	46294267	2019-01-03 18:26:41	6:26:41 PM	462942671842140.2895625HASR101	HASR101
	0652	7799008940441		1	1	46294267	2019-01-03 18:26:42	6:26:42 PM	462942671842140.2895625HASR101	HASR101
	0652	7799008940441		1	1	46294267	2019-01-03 18:26:44	6:26:44 PM	462942671842140.2895625HASR101	HASR101
	0652	7799008940441		1	1	46294267	2019-01-03 18:27:18	6:27:18 PM	462942671842140.2895625HASR101	HASR101
	0652	7799008940441		1	1	46294267	2019-01-03 18:27:20	6:27:20 PM	462942671842140.2895625HASR101	HASR101
	0652	7799008940441		1	1	46294267	2019-01-03 18:27:21	6:27:21 PM	462942671842140.2895625HASR101	HASR101
	0652	7799008940441		1	1	46294267	2019-01-03 18:27:23	6:27:23 PM	462942671842140.2895625HASR101	HASR101
	0652	7799008940441		1	1	46294267	2019-01-03 18:27:26	6:27:26 PM	462942671842140.2895625HASR101	HASR101
	0652	7799008940441		1	1	46294267	2019-01-03 18:27:28	6:27:28 PM	462942671842140.2895625HASR101	HASR101
	0652	7799008940441		1	1	46294267	2019-01-03 18:27:31	6:27:31 PM	462942671842140.2895625HASR101	HASR101
	0652	7799008940441		1	1	46294267	2019-01-03 18:27:32	6:27:32 PM	462942671842140.2895625HASR101	HASR101
	0652	7799008940441		1	1	46294267	2019-01-03 18:27:34	6:27:34 PM	462942671842140.2895625HASR101	HASR101
	0652	7799008940441		1	1	46294267	2019-01-03 18:27:35	6:27:35 PM	462942671842140.2895625HASR101	HASR101
	0652	7799008940441		1	1	46294267	2019-01-03 18:27:37	6:27:37 PM	462942671842140.2895625HASR101	HASR101
	0652	7799008940441		1	1	46294267	2019-01-03 18:27:39	6:27:39 PM	462942671842140.2895625HASR101	HASR101
	0652	7799008940441		1	1	46294267	2019-01-03 18:27:40	6:27:40 PM	462942671842140.2895625HASR101	HASR101
	0652	7799008940441		1	1	46294267	2019-01-03 18:27:41	6:27:41 PM	462942671842140.2895625HASR101	HASR101
	0652	7799008940441		1	1	46294267	2019-01-03 18:27:44	6:27:44 PM	462942671842140.2895625HASR101	HASR101
	0652	7799008940441		1	1	46294267	2019-01-03 18:27:45	6:27:45 PM	462942671842140.2895625HASR101	HASR101
	0652	7799008940441		1	1	46294267	2019-01-03 18:27:47	6:27:47 PM	462942671842140.2895625HASR101	HASR101
	0652	7799008940441		1	1	46294267	2019-01-03 18:27:49	6:27:49 PM	462942671842140.2895625HASR101	HASR101
	0652	7799008940441		1	1	46294267	2019-01-03 18:27:52	6:27:52 PM	462942671842140.2895625HASR101	HASR101
	0652	7799008940441		1	1	46294267	2019-01-03 18:27:54	6:27:54 PM	462942671842140.2895625HASR101	HASR101
	0652	7799008940441		1	1	46294267	2019-01-03 18:27:55	6:27:55 PM	462942671842140.2895625HASR101	HASR101
	0652	7799008940441		1	1	46294267	2019-01-03 18:27:56	6:27:56 PM	462942671842140.2895625HASR101	HASR101
	0652	7799008940441		1	1	46294267	2019-01-03 18:27:58	6:27:58 PM	462942671842140.2895625HASR101	HASR101
	0652	7799008940441		1	1	46294267	2019-01-03 18:28:00	6:28:00 PM	462942671842140.2895625HASR101	HASR101
	0652	7799008940441		1	1	46294267	2019-01-03 18:28:02	6:28:02 PM	462942671842140.2895625HASR101	HASR101
	0652	7799008940441		1	1	46294267	2019-01-03 18:28:04	6:28:04 PM	462942671842140.2895625HASR101	HASR101
	0652	7799008940441		1	1	46294267	2019-01-03 18:28:05	6:28:05 PM	462942671842140.2895625HASR101	HASR101
	0652	7799008940441		1	1	46294267	2019-01-03 18:28:06	6:28:06 PM	462942671842140.2895625HASR101	HASR101
	0652	7799008940441		1	1	46294267	2019-01-03 18:28:08	6:28:08 PM	462942671842140.2895625HASR101	HASR101
	0652	7799008940441		1	1	46294267	2019-01-03 18:28:10	6:28:10 PM	462942671842140.2895625HASR101	HASR101
	0652	7799008940441		1	1	46294267	2019-01-03 18:28:12	6:28:12 PM	462942671842140.2895625HASR101	HASR101
	0652	7799008940441		1	1	46294267	2019-01-03 18:28:14	6:28:14 PM	462942671842140.2895625HASR101	HASR101
	0652	7799008940441		1	1	46294267	2019-01-03 18:28:15	6:28:15 PM	462942671842140.2895625HASR101	HASR101
	0652	7799008940441		1	1	46294267	2019-01-03 18:28:17	6:28:17 PM	462942671842140.2895625HASR101	HASR101
	0652	7799008940441		1	1	46294267	2019-01-03 18:28:19	6:28:19 PM	462942671842140.2895625HASR101	HASR101
	0652	7799008940441		1	1	46294267	2019-01-03 18:28:20	6:28:20 PM	462942671842140.2895625HASR101	HASR101
	0652	7799008940441		1	1	46294267	2019-01-03 18:28:22	6:28:22 PM	462942671842140.2895625HASR101	HASR101
	0652	7799008940441		1	1	46294267	2019-01-03 18:28:23	6:28:23 PM	462942671842140.2895625HASR101	HASR101
	0652	7799008940441		1	1	46294267	2019-01-03 18:28:24	6:28:24 PM	462942671842140.2895625HASR101	HASR101
	0652	7799008940441		1	1	46294267	2019-01-03 18:28:26	6:28:26 PM	462942671842140.2895625HASR101	HASR101
	0652	7799008940441		1	1	46294267	2019-01-03 18:28:54	6:28:54 PM	462942671842140.2895625HASR101	HASR101
	0652	7799008940441		1	1	46294267	2019-01-03 18:28:56	6:28:56 PM	462942671842140.2895625HASR101	HASR101
	0652	7799008940441		1	1	46294267	2019-01-03 18:28:58	6:28:58 PM	462942671842140.2895625HASR101	HASR101
	0652	7799008940441		1	1	46294267	2019-01-03 18:29:00	6:29:00 PM	462942671842140.2895625HASR101	HASR101
	0652	7799008940441		1	1	46294267	2019-01-03 18:29:02	6:29:02 PM	462942671842140.2895625HASR101	HASR101
	0652	7799008940441		1	1	46294267	2019-01-03 18:29:05	6:29:05 PM	462942671842140.2895625HASR101	HASR101
	0652	7799008940441		1	1	46294267	2019-01-03 18:29:07	6:29:07 PM	462942671842140.2895625HASR101	HASR101
	0652	7799008940441		1	1	46294267	2019-01-03 18:29:08	6:29:08 PM	462942671842140.2895625HASR101	HASR101
	0652	7799008940441		1	1	46294267	2019-01-03 18:29:09	6:29:09 PM	462942671842140.2895625HASR101	HASR101
	0652	7799008940441		1	1	46294267	2019-01-03 18:29:11	6:29:11 PM	462942671842140.2895625HASR101	HASR101
	0652	7799008940441		1	1	46294267	2019-01-03 18:29:12	6:29:12 PM	462942671842140.2895625HASR101	HASR101
	0652	7799008940441		1	1	46294267	2019-01-03 18:29:15	6:29:15 PM	462942671842140.2895625HASR101	HASR101
	0652	7799008940441		1	1	46294267	2019-01-03 18:29:18	6:29:18 PM	462942671842140.2895625HASR101	HASR101
	0652	7799008940441		1	1	46294267	2019-01-03 18:29:20	6:29:20 PM	462942671842140.2895625HASR101	HASR101
	0652	7799008940441		1	1	46294267	2019-01-03 18:29:21	6:29:21 PM	462942671842140.2895625HASR101	HASR101
	0652	7799008940441		1	1	46294267	2019-01-03 18:29:22	6:29:22 PM	462942671842140.2895625HASR101	HASR101
	0652	7799008940441		1	1	46294267	2019-01-03 18:29:23	6:29:23 PM	462942671842140.2895625HASR101	HASR101
	0652	7799008940441		1	1	46294267	2019-01-03 18:29:25	6:29:25 PM	462942671842140.2895625HASR101	HASR101
	0652	7799008940441		1	1	46294267	2019-01-03 18:29:28	6:29:28 PM	462942671842140.2895625HASR101	HASR101
	0652	7799008940441		1	1	46294267	2019-01-03 18:29:29	6:29:29 PM	462942671842140.2895625HASR101	HASR101
	0652	7799008940441		1	1	46294267	2019-01-03 18:29:30	6:29:30 PM	462942671842140.2895625HASR101	HASR101
	0652	7799008940441		1	1	46294267	2019-01-03 18:29:32	6:29:32 PM	462942671842140.2895625HASR101	HASR101
	0652	7799008940441		1	1	46294267	2019-01-03 18:29:33	6:29:33 PM	462942671842140.2895625HASR101	HASR101
	0652	7799008940441		1	1	46294267	2019-01-03 18:29:35	6:29:35 PM	462942671842140.2895625HASR101	HASR101
	0652	7799008940441		1	1	46294267	2019-01-03 18:29:37	6:29:37 PM	462942671842140.2895625HASR101	HASR101
	0652	7799008940441		1	1	46294267	2019-01-03 18:29:38	6:29:38 PM	462942671842140.2895625HASR101	HASR101
	0652	7799008940441		1	1	46294267	2019-01-03 18:29:40	6:29:40 PM	462942671842140.2895625HASR101	HASR101
	0652	7799008940441		1	1	46294267	2019-01-03 18:29:42	6:29:42 PM	462942671842140.2895625HASR101	HASR101
	0652	7799008940441		1	1	46294267	2019-01-03 18:29:45	6:29:45 PM	462942671842140.2895625HASR101	HASR101
	0652	7799008940441		1	1	46294267	2019-01-03 18:29:47	6:29:47 PM	462942671842140.2895625HASR101	HASR101
	0652	7799008940441		1	1	46294267	2019-01-03 18:29:48	6:29:48 PM	462942671842140.2895625HASR101	HASR101
	0652	7799008940441		1	1	46294267	2019-01-03 18:29:49	6:29:49 PM	462942671842140.2895625HASR101	HASR101
	0652	7799008940441		1	1	46294267	2019-01-03 18:29:51	6:29:51 PM	462942671842140.2895625HASR101	HASR101
	0652	7799008940441		1	1	46294267	2019-01-03 18:29:52	6:29:52 PM	462942671842140.2895625HASR101	HASR101
	0652	7799008940441		1	1	46294267	2019-01-03 18:29:54	6:29:54 PM	462942671842140.2895625HASR101	HASR101
	0652	7799008940441		1	1	46294267	2019-01-03 18:29:55	6:29:55 PM	462942671842140.2895625HASR101	HASR101
	0652	7799008940441		1	1	46294267	2019-01-03 18:29:56	6:29:56 PM	462942671842140.2895625HASR101	HASR101
	0652	7799008940441		1	1	46294267	2019-01-03 18:29:57	6:29:57 PM	462942671842140.2895625HASR101	HASR101
	0652	7799008940441		1	1	46294267	2019-01-03 18:29:59	6:29:59 PM	462942671842140.2895625HASR101	HASR101
	0652	7799008940441		1	1	46294267	2019-01-03 18:29:59	6:29:59 PM	462942671842140.2895625HASR101	HASR101
	0652	7799008940441		1	1	46294267	2019-01-03 18:30:45	6:30:45 PM	462942671842140.2895625HASR101	HASR101
	0652	7799008940441		1	1	46294267	2019-01-03 18:30:47	6:30:47 PM	462942671842140.2895625HASR101	HASR101
	0652	7799008940441		1	1	46294267	2019-01-03 18:30:48	6:30:48 PM	462942671842140.2895625HASR101	HASR101
	0652	7799008940441		1	1	46294267	2019-01-03 18:30:51	6:30:51 PM	462942671842140.2895625HASR101	HASR101
	0652	7799008940441		1	1	46294267	2019-01-03 18:30:53	6:30:53 PM	462942671842140.2895625HASR101	HASR101
	0652	7799008940441		1	1	46294267	2019-01-03 18:30:54	6:30:54 PM	462942671842140.2895625HASR101	HASR101
	0652	7799008940441		1	1	46294267	2019-01-03 18:30:58	6:30:58 PM	462942671842140.2895625HASR101	HASR101
	0652	7799008940441		1	1	46294267	2019-01-03 18:31:00	6:31:00 PM	462942671842140.2895625HASR101	HASR101
	0652	7799008940441		1	1	46294267	2019-01-03 18:31:02	6:31:02 PM	462942671842140.2895625HASR101	HASR101
	0652	7799008940441		1	1	46294267	2019-01-03 18:31:03	6:31:03 PM	462942671842140.2895625HASR101	HASR101
	0652	7799008940441		1	1	46294267	2019-01-03 18:31:05	6:31:05 PM	462942671842140.2895625HASR101	HASR101
	0652	7799008940441		1	1	46294267	2019-01-03 18:31:07	6:31:07 PM	462942671842140.2895625HASR101	HASR101
	0652	7799008940441		1	1	46294267	2019-01-03 18:31:09	6:31:09 PM	462942671842140.2895625HASR101	HASR101
	0652	7799008940441		1	1	46294267	2019-01-03 18:31:11	6:31:11 PM	462942671842140.2895625HASR101	HASR101
	0652	7799008940441		1	1	46294267	2019-01-03 18:31:13	6:31:13 PM	462942671842140.2895625HASR101	HASR101
	0652	7799008940441		1	1	46294267	2019-01-03 18:31:14	6:31:14 PM	462942671842140.2895625HASR101	HASR101
	0652	7799008940441		1	1	46294267	2019-01-03 18:31:16	6:31:16 PM	462942671842140.2895625HASR101	HASR101
	0652	7799008940441		1	1	46294267	2019-01-03 18:31:17	6:31:17 PM	462942671842140.2895625HASR101	HASR101
	0652	7799008940441		1	1	46294267	2019-01-03 18:31:19	6:31:19 PM	462942671842140.2895625HASR101	HASR101
	0652	7799008940441		1	1	46294267	2019-01-03 18:31:20	6:31:20 PM	462942671842140.2895625HASR101	HASR101
	0652	7799008940441		1	1	46294267	2019-01-03 18:31:23	6:31:23 PM	462942671842140.2895625HASR101	HASR101
	0652	7799008940441		1	1	46294267	2019-01-03 18:31:24	6:31:24 PM	462942671842140.2895625HASR101	HASR101
	0652	7799008940441		1	1	46294267	2019-01-03 18:31:27	6:31:27 PM	462942671842140.2895625HASR101	HASR101
	0652	7799008940441		1	1	46294267	2019-01-03 18:31:30	6:31:30 PM	462942671842140.2895625HASR101	HASR101
	0652	7799008940441		1	1	46294267	2019-01-03 18:31:33	6:31:33 PM	462942671842140.2895625HASR101	HASR101
	0652	7799008940441		1	1	46294267	2019-01-03 18:31:35	6:31:35 PM	462942671842140.2895625HASR101	HASR101
	0652	7799008940441		1	1	46294267	2019-01-03 18:31:37	6:31:37 PM	462942671842140.2895625HASR101	HASR101
	0652	7799008940441		1	1	46294267	2019-01-03 18:31:38	6:31:38 PM	462942671842140.2895625HASR101	HASR101
	0652	7799008940441		1	1	46294267	2019-01-03 18:31:41	6:31:41 PM	462942671842140.2895625HASR101	HASR101
	0652	7799008940441		1	1	46294267	2019-01-03 18:31:43	6:31:43 PM	462942671842140.2895625HASR101	HASR101
	0652	7799008940441		1	1	46294267	2019-01-03 18:31:44	6:31:44 PM	462942671842140.2895625HASR101	HASR101
	0652	7799008940441		1	1	46294267	2019-01-03 18:31:46	6:31:46 PM	462942671842140.2895625HASR101	HASR101
	0652	7799008940441		1	1	46294267	2019-01-03 18:31:48	6:31:48 PM	462942671842140.2895625HASR101	HASR101
	0652	7799008940441		1	1	46294267	2019-01-03 18:31:50	6:31:50 PM	462942671842140.2895625HASR101	HASR101
	0652	7799008940441		1	1	46294267	2019-01-03 18:31:52	6:31:52 PM	462942671842140.2895625HASR101	HASR101
	0652	7799008940441		1	1	46294267	2019-01-03 18:31:54	6:31:54 PM	462942671842140.2895625HASR101	HASR101
	0652	7799008940441		1	1	46294267	2019-01-03 18:31:55	6:31:55 PM	462942671842140.2895625HASR101	HASR101
	0652	7799008940441		1	1	46294267	2019-01-03 18:31:57	6:31:57 PM	462942671842140.2895625HASR101	HASR101
	0652	7799008940441		1	1	46294267	2019-01-03 18:31:58	6:31:58 PM	462942671842140.2895625HASR101	HASR101
	0652	7799008940441		1	1	46294267	2019-01-03 18:32:00	6:32:00 PM	462942671842140.2895625HASR101	HASR101
	0652	7799008940441		1	1	46294267	2019-01-03 18:32:31	6:32:31 PM	462942671842140.2895625HASR101	HASR101
	0652	7799008940441		1	1	46294267	2019-01-03 18:32:34	6:32:34 PM	462942671842140.2895625HASR101	HASR101
	0652	7799008940441		1	1	46294267	2019-01-03 18:32:34	6:32:34 PM	462942671842140.2895625HASR101	HASR101
	0652	7799008940441		1	1	46294267	2019-01-03 18:32:37	6:32:37 PM	462942671842140.2895625HASR101	HASR101
	0652	7799008940441		1	1	46294267	2019-01-03 18:32:38	6:32:38 PM	462942671842140.2895625HASR101	HASR101
	0652	7799008940441		1	1	46294267	2019-01-03 18:32:41	6:32:41 PM	462942671842140.2895625HASR101	HASR101
	0652	7799008940441		1	1	46294267	2019-01-03 18:32:43	6:32:43 PM	462942671842140.2895625HASR101	HASR101
	0652	7799008940441		1	1	46294267	2019-01-03 18:32:44	6:32:44 PM	462942671842140.2895625HASR101	HASR101
	0652	7799008940441		1	1	46294267	2019-01-03 18:32:46	6:32:46 PM	462942671842140.2895625HASR101	HASR101
	0652	7799008940441		1	1	46294267	2019-01-03 18:32:47	6:32:47 PM	462942671842140.2895625HASR101	HASR101
	0652	7799008940441		1	1	46294267	2019-01-03 18:32:48	6:32:48 PM	462942671842140.2895625HASR101	HASR101
	0652	7799008940441		1	1	46294267	2019-01-03 18:32:50	6:32:50 PM	462942671842140.2895625HASR101	HASR101
	0652	7799008940441		1	1	46294267	2019-01-03 18:32:51	6:32:51 PM	462942671842140.2895625HASR101	HASR101
	0652	7799008940441		1	1	46294267	2019-01-03 18:32:53	6:32:53 PM	462942671842140.2895625HASR101	HASR101
	0652	7799008940441		1	1	46294267	2019-01-03 18:32:54	6:32:54 PM	462942671842140.2895625HASR101	HASR101
	0652	7799008940441		1	1	46294267	2019-01-03 18:32:57	6:32:57 PM	462942671842140.2895625HASR101	HASR101
	0652	7799008940441		1	1	46294267	2019-01-03 18:32:59	6:32:59 PM	462942671842140.2895625HASR101	HASR101
	0652	7799008940441		1	1	46294267	2019-01-03 18:33:01	6:33:01 PM	462942671842140.2895625HASR101	HASR101
	0652	7799008940441		1	1	46294267	2019-01-03 18:33:03	6:33:03 PM	462942671842140.2895625HASR101	HASR101
	0652	7799008940441		1	1	46294267	2019-01-03 18:33:03	6:33:03 PM	462942671842140.2895625HASR101	HASR101
	0652	7799008940441		1	1	46294267	2019-01-03 18:33:05	6:33:05 PM	462942671842140.2895625HASR101	HASR101
	0652	7799008940441		1	1	46294267	2019-01-03 18:33:08	6:33:08 PM	462942671842140.2895625HASR101	HASR101
	0652	7799008940441		1	1	46294267	2019-01-03 18:33:10	6:33:10 PM	462942671842140.2895625HASR101	HASR101
	0652	7799008940441		1	1	46294267	2019-01-03 18:33:12	6:33:12 PM	462942671842140.2895625HASR101	HASR101
	0652	7799008940441		1	1	46294267	2019-01-03 18:33:14	6:33:14 PM	462942671842140.2895625HASR101	HASR101
	0652	7799008940441		1	1	46294267	2019-01-03 18:33:17	6:33:17 PM	462942671842140.2895625HASR101	HASR101
	0652	7799008940441		1	1	46294267	2019-01-03 18:33:18	6:33:18 PM	462942671842140.2895625HASR101	HASR101
	0652	7799008940441		1	1	46294267	2019-01-03 18:33:21	6:33:21 PM	462942671842140.2895625HASR101	HASR101
	0652	7799008940441		1	1	46294267	2019-01-03 18:33:21	6:33:21 PM	462942671842140.2895625HASR101	HASR101
	0652	7799008940441		1	1	46294267	2019-01-03 18:33:23	6:33:23 PM	462942671842140.2895625HASR101	HASR101
	0652	7799008940441		1	1	46294267	2019-01-03 18:33:25	6:33:25 PM	462942671842140.2895625HASR101	HASR101
	0652	7799008940441		1	1	46294267	2019-01-03 18:33:26	6:33:26 PM	462942671842140.2895625HASR101	HASR101
	0652	7799008940441		1	1	46294267	2019-01-03 18:33:27	6:33:27 PM	462942671842140.2895625HASR101	HASR101
	0652	7799008940441		1	1	46294267	2019-01-03 18:33:29	6:33:29 PM	462942671842140.2895625HASR101	HASR101
	0652	7799008940441		1	1	46294267	2019-01-03 18:33:31	6:33:31 PM	462942671842140.2895625HASR101	HASR101
	0652	7799008940441		1	1	46294267	2019-01-03 18:33:31	6:33:31 PM	462942671842140.2895625HASR101	HASR101
	0652	7799008940441		1	1	46294267	2019-01-03 18:33:33	6:33:33 PM	462942671842140.2895625HASR101	HASR101
	0652	7799008940441		1	1	46294267	2019-01-03 18:33:35	6:33:35 PM	462942671842140.2895625HASR101	HASR101
	0652	7799008940441		1	1	46294267	2019-01-03 18:33:37	6:33:37 PM	462942671842140.2895625HASR101	HASR101
	0652	7799008940441		1	1	46294267	2019-01-03 18:33:39	6:33:39 PM	462942671842140.2895625HASR101	HASR101
	0652	7799008940441		1	1	46294267	2019-01-03 18:34:10	6:34:10 PM	462942671842140.2895625HASR101	HASR101
	0652	7799008940441		1	1	46294267	2019-01-03 18:34:10	6:34:10 PM	462942671842140.2895625HASR101	HASR101
	0652	7799008940441		1	1	46294267	2019-01-03 18:34:12	6:34:12 PM	462942671842140.2895625HASR101	HASR101
	0652	7799008940441		1	1	46294267	2019-01-03 18:34:15	6:34:15 PM	462942671842140.2895625HASR101	HASR101
	0652	7799008940441		1	1	46294267	2019-01-03 18:34:15	6:34:15 PM	462942671842140.2895625HASR101	HASR101
	0652	7799008940441		1	1	46294267	2019-01-03 18:34:17	6:34:17 PM	462942671842140.2895625HASR101	HASR101
	0652	7799008940441		1	1	46294267	2019-01-03 18:34:19	6:34:19 PM	462942671842140.2895625HASR101	HASR101
	0652	7799008940441		1	1	46294267	2019-01-03 18:34:21	6:34:21 PM	462942671842140.2895625HASR101	HASR101
	0652	7799008940441		1	1	46294267	2019-01-03 18:34:22	6:34:22 PM	462942671842140.2895625HASR101	HASR101
	0652	7799008940441		1	1	46294267	2019-01-03 18:34:24	6:34:24 PM	462942671842140.2895625HASR101	HASR101
	0652	7799008940441		1	1	46294267	2019-01-03 18:34:26	6:34:26 PM	462942671842140.2895625HASR101	HASR101
	0652	7799008940441		1	1	46294267	2019-01-03 18:34:27	6:34:27 PM	462942671842140.2895625HASR101	HASR101
	0652	7799008940441		1	1	46294267	2019-01-03 18:34:29	6:34:29 PM	462942671842140.2895625HASR101	HASR101
	0652	7799008940441		1	1	46294267	2019-01-03 18:34:32	6:34:32 PM	462942671842140.2895625HASR101	HASR101
	0652	7799008940441		1	1	46294267	2019-01-03 18:34:34	6:34:34 PM	462942671842140.2895625HASR101	HASR101
	0652	7799008940441		1	1	46294267	2019-01-03 18:34:35	6:34:35 PM	462942671842140.2895625HASR101	HASR101
	0652	7799008940441		1	1	46294267	2019-01-03 18:34:37	6:34:37 PM	462942671842140.2895625HASR101	HASR101
	0652	7799008940441		1	1	46294267	2019-01-03 18:34:39	6:34:39 PM	462942671842140.2895625HASR101	HASR101
	0652	7799008940441		1	1	46294267	2019-01-03 18:34:41	6:34:41 PM	462942671842140.2895625HASR101	HASR101
	0652	7799008940441		1	1	46294267	2019-01-03 18:34:42	6:34:42 PM	462942671842140.2895625HASR101	HASR101
	0652	7799008940441		1	1	46294267	2019-01-03 18:34:43	6:34:43 PM	462942671842140.2895625HASR101	HASR101
	0652	7799008940441		1	1	46294267	2019-01-03 18:34:46	6:34:46 PM	462942671842140.2895625HASR101	HASR101
	0652	7799008940441		1	1	46294267	2019-01-03 18:34:47	6:34:47 PM	462942671842140.2895625HASR101	HASR101
	0652	7799008940441		1	1	46294267	2019-01-03 18:34:49	6:34:49 PM	462942671842140.2895625HASR101	HASR101
	0652	7799008940441		1	1	46294267	2019-01-03 18:34:51	6:34:51 PM	462942671842140.2895625HASR101	HASR101
	0652	7799008940441		1	1	46294267	2019-01-03 18:34:53	6:34:53 PM	462942671842140.2895625HASR101	HASR101
	0652	7799008940441		1	1	46294267	2019-01-03 18:34:56	6:34:56 PM	462942671842140.2895625HASR101	HASR101
	0652	7799008940441		1	1	46294267	2019-01-03 18:34:57	6:34:57 PM	462942671842140.2895625HASR101	HASR101
	0652	7799008940441		1	1	46294267	2019-01-03 18:34:59	6:34:59 PM	462942671842140.2895625HASR101	HASR101
	0652	7799008940441		1	1	46294267	2019-01-03 18:35:01	6:35:01 PM	462942671842140.2895625HASR101	HASR101
	0652	7799008940441		1	1	46294267	2019-01-03 18:35:02	6:35:02 PM	462942671842140.2895625HASR101	HASR101
	0652	7799008940441		1	1	46294267	2019-01-03 18:35:04	6:35:04 PM	462942671842140.2895625HASR101	HASR101
	0652	7799008940441		1	1	46294267	2019-01-03 18:35:05	6:35:05 PM	462942671842140.2895625HASR101	HASR101
	0652	7799008940441		1	1	46294267	2019-01-03 18:35:06	6:35:06 PM	462942671842140.2895625HASR101	HASR101
	0652	7799008940441		1	1	46294267	2019-01-03 18:35:08	6:35:08 PM	462942671842140.2895625HASR101	HASR101
	0652	7799008940441		1	1	46294267	2019-01-03 18:35:10	6:35:10 PM	462942671842140.2895625HASR101	HASR101
	0652	7799008940441		1	1	46294267	2019-01-03 18:35:11	6:35:11 PM	462942671842140.2895625HASR101	HASR101
	0652	7799008940441		1	1	46294267	2019-01-03 18:35:12	6:35:12 PM	462942671842140.2895625HASR101	HASR101
	0652	7799008940441		1	1	46294267	2019-01-03 18:35:14	6:35:14 PM	462942671842140.2895625HASR101	HASR101
	0652	7799008940441		1	1	46294267	2019-01-03 18:35:16	6:35:16 PM	462942671842140.2895625HASR101	HASR101
	0652	7799008940441		1	1	46294267	2019-01-03 18:35:47	6:35:47 PM	462942671842140.2895625HASR101	HASR101
	0652	7799008940441		1	1	46294267	2019-01-03 18:35:50	6:35:50 PM	462942671842140.2895625HASR101	HASR101
	0652	7799008940441		1	1	46294267	2019-01-03 18:35:51	6:35:51 PM	462942671842140.2895625HASR101	HASR101
	0652	7799008940441		1	1	46294267	2019-01-03 18:35:53	6:35:53 PM	462942671842140.2895625HASR101	HASR101
	0652	7799008940441		1	1	46294267	2019-01-03 18:35:55	6:35:55 PM	462942671842140.2895625HASR101	HASR101
	0652	7799008940441		1	1	46294267	2019-01-03 18:35:56	6:35:56 PM	462942671842140.2895625HASR101	HASR101
	0652	7799008940441		1	1	46294267	2019-01-03 18:35:58	6:35:58 PM	462942671842140.2895625HASR101	HASR101
	0652	7799008940441		1	1	46294267	2019-01-03 18:36:00	6:36:00 PM	462942671842140.2895625HASR101	HASR101
	0652	7799008940441		1	1	46294267	2019-01-03 18:36:01	6:36:01 PM	462942671842140.2895625HASR101	HASR101
	0652	7799008940441		1	1	46294267	2019-01-03 18:36:03	6:36:03 PM	462942671842140.2895625HASR101	HASR101
	0652	7799008940441		1	1	46294267	2019-01-03 18:36:04	6:36:04 PM	462942671842140.2895625HASR101	HASR101
	0652	7799008940441		1	1	46294267	2019-01-03 18:36:05	6:36:05 PM	462942671842140.2895625HASR101	HASR101
	0652	7799008940441		1	1	46294267	2019-01-03 18:36:06	6:36:06 PM	462942671842140.2895625HASR101	HASR101
	0652	7799008940441		1	1	46294267	2019-01-03 18:36:08	6:36:08 PM	462942671842140.2895625HASR101	HASR101
	0652	7799008940441		1	1	46294267	2019-01-03 18:36:09	6:36:09 PM	462942671842140.2895625HASR101	HASR101
	0652	7799008940441		1	1	46294267	2019-01-03 18:36:11	6:36:11 PM	462942671842140.2895625HASR101	HASR101
	0652	7799008940441		1	1	46294267	2019-01-03 18:36:12	6:36:12 PM	462942671842140.2895625HASR101	HASR101
	0652	7799008940441		1	1	46294267	2019-01-03 18:36:13	6:36:13 PM	462942671842140.2895625HASR101	HASR101
	0652	7799008940441		1	1	46294267	2019-01-03 18:36:15	6:36:15 PM	462942671842140.2895625HASR101	HASR101
	0652	7799008940441		1	1	46294267	2019-01-03 18:36:16	6:36:16 PM	462942671842140.2895625HASR101	HASR101
	0652	7799008940441		1	1	46294267	2019-01-03 18:36:18	6:36:18 PM	462942671842140.2895625HASR101	HASR101
	0652	7799008940441		1	1	46294267	2019-01-03 18:36:19	6:36:19 PM	462942671842140.2895625HASR101	HASR101
	0652	7799008940441		1	1	46294267	2019-01-03 18:36:21	6:36:21 PM	462942671842140.2895625HASR101	HASR101
	0652	7799008940441		1	1	46294267	2019-01-03 18:36:23	6:36:23 PM	462942671842140.2895625HASR101	HASR101
	0652	7799008940441		1	1	46294267	2019-01-03 18:36:24	6:36:24 PM	462942671842140.2895625HASR101	HASR101
	0652	7799008940441		1	1	46294267	2019-01-03 18:36:26	6:36:26 PM	462942671842140.2895625HASR101	HASR101
	0652	7799008940441		1	1	46294267	2019-01-03 18:36:28	6:36:28 PM	462942671842140.2895625HASR101	HASR101
	0652	7799008940441		1	1	46294267	2019-01-03 18:36:30	6:36:30 PM	462942671842140.2895625HASR101	HASR101
	0652	7799008940441		1	1	46294267	2019-01-03 18:36:32	6:36:32 PM	462942671842140.2895625HASR101	HASR101
	0652	7799008940441		1	1	46294267	2019-01-03 18:36:34	6:36:34 PM	462942671842140.2895625HASR101	HASR101
	0652	7799008940441		1	1	46294267	2019-01-03 18:36:35	6:36:35 PM	462942671842140.2895625HASR101	HASR101
	0652	7799008940441		1	1	46294267	2019-01-03 18:36:36	6:36:36 PM	462942671842140.2895625HASR101	HASR101
	0652	7799008940441		1	1	46294267	2019-01-03 18:36:38	6:36:38 PM	462942671842140.2895625HASR101	HASR101
	0652	7799008940441		1	1	46294267	2019-01-03 18:36:39	6:36:39 PM	462942671842140.2895625HASR101	HASR101
	0652	7799008940441		1	1	46294267	2019-01-03 18:36:40	6:36:40 PM	462942671842140.2895625HASR101	HASR101
	0652	7799008940441		1	1	46294267	2019-01-03 18:36:42	6:36:42 PM	462942671842140.2895625HASR101	HASR101
	0652	7799008940441		1	1	46294267	2019-01-03 18:36:43	6:36:43 PM	462942671842140.2895625HASR101	HASR101
	0652	7799008940441		1	1	46294267	2019-01-03 18:36:44	6:36:44 PM	462942671842140.2895625HASR101	HASR101
	0652	7799008940441		1	1	46294267	2019-01-03 18:36:47	6:36:47 PM	462942671842140.2895625HASR101	HASR101
	0652	7799008940441		1	1	46294267	2019-01-03 18:36:48	6:36:48 PM	462942671842140.2895625HASR101	HASR101
	0652	7799008940441		1	1	46294267	2019-01-03 18:37:24	6:37:24 PM	462942671842140.2895625HASR101	HASR101
	0652	7799008940441		1	1	46294267	2019-01-03 18:37:26	6:37:26 PM	462942671842140.2895625HASR101	HASR101
	0652	7799008940441		1	1	46294267	2019-01-03 18:37:27	6:37:27 PM	462942671842140.2895625HASR101	HASR101
	0652	7799008940441		1	1	46294267	2019-01-03 18:37:28	6:37:28 PM	462942671842140.2895625HASR101	HASR101
	0652	7799008940441		1	1	46294267	2019-01-03 18:37:30	6:37:30 PM	462942671842140.2895625HASR101	HASR101
	0652	7799008940441		1	1	46294267	2019-01-03 18:37:31	6:37:31 PM	462942671842140.2895625HASR101	HASR101
	0652	7799008940441		1	1	46294267	2019-01-03 18:37:33	6:37:33 PM	462942671842140.2895625HASR101	HASR101
	0652	7799008940441		1	1	46294267	2019-01-03 18:37:36	6:37:36 PM	462942671842140.2895625HASR101	HASR101
	0652	7799008940441		1	1	46294267	2019-01-03 18:37:37	6:37:37 PM	462942671842140.2895625HASR101	HASR101
	0652	7799008940441		1	1	46294267	2019-01-03 18:37:39	6:37:39 PM	462942671842140.2895625HASR101	HASR101
	0652	7799008940441		1	1	46294267	2019-01-03 18:37:40	6:37:40 PM	462942671842140.2895625HASR101	HASR101
	0652	7799008940441		1	1	46294267	2019-01-03 18:37:42	6:37:42 PM	462942671842140.2895625HASR101	HASR101
	0652	7799008940441		1	1	46294267	2019-01-03 18:37:43	6:37:43 PM	462942671842140.2895625HASR101	HASR101
	0652	7799008940441		1	1	46294267	2019-01-03 18:37:44	6:37:44 PM	462942671842140.2895625HASR101	HASR101
	0652	7799008940441		1	1	46294267	2019-01-03 18:37:46	6:37:46 PM	462942671842140.2895625HASR101	HASR101
	0652	7799008940441		1	1	46294267	2019-01-03 18:37:47	6:37:47 PM	462942671842140.2895625HASR101	HASR101
	0652	7799008940441		1	1	46294267	2019-01-03 18:37:49	6:37:49 PM	462942671842140.2895625HASR101	HASR101
	0652	7799008940441		1	1	46294267	2019-01-03 18:37:50	6:37:50 PM	462942671842140.2895625HASR101	HASR101
	0652	7799008940441		1	1	46294267	2019-01-03 18:37:51	6:37:51 PM	462942671842140.2895625HASR101	HASR101
	0652	7799008940441		1	1	46294267	2019-01-03 18:37:53	6:37:53 PM	462942671842140.2895625HASR101	HASR101
	0652	7799008940441		1	1	46294267	2019-01-03 18:37:55	6:37:55 PM	462942671842140.2895625HASR101	HASR101
	0652	7799008940441		1	1	46294267	2019-01-03 18:37:57	6:37:57 PM	462942671842140.2895625HASR101	HASR101
	0652	7799008940441		1	1	46294267	2019-01-03 18:37:58	6:37:58 PM	462942671842140.2895625HASR101	HASR101
	0652	7799008940441		1	1	46294267	2019-01-03 18:38:01	6:38:01 PM	462942671842140.2895625HASR101	HASR101
	0652	7799008940441		1	1	46294267	2019-01-03 18:38:03	6:38:03 PM	462942671842140.2895625HASR101	HASR101
	0652	7799008940441		1	1	46294267	2019-01-03 18:38:05	6:38:05 PM	462942671842140.2895625HASR101	HASR101
	0652	7799008940441		1	1	46294267	2019-01-03 18:38:06	6:38:06 PM	462942671842140.2895625HASR101	HASR101
	0652	7799008940441		1	1	46294267	2019-01-03 18:38:08	6:38:08 PM	462942671842140.2895625HASR101	HASR101
	0652	7799008940441		1	1	46294267	2019-01-03 18:38:10	6:38:10 PM	462942671842140.2895625HASR101	HASR101
	0652	7799008940441		1	1	46294267	2019-01-03 18:38:11	6:38:11 PM	462942671842140.2895625HASR101	HASR101
	0652	7799008940441		1	1	46294267	2019-01-03 18:38:12	6:38:12 PM	462942671842140.2895625HASR101	HASR101
	0652	7799008940441		1	1	46294267	2019-01-03 18:38:14	6:38:14 PM	462942671842140.2895625HASR101	HASR101
	0652	7799008940441		1	1	46294267	2019-01-03 18:38:15	6:38:15 PM	462942671842140.2895625HASR101	HASR101
	0652	7799008940441		1	1	46294267	2019-01-03 18:38:16	6:38:16 PM	462942671842140.2895625HASR101	HASR101
	0652	7799008940441		1	1	46294267	2019-01-03 18:38:18	6:38:18 PM	462942671842140.2895625HASR101	HASR101
	0652	7799008940441		1	1	46294267	2019-01-03 18:38:20	6:38:20 PM	462942671842140.2895625HASR101	HASR101
	0652	7799008940441		1	1	46294267	2019-01-03 18:38:21	6:38:21 PM	462942671842140.2895625HASR101	HASR101
	0652	7799008940441		1	1	46294267	2019-01-03 18:38:25	6:38:25 PM	462942671842140.2895625HASR101	HASR101
	0652	7799008940441		1	1	46294267	2019-01-03 18:38:27	6:38:27 PM	462942671842140.2895625HASR101	HASR101
	0652	7799008940441		1	1	46294267	2019-01-03 18:38:30	6:38:30 PM	462942671842140.2895625HASR101	HASR101
