	2819	7799008384498		96	2	46294267	2019-01-04 14:05:02	2:05 PM	46294267143490.7055475PLM067	PLM067
	2823	7799008384498		96	2	46294267	2019-01-04 14:06:55	2:06 PM	46294267143490.7055475PLM067	PLM067
	2824	7799008384498		96	2	46294267	2019-01-04 14:07:51	2:07 PM	46294267143490.7055475PLM067	PLM067
	2821	7799008384498		96	2	46294267	2019-01-04 14:08:30	2:08 PM	46294267143490.7055475PLM067	PLM067
	2820	7799008384498		96	2	46294267	2019-01-04 14:09:13	2:09 PM	46294267143490.7055475PLM067	PLM067
	2825	7799008384498		96	2	46294267	2019-01-04 14:10:54	2:10 PM	46294267143490.7055475PLM067	PLM067
	2836	7799008384498		96	2	46294267	2019-01-04 14:15:15	2:15 PM	46294267143490.7055475PLM067	PLM067
	2833	7799008384498		92	2	46294267	2019-01-04 14:17:34	2:17 PM	46294267143490.7055475PLM067	PLM067
	2826	7799008384498		96	2	46294267	2019-01-04 14:19:28	2:19 PM	46294267143490.7055475PLM067	PLM067
	2827	7799008384498		96	2	46294267	2019-01-04 14:20:25	2:20 PM	46294267143490.7055475PLM067	PLM067
	2830	7799008384498		96	2	46294267	2019-01-04 14:22:01	2:22 PM	46294267143490.7055475PLM067	PLM067
	2828	7799008384498		96	2	46294267	2019-01-04 14:22:44	2:22 PM	46294267143490.7055475PLM067	PLM067
	2831	7799008384498		96	2	46294267	2019-01-04 14:24:01	2:24 PM	46294267143490.7055475PLM067	PLM067
	2837	7799008384498		96	2	46294267	2019-01-04 14:25:11	2:25 PM	46294267143490.7055475PLM067	PLM067
	2838	7799008384498		96	2	46294267	2019-01-04 14:25:59	2:25 PM	46294267143490.7055475PLM067	PLM067
	2834	7799008384498		96	2	46294267	2019-01-04 14:27:06	2:27 PM	46294267143490.7055475PLM067	PLM067
	2829	7799008384498		96	2	46294267	2019-01-04 14:28:04	2:28 PM	46294267143490.7055475PLM067	PLM067
	2832	7799008384498		96	2	46294267	2019-01-04 14:29:37	2:29 PM	46294267143490.7055475PLM067	PLM067
	2194	7799008443256		703	2	46294267	2019-01-04 14:34:07	2:34 PM	46294267143490.7055475PLM067	PLM067
