	2942	7799008213040		288	2	47566753	2019-01-04 11:58:56	11:58 AM	475667531247100.7607236PLM078	PLM078
	2940	7799021098709		89	2	47566753	2019-01-04 12:04:01	12:04 PM	475667531247100.7607236PLM078	PLM078
	2941	7793730547251		172	2	47566753	2019-01-04 12:09:55	12:09 PM	475667531247100.7607236PLM078	PLM078
	2943	7799008914275		156	2	47566753	2019-01-04 12:19:10	12:19 PM	475667531247100.7607236PLM078	PLM078
	2943	7799008914275		2	2	47566753	2019-01-04 12:19:38	12:19 PM	475667531247100.7607236PLM078	PLM078
	2944	7799008659206		20	2	47566753	2019-01-04 12:23:17	12:23 PM	475667531247100.7607236PLM078	PLM078
	2944	7799008659206		20	2	47566753	2019-01-04 12:24:07	12:24 PM	475667531247100.7607236PLM078	PLM078
	2944	7799008659206		20	2	47566753	2019-01-04 12:24:56	12:24 PM	475667531247100.7607236PLM078	PLM078
	2944	7799008659206		20	2	47566753	2019-01-04 12:25:30	12:25 PM	475667531247100.7607236PLM078	PLM078
	2944	7799008659206		20	2	47566753	2019-01-04 12:26:16	12:26 PM	475667531247100.7607236PLM078	PLM078
	2944	7799008659206		20	2	47566753	2019-01-04 12:26:47	12:26 PM	475667531247100.7607236PLM078	PLM078
	2944	7799008659206		20	2	47566753	2019-01-04 12:27:19	12:27 PM	475667531247100.7607236PLM078	PLM078
	2944	7799008659206		20	2	47566753	2019-01-04 12:27:53	12:27 PM	475667531247100.7607236PLM078	PLM078
	2944	7799008659206		20	2	47566753	2019-01-04 12:28:19	12:28 PM	475667531247100.7607236PLM078	PLM078
	2944	7799008659206		20	2	47566753	2019-01-04 12:28:50	12:28 PM	475667531247100.7607236PLM078	PLM078
	2944	7799008659206		30	2	47566753	2019-01-04 12:29:59	12:29 PM	475667531247100.7607236PLM078	PLM078
	2944	7799008659206		36	2	47566753	2019-01-04 12:30:42	12:30 PM	475667531247100.7607236PLM078	PLM078
	2946	7799008443256		60	2	47566753	2019-01-04 12:35:04	12:35 PM	475667531247100.7607236PLM078	PLM078
	2946	7799008443256		60	2	47566753	2019-01-04 12:35:31	12:35 PM	475667531247100.7607236PLM078	PLM078
	2946	7799008443256		60	2	47566753	2019-01-04 12:36:06	12:36 PM	475667531247100.7607236PLM078	PLM078
	2946	7799008443256		60	2	47566753	2019-01-04 12:36:42	12:36 PM	475667531247100.7607236PLM078	PLM078
	2946	7799008443256		60	2	47566753	2019-01-04 12:37:25	12:37 PM	475667531247100.7607236PLM078	PLM078
	2946	7799008443256		60	2	47566753	2019-01-04 12:38:08	12:38 PM	475667531247100.7607236PLM078	PLM078
	2946	7799008443256		32	2	47566753	2019-01-04 12:38:50	12:38 PM	475667531247100.7607236PLM078	PLM078
