	6199	7799008667317		69	2	47990689	2019-01-05 09:52:28	09:52 a.m.	47990689102250.7607236PLM034	PLM034
	6197	7799008726519		70	2	47990689	2019-01-05 09:56:23	09:56 a.m.	47990689102250.7607236PLM034	PLM034
	6198	7799008726519		70	2	47990689	2019-01-05 10:02:01	10:02 a.m.	47990689102250.7607236PLM034	PLM034
