	2628	7799021056464		32	2	47990689	2019-01-04 15:10:14	3:10 PM	479906891522130.301948PLM082	PLM082
	2629	7799021056532		4	2	47990689	2019-01-04 15:10:59	3:10 PM	479906891522130.301948PLM082	PLM082
	2621	7799008992945		36	2	47990689	2019-01-04 15:14:10	3:14 PM	479906891522130.301948PLM082	PLM082
	2620	7799021056471		33	2	47990689	2019-01-04 15:16:59	3:16 PM	479906891522130.301948PLM082	PLM082
	2622	7799008992945		40	2	47990689	2019-01-04 15:20:01	3:20 PM	479906891522130.301948PLM082	PLM082
	2623	7799008953649		36	2	47990689	2019-01-04 15:22:04	3:22 PM	479906891522130.301948PLM082	PLM082
