	3008	7799008422510		243	2	47990689	2019-01-04 16:14:31	4:14 PM	479906891631300.533424PLM082	PLM082
	3009	7793730732350		741	2	47990689	2019-01-04 16:20:17	4:20 PM	479906891631300.533424PLM082	PLM082
	3006	7799008768250		711	2	47990689	2019-01-04 16:31:27	4:31 PM	479906891631300.533424PLM082	PLM082
