	5556	7799008979366		29	2	47990689	2019-01-05 14:41:52	02:41 p.m.	479906891728520.7055475PLM034	PLM034
	5557	7799008979335		188	2	47990689	2019-01-05 14:47:58	02:47 p.m.	479906891728520.7055475PLM034	PLM034
	5558	7799008979342		97	2	47990689	2019-01-05 14:50:46	02:50 p.m.	479906891728520.7055475PLM034	PLM034
	5559	7799008991986		24	2	47990689	2019-01-05 14:56:38	02:56 p.m.	479906891728520.7055475PLM034	PLM034
	5555	7799008979618		25	2	47990689	2019-01-05 14:59:00	02:59 p.m.	479906891728520.7055475PLM034	PLM034
	5542	7799008979014		108	2	47990689	2019-01-05 15:06:04	03:06 p.m.	479906891728520.7055475PLM034	PLM034
	5543	7799008979410		100	2	47990689	2019-01-05 15:10:54	03:10 p.m.	479906891728520.7055475PLM034	PLM034
	5544	7799008991986		24	2	47990689	2019-01-05 15:13:09	03:13 p.m.	479906891728520.7055475PLM034	PLM034
	5530	7799008370613		606	2	47990689	2019-01-05 15:24:59	03:24 p.m.	479906891728520.7055475PLM034	PLM034
	5535	7793730832555		417	2	47990689	2019-01-05 15:41:48	03:41 p.m.	479906891728520.7055475PLM034	PLM034
	5536	7793730832555		501	2	47990689	2019-01-05 16:01:30	04:01 p.m.	479906891728520.7055475PLM034	PLM034
	5539	7799008546773		72	2	47990689	2019-01-05 16:05:22	04:05 p.m.	479906891728520.7055475PLM034	PLM034
	5537	7793730557045		789	2	47990689	2019-01-05 16:13:55	04:13 p.m.	479906891728520.7055475PLM034	PLM034
	5526	7799008996592		210	2	47990689	2019-01-05 16:28:16	04:28 p.m.	479906891728520.7055475PLM034	PLM034
	5540	7799021022155		29	2	47990689	2019-01-05 16:54:22	04:54 p.m.	479906891728520.7055475PLM034	PLM034
	5538	7799021000436		600	2	47990689	2019-01-05 17:04:04	05:04 p.m.	479906891728520.7055475PLM034	PLM034
	5541	7799021022155		50	2	47990689	2019-01-05 17:06:20	05:06 p.m.	479906891728520.7055475PLM034	PLM034
	5529	7799008370545		999	2	47990689	2019-01-05 17:21:25	05:21 p.m.	479906891728520.7055475PLM034	PLM034
	5529	7799008370545		71	2	47990689	2019-01-05 17:21:42	05:21 p.m.	479906891728520.7055475PLM034	PLM034
	5529	7799008370545		100	2	47990689	2019-01-05 17:21:47	05:21 p.m.	479906891728520.7055475PLM034	PLM034
