	7130	7799008765457		1	1	48205539	2019-01-05 06:41:09	6:41:09 AM	4820553975550.301948PLM088	PLM088
	7130	7799008833828		1	1	48205539	2019-01-05 06:41:13	6:41:13 AM	4820553975550.301948PLM088	PLM088
	7130	7799008824079		1	1	48205539	2019-01-05 06:41:16	6:41:16 AM	4820553975550.301948PLM088	PLM088
	7130	7799008802435		1	1	48205539	2019-01-05 06:41:16	6:41:16 AM	4820553975550.301948PLM088	PLM088
	7130	7799008776224		1	1	48205539	2019-01-05 06:41:20	6:41:20 AM	4820553975550.301948PLM088	PLM088
	7130	7799008776231		1	1	48205539	2019-01-05 06:41:25	6:41:25 AM	4820553975550.301948PLM088	PLM088
	7130	7799008778907		1	1	48205539	2019-01-05 06:41:26	6:41:26 AM	4820553975550.301948PLM088	PLM088
	7130	7799008753584		1	1	48205539	2019-01-05 06:41:30	6:41:30 AM	4820553975550.301948PLM088	PLM088
	7130	7799008828190		1	1	48205539	2019-01-05 06:41:33	6:41:33 AM	4820553975550.301948PLM088	PLM088
	7130	7799008765617		1	1	48205539	2019-01-05 06:41:34	6:41:34 AM	4820553975550.301948PLM088	PLM088
	7130	7799008766096		1	1	48205539	2019-01-05 06:41:39	6:41:39 AM	4820553975550.301948PLM088	PLM088
	7130	7799008766096		1	1	48205539	2019-01-05 06:41:44	6:41:44 AM	4820553975550.301948PLM088	PLM088
	7130	7799008779782		1	1	48205539	2019-01-05 06:41:52	6:41:52 AM	4820553975550.301948PLM088	PLM088
	7130	7799008833835		1	1	48205539	2019-01-05 06:41:55	6:41:55 AM	4820553975550.301948PLM088	PLM088
	7130	7799008753607		1	1	48205539	2019-01-05 06:41:57	6:41:57 AM	4820553975550.301948PLM088	PLM088
	7130	7799008829074		1	1	48205539	2019-01-05 06:42:01	6:42:01 AM	4820553975550.301948PLM088	PLM088
	7130	7799008830506		1	1	48205539	2019-01-05 06:42:17	6:42:17 AM	4820553975550.301948PLM088	PLM088
	7130	7799008776026		1	1	48205539	2019-01-05 06:42:24	6:42:24 AM	4820553975550.301948PLM088	PLM088
	7130	7799008802329		1	1	48205539	2019-01-05 06:42:25	6:42:25 AM	4820553975550.301948PLM088	PLM088
	7130	7799008802985		1	1	48205539	2019-01-05 06:42:31	6:42:31 AM	4820553975550.301948PLM088	PLM088
	7130	7799008778907		1	1	48205539	2019-01-05 06:42:33	6:42:33 AM	4820553975550.301948PLM088	PLM088
	7130	7799008830506		1	1	48205539	2019-01-05 06:42:37	6:42:37 AM	4820553975550.301948PLM088	PLM088
	7130	7799008803197		1	1	48205539	2019-01-05 06:42:39	6:42:39 AM	4820553975550.301948PLM088	PLM088
	7130	7799008824055		1	1	48205539	2019-01-05 06:42:48	6:42:48 AM	4820553975550.301948PLM088	PLM088
	7130	7799008830537		1	1	48205539	2019-01-05 06:42:50	6:42:50 AM	4820553975550.301948PLM088	PLM088
	7130	7799008829722		1	1	48205539	2019-01-05 06:42:53	6:42:53 AM	4820553975550.301948PLM088	PLM088
	7130	7799008765167		1	1	48205539	2019-01-05 06:42:56	6:42:56 AM	4820553975550.301948PLM088	PLM088
	7130	7799008830490		1	1	48205539	2019-01-05 06:43:09	6:43:09 AM	4820553975550.301948PLM088	PLM088
	7130	7799008538976		1	1	48205539	2019-01-05 06:43:12	6:43:12 AM	4820553975550.301948PLM088	PLM088
	7130	7799008765495		1	1	48205539	2019-01-05 06:43:18	6:43:18 AM	4820553975550.301948PLM088	PLM088
	7130	7799008836058		1	1	48205539	2019-01-05 06:43:19	6:43:19 AM	4820553975550.301948PLM088	PLM088
	7130	7799008836065		1	1	48205539	2019-01-05 06:43:25	6:43:25 AM	4820553975550.301948PLM088	PLM088
	7130	7799008833828		1	1	48205539	2019-01-05 06:43:26	6:43:26 AM	4820553975550.301948PLM088	PLM088
	7130	7799008824055		1	1	48205539	2019-01-05 06:43:29	6:43:29 AM	4820553975550.301948PLM088	PLM088
	7130	7799008765150		1	1	48205539	2019-01-05 06:43:32	6:43:32 AM	4820553975550.301948PLM088	PLM088
	7130	7799008766096		1	1	48205539	2019-01-05 06:43:34	6:43:34 AM	4820553975550.301948PLM088	PLM088
	7130	7799008765174		1	1	48205539	2019-01-05 06:43:41	6:43:41 AM	4820553975550.301948PLM088	PLM088
	7130	7799008765198		1	1	48205539	2019-01-05 06:43:44	6:43:44 AM	4820553975550.301948PLM088	PLM088
	7130	7799008753621		1	1	48205539	2019-01-05 06:43:45	6:43:45 AM	4820553975550.301948PLM088	PLM088
	7130	7799008766096		1	1	48205539	2019-01-05 06:43:50	6:43:50 AM	4820553975550.301948PLM088	PLM088
	7130	7799008802138		1	1	48205539	2019-01-05 06:43:51	6:43:51 AM	4820553975550.301948PLM088	PLM088
	7130	7799008828909		1	1	48205539	2019-01-05 06:43:55	6:43:55 AM	4820553975550.301948PLM088	PLM088
	7130	7799008824079		1	1	48205539	2019-01-05 06:44:09	6:44:09 AM	4820553975550.301948PLM088	PLM088
	7130	7799008824079		1	1	48205539	2019-01-05 06:44:13	6:44:13 AM	4820553975550.301948PLM088	PLM088
	7130	7799008828855		1	1	48205539	2019-01-05 06:44:31	6:44:31 AM	4820553975550.301948PLM088	PLM088
	7130	7799008836539		1	1	48205539	2019-01-05 06:44:34	6:44:34 AM	4820553975550.301948PLM088	PLM088
	7130	7799008829845		1	1	48205539	2019-01-05 06:44:37	6:44:37 AM	4820553975550.301948PLM088	PLM088
	7130	7799008750989		1	1	48205539	2019-01-05 06:44:40	6:44:40 AM	4820553975550.301948PLM088	PLM088
	7130	7799008751245		1	1	48205539	2019-01-05 06:44:49	6:44:49 AM	4820553975550.301948PLM088	PLM088
	7130	7799008836058		1	1	48205539	2019-01-05 06:44:53	6:44:53 AM	4820553975550.301948PLM088	PLM088
	7130	7799008766997		1	1	48205539	2019-01-05 06:44:54	6:44:54 AM	4820553975550.301948PLM088	PLM088
	7130	7799008831480		1	1	48205539	2019-01-05 06:44:57	6:44:57 AM	4820553975550.301948PLM088	PLM088
	7130	7799008831480		1	1	48205539	2019-01-05 06:45:07	6:45:07 AM	4820553975550.301948PLM088	PLM088
	7130	7799008802442		1	1	48205539	2019-01-05 06:45:18	6:45:18 AM	4820553975550.301948PLM088	PLM088
	7130	7799008802442		1	1	48205539	2019-01-05 06:45:19	6:45:19 AM	4820553975550.301948PLM088	PLM088
	7130	7799008802442		1	1	48205539	2019-01-05 06:45:21	6:45:21 AM	4820553975550.301948PLM088	PLM088
	7130	7799008833835		1	1	48205539	2019-01-05 06:45:24	6:45:24 AM	4820553975550.301948PLM088	PLM088
	7130	7799008802992		1	1	48205539	2019-01-05 06:45:28	6:45:28 AM	4820553975550.301948PLM088	PLM088
	7130	7799008824062		1	1	48205539	2019-01-05 06:45:28	6:45:28 AM	4820553975550.301948PLM088	PLM088
	7130	7799008776224		1	1	48205539	2019-01-05 06:45:34	6:45:34 AM	4820553975550.301948PLM088	PLM088
	7130	7799008802107		1	1	48205539	2019-01-05 06:45:36	6:45:36 AM	4820553975550.301948PLM088	PLM088
	7130	7799008824086		1	1	48205539	2019-01-05 06:45:39	6:45:39 AM	4820553975550.301948PLM088	PLM088
	7130	7799008828855		1	1	48205539	2019-01-05 06:45:41	6:45:41 AM	4820553975550.301948PLM088	PLM088
	7130	7799008765495		1	1	48205539	2019-01-05 06:45:46	6:45:46 AM	4820553975550.301948PLM088	PLM088
	7130	7799008432243		1	1	48205539	2019-01-05 06:45:51	6:45:51 AM	4820553975550.301948PLM088	PLM088
	7130	7799008432243		1	1	48205539	2019-01-05 06:45:52	6:45:52 AM	4820553975550.301948PLM088	PLM088
	7130	7799008765259		1	1	48205539	2019-01-05 06:45:58	6:45:58 AM	4820553975550.301948PLM088	PLM088
	7130	7799008776019		1	1	48205539	2019-01-05 06:46:02	6:46:02 AM	4820553975550.301948PLM088	PLM088
	7130	7799008776019		1	1	48205539	2019-01-05 06:46:05	6:46:05 AM	4820553975550.301948PLM088	PLM088
	7130	7799008833835		1	1	48205539	2019-01-05 06:46:09	6:46:09 AM	4820553975550.301948PLM088	PLM088
	7130	7799008828855		1	1	48205539	2019-01-05 06:46:12	6:46:12 AM	4820553975550.301948PLM088	PLM088
	7130	7799008833835		1	1	48205539	2019-01-05 06:46:18	6:46:18 AM	4820553975550.301948PLM088	PLM088
	7130	7799008802435		1	1	48205539	2019-01-05 06:46:21	6:46:21 AM	4820553975550.301948PLM088	PLM088
	7130	7799008765174		1	1	48205539	2019-01-05 06:46:41	6:46:41 AM	4820553975550.301948PLM088	PLM088
	7130	7799008765174		1	1	48205539	2019-01-05 06:46:43	6:46:43 AM	4820553975550.301948PLM088	PLM088
	7130	7799008829067		1	1	48205539	2019-01-05 06:47:22	6:47:22 AM	4820553975550.301948PLM088	PLM088
	7130	7799008830827		1	1	48205539	2019-01-05 06:47:38	6:47:38 AM	4820553975550.301948PLM088	PLM088
	7130	7799008830827		1	1	48205539	2019-01-05 06:47:39	6:47:39 AM	4820553975550.301948PLM088	PLM088
	7130	7799008766997		1	1	48205539	2019-01-05 06:47:42	6:47:42 AM	4820553975550.301948PLM088	PLM088
	7130	7799008766997		1	1	48205539	2019-01-05 06:48:03	6:48:03 AM	4820553975550.301948PLM088	PLM088
	7130	7799008829036		1	1	48205539	2019-01-05 06:48:06	6:48:06 AM	4820553975550.301948PLM088	PLM088
	7130	7799008831480		1	1	48205539	2019-01-05 06:48:10	6:48:10 AM	4820553975550.301948PLM088	PLM088
	7130	7799008802473		1	1	48205539	2019-01-05 06:48:12	6:48:12 AM	4820553975550.301948PLM088	PLM088
	7130	7799008802473		1	1	48205539	2019-01-05 06:48:13	6:48:13 AM	4820553975550.301948PLM088	PLM088
	7130	7799008830834		1	1	48205539	2019-01-05 06:48:17	6:48:17 AM	4820553975550.301948PLM088	PLM088
	7130	7799008830803		1	1	48205539	2019-01-05 06:48:20	6:48:20 AM	4820553975550.301948PLM088	PLM088
	7130	7799008766812		1	1	48205539	2019-01-05 06:48:26	6:48:26 AM	4820553975550.301948PLM088	PLM088
	7130	7799008802657		1	1	48205539	2019-01-05 06:48:30	6:48:30 AM	4820553975550.301948PLM088	PLM088
	7130	7799008802459		1	1	48205539	2019-01-05 06:48:36	6:48:36 AM	4820553975550.301948PLM088	PLM088
	7130	7799008779782		1	1	48205539	2019-01-05 06:48:38	6:48:38 AM	4820553975550.301948PLM088	PLM088
	7130	7799008829746		1	1	48205539	2019-01-05 06:48:51	6:48:51 AM	4820553975550.301948PLM088	PLM088
	7130	7799008829746		1	1	48205539	2019-01-05 06:48:53	6:48:53 AM	4820553975550.301948PLM088	PLM088
	7130	7799008828855		1	1	48205539	2019-01-05 06:49:06	6:49:06 AM	4820553975550.301948PLM088	PLM088
	7130	7799008802121		1	1	48205539	2019-01-05 06:49:09	6:49:09 AM	4820553975550.301948PLM088	PLM088
	7130	7799008779973		1	1	48205539	2019-01-05 06:49:12	6:49:12 AM	4820553975550.301948PLM088	PLM088
	7130	7799008836041		1	1	48205539	2019-01-05 06:49:23	6:49:23 AM	4820553975550.301948PLM088	PLM088
	7130	7799008836041		1	1	48205539	2019-01-05 06:49:24	6:49:24 AM	4820553975550.301948PLM088	PLM088
	7130	7799008828183		1	1	48205539	2019-01-05 06:49:30	6:49:30 AM	4820553975550.301948PLM088	PLM088
	7130	7799008802336		1	1	48205539	2019-01-05 06:49:33	6:49:33 AM	4820553975550.301948PLM088	PLM088
	7130	7799008829753		1	1	48205539	2019-01-05 06:49:35	6:49:35 AM	4820553975550.301948PLM088	PLM088
	7130	7799008591438		1	1	48205539	2019-01-05 06:49:37	6:49:37 AM	4820553975550.301948PLM088	PLM088
	7130	7799008802480		1	1	48205539	2019-01-05 06:49:40	6:49:40 AM	4820553975550.301948PLM088	PLM088
	7130	7799008201498		1	1	48205539	2019-01-05 06:49:43	6:49:43 AM	4820553975550.301948PLM088	PLM088
	7130	7799008830483		1	1	48205539	2019-01-05 06:49:47	6:49:47 AM	4820553975550.301948PLM088	PLM088
	7130	7799008802138		1	1	48205539	2019-01-05 06:49:48	6:49:48 AM	4820553975550.301948PLM088	PLM088
	7130	7799008766089		1	1	48205539	2019-01-05 06:49:51	6:49:51 AM	4820553975550.301948PLM088	PLM088
	7130	7799008824079		1	1	48205539	2019-01-05 06:49:53	6:49:53 AM	4820553975550.301948PLM088	PLM088
	7130	7799008828206		1	1	48205539	2019-01-05 06:49:57	6:49:57 AM	4820553975550.301948PLM088	PLM088
	7130	7799008833835		1	1	48205539	2019-01-05 06:49:59	6:49:59 AM	4820553975550.301948PLM088	PLM088
	7130	7799008833835		1	1	48205539	2019-01-05 06:50:04	6:50:04 AM	4820553975550.301948PLM088	PLM088
	7130	7799008083773		1	1	48205539	2019-01-05 06:50:07	6:50:07 AM	4820553975550.301948PLM088	PLM088
	7130	7799008833811		1	1	48205539	2019-01-05 06:50:12	6:50:12 AM	4820553975550.301948PLM088	PLM088
	7130	7799008753638		1	1	48205539	2019-01-05 06:50:14	6:50:14 AM	4820553975550.301948PLM088	PLM088
	7130	7799008833842		1	1	48205539	2019-01-05 06:50:17	6:50:17 AM	4820553975550.301948PLM088	PLM088
	7130	7799008802664		1	1	48205539	2019-01-05 06:50:19	6:50:19 AM	4820553975550.301948PLM088	PLM088
	7130	7799008833835		1	1	48205539	2019-01-05 06:50:22	6:50:22 AM	4820553975550.301948PLM088	PLM088
	7130	7799008767000		1	1	48205539	2019-01-05 06:50:24	6:50:24 AM	4820553975550.301948PLM088	PLM088
	7130	7799008828848		1	1	48205539	2019-01-05 06:50:28	6:50:28 AM	4820553975550.301948PLM088	PLM088
	7130	7799008765488		1	1	48205539	2019-01-05 06:50:30	6:50:30 AM	4820553975550.301948PLM088	PLM088
	7130	7799008829753		1	1	48205539	2019-01-05 06:50:35	6:50:35 AM	4820553975550.301948PLM088	PLM088
	7130	7799008765181		1	1	48205539	2019-01-05 06:50:37	6:50:37 AM	4820553975550.301948PLM088	PLM088
	7130	7799008803005		1	1	48205539	2019-01-05 06:50:39	6:50:39 AM	4820553975550.301948PLM088	PLM088
	7130	7799008829753		1	1	48205539	2019-01-05 06:50:42	6:50:42 AM	4820553975550.301948PLM088	PLM088
	7130	7799008829753		1	1	48205539	2019-01-05 06:50:43	6:50:43 AM	4820553975550.301948PLM088	PLM088
	7130	7799008802428		1	1	48205539	2019-01-05 06:50:47	6:50:47 AM	4820553975550.301948PLM088	PLM088
	7130	7799008829784		1	1	48205539	2019-01-05 06:50:48	6:50:48 AM	4820553975550.301948PLM088	PLM088
	7130	7799008830551		1	1	48205539	2019-01-05 06:51:12	6:51:12 AM	4820553975550.301948PLM088	PLM088
	7130	7799008753119		1	1	48205539	2019-01-05 06:51:15	6:51:15 AM	4820553975550.301948PLM088	PLM088
	7130	7799008802435		1	1	48205539	2019-01-05 06:51:17	6:51:17 AM	4820553975550.301948PLM088	PLM088
	7130	7799008765600		1	1	48205539	2019-01-05 06:51:21	6:51:21 AM	4820553975550.301948PLM088	PLM088
	7130	7799008824079		1	1	48205539	2019-01-05 06:51:23	6:51:23 AM	4820553975550.301948PLM088	PLM088
	7130	7799008833835		1	1	48205539	2019-01-05 06:51:26	6:51:26 AM	4820553975550.301948PLM088	PLM088
	7130	7799008803180		1	1	48205539	2019-01-05 06:51:29	6:51:29 AM	4820553975550.301948PLM088	PLM088
	7130	7799008802657		1	1	48205539	2019-01-05 06:51:35	6:51:35 AM	4820553975550.301948PLM088	PLM088
	7130	7799008829791		1	1	48205539	2019-01-05 06:51:47	6:51:47 AM	4820553975550.301948PLM088	PLM088
	7130	7799008829791		1	1	48205539	2019-01-05 06:51:48	6:51:48 AM	4820553975550.301948PLM088	PLM088
	7130	7799008824055		1	1	48205539	2019-01-05 06:52:18	6:52:18 AM	4820553975550.301948PLM088	PLM088
	7130	7799008766997		1	1	48205539	2019-01-05 06:52:20	6:52:20 AM	4820553975550.301948PLM088	PLM088
	7130	7799008767024		1	1	48205539	2019-01-05 06:52:23	6:52:23 AM	4820553975550.301948PLM088	PLM088
	7130	7799008765181		1	1	48205539	2019-01-05 06:52:25	6:52:25 AM	4820553975550.301948PLM088	PLM088
	7130	7799008802985		1	1	48205539	2019-01-05 06:52:28	6:52:28 AM	4820553975550.301948PLM088	PLM088
	7130	7799008802985		1	1	48205539	2019-01-05 06:52:29	6:52:29 AM	4820553975550.301948PLM088	PLM088
	7130	7799008828206		1	1	48205539	2019-01-05 06:52:33	6:52:33 AM	4820553975550.301948PLM088	PLM088
	7130	7799008836522		1	1	48205539	2019-01-05 06:52:40	6:52:40 AM	4820553975550.301948PLM088	PLM088
	7130	7799008829838		1	1	48205539	2019-01-05 06:52:43	6:52:43 AM	4820553975550.301948PLM088	PLM088
	7130	7799008767000		1	1	48205539	2019-01-05 06:52:49	6:52:49 AM	4820553975550.301948PLM088	PLM088
	7130	7799008833828		1	1	48205539	2019-01-05 06:53:03	6:53:03 AM	4820553975550.301948PLM088	PLM088
	7130	7799008833828		1	1	48205539	2019-01-05 06:53:04	6:53:04 AM	4820553975550.301948PLM088	PLM088
	7130	7799008828909		1	1	48205539	2019-01-05 06:53:10	6:53:10 AM	4820553975550.301948PLM088	PLM088
	7130	7799008830834		1	1	48205539	2019-01-05 06:53:13	6:53:13 AM	4820553975550.301948PLM088	PLM088
	7130	7799008803012		1	1	48205539	2019-01-05 06:53:18	6:53:18 AM	4820553975550.301948PLM088	PLM088
	7130	7799008830810		1	1	48205539	2019-01-05 06:53:22	6:53:22 AM	4820553975550.301948PLM088	PLM088
	7130	7799008830803		1	1	48205539	2019-01-05 06:53:27	6:53:27 AM	4820553975550.301948PLM088	PLM088
	7130	7799008776002		1	1	48205539	2019-01-05 06:53:34	6:53:34 AM	4820553975550.301948PLM088	PLM088
	7130	7799008829746		1	1	48205539	2019-01-05 06:53:36	6:53:36 AM	4820553975550.301948PLM088	PLM088
	7130	7799008829791		1	1	48205539	2019-01-05 06:53:38	6:53:38 AM	4820553975550.301948PLM088	PLM088
	7130	7799008824086		1	1	48205539	2019-01-05 06:54:09	6:54:09 AM	4820553975550.301948PLM088	PLM088
	7130	7799008830810		1	1	48205539	2019-01-05 06:54:12	6:54:12 AM	4820553975550.301948PLM088	PLM088
	7130	7799008767017		1	1	48205539	2019-01-05 06:54:16	6:54:16 AM	4820553975550.301948PLM088	PLM088
	7130	7799008829074		1	1	48205539	2019-01-05 06:54:30	6:54:30 AM	4820553975550.301948PLM088	PLM088
	7130	7799008829074		1	1	48205539	2019-01-05 06:54:32	6:54:32 AM	4820553975550.301948PLM088	PLM088
	7130	7799008802459		1	1	48205539	2019-01-05 06:54:40	6:54:40 AM	4820553975550.301948PLM088	PLM088
	7130	7799008802459		1	1	48205539	2019-01-05 06:54:41	6:54:41 AM	4820553975550.301948PLM088	PLM088
	7130	7799008802459		1	1	48205539	2019-01-05 06:54:46	6:54:46 AM	4820553975550.301948PLM088	PLM088
	7130	7799008836065		1	1	48205539	2019-01-05 06:55:06	6:55:06 AM	4820553975550.301948PLM088	PLM088
	7130	7799008836065		1	1	48205539	2019-01-05 06:55:07	6:55:07 AM	4820553975550.301948PLM088	PLM088
	7130	7799008803180		1	1	48205539	2019-01-05 06:55:17	6:55:17 AM	4820553975550.301948PLM088	PLM088
	7130	7799008833835		1	1	48205539	2019-01-05 06:55:18	6:55:18 AM	4820553975550.301948PLM088	PLM088
	7130	7799008836522		1	1	48205539	2019-01-05 06:55:22	6:55:22 AM	4820553975550.301948PLM088	PLM088
	7130	7799008765600		1	1	48205539	2019-01-05 06:55:24	6:55:24 AM	4820553975550.301948PLM088	PLM088
	7130	7799008833811		1	1	48205539	2019-01-05 06:55:40	6:55:40 AM	4820553975550.301948PLM088	PLM088
	7130	7799008833811		1	1	48205539	2019-01-05 06:55:41	6:55:41 AM	4820553975550.301948PLM088	PLM088
	7130	7799008778907		1	1	48205539	2019-01-05 06:55:51	6:55:51 AM	4820553975550.301948PLM088	PLM088
	7130	7799008765198		1	1	48205539	2019-01-05 06:55:53	6:55:53 AM	4820553975550.301948PLM088	PLM088
	7130	7799008802114		1	1	48205539	2019-01-05 06:55:55	6:55:55 AM	4820553975550.301948PLM088	PLM088
	7130	7799008802114		1	1	48205539	2019-01-05 06:55:56	6:55:56 AM	4820553975550.301948PLM088	PLM088
	7130	7799008765488		1	1	48205539	2019-01-05 06:55:58	6:55:58 AM	4820553975550.301948PLM088	PLM088
	7130	7799008778518		1	1	48205539	2019-01-05 06:56:00	6:56:00 AM	4820553975550.301948PLM088	PLM088
	7130	7799008836058		1	1	48205539	2019-01-05 06:56:02	6:56:02 AM	4820553975550.301948PLM088	PLM088
	7130	7799008765600		1	1	48205539	2019-01-05 06:56:05	6:56:05 AM	4820553975550.301948PLM088	PLM088
	7130	7799008830834		1	1	48205539	2019-01-05 06:56:07	6:56:07 AM	4820553975550.301948PLM088	PLM088
	7130	7799008802428		1	1	48205539	2019-01-05 06:56:13	6:56:13 AM	4820553975550.301948PLM088	PLM088
	7130	7799008836058		1	1	48205539	2019-01-05 06:56:15	6:56:15 AM	4820553975550.301948PLM088	PLM088
	7130	7799008831497		1	1	48205539	2019-01-05 06:56:17	6:56:17 AM	4820553975550.301948PLM088	PLM088
	7130	7799008828930		1	1	48205539	2019-01-05 06:56:20	6:56:20 AM	4820553975550.301948PLM088	PLM088
	7130	7799008778914		1	1	48205539	2019-01-05 06:56:22	6:56:22 AM	4820553975550.301948PLM088	PLM088
	7130	7799008802992		1	1	48205539	2019-01-05 06:56:25	6:56:25 AM	4820553975550.301948PLM088	PLM088
	7130	7799008765563		1	1	48205539	2019-01-05 06:56:29	6:56:29 AM	4820553975550.301948PLM088	PLM088
	7130	7799008803180		1	1	48205539	2019-01-05 06:56:31	6:56:31 AM	4820553975550.301948PLM088	PLM088
	7130	7799008765174		1	1	48205539	2019-01-05 06:56:37	6:56:37 AM	4820553975550.301948PLM088	PLM088
	7130	7799008836539		1	1	48205539	2019-01-05 06:56:40	6:56:40 AM	4820553975550.301948PLM088	PLM088
	7130	7799008829746		1	1	48205539	2019-01-05 06:56:42	6:56:42 AM	4820553975550.301948PLM088	PLM088
	7130	7799008829074		1	1	48205539	2019-01-05 06:56:45	6:56:45 AM	4820553975550.301948PLM088	PLM088
	7130	7799008830483		1	1	48205539	2019-01-05 06:56:46	6:56:46 AM	4820553975550.301948PLM088	PLM088
	7130	7799008828909		1	1	48205539	2019-01-05 06:56:49	6:56:49 AM	4820553975550.301948PLM088	PLM088
	7130	7799008828923		1	1	48205539	2019-01-05 06:56:52	6:56:52 AM	4820553975550.301948PLM088	PLM088
	7130	7799008824062		1	1	48205539	2019-01-05 06:56:54	6:56:54 AM	4820553975550.301948PLM088	PLM088
	7130	7799008765259		1	1	48205539	2019-01-05 06:56:56	6:56:56 AM	4820553975550.301948PLM088	PLM088
	7130	7799008802657		1	1	48205539	2019-01-05 06:56:59	6:56:59 AM	4820553975550.301948PLM088	PLM088
	7130	7799008765617		1	1	48205539	2019-01-05 06:57:01	6:57:01 AM	4820553975550.301948PLM088	PLM088
	7130	7799008776002		1	1	48205539	2019-01-05 06:57:05	6:57:05 AM	4820553975550.301948PLM088	PLM088
	7130	7799008776002		1	1	48205539	2019-01-05 06:57:06	6:57:06 AM	4820553975550.301948PLM088	PLM088
	7130	7799008776002		1	1	48205539	2019-01-05 06:57:07	6:57:07 AM	4820553975550.301948PLM088	PLM088
	7130	7799008803197		1	1	48205539	2019-01-05 06:57:09	6:57:09 AM	4820553975550.301948PLM088	PLM088
	7130	7799008831497		1	1	48205539	2019-01-05 06:57:11	6:57:11 AM	4820553975550.301948PLM088	PLM088
	7130	7799008830483		1	1	48205539	2019-01-05 06:57:14	6:57:14 AM	4820553975550.301948PLM088	PLM088
	7130	7799008828848		1	1	48205539	2019-01-05 06:57:16	6:57:16 AM	4820553975550.301948PLM088	PLM088
	7130	7799008824079		1	1	48205539	2019-01-05 06:57:22	6:57:22 AM	4820553975550.301948PLM088	PLM088
	7130	7799008802442		1	1	48205539	2019-01-05 06:57:24	6:57:24 AM	4820553975550.301948PLM088	PLM088
	7130	7799008751139		1	1	48205539	2019-01-05 06:57:27	6:57:27 AM	4820553975550.301948PLM088	PLM088
	7130	7799008779973		1	1	48205539	2019-01-05 06:57:30	6:57:30 AM	4820553975550.301948PLM088	PLM088
	7130	7799008802114		1	1	48205539	2019-01-05 06:57:34	6:57:34 AM	4820553975550.301948PLM088	PLM088
	7130	7799008802121		1	1	48205539	2019-01-05 06:57:36	6:57:36 AM	4820553975550.301948PLM088	PLM088
	7130	7799008829739		1	1	48205539	2019-01-05 06:57:39	6:57:39 AM	4820553975550.301948PLM088	PLM088
	7130	7799008765204		1	1	48205539	2019-01-05 06:57:40	6:57:40 AM	4820553975550.301948PLM088	PLM088
	7130	7799008776019		1	1	48205539	2019-01-05 06:57:43	6:57:43 AM	4820553975550.301948PLM088	PLM088
	7130	7799008766096		1	1	48205539	2019-01-05 06:57:44	6:57:44 AM	4820553975550.301948PLM088	PLM088
	7130	7799008765266		1	1	48205539	2019-01-05 06:57:48	6:57:48 AM	4820553975550.301948PLM088	PLM088
	7130	7799008830834		1	1	48205539	2019-01-05 06:57:49	6:57:49 AM	4820553975550.301948PLM088	PLM088
	7130	7799008753607		1	1	48205539	2019-01-05 06:57:52	6:57:52 AM	4820553975550.301948PLM088	PLM088
	7130	7799008824086		1	1	48205539	2019-01-05 06:57:54	6:57:54 AM	4820553975550.301948PLM088	PLM088
	7130	7799008776019		1	1	48205539	2019-01-05 06:57:56	6:57:56 AM	4820553975550.301948PLM088	PLM088
	7130	7799008824079		1	1	48205539	2019-01-05 06:57:58	6:57:58 AM	4820553975550.301948PLM088	PLM088
	7130	7799008828275		1	1	48205539	2019-01-05 06:58:02	6:58:02 AM	4820553975550.301948PLM088	PLM088
	7130	7799008828824		1	1	48205539	2019-01-05 06:58:06	6:58:06 AM	4820553975550.301948PLM088	PLM088
	7130	7799008830834		1	1	48205539	2019-01-05 06:58:09	6:58:09 AM	4820553975550.301948PLM088	PLM088
	7130	7799008802442		1	1	48205539	2019-01-05 06:58:11	6:58:11 AM	4820553975550.301948PLM088	PLM088
	7130	7799008824079		1	1	48205539	2019-01-05 06:58:13	6:58:13 AM	4820553975550.301948PLM088	PLM088
	7130	7799008828923		1	1	48205539	2019-01-05 06:58:15	6:58:15 AM	4820553975550.301948PLM088	PLM088
	7130	7799008802466		1	1	48205539	2019-01-05 06:58:18	6:58:18 AM	4820553975550.301948PLM088	PLM088
	7130	7799008751382		1	1	48205539	2019-01-05 06:58:20	6:58:20 AM	4820553975550.301948PLM088	PLM088
	7130	7799008802459		1	1	48205539	2019-01-05 06:58:23	6:58:23 AM	4820553975550.301948PLM088	PLM088
	7130	7799008776224		1	1	48205539	2019-01-05 06:58:26	6:58:26 AM	4820553975550.301948PLM088	PLM088
	7130	7799008776002		1	1	48205539	2019-01-05 06:58:27	6:58:27 AM	4820553975550.301948PLM088	PLM088
	7130	7799008829852		1	1	48205539	2019-01-05 06:58:30	6:58:30 AM	4820553975550.301948PLM088	PLM088
	7130	7799008829746		1	1	48205539	2019-01-05 06:58:34	6:58:34 AM	4820553975550.301948PLM088	PLM088
	7130	7799008776255		1	1	48205539	2019-01-05 06:58:36	6:58:36 AM	4820553975550.301948PLM088	PLM088
	7130	7799008833828		1	1	48205539	2019-01-05 06:58:37	6:58:37 AM	4820553975550.301948PLM088	PLM088
	7130	7799008802121		1	1	48205539	2019-01-05 06:58:49	6:58:49 AM	4820553975550.301948PLM088	PLM088
	7130	7799008201498		1	1	48205539	2019-01-05 06:58:52	6:58:52 AM	4820553975550.301948PLM088	PLM088
	7130	7799008831107		1	1	48205539	2019-01-05 06:58:57	6:58:57 AM	4820553975550.301948PLM088	PLM088
	7130	7799008824062		1	1	48205539	2019-01-05 06:59:03	6:59:03 AM	4820553975550.301948PLM088	PLM088
	7130	7799008779980		1	1	48205539	2019-01-05 06:59:07	6:59:07 AM	4820553975550.301948PLM088	PLM088
	7130	7799008767024		1	1	48205539	2019-01-05 06:59:11	6:59:11 AM	4820553975550.301948PLM088	PLM088
	7130	7799008802985		1	1	48205539	2019-01-05 06:59:15	6:59:15 AM	4820553975550.301948PLM088	PLM088
	7130	7799008608679		1	1	48205539	2019-01-05 06:59:18	6:59:18 AM	4820553975550.301948PLM088	PLM088
	7130	7799008829784		1	1	48205539	2019-01-05 06:59:19	6:59:19 AM	4820553975550.301948PLM088	PLM088
	7130	7799008829074		1	1	48205539	2019-01-05 06:59:26	6:59:26 AM	4820553975550.301948PLM088	PLM088
	7130	7799008802992		1	1	48205539	2019-01-05 06:59:28	6:59:28 AM	4820553975550.301948PLM088	PLM088
	7130	7799008828855		1	1	48205539	2019-01-05 06:59:30	6:59:30 AM	4820553975550.301948PLM088	PLM088
	7130	7799008824062		1	1	48205539	2019-01-05 06:59:35	6:59:35 AM	4820553975550.301948PLM088	PLM088
	7130	7799008802138		1	1	48205539	2019-01-05 06:59:37	6:59:37 AM	4820553975550.301948PLM088	PLM088
	7130	7799008779973		1	1	48205539	2019-01-05 06:59:39	6:59:39 AM	4820553975550.301948PLM088	PLM088
	7130	7799008830827		1	1	48205539	2019-01-05 06:59:43	6:59:43 AM	4820553975550.301948PLM088	PLM088
	7130	7799008828879		1	1	48205539	2019-01-05 06:59:47	6:59:47 AM	4820553975550.301948PLM088	PLM088
	7130	7799008753546		1	1	48205539	2019-01-05 06:59:50	6:59:50 AM	4820553975550.301948PLM088	PLM088
	7130	7799008802459		1	1	48205539	2019-01-05 07:00:01	7:00:01 AM	4820553975550.301948PLM088	PLM088
	7130	7799008828855		1	1	48205539	2019-01-05 07:00:04	7:00:04 AM	4820553975550.301948PLM088	PLM088
	7130	7799008802442		1	1	48205539	2019-01-05 07:00:09	7:00:09 AM	4820553975550.301948PLM088	PLM088
	7130	7799008824062		1	1	48205539	2019-01-05 07:00:15	7:00:15 AM	4820553975550.301948PLM088	PLM088
	7130	7799008802985		1	1	48205539	2019-01-05 07:00:18	7:00:18 AM	4820553975550.301948PLM088	PLM088
	7130	7799008830827		1	1	48205539	2019-01-05 07:00:27	7:00:27 AM	4820553975550.301948PLM088	PLM088
	7130	7799008829746		1	1	48205539	2019-01-05 07:00:28	7:00:28 AM	4820553975550.301948PLM088	PLM088
	7130	7799008830834		1	1	48205539	2019-01-05 07:00:33	7:00:33 AM	4820553975550.301948PLM088	PLM088
	7130	7799008776002		1	1	48205539	2019-01-05 07:00:34	7:00:34 AM	4820553975550.301948PLM088	PLM088
	7130	7799008836072		1	1	48205539	2019-01-05 07:00:41	7:00:41 AM	4820553975550.301948PLM088	PLM088
	7130	7799008824055		1	1	48205539	2019-01-05 07:00:48	7:00:48 AM	4820553975550.301948PLM088	PLM088
	7130	7799008779980		1	1	48205539	2019-01-05 07:00:49	7:00:49 AM	4820553975550.301948PLM088	PLM088
	7130	7799008802107		1	1	48205539	2019-01-05 07:01:55	7:01:55 AM	4820553975550.301948PLM088	PLM088
	7130	7799008829791		1	1	48205539	2019-01-05 07:02:02	7:02:02 AM	4820553975550.301948PLM088	PLM088
	7130	7799008829753		1	1	48205539	2019-01-05 07:02:05	7:02:05 AM	4820553975550.301948PLM088	PLM088
	7130	7799008829753		1	1	48205539	2019-01-05 07:02:21	7:02:21 AM	4820553975550.301948PLM088	PLM088
	7130	7799008829852		1	1	48205539	2019-01-05 07:02:43	7:02:43 AM	4820553975550.301948PLM088	PLM088
	7130	7799008742458		1	1	48205539	2019-01-05 07:02:44	7:02:44 AM	4820553975550.301948PLM088	PLM088
	7130	7799008779980		1	1	48205539	2019-01-05 07:02:51	7:02:51 AM	4820553975550.301948PLM088	PLM088
	7130	7799008803005		1	1	48205539	2019-01-05 07:02:53	7:02:53 AM	4820553975550.301948PLM088	PLM088
	7130	7799008828909		1	1	48205539	2019-01-05 07:02:56	7:02:56 AM	4820553975550.301948PLM088	PLM088
	7130	7799008829753		1	1	48205539	2019-01-05 07:02:57	7:02:57 AM	4820553975550.301948PLM088	PLM088
	7130	7799008802473		1	1	48205539	2019-01-05 07:03:01	7:03:01 AM	4820553975550.301948PLM088	PLM088
	7130	7799008830810		1	1	48205539	2019-01-05 07:03:02	7:03:02 AM	4820553975550.301948PLM088	PLM088
	7130	7799008779973		1	1	48205539	2019-01-05 07:03:07	7:03:07 AM	4820553975550.301948PLM088	PLM088
	7130	7799008802121		1	1	48205539	2019-01-05 07:03:09	7:03:09 AM	4820553975550.301948PLM088	PLM088
	7130	7799008767000		1	1	48205539	2019-01-05 07:03:26	7:03:26 AM	4820553975550.301948PLM088	PLM088
	7130	7799008201498		1	1	48205539	2019-01-05 07:03:28	7:03:28 AM	4820553975550.301948PLM088	PLM088
	7130	7799008802992		1	1	48205539	2019-01-05 07:03:39	7:03:39 AM	4820553975550.301948PLM088	PLM088
	7130	7799008765174		1	1	48205539	2019-01-05 07:03:43	7:03:43 AM	4820553975550.301948PLM088	PLM088
	7130	7799008776002		1	1	48205539	2019-01-05 07:03:47	7:03:47 AM	4820553975550.301948PLM088	PLM088
	7130	7799008802985		1	1	48205539	2019-01-05 07:03:57	7:03:57 AM	4820553975550.301948PLM088	PLM088
	7130	7799008767017		1	1	48205539	2019-01-05 07:04:03	7:04:03 AM	4820553975550.301948PLM088	PLM088
	7130	7799008753591		1	1	48205539	2019-01-05 07:04:13	7:04:13 AM	4820553975550.301948PLM088	PLM088
	7130	7799008828855		1	1	48205539	2019-01-05 07:04:13	7:04:13 AM	4820553975550.301948PLM088	PLM088
	7130	7799008824086		1	1	48205539	2019-01-05 07:04:20	7:04:20 AM	4820553975550.301948PLM088	PLM088
	7130	7799008778907		1	1	48205539	2019-01-05 07:04:21	7:04:21 AM	4820553975550.301948PLM088	PLM088
	7130	7799008802121		1	1	48205539	2019-01-05 07:04:30	7:04:30 AM	4820553975550.301948PLM088	PLM088
	7130	7799008765174		1	1	48205539	2019-01-05 07:04:34	7:04:34 AM	4820553975550.301948PLM088	PLM088
	7130	7799008776255		1	1	48205539	2019-01-05 07:04:36	7:04:36 AM	4820553975550.301948PLM088	PLM088
	7130	7799008824079		1	1	48205539	2019-01-05 07:04:44	7:04:44 AM	4820553975550.301948PLM088	PLM088
	7130	7799008824086		1	1	48205539	2019-01-05 07:04:46	7:04:46 AM	4820553975550.301948PLM088	PLM088
	7130	7799008828275		1	1	48205539	2019-01-05 07:04:52	7:04:52 AM	4820553975550.301948PLM088	PLM088
	7130	7799008824055		1	1	48205539	2019-01-05 07:04:53	7:04:53 AM	4820553975550.301948PLM088	PLM088
	7130	7799008802664		1	1	48205539	2019-01-05 07:05:02	7:05:02 AM	4820553975550.301948PLM088	PLM088
	7130	7799008829784		1	1	48205539	2019-01-05 07:05:04	7:05:04 AM	4820553975550.301948PLM088	PLM088
	7130	7799008802107		1	1	48205539	2019-01-05 07:05:05	7:05:05 AM	4820553975550.301948PLM088	PLM088
	7130	7799008802442		1	1	48205539	2019-01-05 07:05:14	7:05:14 AM	4820553975550.301948PLM088	PLM088
	7130	7799008829289		1	1	48205539	2019-01-05 07:05:21	7:05:21 AM	4820553975550.301948PLM088	PLM088
	7130	7799008829845		1	1	48205539	2019-01-05 07:05:23	7:05:23 AM	4820553975550.301948PLM088	PLM088
	7130	7799008824062		1	1	48205539	2019-01-05 07:05:28	7:05:28 AM	4820553975550.301948PLM088	PLM088
	7130	7799008829029		1	1	48205539	2019-01-05 07:05:28	7:05:28 AM	4820553975550.301948PLM088	PLM088
	7130	7799008778914		1	1	48205539	2019-01-05 07:05:34	7:05:34 AM	4820553975550.301948PLM088	PLM088
	7130	7799008776248		1	1	48205539	2019-01-05 07:05:36	7:05:36 AM	4820553975550.301948PLM088	PLM088
	7130	7799008776255		1	1	48205539	2019-01-05 07:05:40	7:05:40 AM	4820553975550.301948PLM088	PLM088
	7130	7799008836065		1	1	48205539	2019-01-05 07:05:45	7:05:45 AM	4820553975550.301948PLM088	PLM088
	7130	7799008836065		1	1	48205539	2019-01-05 07:05:49	7:05:49 AM	4820553975550.301948PLM088	PLM088
	7130	7799008765259		1	1	48205539	2019-01-05 07:05:55	7:05:55 AM	4820553975550.301948PLM088	PLM088
	7130	7799008766997		1	1	48205539	2019-01-05 07:05:56	7:05:56 AM	4820553975550.301948PLM088	PLM088
	7130	7799008831497		1	1	48205539	2019-01-05 07:06:08	7:06:08 AM	4820553975550.301948PLM088	PLM088
	7130	7799008803180		1	1	48205539	2019-01-05 07:06:09	7:06:09 AM	4820553975550.301948PLM088	PLM088
	7130	7799008742427		1	1	48205539	2019-01-05 07:06:15	7:06:15 AM	4820553975550.301948PLM088	PLM088
	7130	7799008824055		1	1	48205539	2019-01-05 07:06:17	7:06:17 AM	4820553975550.301948PLM088	PLM088
	7130	7799008802664		1	1	48205539	2019-01-05 07:06:25	7:06:25 AM	4820553975550.301948PLM088	PLM088
	7130	7799008828848		1	1	48205539	2019-01-05 07:06:26	7:06:26 AM	4820553975550.301948PLM088	PLM088
	7130	7799008829753		1	1	48205539	2019-01-05 07:06:33	7:06:33 AM	4820553975550.301948PLM088	PLM088
	7130	7799008824055		1	1	48205539	2019-01-05 07:06:34	7:06:34 AM	4820553975550.301948PLM088	PLM088
	7130	7799008829708		1	1	48205539	2019-01-05 07:06:38	7:06:38 AM	4820553975550.301948PLM088	PLM088
	7130	7799008776002		1	1	48205539	2019-01-05 07:06:39	7:06:39 AM	4820553975550.301948PLM088	PLM088
	7130	7799008836041		1	1	48205539	2019-01-05 07:06:43	7:06:43 AM	4820553975550.301948PLM088	PLM088
	7130	7799008802473		1	1	48205539	2019-01-05 07:06:44	7:06:44 AM	4820553975550.301948PLM088	PLM088
	7130	7799008830834		1	1	48205539	2019-01-05 07:06:47	7:06:47 AM	4820553975550.301948PLM088	PLM088
	7130	7799008765617		1	1	48205539	2019-01-05 07:06:51	7:06:51 AM	4820553975550.301948PLM088	PLM088
	7130	7799008753553		1	1	48205539	2019-01-05 07:06:59	7:06:59 AM	4820553975550.301948PLM088	PLM088
	7130	7799008778907		1	1	48205539	2019-01-05 07:07:01	7:07:01 AM	4820553975550.301948PLM088	PLM088
	7130	7799008824055		1	1	48205539	2019-01-05 07:07:21	7:07:21 AM	4820553975550.301948PLM088	PLM088
	7130	7799008802473		1	1	48205539	2019-01-05 07:07:23	7:07:23 AM	4820553975550.301948PLM088	PLM088
	7130	7799008802992		1	1	48205539	2019-01-05 07:07:25	7:07:25 AM	4820553975550.301948PLM088	PLM088
	7130	7799008824055		1	1	48205539	2019-01-05 07:07:48	7:07:48 AM	4820553975550.301948PLM088	PLM088
	7130	7799008802985		1	1	48205539	2019-01-05 07:07:53	7:07:53 AM	4820553975550.301948PLM088	PLM088
	7130	7799008836539		1	1	48205539	2019-01-05 07:07:54	7:07:54 AM	4820553975550.301948PLM088	PLM088
	7130	7799008829869		1	1	48205539	2019-01-05 07:08:08	7:08:08 AM	4820553975550.301948PLM088	PLM088
	7130	7799008765501		1	1	48205539	2019-01-05 07:08:09	7:08:09 AM	4820553975550.301948PLM088	PLM088
	7130	7799008824086		1	1	48205539	2019-01-05 07:08:14	7:08:14 AM	4820553975550.301948PLM088	PLM088
	7130	7799008828848		1	1	48205539	2019-01-05 07:08:22	7:08:22 AM	4820553975550.301948PLM088	PLM088
	7130	7799008830803		1	1	48205539	2019-01-05 07:08:24	7:08:24 AM	4820553975550.301948PLM088	PLM088
	7130	7799008742441		1	1	48205539	2019-01-05 07:08:35	7:08:35 AM	4820553975550.301948PLM088	PLM088
	7130	7799008830827		1	1	48205539	2019-01-05 07:08:37	7:08:37 AM	4820553975550.301948PLM088	PLM088
	7130	7799008833828		1	1	48205539	2019-01-05 07:08:38	7:08:38 AM	4820553975550.301948PLM088	PLM088
	7130	7799008776248		1	1	48205539	2019-01-05 07:08:40	7:08:40 AM	4820553975550.301948PLM088	PLM088
	7130	7799008828909		1	1	48205539	2019-01-05 07:08:46	7:08:46 AM	4820553975550.301948PLM088	PLM088
	7130	7799008829753		1	1	48205539	2019-01-05 07:08:47	7:08:47 AM	4820553975550.301948PLM088	PLM088
	7130	7799008833811		1	1	48205539	2019-01-05 07:08:51	7:08:51 AM	4820553975550.301948PLM088	PLM088
	7130	7799008833842		1	1	48205539	2019-01-05 07:08:55	7:08:55 AM	4820553975550.301948PLM088	PLM088
	7130	7799008802664		1	1	48205539	2019-01-05 07:09:12	7:09:12 AM	4820553975550.301948PLM088	PLM088
	7130	7799008829791		1	1	48205539	2019-01-05 07:09:15	7:09:15 AM	4820553975550.301948PLM088	PLM088
	7130	7799008802442		1	1	48205539	2019-01-05 07:09:18	7:09:18 AM	4820553975550.301948PLM088	PLM088
	7130	7799008829470		1	1	48205539	2019-01-05 07:09:24	7:09:24 AM	4820553975550.301948PLM088	PLM088
	7130	7799008829074		1	1	48205539	2019-01-05 07:09:25	7:09:25 AM	4820553975550.301948PLM088	PLM088
	7130	7799008829753		1	1	48205539	2019-01-05 07:09:39	7:09:39 AM	4820553975550.301948PLM088	PLM088
	7130	7799008802664		1	1	48205539	2019-01-05 07:09:43	7:09:43 AM	4820553975550.301948PLM088	PLM088
	7130	7799008828367		1	1	48205539	2019-01-05 07:09:49	7:09:49 AM	4820553975550.301948PLM088	PLM088
	7130	7799008765617		1	1	48205539	2019-01-05 07:09:52	7:09:52 AM	4820553975550.301948PLM088	PLM088
	7130	7799008829289		1	1	48205539	2019-01-05 07:09:59	7:09:59 AM	4820553975550.301948PLM088	PLM088
	7130	7799008829029		1	1	48205539	2019-01-05 07:10:13	7:10:13 AM	4820553975550.301948PLM088	PLM088
	7130	7799008776224		1	1	48205539	2019-01-05 07:10:41	7:10:41 AM	4820553975550.301948PLM088	PLM088
	7130	7799008836058		1	1	48205539	2019-01-05 07:10:47	7:10:47 AM	4820553975550.301948PLM088	PLM088
	7130	7799008824086		1	1	48205539	2019-01-05 07:10:50	7:10:50 AM	4820553975550.301948PLM088	PLM088
	7130	7799008802992		1	1	48205539	2019-01-05 07:10:57	7:10:57 AM	4820553975550.301948PLM088	PLM088
	7130	7799008802114		1	1	48205539	2019-01-05 07:11:05	7:11:05 AM	4820553975550.301948PLM088	PLM088
	7130	7799008742427		1	1	48205539	2019-01-05 07:11:12	7:11:12 AM	4820553975550.301948PLM088	PLM088
	7130	7799008765174		1	1	48205539	2019-01-05 07:11:15	7:11:15 AM	4820553975550.301948PLM088	PLM088
	7130	7799008765181		1	1	48205539	2019-01-05 07:11:20	7:11:20 AM	4820553975550.301948PLM088	PLM088
	7130	7799008802343		1	1	48205539	2019-01-05 07:11:21	7:11:21 AM	4820553975550.301948PLM088	PLM088
	7130	7799008828190		1	1	48205539	2019-01-05 07:11:29	7:11:29 AM	4820553975550.301948PLM088	PLM088
	7130	7799008833811		1	1	48205539	2019-01-05 07:11:38	7:11:38 AM	4820553975550.301948PLM088	PLM088
	7130	7799008846934		1	1	48205539	2019-01-05 07:11:38	7:11:38 AM	4820553975550.301948PLM088	PLM088
	7130	7799008765259		1	1	48205539	2019-01-05 07:11:46	7:11:46 AM	4820553975550.301948PLM088	PLM088
	7130	7799008802459		1	1	48205539	2019-01-05 07:11:53	7:11:53 AM	4820553975550.301948PLM088	PLM088
	7130	7799008767017		1	1	48205539	2019-01-05 07:11:56	7:11:56 AM	4820553975550.301948PLM088	PLM088
	7130	7799008765174		1	1	48205539	2019-01-05 07:11:57	7:11:57 AM	4820553975550.301948PLM088	PLM088
	7130	7799008765204		1	1	48205539	2019-01-05 07:12:00	7:12:00 AM	4820553975550.301948PLM088	PLM088
	7130	7799008779973		1	1	48205539	2019-01-05 07:12:01	7:12:01 AM	4820553975550.301948PLM088	PLM088
	7130	7799008836539		1	1	48205539	2019-01-05 07:12:08	7:12:08 AM	4820553975550.301948PLM088	PLM088
	7130	7799008828824		1	1	48205539	2019-01-05 07:12:15	7:12:15 AM	4820553975550.301948PLM088	PLM088
	7130	7799008829067		1	1	48205539	2019-01-05 07:12:37	7:12:37 AM	4820553975550.301948PLM088	PLM088
	7130	7799008802459		1	1	48205539	2019-01-05 07:12:48	7:12:48 AM	4820553975550.301948PLM088	PLM088
	7130	7799008829036		1	1	48205539	2019-01-05 07:12:49	7:12:49 AM	4820553975550.301948PLM088	PLM088
	7130	7799008765204		1	1	48205539	2019-01-05 07:12:52	7:12:52 AM	4820553975550.301948PLM088	PLM088
	7130	7799008833842		1	1	48205539	2019-01-05 07:13:02	7:13:02 AM	4820553975550.301948PLM088	PLM088
	7130	7799008765150		1	1	48205539	2019-01-05 07:13:03	7:13:03 AM	4820553975550.301948PLM088	PLM088
	7130	7799008742434		1	1	48205539	2019-01-05 07:13:04	7:13:04 AM	4820553975550.301948PLM088	PLM088
	7130	7799008751245		1	1	48205539	2019-01-05 07:13:09	7:13:09 AM	4820553975550.301948PLM088	PLM088
	7130	7799008758329		1	1	48205539	2019-01-05 07:13:13	7:13:13 AM	4820553975550.301948PLM088	PLM088
	7130	7799008830827		1	1	48205539	2019-01-05 07:13:19	7:13:19 AM	4820553975550.301948PLM088	PLM088
	7130	7799008751412		1	1	48205539	2019-01-05 07:13:20	7:13:20 AM	4820553975550.301948PLM088	PLM088
	7130	7799008830827		1	1	48205539	2019-01-05 07:13:21	7:13:21 AM	4820553975550.301948PLM088	PLM088
	7130	7799008765600		1	1	48205539	2019-01-05 07:13:25	7:13:25 AM	4820553975550.301948PLM088	PLM088
	7130	7799008802435		1	1	48205539	2019-01-05 07:13:33	7:13:33 AM	4820553975550.301948PLM088	PLM088
	7130	7799008766096		1	1	48205539	2019-01-05 07:13:34	7:13:34 AM	4820553975550.301948PLM088	PLM088
	7130	7799008766096		1	1	48205539	2019-01-05 07:13:35	7:13:35 AM	4820553975550.301948PLM088	PLM088
	7130	7799008751009		1	1	48205539	2019-01-05 07:13:41	7:13:41 AM	4820553975550.301948PLM088	PLM088
	7130	7799008776019		1	1	48205539	2019-01-05 07:13:45	7:13:45 AM	4820553975550.301948PLM088	PLM088
	7130	7799008802459		1	1	48205539	2019-01-05 07:13:48	7:13:48 AM	4820553975550.301948PLM088	PLM088
	7130	7799008836089		1	1	48205539	2019-01-05 07:13:53	7:13:53 AM	4820553975550.301948PLM088	PLM088
	7130	7799008776231		1	1	48205539	2019-01-05 07:14:02	7:14:02 AM	4820553975550.301948PLM088	PLM088
	7130	7799008829739		1	1	48205539	2019-01-05 07:14:03	7:14:03 AM	4820553975550.301948PLM088	PLM088
	7130	7799008830506		1	1	48205539	2019-01-05 07:14:16	7:14:16 AM	4820553975550.301948PLM088	PLM088
	7130	7799008830506		1	1	48205539	2019-01-05 07:14:33	7:14:33 AM	4820553975550.301948PLM088	PLM088
	7130	7799008746371		1	1	48205539	2019-01-05 07:14:49	7:14:49 AM	4820553975550.301948PLM088	PLM088
	7130	7799008776224		1	1	48205539	2019-01-05 07:14:51	7:14:51 AM	4820553975550.301948PLM088	PLM088
	7130	7799008802466		1	1	48205539	2019-01-05 07:14:55	7:14:55 AM	4820553975550.301948PLM088	PLM088
	7130	7799008829074		1	1	48205539	2019-01-05 07:14:57	7:14:57 AM	4820553975550.301948PLM088	PLM088
	7130	7799008802664		1	1	48205539	2019-01-05 07:15:00	7:15:00 AM	4820553975550.301948PLM088	PLM088
	7130	7799008772165		1	1	48205539	2019-01-05 07:15:04	7:15:04 AM	4820553975550.301948PLM088	PLM088
	7130	7799008765617		1	1	48205539	2019-01-05 07:15:12	7:15:12 AM	4820553975550.301948PLM088	PLM088
	7130	7799008824086		1	1	48205539	2019-01-05 07:15:15	7:15:15 AM	4820553975550.301948PLM088	PLM088
	7130	7799008836065		1	1	48205539	2019-01-05 07:15:17	7:15:17 AM	4820553975550.301948PLM088	PLM088
	7130	7799008802497		1	1	48205539	2019-01-05 07:15:24	7:15:24 AM	4820553975550.301948PLM088	PLM088
	7130	7799008802428		1	1	48205539	2019-01-05 07:15:29	7:15:29 AM	4820553975550.301948PLM088	PLM088
	7130	7799008767024		1	1	48205539	2019-01-05 07:15:32	7:15:32 AM	4820553975550.301948PLM088	PLM088
	7130	7799008802107		1	1	48205539	2019-01-05 07:15:37	7:15:37 AM	4820553975550.301948PLM088	PLM088
	7130	7799008802459		1	1	48205539	2019-01-05 07:15:39	7:15:39 AM	4820553975550.301948PLM088	PLM088
	7130	7799008779973		1	1	48205539	2019-01-05 07:15:51	7:15:51 AM	4820553975550.301948PLM088	PLM088
	7130	7799008833842		1	1	48205539	2019-01-05 07:16:02	7:16:02 AM	4820553975550.301948PLM088	PLM088
	7130	7799008802664		1	1	48205539	2019-01-05 07:16:14	7:16:14 AM	4820553975550.301948PLM088	PLM088
	7130	7799008830827		1	1	48205539	2019-01-05 07:16:27	7:16:27 AM	4820553975550.301948PLM088	PLM088
	7130	7799008802657		1	1	48205539	2019-01-05 07:16:30	7:16:30 AM	4820553975550.301948PLM088	PLM088
	7130	7799008829708		1	1	48205539	2019-01-05 07:16:34	7:16:34 AM	4820553975550.301948PLM088	PLM088
	7130	7799008829715		1	1	48205539	2019-01-05 07:16:44	7:16:44 AM	4820553975550.301948PLM088	PLM088
	7130	7799008538976		1	1	48205539	2019-01-05 07:17:18	7:17:18 AM	4820553975550.301948PLM088	PLM088
	7130	7799008836072		1	1	48205539	2019-01-05 07:17:30	7:17:30 AM	4820553975550.301948PLM088	PLM088
	7130	7799008824086		1	1	48205539	2019-01-05 07:17:33	7:17:33 AM	4820553975550.301948PLM088	PLM088
	7130	7799008828855		1	1	48205539	2019-01-05 07:18:51	7:18:51 AM	4820553975550.301948PLM088	PLM088
	7130	7799008765570		1	1	48205539	2019-01-05 07:18:57	7:18:57 AM	4820553975550.301948PLM088	PLM088
	7130	7799008824055		1	1	48205539	2019-01-05 07:19:15	7:19:15 AM	4820553975550.301948PLM088	PLM088
	7130	7799008802329		1	1	48205539	2019-01-05 07:19:19	7:19:19 AM	4820553975550.301948PLM088	PLM088
	7130	7799008765600		1	1	48205539	2019-01-05 07:19:21	7:19:21 AM	4820553975550.301948PLM088	PLM088
	7130	7799008802442		1	1	48205539	2019-01-05 07:19:24	7:19:24 AM	4820553975550.301948PLM088	PLM088
	7130	7799008802657		1	1	48205539	2019-01-05 07:19:27	7:19:27 AM	4820553975550.301948PLM088	PLM088
	7130	7799008766096		1	1	48205539	2019-01-05 07:19:30	7:19:30 AM	4820553975550.301948PLM088	PLM088
	7130	7799008830834		1	1	48205539	2019-01-05 07:19:33	7:19:33 AM	4820553975550.301948PLM088	PLM088
	7130	7799008836522		1	1	48205539	2019-01-05 07:19:34	7:19:34 AM	4820553975550.301948PLM088	PLM088
	7130	7799008829845		1	1	48205539	2019-01-05 07:19:38	7:19:38 AM	4820553975550.301948PLM088	PLM088
	7130	7799008802107		1	1	48205539	2019-01-05 07:19:39	7:19:39 AM	4820553975550.301948PLM088	PLM088
	7130	7799008829845		1	1	48205539	2019-01-05 07:19:43	7:19:43 AM	4820553975550.301948PLM088	PLM088
	7130	7799008803012		1	1	48205539	2019-01-05 07:19:46	7:19:46 AM	4820553975550.301948PLM088	PLM088
	7130	7799008829746		1	1	48205539	2019-01-05 07:19:51	7:19:51 AM	4820553975550.301948PLM088	PLM088
	7130	7799008766997		1	1	48205539	2019-01-05 07:19:52	7:19:52 AM	4820553975550.301948PLM088	PLM088
	7130	7799008836539		1	1	48205539	2019-01-05 07:19:57	7:19:57 AM	4820553975550.301948PLM088	PLM088
	7130	7799008776231		1	1	48205539	2019-01-05 07:19:58	7:19:58 AM	4820553975550.301948PLM088	PLM088
	7130	7799008776231		1	1	48205539	2019-01-05 07:20:02	7:20:02 AM	4820553975550.301948PLM088	PLM088
	7130	7799008828909		1	1	48205539	2019-01-05 07:20:02	7:20:02 AM	4820553975550.301948PLM088	PLM088
	7130	7799008766997		1	1	48205539	2019-01-05 07:20:09	7:20:09 AM	4820553975550.301948PLM088	PLM088
	7130	7799008830537		1	1	48205539	2019-01-05 07:20:12	7:20:12 AM	4820553975550.301948PLM088	PLM088
	7130	7799008802985		1	1	48205539	2019-01-05 07:20:14	7:20:14 AM	4820553975550.301948PLM088	PLM088
	7130	7799008833828		1	1	48205539	2019-01-05 07:20:43	7:20:43 AM	4820553975550.301948PLM088	PLM088
	7130	7799008830551		1	1	48205539	2019-01-05 07:20:54	7:20:54 AM	4820553975550.301948PLM088	PLM088
	7130	7799008767000		1	1	48205539	2019-01-05 07:20:56	7:20:56 AM	4820553975550.301948PLM088	PLM088
	7130	7799008833804		1	1	48205539	2019-01-05 07:21:04	7:21:04 AM	4820553975550.301948PLM088	PLM088
	7130	7799008802350		1	1	48205539	2019-01-05 07:21:07	7:21:07 AM	4820553975550.301948PLM088	PLM088
	7130	7799008742441		1	1	48205539	2019-01-05 07:21:15	7:21:15 AM	4820553975550.301948PLM088	PLM088
	7130	7799008836065		1	1	48205539	2019-01-05 07:21:21	7:21:21 AM	4820553975550.301948PLM088	PLM088
	7130	7799008765600		1	1	48205539	2019-01-05 07:21:22	7:21:22 AM	4820553975550.301948PLM088	PLM088
	7130	7799008751368		1	1	48205539	2019-01-05 07:21:34	7:21:34 AM	4820553975550.301948PLM088	PLM088
	7130	7799008802985		1	1	48205539	2019-01-05 07:21:35	7:21:35 AM	4820553975550.301948PLM088	PLM088
	7130	7799008829289		1	1	48205539	2019-01-05 07:21:42	7:21:42 AM	4820553975550.301948PLM088	PLM088
	7130	7799008780986		1	1	48205539	2019-01-05 07:21:49	7:21:49 AM	4820553975550.301948PLM088	PLM088
	7130	7799008802664		1	1	48205539	2019-01-05 07:21:51	7:21:51 AM	4820553975550.301948PLM088	PLM088
	7130	7799008802435		1	1	48205539	2019-01-05 07:21:53	7:21:53 AM	4820553975550.301948PLM088	PLM088
	7130	7799008781068		1	1	48205539	2019-01-05 07:21:55	7:21:55 AM	4820553975550.301948PLM088	PLM088
	7130	7799008829029		1	1	48205539	2019-01-05 07:22:01	7:22:01 AM	4820553975550.301948PLM088	PLM088
	7130	7799008802350		1	1	48205539	2019-01-05 07:22:06	7:22:06 AM	4820553975550.301948PLM088	PLM088
	7130	7799008802459		1	1	48205539	2019-01-05 07:22:08	7:22:08 AM	4820553975550.301948PLM088	PLM088
	7130	7799008824055		1	1	48205539	2019-01-05 07:22:11	7:22:11 AM	4820553975550.301948PLM088	PLM088
	7130	7799008802480		1	1	48205539	2019-01-05 07:22:17	7:22:17 AM	4820553975550.301948PLM088	PLM088
	7130	7799008829265		1	1	48205539	2019-01-05 07:22:18	7:22:18 AM	4820553975550.301948PLM088	PLM088
	7130	7799008824079		1	1	48205539	2019-01-05 07:22:21	7:22:21 AM	4820553975550.301948PLM088	PLM088
	7130	7799008751382		1	1	48205539	2019-01-05 07:22:22	7:22:22 AM	4820553975550.301948PLM088	PLM088
	7130	7799008803005		1	1	48205539	2019-01-05 07:22:27	7:22:27 AM	4820553975550.301948PLM088	PLM088
	7130	7799008776231		1	1	48205539	2019-01-05 07:22:31	7:22:31 AM	4820553975550.301948PLM088	PLM088
	7130	7799008802121		1	1	48205539	2019-01-05 07:22:33	7:22:33 AM	4820553975550.301948PLM088	PLM088
	7130	7799008765266		1	1	48205539	2019-01-05 07:22:37	7:22:37 AM	4820553975550.301948PLM088	PLM088
	7130	7799008765617		1	1	48205539	2019-01-05 07:22:39	7:22:39 AM	4820553975550.301948PLM088	PLM088
	7130	7799008779973		1	1	48205539	2019-01-05 07:22:42	7:22:42 AM	4820553975550.301948PLM088	PLM088
	7130	7799008830544		1	1	48205539	2019-01-05 07:22:43	7:22:43 AM	4820553975550.301948PLM088	PLM088
	7130	7799008829708		1	1	48205539	2019-01-05 07:22:47	7:22:47 AM	4820553975550.301948PLM088	PLM088
	7130	7799008802428		1	1	48205539	2019-01-05 07:22:50	7:22:50 AM	4820553975550.301948PLM088	PLM088
	7130	7799008830551		1	1	48205539	2019-01-05 07:22:54	7:22:54 AM	4820553975550.301948PLM088	PLM088
	7130	7799008803180		1	1	48205539	2019-01-05 07:23:00	7:23:00 AM	4820553975550.301948PLM088	PLM088
	7130	7799008765570		1	1	48205539	2019-01-05 07:23:03	7:23:03 AM	4820553975550.301948PLM088	PLM088
	7130	7799008829746		1	1	48205539	2019-01-05 07:23:32	7:23:32 AM	4820553975550.301948PLM088	PLM088
	7130	7799008780948		1	1	48205539	2019-01-05 07:23:42	7:23:42 AM	4820553975550.301948PLM088	PLM088
	7130	7799008765174		1	1	48205539	2019-01-05 07:23:47	7:23:47 AM	4820553975550.301948PLM088	PLM088
	7130	7799008824086		1	1	48205539	2019-01-05 07:23:50	7:23:50 AM	4820553975550.301948PLM088	PLM088
	7130	7799008829784		1	1	48205539	2019-01-05 07:23:52	7:23:52 AM	4820553975550.301948PLM088	PLM088
	7130	7799008829074		1	1	48205539	2019-01-05 07:23:55	7:23:55 AM	4820553975550.301948PLM088	PLM088
	7130	7799008776231		1	1	48205539	2019-01-05 07:23:59	7:23:59 AM	4820553975550.301948PLM088	PLM088
	7130	7799008778914		1	1	48205539	2019-01-05 07:24:03	7:24:03 AM	4820553975550.301948PLM088	PLM088
	7130	7799008778914		1	1	48205539	2019-01-05 07:24:05	7:24:05 AM	4820553975550.301948PLM088	PLM088
	7130	7799008829852		1	1	48205539	2019-01-05 07:24:09	7:24:09 AM	4820553975550.301948PLM088	PLM088
	7130	7799008829869		1	1	48205539	2019-01-05 07:24:12	7:24:12 AM	4820553975550.301948PLM088	PLM088
	7130	7799008831480		1	1	48205539	2019-01-05 07:24:15	7:24:15 AM	4820553975550.301948PLM088	PLM088
	7130	7799008803005		1	1	48205539	2019-01-05 07:24:18	7:24:18 AM	4820553975550.301948PLM088	PLM088
	7130	7799008802329		1	1	48205539	2019-01-05 07:24:23	7:24:23 AM	4820553975550.301948PLM088	PLM088
	7130	7799008765150		1	1	48205539	2019-01-05 07:24:27	7:24:27 AM	4820553975550.301948PLM088	PLM088
	7130	7799008802442		1	1	48205539	2019-01-05 07:24:30	7:24:30 AM	4820553975550.301948PLM088	PLM088
	7130	7799008779980		1	1	48205539	2019-01-05 07:24:32	7:24:32 AM	4820553975550.301948PLM088	PLM088
	7130	7799008802671		1	1	48205539	2019-01-05 07:24:35	7:24:35 AM	4820553975550.301948PLM088	PLM088
	7130	7799008829289		1	1	48205539	2019-01-05 07:24:38	7:24:38 AM	4820553975550.301948PLM088	PLM088
	7130	7799008846934		1	1	48205539	2019-01-05 07:24:45	7:24:45 AM	4820553975550.301948PLM088	PLM088
	7130	7799008766072		1	1	48205539	2019-01-05 07:24:49	7:24:49 AM	4820553975550.301948PLM088	PLM088
	7130	7799008831497		1	1	48205539	2019-01-05 07:24:51	7:24:51 AM	4820553975550.301948PLM088	PLM088
	7130	7799008833842		1	1	48205539	2019-01-05 07:24:55	7:24:55 AM	4820553975550.301948PLM088	PLM088
	7130	7799008765181		1	1	48205539	2019-01-05 07:25:01	7:25:01 AM	4820553975550.301948PLM088	PLM088
	7130	7799008831480		1	1	48205539	2019-01-05 07:25:02	7:25:02 AM	4820553975550.301948PLM088	PLM088
	7130	7799008766089		1	1	48205539	2019-01-05 07:25:07	7:25:07 AM	4820553975550.301948PLM088	PLM088
	7130	7799008836072		1	1	48205539	2019-01-05 07:25:08	7:25:08 AM	4820553975550.301948PLM088	PLM088
	7130	7799008830827		1	1	48205539	2019-01-05 07:25:11	7:25:11 AM	4820553975550.301948PLM088	PLM088
	7130	7799008828268		1	1	48205539	2019-01-05 07:25:15	7:25:15 AM	4820553975550.301948PLM088	PLM088
	7130	7799008765570		1	1	48205539	2019-01-05 07:25:20	7:25:20 AM	4820553975550.301948PLM088	PLM088
	7130	7799008829722		1	1	48205539	2019-01-05 07:25:24	7:25:24 AM	4820553975550.301948PLM088	PLM088
	7130	7799008836522		1	1	48205539	2019-01-05 07:25:27	7:25:27 AM	4820553975550.301948PLM088	PLM088
	7130	7799008765150		1	1	48205539	2019-01-05 07:25:31	7:25:31 AM	4820553975550.301948PLM088	PLM088
	7130	7799008803197		1	1	48205539	2019-01-05 07:25:34	7:25:34 AM	4820553975550.301948PLM088	PLM088
	7130	7799008802992		1	1	48205539	2019-01-05 07:25:39	7:25:39 AM	4820553975550.301948PLM088	PLM088
	7130	7799008781068		1	1	48205539	2019-01-05 07:25:41	7:25:41 AM	4820553975550.301948PLM088	PLM088
	7130	7799008828855		1	1	48205539	2019-01-05 07:25:44	7:25:44 AM	4820553975550.301948PLM088	PLM088
	7130	7799008753584		1	1	48205539	2019-01-05 07:25:48	7:25:48 AM	4820553975550.301948PLM088	PLM088
	7130	7799008803197		1	1	48205539	2019-01-05 07:25:51	7:25:51 AM	4820553975550.301948PLM088	PLM088
	7130	7799008828206		1	1	48205539	2019-01-05 07:25:57	7:25:57 AM	4820553975550.301948PLM088	PLM088
	7130	7799008778907		1	1	48205539	2019-01-05 07:26:04	7:26:04 AM	4820553975550.301948PLM088	PLM088
	7130	7799008830803		1	1	48205539	2019-01-05 07:26:07	7:26:07 AM	4820553975550.301948PLM088	PLM088
	7130	7799008765181		1	1	48205539	2019-01-05 07:26:10	7:26:10 AM	4820553975550.301948PLM088	PLM088
	7130	7799008830834		1	1	48205539	2019-01-05 07:26:15	7:26:15 AM	4820553975550.301948PLM088	PLM088
	7130	7799008802671		1	1	48205539	2019-01-05 07:26:16	7:26:16 AM	4820553975550.301948PLM088	PLM088
	7130	7799008802107		1	1	48205539	2019-01-05 07:26:27	7:26:27 AM	4820553975550.301948PLM088	PLM088
	7130	7799008765266		1	1	48205539	2019-01-05 07:26:39	7:26:39 AM	4820553975550.301948PLM088	PLM088
	7130	7799008802985		1	1	48205539	2019-01-05 07:26:40	7:26:40 AM	4820553975550.301948PLM088	PLM088
	7130	7799008776231		1	1	48205539	2019-01-05 07:26:44	7:26:44 AM	4820553975550.301948PLM088	PLM088
	7130	7799008830810		1	1	48205539	2019-01-05 07:26:46	7:26:46 AM	4820553975550.301948PLM088	PLM088
	7130	7799008828909		1	1	48205539	2019-01-05 07:27:07	7:27:07 AM	4820553975550.301948PLM088	PLM088
	7130	7799008836041		1	1	48205539	2019-01-05 07:27:10	7:27:10 AM	4820553975550.301948PLM088	PLM088
	7130	7799008802664		1	1	48205539	2019-01-05 07:27:16	7:27:16 AM	4820553975550.301948PLM088	PLM088
	7130	7799008754918		1	1	48205539	2019-01-05 07:27:22	7:27:22 AM	4820553975550.301948PLM088	PLM088
	7130	7799008829753		1	1	48205539	2019-01-05 07:27:30	7:27:30 AM	4820553975550.301948PLM088	PLM088
	7130	7799008824062		1	1	48205539	2019-01-05 07:27:34	7:27:34 AM	4820553975550.301948PLM088	PLM088
	7130	7799008802664		1	1	48205539	2019-01-05 07:27:40	7:27:40 AM	4820553975550.301948PLM088	PLM088
	7130	7799008829838		1	1	48205539	2019-01-05 07:27:41	7:27:41 AM	4820553975550.301948PLM088	PLM088
	7130	7799008803005		1	1	48205539	2019-01-05 07:27:43	7:27:43 AM	4820553975550.301948PLM088	PLM088
	7130	7799008824062		1	1	48205539	2019-01-05 07:27:51	7:27:51 AM	4820553975550.301948PLM088	PLM088
	7130	7799008802428		1	1	48205539	2019-01-05 07:28:11	7:28:11 AM	4820553975550.301948PLM088	PLM088
	7130	7799008824086		1	1	48205539	2019-01-05 07:28:12	7:28:12 AM	4820553975550.301948PLM088	PLM088
	7130	7799008802459		1	1	48205539	2019-01-05 07:28:19	7:28:19 AM	4820553975550.301948PLM088	PLM088
	7130	7799008776231		1	1	48205539	2019-01-05 07:28:21	7:28:21 AM	4820553975550.301948PLM088	PLM088
	7130	7799008802336		1	1	48205539	2019-01-05 07:28:22	7:28:22 AM	4820553975550.301948PLM088	PLM088
	7130	7799008776248		1	1	48205539	2019-01-05 07:28:26	7:28:26 AM	4820553975550.301948PLM088	PLM088
	7130	7799008803180		1	1	48205539	2019-01-05 07:28:30	7:28:30 AM	4820553975550.301948PLM088	PLM088
	7130	7799008824086		1	1	48205539	2019-01-05 07:28:37	7:28:37 AM	4820553975550.301948PLM088	PLM088
	7130	7799008779980		1	1	48205539	2019-01-05 07:28:41	7:28:41 AM	4820553975550.301948PLM088	PLM088
	7130	7799008828923		1	1	48205539	2019-01-05 07:28:50	7:28:50 AM	4820553975550.301948PLM088	PLM088
	7130	7799008830803		1	1	48205539	2019-01-05 07:28:55	7:28:55 AM	4820553975550.301948PLM088	PLM088
	7130	7799008802442		1	1	48205539	2019-01-05 07:29:05	7:29:05 AM	4820553975550.301948PLM088	PLM088
	7130	7799008830834		1	1	48205539	2019-01-05 07:29:08	7:29:08 AM	4820553975550.301948PLM088	PLM088
	7130	7799008836089		1	1	48205539	2019-01-05 07:29:14	7:29:14 AM	4820553975550.301948PLM088	PLM088
	7130	7799008766997		1	1	48205539	2019-01-05 07:29:17	7:29:17 AM	4820553975550.301948PLM088	PLM088
	7130	7799008778518		1	1	48205539	2019-01-05 07:29:22	7:29:22 AM	4820553975550.301948PLM088	PLM088
	7130	7799008778518		1	1	48205539	2019-01-05 07:29:24	7:29:24 AM	4820553975550.301948PLM088	PLM088
	7130	7799008830810		1	1	48205539	2019-01-05 07:29:31	7:29:31 AM	4820553975550.301948PLM088	PLM088
	7130	7799008802435		1	1	48205539	2019-01-05 07:29:34	7:29:34 AM	4820553975550.301948PLM088	PLM088
	7130	7799008829708		1	1	48205539	2019-01-05 07:29:37	7:29:37 AM	4820553975550.301948PLM088	PLM088
	7130	7799008802459		1	1	48205539	2019-01-05 07:29:39	7:29:39 AM	4820553975550.301948PLM088	PLM088
	7130	7799008802688		1	1	48205539	2019-01-05 07:29:43	7:29:43 AM	4820553975550.301948PLM088	PLM088
	7130	7799008803012		1	1	48205539	2019-01-05 07:29:47	7:29:47 AM	4820553975550.301948PLM088	PLM088
	7130	7799008829791		1	1	48205539	2019-01-05 07:29:51	7:29:51 AM	4820553975550.301948PLM088	PLM088
	7130	7799008829838		1	1	48205539	2019-01-05 07:30:06	7:30:06 AM	4820553975550.301948PLM088	PLM088
	7130	7799008765167		1	1	48205539	2019-01-05 07:30:10	7:30:10 AM	4820553975550.301948PLM088	PLM088
	7130	7799008831480		1	1	48205539	2019-01-05 07:30:13	7:30:13 AM	4820553975550.301948PLM088	PLM088
	7130	7799008830834		1	1	48205539	2019-01-05 07:30:21	7:30:21 AM	4820553975550.301948PLM088	PLM088
	7130	7799008836539		1	1	48205539	2019-01-05 07:30:24	7:30:24 AM	4820553975550.301948PLM088	PLM088
	7130	7799008830544		1	1	48205539	2019-01-05 07:30:29	7:30:29 AM	4820553975550.301948PLM088	PLM088
	7130	7799008846934		1	1	48205539	2019-01-05 07:30:33	7:30:33 AM	4820553975550.301948PLM088	PLM088
	7130	7799008831480		1	1	48205539	2019-01-05 07:31:27	7:31:27 AM	4820553975550.301948PLM088	PLM088
	7130	7799008670423		1	1	48205539	2019-01-05 07:31:28	7:31:28 AM	4820553975550.301948PLM088	PLM088
	7130	7799008831497		1	1	48205539	2019-01-05 07:31:30	7:31:30 AM	4820553975550.301948PLM088	PLM088
	7130	7799008802657		1	1	48205539	2019-01-05 07:31:37	7:31:37 AM	4820553975550.301948PLM088	PLM088
	7130	7799008802107		1	1	48205539	2019-01-05 07:31:38	7:31:38 AM	4820553975550.301948PLM088	PLM088
	7130	7799008802657		1	1	48205539	2019-01-05 07:31:44	7:31:44 AM	4820553975550.301948PLM088	PLM088
	7130	7799008836041		1	1	48205539	2019-01-05 07:31:48	7:31:48 AM	4820553975550.301948PLM088	PLM088
	7130	7799008776231		1	1	48205539	2019-01-05 07:31:52	7:31:52 AM	4820553975550.301948PLM088	PLM088
	7130	7799008765204		1	1	48205539	2019-01-05 07:31:52	7:31:52 AM	4820553975550.301948PLM088	PLM088
	7130	7799008824062		1	1	48205539	2019-01-05 07:32:09	7:32:09 AM	4820553975550.301948PLM088	PLM088
	7130	7799008829036		1	1	48205539	2019-01-05 07:32:12	7:32:12 AM	4820553975550.301948PLM088	PLM088
	7130	7799008802428		1	1	48205539	2019-01-05 07:32:15	7:32:15 AM	4820553975550.301948PLM088	PLM088
	7130	7799008829289		1	1	48205539	2019-01-05 07:32:18	7:32:18 AM	4820553975550.301948PLM088	PLM088
	7130	7799008836539		1	1	48205539	2019-01-05 07:32:22	7:32:22 AM	4820553975550.301948PLM088	PLM088
	7130	7799008802138		1	1	48205539	2019-01-05 07:32:23	7:32:24 AM	4820553975550.301948PLM088	PLM088
	7130	7799008833828		1	1	48205539	2019-01-05 07:32:28	7:32:28 AM	4820553975550.301948PLM088	PLM088
	7130	7799008824055		1	1	48205539	2019-01-05 07:32:30	7:32:30 AM	4820553975550.301948PLM088	PLM088
	7130	7799008836058		1	1	48205539	2019-01-05 07:32:33	7:32:33 AM	4820553975550.301948PLM088	PLM088
	7130	7799008828206		1	1	48205539	2019-01-05 07:32:35	7:32:35 AM	4820553975550.301948PLM088	PLM088
	7130	7799008750842		1	1	48205539	2019-01-05 07:32:42	7:32:42 AM	4820553975550.301948PLM088	PLM088
	7130	7799008765259		1	1	48205539	2019-01-05 07:32:50	7:32:50 AM	4820553975550.301948PLM088	PLM088
	7130	7799008802428		1	1	48205539	2019-01-05 07:32:51	7:32:51 AM	4820553975550.301948PLM088	PLM088
	7130	7799008765174		1	1	48205539	2019-01-05 07:33:04	7:33:04 AM	4820553975550.301948PLM088	PLM088
	7130	7799008836058		1	1	48205539	2019-01-05 07:33:06	7:33:06 AM	4820553975550.301948PLM088	PLM088
	7130	7799008802428		1	1	48205539	2019-01-05 07:33:08	7:33:08 AM	4820553975550.301948PLM088	PLM088
	7130	7799008802435		1	1	48205539	2019-01-05 07:33:12	7:33:12 AM	4820553975550.301948PLM088	PLM088
	7130	7799008836041		1	1	48205539	2019-01-05 07:33:17	7:33:17 AM	4820553975550.301948PLM088	PLM088
	7130	7799008765518		1	1	48205539	2019-01-05 07:33:21	7:33:21 AM	4820553975550.301948PLM088	PLM088
	7130	7799008802442		1	1	48205539	2019-01-05 07:33:21	7:33:21 AM	4820553975550.301948PLM088	PLM088
	7130	7799008802466		1	1	48205539	2019-01-05 07:33:25	7:33:25 AM	4820553975550.301948PLM088	PLM088
	7130	7799008765617		1	1	48205539	2019-01-05 07:33:26	7:33:26 AM	4820553975550.301948PLM088	PLM088
	7130	7799008802657		1	1	48205539	2019-01-05 07:33:31	7:33:31 AM	4820553975550.301948PLM088	PLM088
	7130	7799008766072		1	1	48205539	2019-01-05 07:33:33	7:33:33 AM	4820553975550.301948PLM088	PLM088
	7130	7799008831480		1	1	48205539	2019-01-05 07:33:36	7:33:36 AM	4820553975550.301948PLM088	PLM088
	7130	7799008765150		1	1	48205539	2019-01-05 07:33:41	7:33:41 AM	4820553975550.301948PLM088	PLM088
	7130	7799008829753		1	1	48205539	2019-01-05 07:33:43	7:33:43 AM	4820553975550.301948PLM088	PLM088
	7130	7799008831497		1	1	48205539	2019-01-05 07:33:57	7:33:57 AM	4820553975550.301948PLM088	PLM088
	7130	7799008802350		1	1	48205539	2019-01-05 07:34:00	7:34:00 AM	4820553975550.301948PLM088	PLM088
	7130	7799008828183		1	1	48205539	2019-01-05 07:34:03	7:34:03 AM	4820553975550.301948PLM088	PLM088
	7130	7799008765266		1	1	48205539	2019-01-05 07:34:07	7:34:07 AM	4820553975550.301948PLM088	PLM088
	7130	7799008829036		1	1	48205539	2019-01-05 07:34:09	7:34:09 AM	4820553975550.301948PLM088	PLM088
	7130	7799008828213		1	1	48205539	2019-01-05 07:34:12	7:34:12 AM	4820553975550.301948PLM088	PLM088
	7130	7799008802121		1	1	48205539	2019-01-05 07:34:16	7:34:16 AM	4820553975550.301948PLM088	PLM088
	7130	7799008802107		1	1	48205539	2019-01-05 07:34:21	7:34:21 AM	4820553975550.301948PLM088	PLM088
	7130	7799008201498		1	1	48205539	2019-01-05 07:34:22	7:34:22 AM	4820553975550.301948PLM088	PLM088
	7130	7799008802688		1	1	48205539	2019-01-05 07:34:29	7:34:29 AM	4820553975550.301948PLM088	PLM088
	7130	7799008765563		1	1	48205539	2019-01-05 07:34:32	7:34:32 AM	4820553975550.301948PLM088	PLM088
	7130	7799008830810		1	1	48205539	2019-01-05 07:34:37	7:34:37 AM	4820553975550.301948PLM088	PLM088
	7130	7799008767000		1	1	48205539	2019-01-05 07:34:41	7:34:41 AM	4820553975550.301948PLM088	PLM088
	7130	7799008836058		1	1	48205539	2019-01-05 07:34:45	7:34:45 AM	4820553975550.301948PLM088	PLM088
	7130	7799008765600		1	1	48205539	2019-01-05 07:34:46	7:34:46 AM	4820553975550.301948PLM088	PLM088
	7130	7799008828855		1	1	48205539	2019-01-05 07:34:50	7:34:50 AM	4820553975550.301948PLM088	PLM088
	7130	7799008802329		1	1	48205539	2019-01-05 07:34:51	7:34:51 AM	4820553975550.301948PLM088	PLM088
	7130	7799008803005		1	1	48205539	2019-01-05 07:34:55	7:34:55 AM	4820553975550.301948PLM088	PLM088
	7130	7799008828930		1	1	48205539	2019-01-05 07:34:58	7:34:58 AM	4820553975550.301948PLM088	PLM088
	7130	7799008836539		1	1	48205539	2019-01-05 07:35:03	7:35:03 AM	4820553975550.301948PLM088	PLM088
	7130	7799008753393		1	1	48205539	2019-01-05 07:35:05	7:35:05 AM	4820553975550.301948PLM088	PLM088
	7130	7799008767017		1	1	48205539	2019-01-05 07:35:13	7:35:13 AM	4820553975550.301948PLM088	PLM088
	7130	7799008802121		1	1	48205539	2019-01-05 07:35:15	7:35:15 AM	4820553975550.301948PLM088	PLM088
	7130	7799008836522		1	1	48205539	2019-01-05 07:35:18	7:35:18 AM	4820553975550.301948PLM088	PLM088
	7130	7799008201498		1	1	48205539	2019-01-05 07:35:23	7:35:23 AM	4820553975550.301948PLM088	PLM088
	7130	7799008779980		1	1	48205539	2019-01-05 07:35:25	7:35:25 AM	4820553975550.301948PLM088	PLM088
	7130	7799008802459		1	1	48205539	2019-01-05 07:35:29	7:35:29 AM	4820553975550.301948PLM088	PLM088
	7130	7799008765167		1	1	48205539	2019-01-05 07:35:33	7:35:33 AM	4820553975550.301948PLM088	PLM088
	7130	7799008802428		1	1	48205539	2019-01-05 07:35:45	7:35:45 AM	4820553975550.301948PLM088	PLM088
	7130	7799008802114		1	1	48205539	2019-01-05 07:35:47	7:35:47 AM	4820553975550.301948PLM088	PLM088
	7130	7799008836041		1	1	48205539	2019-01-05 07:35:51	7:35:51 AM	4820553975550.301948PLM088	PLM088
	7130	7799008833828		1	1	48205539	2019-01-05 07:35:55	7:35:55 AM	4820553975550.301948PLM088	PLM088
	7130	7799008830834		1	1	48205539	2019-01-05 07:35:58	7:35:58 AM	4820553975550.301948PLM088	PLM088
	7130	7799008765181		1	1	48205539	2019-01-05 07:36:01	7:36:01 AM	4820553975550.301948PLM088	PLM088
	7130	7799008829739		1	1	48205539	2019-01-05 07:36:23	7:36:23 AM	4820553975550.301948PLM088	PLM088
	7130	7799008829739		1	1	48205539	2019-01-05 07:36:25	7:36:25 AM	4820553975550.301948PLM088	PLM088
	7130	41944504		1	1	48205539	2019-01-05 07:36:49	7:36:49 AM	4820553975550.301948PLM088	PLM088
	7130	7799008602417		1	1	48205539	2019-01-05 07:37:13	7:37:13 AM	4820553975550.301948PLM088	PLM088
	7130	7799008602417		1	1	48205539	2019-01-05 07:37:13	7:37:13 AM	4820553975550.301948PLM088	PLM088
	7130	7799008824062		1	1	48205539	2019-01-05 07:37:38	7:37:38 AM	4820553975550.301948PLM088	PLM088
	7130	7799008824062		1	1	48205539	2019-01-05 07:37:39	7:37:39 AM	4820553975550.301948PLM088	PLM088
	7130	7799008824062		1	1	48205539	2019-01-05 07:37:42	7:37:42 AM	4820553975550.301948PLM088	PLM088
	7124	7799008779393		1	1	48205539	2019-01-05 07:47:36	7:47:36 AM	4820553975550.301948PLM088	PLM088
	7124	7799008780405		1	1	48205539	2019-01-05 07:47:41	7:47:41 AM	4820553975550.301948PLM088	PLM088
	7124	7799008804200		1	1	48205539	2019-01-05 07:47:44	7:47:44 AM	4820553975550.301948PLM088	PLM088
	7124	7799008804200		1	1	48205539	2019-01-05 07:47:47	7:47:47 AM	4820553975550.301948PLM088	PLM088
	7124	7799008755458		1	1	48205539	2019-01-05 07:47:58	7:47:58 AM	4820553975550.301948PLM088	PLM088
	7124	7799008755182		1	1	48205539	2019-01-05 07:48:22	7:48:22 AM	4820553975550.301948PLM088	PLM088
	7124	7799008779485		1	1	48205539	2019-01-05 07:48:26	7:48:26 AM	4820553975550.301948PLM088	PLM088
	7124	7799008757599		1	1	48205539	2019-01-05 07:48:30	7:48:30 AM	4820553975550.301948PLM088	PLM088
	7124	7799008755472		1	1	48205539	2019-01-05 07:48:34	7:48:34 AM	4820553975550.301948PLM088	PLM088
	7124	7799008823720		1	1	48205539	2019-01-05 07:48:48	7:48:48 AM	4820553975550.301948PLM088	PLM088
	7124	7799008803487		1	1	48205539	2019-01-05 07:48:50	7:48:50 AM	4820553975550.301948PLM088	PLM088
	7124	7799008738024		1	1	48205539	2019-01-05 07:48:55	7:48:55 AM	4820553975550.301948PLM088	PLM088
	7124	7799008829678		1	1	48205539	2019-01-05 07:48:58	7:48:58 AM	4820553975550.301948PLM088	PLM088
	7124	7799008831633		1	1	48205539	2019-01-05 07:49:01	7:49:01 AM	4820553975550.301948PLM088	PLM088
	7124	7799008803258		1	1	48205539	2019-01-05 07:49:08	7:49:08 AM	4820553975550.301948PLM088	PLM088
	7124	7799008758121		1	1	48205539	2019-01-05 07:49:14	7:49:14 AM	4820553975550.301948PLM088	PLM088
	7124	7799008831596		1	1	48205539	2019-01-05 07:49:16	7:49:16 AM	4820553975550.301948PLM088	PLM088
	7124	7799008823720		1	1	48205539	2019-01-05 07:49:19	7:49:19 AM	4820553975550.301948PLM088	PLM088
	7124	7799008831053		1	1	48205539	2019-01-05 07:49:22	7:49:22 AM	4820553975550.301948PLM088	PLM088
	7124	7799008750040		1	1	48205539	2019-01-05 07:49:26	7:49:26 AM	4820553975550.301948PLM088	PLM088
	7124	7799008755182		1	1	48205539	2019-01-05 07:49:28	7:49:28 AM	4820553975550.301948PLM088	PLM088
	7124	7799008804170		1	1	48205539	2019-01-05 07:49:31	7:49:31 AM	4820553975550.301948PLM088	PLM088
	7124	7799008803241		1	1	48205539	2019-01-05 07:49:36	7:49:36 AM	4820553975550.301948PLM088	PLM088
	7124	7799008750040		1	1	48205539	2019-01-05 07:49:39	7:49:39 AM	4820553975550.301948PLM088	PLM088
	7124	7799008754420		1	1	48205539	2019-01-05 07:49:42	7:49:42 AM	4820553975550.301948PLM088	PLM088
	7124	7799008804170		1	1	48205539	2019-01-05 07:49:45	7:49:45 AM	4820553975550.301948PLM088	PLM088
	7124	7799008835242		1	1	48205539	2019-01-05 07:49:48	7:49:48 AM	4820553975550.301948PLM088	PLM088
	7124	7799008757902		1	1	48205539	2019-01-05 07:49:51	7:49:51 AM	4820553975550.301948PLM088	PLM088
	7124	7799008738024		1	1	48205539	2019-01-05 07:49:54	7:49:54 AM	4820553975550.301948PLM088	PLM088
	7124	7799008803241		1	1	48205539	2019-01-05 07:49:58	7:49:58 AM	4820553975550.301948PLM088	PLM088
	7124	7799008738048		1	1	48205539	2019-01-05 07:50:03	7:50:03 AM	4820553975550.301948PLM088	PLM088
	7124	7799008834177		1	1	48205539	2019-01-05 07:50:08	7:50:08 AM	4820553975550.301948PLM088	PLM088
	7124	7799008823720		1	1	48205539	2019-01-05 07:50:11	7:50:11 AM	4820553975550.301948PLM088	PLM088
	7124	7799008750040		1	1	48205539	2019-01-05 07:50:23	7:50:23 AM	4820553975550.301948PLM088	PLM088
	7124	7799008833873		1	1	48205539	2019-01-05 07:50:27	7:50:27 AM	4820553975550.301948PLM088	PLM088
	7124	7799008831541		1	1	48205539	2019-01-05 07:50:31	7:50:31 AM	4820553975550.301948PLM088	PLM088
	7124	7799008738024		1	1	48205539	2019-01-05 07:50:34	7:50:34 AM	4820553975550.301948PLM088	PLM088
	7124	7799008757902		1	1	48205539	2019-01-05 07:50:38	7:50:38 AM	4820553975550.301948PLM088	PLM088
	7124	7799008677750		1	1	48205539	2019-01-05 07:50:41	7:50:41 AM	4820553975550.301948PLM088	PLM088
	7124	7799008831589		1	1	48205539	2019-01-05 07:50:44	7:50:44 AM	4820553975550.301948PLM088	PLM088
	7124	7799008831541		1	1	48205539	2019-01-05 07:50:51	7:50:51 AM	4820553975550.301948PLM088	PLM088
	7124	7799008831541		1	1	48205539	2019-01-05 07:51:16	7:51:16 AM	4820553975550.301948PLM088	PLM088
	7124	7799008755250		1	1	48205539	2019-01-05 07:51:19	7:51:19 AM	4820553975550.301948PLM088	PLM088
	7124	7799008835242		1	1	48205539	2019-01-05 07:51:22	7:51:22 AM	4820553975550.301948PLM088	PLM088
	7124	7799008750033		1	1	48205539	2019-01-05 07:51:25	7:51:25 AM	4820553975550.301948PLM088	PLM088
	7124	7799008831633		1	1	48205539	2019-01-05 07:51:27	7:51:27 AM	4820553975550.301948PLM088	PLM088
	7124	7799008780283		1	1	48205539	2019-01-05 07:51:30	7:51:30 AM	4820553975550.301948PLM088	PLM088
	7124	7799008831107		1	1	48205539	2019-01-05 07:51:38	7:51:38 AM	4820553975550.301948PLM088	PLM088
	7124	7799008803241		1	1	48205539	2019-01-05 07:51:42	7:51:42 AM	4820553975550.301948PLM088	PLM088
	7124	7799008834184		1	1	48205539	2019-01-05 07:51:45	7:51:45 AM	4820553975550.301948PLM088	PLM088
	7124	7799008755458		1	1	48205539	2019-01-05 07:51:47	7:51:47 AM	4820553975550.301948PLM088	PLM088
	7124	7799008804170		1	1	48205539	2019-01-05 07:51:49	7:51:49 AM	4820553975550.301948PLM088	PLM088
	7124	7799008831053		1	1	48205539	2019-01-05 07:51:53	7:51:53 AM	4820553975550.301948PLM088	PLM088
	7124	7799008835242		1	1	48205539	2019-01-05 07:51:55	7:51:55 AM	4820553975550.301948PLM088	PLM088
	7124	7799008750040		1	1	48205539	2019-01-05 07:51:57	7:51:57 AM	4820553975550.301948PLM088	PLM088
	7124	7799008835259		1	1	48205539	2019-01-05 07:52:00	7:52:00 AM	4820553975550.301948PLM088	PLM088
	7124	7799008757599		1	1	48205539	2019-01-05 07:52:03	7:52:03 AM	4820553975550.301948PLM088	PLM088
	7124	7799008677750		1	1	48205539	2019-01-05 07:52:05	7:52:05 AM	4820553975550.301948PLM088	PLM088
	7124	7799008755809		1	1	48205539	2019-01-05 07:52:07	7:52:07 AM	4820553975550.301948PLM088	PLM088
	7124	7799008750040		1	1	48205539	2019-01-05 07:52:10	7:52:10 AM	4820553975550.301948PLM088	PLM088
	7124	7799008823010		1	1	48205539	2019-01-05 07:52:14	7:52:14 AM	4820553975550.301948PLM088	PLM088
	7124	7799008604879		1	1	48205539	2019-01-05 07:52:16	7:52:16 AM	4820553975550.301948PLM088	PLM088
	7124	7799008831541		1	1	48205539	2019-01-05 07:52:19	7:52:19 AM	4820553975550.301948PLM088	PLM088
	7124	7799008755274		1	1	48205539	2019-01-05 07:52:22	7:52:22 AM	4820553975550.301948PLM088	PLM088
	7124	7799008831053		1	1	48205539	2019-01-05 07:52:24	7:52:24 AM	4820553975550.301948PLM088	PLM088
	7124	7799008604879		1	1	48205539	2019-01-05 07:52:28	7:52:28 AM	4820553975550.301948PLM088	PLM088
	7124	7799008757780		1	1	48205539	2019-01-05 07:52:31	7:52:31 AM	4820553975550.301948PLM088	PLM088
	7124	7799008836171		1	1	48205539	2019-01-05 07:52:33	7:52:33 AM	4820553975550.301948PLM088	PLM088
	7124	7799008755403		1	1	48205539	2019-01-05 07:52:36	7:52:36 AM	4820553975550.301948PLM088	PLM088
	7124	7799008780573		1	1	48205539	2019-01-05 07:52:39	7:52:39 AM	4820553975550.301948PLM088	PLM088
	7124	7799008779492		1	1	48205539	2019-01-05 07:52:42	7:52:42 AM	4820553975550.301948PLM088	PLM088
	7124	7799008757902		1	1	48205539	2019-01-05 07:52:54	7:52:54 AM	4820553975550.301948PLM088	PLM088
	7124	7799008757902		1	1	48205539	2019-01-05 07:52:56	7:52:56 AM	4820553975550.301948PLM088	PLM088
	7124	7799008757902		1	1	48205539	2019-01-05 07:52:57	7:52:57 AM	4820553975550.301948PLM088	PLM088
