	5969	7791750399607		60	2	48205539	2013-01-10 08:18:58	8:18 AM	482055391014400.7747401PLM051	PLM051
	5969	7791750399607		40	2	48205539	2013-01-10 08:21:08	8:21 AM	482055391014400.7747401PLM051	PLM051
	5969	7791750399607		65	2	48205539	2013-01-10 08:22:57	8:22 AM	482055391014400.7747401PLM051	PLM051
	5969	7791750399607		90	2	48205539	2013-01-10 08:24:56	8:24 AM	482055391014400.7747401PLM051	PLM051
	5969	7791750399607		61	2	48205539	2013-01-10 08:26:34	8:26 AM	482055391014400.7747401PLM051	PLM051
	5969	7791750399607		38	2	48205539	2013-01-10 08:27:47	8:27 AM	482055391014400.7747401PLM051	PLM051
	5969	7791750399607		35	2	48205539	2013-01-10 08:29:09	8:29 AM	482055391014400.7747401PLM051	PLM051
	5969	7791750399607		34	2	48205539	2013-01-10 08:30:21	8:30 AM	482055391014400.7747401PLM051	PLM051
	5969	7791750399607		44	2	48205539	2013-01-10 08:31:29	8:31 AM	482055391014400.7747401PLM051	PLM051
	5969	7791750399607		38	2	48205539	2013-01-10 08:32:33	8:32 AM	482055391014400.7747401PLM051	PLM051
	5969	7791750399607		35	2	48205539	2013-01-10 08:33:38	8:33 AM	482055391014400.7747401PLM051	PLM051
	5969	7791750399607		72	2	48205539	2013-01-10 08:35:33	8:35 AM	482055391014400.7747401PLM051	PLM051
	5971	7799008384498		96	2	48205539	2013-01-10 08:40:33	8:40 AM	482055391014400.7747401PLM051	PLM051
	5970	7799008384498		96	2	48205539	2013-01-10 08:41:03	8:41 AM	482055391014400.7747401PLM051	PLM051
	5972	7799008384498		96	2	48205539	2013-01-10 08:43:03	8:43 AM	482055391014400.7747401PLM051	PLM051
	5975	7799008384498		96	2	48205539	2013-01-10 08:44:25	8:44 AM	482055391014400.7747401PLM051	PLM051
	5976	7799008384498		96	2	48205539	2013-01-10 08:46:54	8:46 AM	482055391014400.7747401PLM051	PLM051
	5963	7799008440538		144	2	48205539	2013-01-10 08:51:43	8:51 AM	482055391014400.7747401PLM051	PLM051
	5964	7799008440538		144	2	48205539	2013-01-10 08:54:42	8:54 AM	482055391014400.7747401PLM051	PLM051
	5965	7799008440538		138	2	48205539	2013-01-10 08:59:39	8:59 AM	482055391014400.7747401PLM051	PLM051
	5958	7799008768465		240	2	48205539	2013-01-10 09:03:59	9:03 AM	482055391014400.7747401PLM051	PLM051
	5966	7799008440538		147	2	48205539	2013-01-10 09:09:50	9:09 AM	482055391014400.7747401PLM051	PLM051
	5959	7799008440538		32	2	48205539	2013-01-10 09:11:34	9:11 AM	482055391014400.7747401PLM051	PLM051
	5960	7799008440538		144	2	48205539	2013-01-10 09:14:55	9:14 AM	482055391014400.7747401PLM051	PLM051
	5961	7799008440538		144	2	48205539	2013-01-10 09:18:59	9:18 AM	482055391014400.7747401PLM051	PLM051
	5967	7799008440538		143	2	48205539	2013-01-10 09:22:14	9:22 AM	482055391014400.7747401PLM051	PLM051
	5962	7799008372839		173	2	48205539	2013-01-10 09:25:15	9:25 AM	482055391014400.7747401PLM051	PLM051
	5991	7799008768281		336	2	48205539	2013-01-10 09:43:23	9:43 AM	482055391014400.7747401PLM051	PLM051
	5991	7799008768281		344	2	48205539	2013-01-10 09:49:13	9:49 AM	482055391014400.7747401PLM051	PLM051
	5987	7799008998282		62	2	48205539	2013-01-10 09:56:30	9:56 AM	482055391014400.7747401PLM051	PLM051
	5987	7799008998282		90	2	48205539	2013-01-10 09:58:08	9:58 AM	482055391014400.7747401PLM051	PLM051
	5987	7799008998282		60	2	48205539	2013-01-10 09:59:30	9:59 AM	482055391014400.7747401PLM051	PLM051
	5987	7799008998282		183	2	48205539	2013-01-10 10:01:06	10:01 AM	482055391014400.7747401PLM051	PLM051
	5989	7799008768281		303	2	48205539	2013-01-10 10:10:24	10:10 AM	482055391014400.7747401PLM051	PLM051
	5989	7799008768281		300	2	48205539	2013-01-10 10:10:33	10:10 AM	482055391014400.7747401PLM051	PLM051
