	0754	7799008978635		1	1	48205539	2013-01-07 07:31:50	7:31:50 AM	48205539755310.7607236PLM072	PLM072
	0754	7799008978635		1	1	48205539	2013-01-07 07:31:55	7:31:55 AM	48205539755310.7607236PLM072	PLM072
	0754	7799008978635		1	1	48205539	2013-01-07 07:31:57	7:31:57 AM	48205539755310.7607236PLM072	PLM072
	0754	7799008978635		1	1	48205539	2013-01-07 07:32:03	7:32:03 AM	48205539755310.7607236PLM072	PLM072
	0754	7799008978635		1	1	48205539	2013-01-07 07:32:06	7:32:06 AM	48205539755310.7607236PLM072	PLM072
	0754	7799008978635		1	1	48205539	2013-01-07 07:32:09	7:32:09 AM	48205539755310.7607236PLM072	PLM072
	0754	7799008978635		1	1	48205539	2013-01-07 07:32:11	7:32:11 AM	48205539755310.7607236PLM072	PLM072
	0754	7799008978635		1	1	48205539	2013-01-07 07:32:15	7:32:15 AM	48205539755310.7607236PLM072	PLM072
	0754	7799008978635		1	1	48205539	2013-01-07 07:32:18	7:32:18 AM	48205539755310.7607236PLM072	PLM072
	0754	7799008978635		1	1	48205539	2013-01-07 07:32:21	7:32:21 AM	48205539755310.7607236PLM072	PLM072
	0754	7799008978635		1	1	48205539	2013-01-07 07:32:24	7:32:24 AM	48205539755310.7607236PLM072	PLM072
	0754	7799008978635		1	1	48205539	2013-01-07 07:32:28	7:32:28 AM	48205539755310.7607236PLM072	PLM072
	0754	7799008978635		1	1	48205539	2013-01-07 07:32:31	7:32:31 AM	48205539755310.7607236PLM072	PLM072
	0754	7799008978635		1	1	48205539	2013-01-07 07:32:34	7:32:34 AM	48205539755310.7607236PLM072	PLM072
	0754	7799008978635		1	1	48205539	2013-01-07 07:33:07	7:33:07 AM	48205539755310.7607236PLM072	PLM072
	0754	7799008978635		1	1	48205539	2013-01-07 07:33:10	7:33:10 AM	48205539755310.7607236PLM072	PLM072
	0754	7799008978635		1	1	48205539	2013-01-07 07:33:12	7:33:12 AM	48205539755310.7607236PLM072	PLM072
	0754	7799008978635		1	1	48205539	2013-01-07 07:33:14	7:33:14 AM	48205539755310.7607236PLM072	PLM072
	0754	7799008978635		1	1	48205539	2013-01-07 07:33:17	7:33:17 AM	48205539755310.7607236PLM072	PLM072
	0754	7799008978635		1	1	48205539	2013-01-07 07:33:20	7:33:20 AM	48205539755310.7607236PLM072	PLM072
	0754	7799008978635		1	1	48205539	2013-01-07 07:33:22	7:33:22 AM	48205539755310.7607236PLM072	PLM072
	0754	7799008978635		1	1	48205539	2013-01-07 07:33:26	7:33:26 AM	48205539755310.7607236PLM072	PLM072
	0754	7799008978635		1	1	48205539	2013-01-07 07:33:31	7:33:31 AM	48205539755310.7607236PLM072	PLM072
	0754	7799008978635		1	1	48205539	2013-01-07 07:33:34	7:33:34 AM	48205539755310.7607236PLM072	PLM072
	0754	7799008978635		1	1	48205539	2013-01-07 07:33:38	7:33:38 AM	48205539755310.7607236PLM072	PLM072
	0754	7799008978635		1	1	48205539	2013-01-07 07:33:42	7:33:42 AM	48205539755310.7607236PLM072	PLM072
	0754	7799008978635		1	1	48205539	2013-01-07 07:33:47	7:33:47 AM	48205539755310.7607236PLM072	PLM072
	0754	7799008978635		1	1	48205539	2013-01-07 07:33:49	7:33:49 AM	48205539755310.7607236PLM072	PLM072
	0754	7799008978635		1	1	48205539	2013-01-07 07:33:52	7:33:52 AM	48205539755310.7607236PLM072	PLM072
	0754	7799008978635		1	1	48205539	2013-01-07 07:33:55	7:33:55 AM	48205539755310.7607236PLM072	PLM072
	0754	7799008978635		1	1	48205539	2013-01-07 07:33:59	7:33:59 AM	48205539755310.7607236PLM072	PLM072
	0754	7799008978635		1	1	48205539	2013-01-07 07:34:01	7:34:01 AM	48205539755310.7607236PLM072	PLM072
	0754	7799008978635		1	1	48205539	2013-01-07 07:34:04	7:34:04 AM	48205539755310.7607236PLM072	PLM072
	0754	7799008978635		1	1	48205539	2013-01-07 07:34:46	7:34:46 AM	48205539755310.7607236PLM072	PLM072
	0754	7799008978635		1	1	48205539	2013-01-07 07:34:51	7:34:51 AM	48205539755310.7607236PLM072	PLM072
	0754	7799008978635		1	1	48205539	2013-01-07 07:34:57	7:34:57 AM	48205539755310.7607236PLM072	PLM072
	0754	7799008978635		1	1	48205539	2013-01-07 07:35:00	7:35:00 AM	48205539755310.7607236PLM072	PLM072
	0754	7799008978635		1	1	48205539	2013-01-07 07:35:03	7:35:03 AM	48205539755310.7607236PLM072	PLM072
	0754	7799008978635		1	1	48205539	2013-01-07 07:35:07	7:35:07 AM	48205539755310.7607236PLM072	PLM072
	0754	7799008978635		1	1	48205539	2013-01-07 07:35:11	7:35:11 AM	48205539755310.7607236PLM072	PLM072
	0754	7799008978635		1	1	48205539	2013-01-07 07:35:15	7:35:15 AM	48205539755310.7607236PLM072	PLM072
	0754	7799008978635		1	1	48205539	2013-01-07 07:35:18	7:35:18 AM	48205539755310.7607236PLM072	PLM072
	0754	7799008978635		1	1	48205539	2013-01-07 07:35:22	7:35:22 AM	48205539755310.7607236PLM072	PLM072
	0754	7799008978635		1	1	48205539	2013-01-07 07:35:27	7:35:27 AM	48205539755310.7607236PLM072	PLM072
	0754	7799008978635		1	1	48205539	2013-01-07 07:35:30	7:35:30 AM	48205539755310.7607236PLM072	PLM072
	0754	7799008978635		1	1	48205539	2013-01-07 07:35:32	7:35:32 AM	48205539755310.7607236PLM072	PLM072
	0754	7799008978635		1	1	48205539	2013-01-07 07:35:35	7:35:35 AM	48205539755310.7607236PLM072	PLM072
	0754	7799008978635		1	1	48205539	2013-01-07 07:35:39	7:35:39 AM	48205539755310.7607236PLM072	PLM072
	0754	7799008978635		1	1	48205539	2013-01-07 07:35:44	7:35:44 AM	48205539755310.7607236PLM072	PLM072
	0754	7799008978635		1	1	48205539	2013-01-07 07:35:49	7:35:49 AM	48205539755310.7607236PLM072	PLM072
	0754	7799008978635		1	1	48205539	2013-01-07 07:35:52	7:35:52 AM	48205539755310.7607236PLM072	PLM072
	0754	7799008978635		1	1	48205539	2013-01-07 07:35:55	7:35:55 AM	48205539755310.7607236PLM072	PLM072
	0754	7799008978635		1	1	48205539	2013-01-07 07:35:57	7:35:57 AM	48205539755310.7607236PLM072	PLM072
	0754	7799008978635		1	1	48205539	2013-01-07 07:36:04	7:36:04 AM	48205539755310.7607236PLM072	PLM072
	0754	7799008978635		1	1	48205539	2013-01-07 07:36:07	7:36:07 AM	48205539755310.7607236PLM072	PLM072
	0754	7799008978635		1	1	48205539	2013-01-07 07:36:09	7:36:09 AM	48205539755310.7607236PLM072	PLM072
	0754	7799008978635		1	1	48205539	2013-01-07 07:36:12	7:36:12 AM	48205539755310.7607236PLM072	PLM072
	0754	7799008978635		1	1	48205539	2013-01-07 07:36:15	7:36:15 AM	48205539755310.7607236PLM072	PLM072
	0754	7799008978635		1	1	48205539	2013-01-07 07:36:48	7:36:48 AM	48205539755310.7607236PLM072	PLM072
	0754	7799008978635		1	1	48205539	2013-01-07 07:36:55	7:36:55 AM	48205539755310.7607236PLM072	PLM072
	0754	7799008978635		1	1	48205539	2013-01-07 07:36:59	7:36:59 AM	48205539755310.7607236PLM072	PLM072
	0754	7799008978635		1	1	48205539	2013-01-07 07:37:02	7:37:02 AM	48205539755310.7607236PLM072	PLM072
	0754	7799008978635		1	1	48205539	2013-01-07 07:37:05	7:37:05 AM	48205539755310.7607236PLM072	PLM072
	0754	7799008978635		1	1	48205539	2013-01-07 07:37:08	7:37:08 AM	48205539755310.7607236PLM072	PLM072
	0754	7799008978635		1	1	48205539	2013-01-07 07:37:12	7:37:12 AM	48205539755310.7607236PLM072	PLM072
	0754	7799008978635		1	1	48205539	2013-01-07 07:37:16	7:37:16 AM	48205539755310.7607236PLM072	PLM072
	0754	7799008978635		1	1	48205539	2013-01-07 07:37:19	7:37:19 AM	48205539755310.7607236PLM072	PLM072
	0754	7799008978635		1	1	48205539	2013-01-07 07:37:21	7:37:21 AM	48205539755310.7607236PLM072	PLM072
	0754	7799008978635		1	1	48205539	2013-01-07 07:37:25	7:37:25 AM	48205539755310.7607236PLM072	PLM072
	0754	7799008978635		1	1	48205539	2013-01-07 07:37:28	7:37:28 AM	48205539755310.7607236PLM072	PLM072
	0754	7799008978635		1	1	48205539	2013-01-07 07:37:30	7:37:30 AM	48205539755310.7607236PLM072	PLM072
	0754	7799008978635		1	1	48205539	2013-01-07 07:37:34	7:37:34 AM	48205539755310.7607236PLM072	PLM072
	0754	7799008978635		1	1	48205539	2013-01-07 07:37:40	7:37:40 AM	48205539755310.7607236PLM072	PLM072
	0754	7799008978635		1	1	48205539	2013-01-07 07:37:43	7:37:43 AM	48205539755310.7607236PLM072	PLM072
	0754	7799008978635		1	1	48205539	2013-01-07 07:37:47	7:37:47 AM	48205539755310.7607236PLM072	PLM072
	0754	7799008978635		1	1	48205539	2013-01-07 07:37:50	7:37:50 AM	48205539755310.7607236PLM072	PLM072
	0754	7799008978635		1	1	48205539	2013-01-07 07:37:54	7:37:54 AM	48205539755310.7607236PLM072	PLM072
	0754	7799008978635		1	1	48205539	2013-01-07 07:37:58	7:37:58 AM	48205539755310.7607236PLM072	PLM072
	0754	7799008978635		1	1	48205539	2013-01-07 07:38:02	7:38:02 AM	48205539755310.7607236PLM072	PLM072
	0754	7799008978635		1	1	48205539	2013-01-07 07:38:06	7:38:06 AM	48205539755310.7607236PLM072	PLM072
	0754	7799008978635		1	1	48205539	2013-01-07 07:38:29	7:38:29 AM	48205539755310.7607236PLM072	PLM072
	0754	7799008978635		1	1	48205539	2013-01-07 07:38:33	7:38:33 AM	48205539755310.7607236PLM072	PLM072
	0754	7799008978635		1	1	48205539	2013-01-07 07:38:35	7:38:35 AM	48205539755310.7607236PLM072	PLM072
	0754	7799008978635		1	1	48205539	2013-01-07 07:38:38	7:38:38 AM	48205539755310.7607236PLM072	PLM072
	0754	7799008978635		1	1	48205539	2013-01-07 07:38:40	7:38:40 AM	48205539755310.7607236PLM072	PLM072
	0754	7799008978635		1	1	48205539	2013-01-07 07:38:44	7:38:44 AM	48205539755310.7607236PLM072	PLM072
	0754	7799008978635		1	1	48205539	2013-01-07 07:38:47	7:38:47 AM	48205539755310.7607236PLM072	PLM072
	0754	7799008978635		1	1	48205539	2013-01-07 07:38:50	7:38:50 AM	48205539755310.7607236PLM072	PLM072
	0754	7799008978635		1	1	48205539	2013-01-07 07:38:51	7:38:51 AM	48205539755310.7607236PLM072	PLM072
	0754	7799008978635		1	1	48205539	2013-01-07 07:38:54	7:38:54 AM	48205539755310.7607236PLM072	PLM072
	0754	7799008978635		1	1	48205539	2013-01-07 07:38:57	7:38:57 AM	48205539755310.7607236PLM072	PLM072
	0754	7799008978635		1	1	48205539	2013-01-07 07:38:59	7:38:59 AM	48205539755310.7607236PLM072	PLM072
	0754	7799008978635		1	1	48205539	2013-01-07 07:39:02	7:39:02 AM	48205539755310.7607236PLM072	PLM072
	0754	7799008978635		1	1	48205539	2013-01-07 07:39:07	7:39:07 AM	48205539755310.7607236PLM072	PLM072
	0754	7799008978635		1	1	48205539	2013-01-07 07:39:10	7:39:10 AM	48205539755310.7607236PLM072	PLM072
	0754	7799008978635		1	1	48205539	2013-01-07 07:39:14	7:39:14 AM	48205539755310.7607236PLM072	PLM072
	0754	7799008978635		1	1	48205539	2013-01-07 07:39:18	7:39:18 AM	48205539755310.7607236PLM072	PLM072
	0754	7799008978635		1	1	48205539	2013-01-07 07:39:20	7:39:20 AM	48205539755310.7607236PLM072	PLM072
	0754	7799008978635		1	1	48205539	2013-01-07 07:39:24	7:39:24 AM	48205539755310.7607236PLM072	PLM072
	0754	7799008978635		1	1	48205539	2013-01-07 07:39:27	7:39:27 AM	48205539755310.7607236PLM072	PLM072
	0754	7799008978635		1	1	48205539	2013-01-07 07:39:31	7:39:31 AM	48205539755310.7607236PLM072	PLM072
	0754	7799008978635		1	1	48205539	2013-01-07 07:39:35	7:39:35 AM	48205539755310.7607236PLM072	PLM072
	0754	7799008978635		1	1	48205539	2013-01-07 07:39:38	7:39:38 AM	48205539755310.7607236PLM072	PLM072
	0754	7799008978635		1	1	48205539	2013-01-07 07:40:05	7:40:05 AM	48205539755310.7607236PLM072	PLM072
	0754	7799008978635		1	1	48205539	2013-01-07 07:40:08	7:40:08 AM	48205539755310.7607236PLM072	PLM072
	0754	7799008978635		1	1	48205539	2013-01-07 07:40:11	7:40:11 AM	48205539755310.7607236PLM072	PLM072
	0754	7799008978635		1	1	48205539	2013-01-07 07:40:15	7:40:15 AM	48205539755310.7607236PLM072	PLM072
	0754	7799008978635		1	1	48205539	2013-01-07 07:40:19	7:40:19 AM	48205539755310.7607236PLM072	PLM072
	0754	7799008978635		1	1	48205539	2013-01-07 07:40:26	7:40:26 AM	48205539755310.7607236PLM072	PLM072
	0754	7799008978635		1	1	48205539	2013-01-07 07:40:28	7:40:28 AM	48205539755310.7607236PLM072	PLM072
	0754	7799008978635		1	1	48205539	2013-01-07 07:40:31	7:40:31 AM	48205539755310.7607236PLM072	PLM072
	0754	7799008978635		1	1	48205539	2013-01-07 07:40:35	7:40:35 AM	48205539755310.7607236PLM072	PLM072
	0754	7799008978635		1	1	48205539	2013-01-07 07:40:38	7:40:38 AM	48205539755310.7607236PLM072	PLM072
	0754	7799008978635		1	1	48205539	2013-01-07 07:40:43	7:40:43 AM	48205539755310.7607236PLM072	PLM072
	0754	7799008978635		1	1	48205539	2013-01-07 07:40:46	7:40:46 AM	48205539755310.7607236PLM072	PLM072
	0754	7799008978635		1	1	48205539	2013-01-07 07:40:49	7:40:49 AM	48205539755310.7607236PLM072	PLM072
	0754	7799008978635		1	1	48205539	2013-01-07 07:40:53	7:40:53 AM	48205539755310.7607236PLM072	PLM072
	0754	7799008978635		1	1	48205539	2013-01-07 07:40:55	7:40:55 AM	48205539755310.7607236PLM072	PLM072
	0754	7799008978635		1	1	48205539	2013-01-07 07:40:57	7:40:57 AM	48205539755310.7607236PLM072	PLM072
	0754	7799008978635		1	1	48205539	2013-01-07 07:41:00	7:41:00 AM	48205539755310.7607236PLM072	PLM072
	0754	7799008978635		1	1	48205539	2013-01-07 07:41:03	7:41:03 AM	48205539755310.7607236PLM072	PLM072
	0754	7799008978635		1	1	48205539	2013-01-07 07:41:12	7:41:12 AM	48205539755310.7607236PLM072	PLM072
	0754	7799008978635		1	1	48205539	2013-01-07 07:41:18	7:41:18 AM	48205539755310.7607236PLM072	PLM072
	0754	7799008978635		1	1	48205539	2013-01-07 07:41:50	7:41:50 AM	48205539755310.7607236PLM072	PLM072
	0754	7799008978635		1	1	48205539	2013-01-07 07:41:53	7:41:53 AM	48205539755310.7607236PLM072	PLM072
	0754	7799008978635		1	1	48205539	2013-01-07 07:41:56	7:41:56 AM	48205539755310.7607236PLM072	PLM072
	0754	7799008978635		1	1	48205539	2013-01-07 07:42:01	7:42:01 AM	48205539755310.7607236PLM072	PLM072
	0754	7799008978635		1	1	48205539	2013-01-07 07:42:03	7:42:03 AM	48205539755310.7607236PLM072	PLM072
	0754	7799008978635		1	1	48205539	2013-01-07 07:42:06	7:42:06 AM	48205539755310.7607236PLM072	PLM072
	0754	7799008978635		1	1	48205539	2013-01-07 07:42:10	7:42:10 AM	48205539755310.7607236PLM072	PLM072
	0754	7799008978635		1	1	48205539	2013-01-07 07:42:14	7:42:14 AM	48205539755310.7607236PLM072	PLM072
	0754	7799008978635		1	1	48205539	2013-01-07 07:42:18	7:42:18 AM	48205539755310.7607236PLM072	PLM072
	0754	7799008978635		1	1	48205539	2013-01-07 07:42:20	7:42:20 AM	48205539755310.7607236PLM072	PLM072
	0754	7799008978635		1	1	48205539	2013-01-07 07:42:23	7:42:23 AM	48205539755310.7607236PLM072	PLM072
	0754	7799008978635		1	1	48205539	2013-01-07 07:42:26	7:42:26 AM	48205539755310.7607236PLM072	PLM072
	0754	7799008978635		1	1	48205539	2013-01-07 07:42:29	7:42:29 AM	48205539755310.7607236PLM072	PLM072
	0754	7799008978635		1	1	48205539	2013-01-07 07:42:32	7:42:32 AM	48205539755310.7607236PLM072	PLM072
	0754	7799008978635		1	1	48205539	2013-01-07 07:42:34	7:42:34 AM	48205539755310.7607236PLM072	PLM072
	0754	7799008978635		1	1	48205539	2013-01-07 07:42:37	7:42:37 AM	48205539755310.7607236PLM072	PLM072
	0754	7799008978635		1	1	48205539	2013-01-07 07:42:42	7:42:42 AM	48205539755310.7607236PLM072	PLM072
	0754	7799008978635		1	1	48205539	2013-01-07 07:42:45	7:42:45 AM	48205539755310.7607236PLM072	PLM072
	0754	7799008978635		1	1	48205539	2013-01-07 07:42:48	7:42:48 AM	48205539755310.7607236PLM072	PLM072
	0754	7799008978635		1	1	48205539	2013-01-07 07:42:51	7:42:51 AM	48205539755310.7607236PLM072	PLM072
	0754	7799008978635		1	1	48205539	2013-01-07 07:43:20	7:43:20 AM	48205539755310.7607236PLM072	PLM072
	0754	7799008978635		1	1	48205539	2013-01-07 07:43:23	7:43:23 AM	48205539755310.7607236PLM072	PLM072
	0754	7799008978635		1	1	48205539	2013-01-07 07:43:27	7:43:27 AM	48205539755310.7607236PLM072	PLM072
	0754	7799008978635		1	1	48205539	2013-01-07 07:43:36	7:43:36 AM	48205539755310.7607236PLM072	PLM072
	0754	7799008978635		1	1	48205539	2013-01-07 07:43:41	7:43:41 AM	48205539755310.7607236PLM072	PLM072
	0754	7799008978635		1	1	48205539	2013-01-07 07:43:44	7:43:44 AM	48205539755310.7607236PLM072	PLM072
	0754	7799008978635		1	1	48205539	2013-01-07 07:43:47	7:43:47 AM	48205539755310.7607236PLM072	PLM072
	0754	7799008978635		1	1	48205539	2013-01-07 07:43:49	7:43:49 AM	48205539755310.7607236PLM072	PLM072
	0754	7799008978635		1	1	48205539	2013-01-07 07:43:52	7:43:52 AM	48205539755310.7607236PLM072	PLM072
	0754	7799008978635		1	1	48205539	2013-01-07 07:43:55	7:43:55 AM	48205539755310.7607236PLM072	PLM072
	0754	7799008978635		1	1	48205539	2013-01-07 07:43:59	7:43:59 AM	48205539755310.7607236PLM072	PLM072
	0754	7799008978635		1	1	48205539	2013-01-07 07:44:02	7:44:02 AM	48205539755310.7607236PLM072	PLM072
	0754	7799008978635		1	1	48205539	2013-01-07 07:44:06	7:44:06 AM	48205539755310.7607236PLM072	PLM072
	0754	7799008978635		1	1	48205539	2013-01-07 07:44:10	7:44:10 AM	48205539755310.7607236PLM072	PLM072
	0754	7799008978635		1	1	48205539	2013-01-07 07:44:13	7:44:13 AM	48205539755310.7607236PLM072	PLM072
	0754	7799008978635		1	1	48205539	2013-01-07 07:44:15	7:44:15 AM	48205539755310.7607236PLM072	PLM072
	0754	7799008978635		1	1	48205539	2013-01-07 07:44:16	7:44:16 AM	48205539755310.7607236PLM072	PLM072
	0754	7799008978635		1	1	48205539	2013-01-07 07:44:20	7:44:20 AM	48205539755310.7607236PLM072	PLM072
	0754	7799008978635		1	1	48205539	2013-01-07 07:44:24	7:44:24 AM	48205539755310.7607236PLM072	PLM072
	0754	7799008978635		1	1	48205539	2013-01-07 07:44:27	7:44:27 AM	48205539755310.7607236PLM072	PLM072
	0754	7799008978635		1	1	48205539	2013-01-07 07:44:31	7:44:31 AM	48205539755310.7607236PLM072	PLM072
	0754	7799008978635		1	1	48205539	2013-01-07 07:44:34	7:44:34 AM	48205539755310.7607236PLM072	PLM072
	0754	7799008978635		1	1	48205539	2013-01-07 07:44:37	7:44:37 AM	48205539755310.7607236PLM072	PLM072
	0754	7799008978635		1	1	48205539	2013-01-07 07:45:14	7:45:14 AM	48205539755310.7607236PLM072	PLM072
	0754	7799008978635		1	1	48205539	2013-01-07 07:45:17	7:45:17 AM	48205539755310.7607236PLM072	PLM072
	0754	7799008978635		1	1	48205539	2013-01-07 07:45:21	7:45:21 AM	48205539755310.7607236PLM072	PLM072
	0754	7799008978635		1	1	48205539	2013-01-07 07:45:24	7:45:24 AM	48205539755310.7607236PLM072	PLM072
	0754	7799008978635		1	1	48205539	2013-01-07 07:45:27	7:45:27 AM	48205539755310.7607236PLM072	PLM072
	0754	7799008978635		1	1	48205539	2013-01-07 07:45:29	7:45:29 AM	48205539755310.7607236PLM072	PLM072
	0754	7799008978635		1	1	48205539	2013-01-07 07:45:31	7:45:31 AM	48205539755310.7607236PLM072	PLM072
	0754	7799008978635		1	1	48205539	2013-01-07 07:45:34	7:45:34 AM	48205539755310.7607236PLM072	PLM072
	0754	7799008978635		1	1	48205539	2013-01-07 07:45:37	7:45:37 AM	48205539755310.7607236PLM072	PLM072
	0754	7799008978635		1	1	48205539	2013-01-07 07:45:39	7:45:39 AM	48205539755310.7607236PLM072	PLM072
	0754	7799008978635		1	1	48205539	2013-01-07 07:45:42	7:45:42 AM	48205539755310.7607236PLM072	PLM072
	0754	7799008978635		1	1	48205539	2013-01-07 07:45:44	7:45:44 AM	48205539755310.7607236PLM072	PLM072
	0754	7799008978635		1	1	48205539	2013-01-07 07:45:48	7:45:48 AM	48205539755310.7607236PLM072	PLM072
	0754	7799008978635		1	1	48205539	2013-01-07 07:45:51	7:45:51 AM	48205539755310.7607236PLM072	PLM072
	0754	7799008978635		1	1	48205539	2013-01-07 07:45:55	7:45:55 AM	48205539755310.7607236PLM072	PLM072
	0754	7799008978635		1	1	48205539	2013-01-07 07:45:57	7:45:57 AM	48205539755310.7607236PLM072	PLM072
	0754	7799008978635		1	1	48205539	2013-01-07 07:45:59	7:45:59 AM	48205539755310.7607236PLM072	PLM072
	0754	7799008978635		1	1	48205539	2013-01-07 07:46:04	7:46:04 AM	48205539755310.7607236PLM072	PLM072
	0754	7799008978635		1	1	48205539	2013-01-07 07:46:07	7:46:07 AM	48205539755310.7607236PLM072	PLM072
	0754	7799008978635		1	1	48205539	2013-01-07 07:46:10	7:46:10 AM	48205539755310.7607236PLM072	PLM072
	0754	7799008978635		1	1	48205539	2013-01-07 07:46:15	7:46:15 AM	48205539755310.7607236PLM072	PLM072
	0754	7799008978635		1	1	48205539	2013-01-07 07:46:21	7:46:21 AM	48205539755310.7607236PLM072	PLM072
	0754	7799008978635		1	1	48205539	2013-01-07 07:46:25	7:46:25 AM	48205539755310.7607236PLM072	PLM072
	0754	7799008978635		1	1	48205539	2013-01-07 07:46:28	7:46:28 AM	48205539755310.7607236PLM072	PLM072
	0754	7799008978635		1	1	48205539	2013-01-07 07:46:33	7:46:33 AM	48205539755310.7607236PLM072	PLM072
	0754	7799008978635		1	1	48205539	2013-01-07 07:46:36	7:46:36 AM	48205539755310.7607236PLM072	PLM072
	0754	7799008978635		1	1	48205539	2013-01-07 07:46:39	7:46:39 AM	48205539755310.7607236PLM072	PLM072
	0754	7799008978635		1	1	48205539	2013-01-07 07:47:07	7:47:07 AM	48205539755310.7607236PLM072	PLM072
	0754	7799008978635		1	1	48205539	2013-01-07 07:47:10	7:47:10 AM	48205539755310.7607236PLM072	PLM072
	0754	7799008978635		1	1	48205539	2013-01-07 07:47:14	7:47:14 AM	48205539755310.7607236PLM072	PLM072
	0754	7799008978635		1	1	48205539	2013-01-07 07:47:16	7:47:16 AM	48205539755310.7607236PLM072	PLM072
	0754	7799008978635		1	1	48205539	2013-01-07 07:47:21	7:47:21 AM	48205539755310.7607236PLM072	PLM072
	0754	7799008978635		1	1	48205539	2013-01-07 07:47:30	7:47:30 AM	48205539755310.7607236PLM072	PLM072
	0754	7799008978635		1	1	48205539	2013-01-07 07:47:34	7:47:34 AM	48205539755310.7607236PLM072	PLM072
	0754	7799008978635		1	1	48205539	2013-01-07 07:47:37	7:47:37 AM	48205539755310.7607236PLM072	PLM072
	0754	7799008978635		1	1	48205539	2013-01-07 07:47:41	7:47:41 AM	48205539755310.7607236PLM072	PLM072
	0754	7799008978635		1	1	48205539	2013-01-07 07:47:44	7:47:44 AM	48205539755310.7607236PLM072	PLM072
	0754	7799008978635		1	1	48205539	2013-01-07 07:47:48	7:47:48 AM	48205539755310.7607236PLM072	PLM072
	0754	7799008978635		1	1	48205539	2013-01-07 07:47:50	7:47:50 AM	48205539755310.7607236PLM072	PLM072
	0754	7799008978635		1	1	48205539	2013-01-07 07:47:53	7:47:53 AM	48205539755310.7607236PLM072	PLM072
	0754	7799008978635		1	1	48205539	2013-01-07 07:47:56	7:47:56 AM	48205539755310.7607236PLM072	PLM072
	0754	7799008978635		1	1	48205539	2013-01-07 07:47:59	7:47:59 AM	48205539755310.7607236PLM072	PLM072
	0754	7799008978635		1	1	48205539	2013-01-07 07:48:04	7:48:04 AM	48205539755310.7607236PLM072	PLM072
	0754	7799008978635		1	1	48205539	2013-01-07 07:48:06	7:48:06 AM	48205539755310.7607236PLM072	PLM072
	0754	7799008978635		1	1	48205539	2013-01-07 07:48:09	7:48:09 AM	48205539755310.7607236PLM072	PLM072
	0754	7799008978635		1	1	48205539	2013-01-07 07:48:14	7:48:14 AM	48205539755310.7607236PLM072	PLM072
	0754	7799008978635		1	1	48205539	2013-01-07 07:48:50	7:48:50 AM	48205539755310.7607236PLM072	PLM072
	0754	7799008978635		1	1	48205539	2013-01-07 07:48:53	7:48:53 AM	48205539755310.7607236PLM072	PLM072
	0754	7799008978635		1	1	48205539	2013-01-07 07:48:56	7:48:56 AM	48205539755310.7607236PLM072	PLM072
	0754	7799008978635		1	1	48205539	2013-01-07 07:48:58	7:48:58 AM	48205539755310.7607236PLM072	PLM072
	0754	7799008978635		1	1	48205539	2013-01-07 07:49:01	7:49:01 AM	48205539755310.7607236PLM072	PLM072
	0754	7799008978635		1	1	48205539	2013-01-07 07:49:04	7:49:04 AM	48205539755310.7607236PLM072	PLM072
	0754	7799008978635		1	1	48205539	2013-01-07 07:49:07	7:49:07 AM	48205539755310.7607236PLM072	PLM072
	0754	7799008978635		1	1	48205539	2013-01-07 07:49:11	7:49:11 AM	48205539755310.7607236PLM072	PLM072
	0754	7799008978635		1	1	48205539	2013-01-07 07:49:13	7:49:13 AM	48205539755310.7607236PLM072	PLM072
	0754	7799008978635		1	1	48205539	2013-01-07 07:49:17	7:49:17 AM	48205539755310.7607236PLM072	PLM072
	0754	7799008978635		1	1	48205539	2013-01-07 07:49:21	7:49:21 AM	48205539755310.7607236PLM072	PLM072
	0754	7799008978635		1	1	48205539	2013-01-07 07:49:24	7:49:24 AM	48205539755310.7607236PLM072	PLM072
	0754	7799008978635		1	1	48205539	2013-01-07 07:49:27	7:49:27 AM	48205539755310.7607236PLM072	PLM072
	0754	7799008978635		1	1	48205539	2013-01-07 07:49:29	7:49:29 AM	48205539755310.7607236PLM072	PLM072
	0754	7799008966953		1	1	48205539	2013-01-07 07:50:11	7:50:11 AM	48205539755310.7607236PLM072	PLM072
	0754	7799008978635		1	1	48205539	2013-01-07 07:50:15	7:50:15 AM	48205539755310.7607236PLM072	PLM072
	0754	7799008978635		1	1	48205539	2013-01-07 07:50:22	7:50:22 AM	48205539755310.7607236PLM072	PLM072
	0754	7799008978635		1	1	48205539	2013-01-07 07:50:30	7:50:30 AM	48205539755310.7607236PLM072	PLM072
	0754	7799008978635		1	1	48205539	2013-01-07 07:50:35	7:50:35 AM	48205539755310.7607236PLM072	PLM072
	0754	7799008978635		1	1	48205539	2013-01-07 07:50:39	7:50:39 AM	48205539755310.7607236PLM072	PLM072
	0754	7799008978635		1	1	48205539	2013-01-07 07:50:43	7:50:43 AM	48205539755310.7607236PLM072	PLM072
	0754	7799008978635		1	1	48205539	2013-01-07 07:50:47	7:50:47 AM	48205539755310.7607236PLM072	PLM072
	0754	7799008978635		1	1	48205539	2013-01-07 07:50:54	7:50:54 AM	48205539755310.7607236PLM072	PLM072
	0754	7799008978635		1	1	48205539	2013-01-07 07:51:02	7:51:02 AM	48205539755310.7607236PLM072	PLM072
	0754	7799008978635		1	1	48205539	2013-01-07 07:51:06	7:51:06 AM	48205539755310.7607236PLM072	PLM072
	0754	7799008978635		1	1	48205539	2013-01-07 07:51:10	7:51:10 AM	48205539755310.7607236PLM072	PLM072
	0754	7799008978635		1	1	48205539	2013-01-07 07:51:15	7:51:15 AM	48205539755310.7607236PLM072	PLM072
	0754	7799008966953		1	1	48205539	2013-01-07 07:51:56	7:51:56 AM	48205539755310.7607236PLM072	PLM072
	0754	7799008966953		1	1	48205539	2013-01-07 07:52:40	7:52:40 AM	48205539755310.7607236PLM072	PLM072
	0754	7799008966953		1	1	48205539	2013-01-07 07:52:46	7:52:46 AM	48205539755310.7607236PLM072	PLM072
	0754	7799008966953		1	1	48205539	2013-01-07 07:52:56	7:52:56 AM	48205539755310.7607236PLM072	PLM072
	0754	7799008966953		1	1	48205539	2013-01-07 07:53:29	7:53:29 AM	48205539755310.7607236PLM072	PLM072
	0754	7799008966953		1	1	48205539	2013-01-07 07:53:36	7:53:36 AM	48205539755310.7607236PLM072	PLM072
	0754	7799008966953		1	1	48205539	2013-01-07 07:53:40	7:53:40 AM	48205539755310.7607236PLM072	PLM072
	0754	7799008966953		1	1	48205539	2013-01-07 07:53:57	7:53:57 AM	48205539755310.7607236PLM072	PLM072
	0754	7799008966953		1	1	48205539	2013-01-07 07:54:02	7:54:02 AM	48205539755310.7607236PLM072	PLM072
	0754	7799008966953		1	1	48205539	2013-01-07 07:54:07	7:54:07 AM	48205539755310.7607236PLM072	PLM072
	0754	7799008966953		1	1	48205539	2013-01-07 07:54:30	7:54:30 AM	48205539755310.7607236PLM072	PLM072
	0754	7799008966953		1	1	48205539	2013-01-07 07:54:33	7:54:33 AM	48205539755310.7607236PLM072	PLM072
	0754	7799008966953		1	1	48205539	2013-01-07 07:54:36	7:54:36 AM	48205539755310.7607236PLM072	PLM072
	0754	7799008966953		1	1	48205539	2013-01-07 07:54:56	7:54:56 AM	48205539755310.7607236PLM072	PLM072
