	5584	7793730551555		329	2	48492918	2019-01-05 15:53:36	3:53 PM	484929181636430.04535276PLM043	PLM043
	5599	7799008376196		249	2	48492918	2019-01-05 15:57:54	3:57 PM	484929181636430.04535276PLM043	PLM043
	5598	7799008891248		104	2	48492918	2019-01-05 16:06:16	4:06 PM	484929181636430.04535276PLM043	PLM043
	5585	7799008370538		900	2	48492918	2019-01-05 16:25:55	4:25 PM	484929181636430.04535276PLM043	PLM043
	5585	7799008370538		589	2	48492918	2019-01-05 16:26:10	4:26 PM	484929181636430.04535276PLM043	PLM043
	5588	7799008099101		217	2	48492918	2019-01-05 16:36:13	4:36 PM	484929181636430.04535276PLM043	PLM043
