	1595	7799008892535		1	1	48492918	2019-01-03 17:35:07	5:35:07 PM	48492918186460.2895625PLM029	PLM029
	1596	7799008901152		1	1	48492918	2019-01-03 17:35:36	5:35:36 PM	48492918186460.2895625PLM029	PLM029
	1596	7799008901152		1	1	48492918	2019-01-03 17:35:37	5:35:37 PM	48492918186460.2895625PLM029	PLM029
	1596	7799008901152		1	1	48492918	2019-01-03 17:35:38	5:35:38 PM	48492918186460.2895625PLM029	PLM029
	1596	7799008901152		1	1	48492918	2019-01-03 17:35:38	5:35:38 PM	48492918186460.2895625PLM029	PLM029
	1596	7799008901152		1	1	48492918	2019-01-03 17:35:40	5:35:40 PM	48492918186460.2895625PLM029	PLM029
	1596	7799008901152		1	1	48492918	2019-01-03 17:35:46	5:35:46 PM	48492918186460.2895625PLM029	PLM029
	1597	7799008901152		1	1	48492918	2019-01-03 17:36:26	5:36:26 PM	48492918186460.2895625PLM029	PLM029
	1597	7799008901152		1	1	48492918	2019-01-03 17:36:27	5:36:27 PM	48492918186460.2895625PLM029	PLM029
	1597	7799008901152		1	1	48492918	2019-01-03 17:36:27	5:36:27 PM	48492918186460.2895625PLM029	PLM029
	1597	7799008901152		1	1	48492918	2019-01-03 17:36:28	5:36:28 PM	48492918186460.2895625PLM029	PLM029
	1597	7799008901152		1	1	48492918	2019-01-03 17:36:30	5:36:30 PM	48492918186460.2895625PLM029	PLM029
	1597	7799008901152		1	1	48492918	2019-01-03 17:36:34	5:36:34 PM	48492918186460.2895625PLM029	PLM029
	1597	7799008901152		1	1	48492918	2019-01-03 17:36:37	5:36:37 PM	48492918186460.2895625PLM029	PLM029
	1598	7799008999166		1	1	48492918	2019-01-03 17:37:28	5:37:28 PM	48492918186460.2895625PLM029	PLM029
	1598	7799008999166		1	1	48492918	2019-01-03 17:37:29	5:37:29 PM	48492918186460.2895625PLM029	PLM029
	1598	7799008999166		1	1	48492918	2019-01-03 17:37:32	5:37:32 PM	48492918186460.2895625PLM029	PLM029
	1598	7799008999166		1	1	48492918	2019-01-03 17:37:36	5:37:36 PM	48492918186460.2895625PLM029	PLM029
	1598	7799008999166		1	1	48492918	2019-01-03 17:37:37	5:37:37 PM	48492918186460.2895625PLM029	PLM029
	1598	7799008999166		1	1	48492918	2019-01-03 17:37:40	5:37:40 PM	48492918186460.2895625PLM029	PLM029
	1598	7799008999166		1	1	48492918	2019-01-03 17:37:42	5:37:42 PM	48492918186460.2895625PLM029	PLM029
	1603	7799008901190		1	1	48492918	2019-01-03 17:38:16	5:38:16 PM	48492918186460.2895625PLM029	PLM029
	1603	7799008901190		1	1	48492918	2019-01-03 17:38:17	5:38:17 PM	48492918186460.2895625PLM029	PLM029
	1603	7799008901190		1	1	48492918	2019-01-03 17:38:22	5:38:22 PM	48492918186460.2895625PLM029	PLM029
	1603	7799008901190		1	1	48492918	2019-01-03 17:38:26	5:38:26 PM	48492918186460.2895625PLM029	PLM029
	1603	7799008901190		1	1	48492918	2019-01-03 17:38:32	5:38:32 PM	48492918186460.2895625PLM029	PLM029
	1603	7799008901190		1	1	48492918	2019-01-03 17:38:38	5:38:38 PM	48492918186460.2895625PLM029	PLM029
	1604	7799008901190		1	1	48492918	2019-01-03 17:40:06	5:40:06 PM	48492918186460.2895625PLM029	PLM029
	1604	7799008901190		1	1	48492918	2019-01-03 17:40:09	5:40:09 PM	48492918186460.2895625PLM029	PLM029
	1604	7799008901190		1	1	48492918	2019-01-03 17:40:14	5:40:14 PM	48492918186460.2895625PLM029	PLM029
	1604	7799008901190		1	1	48492918	2019-01-03 17:40:18	5:40:18 PM	48492918186460.2895625PLM029	PLM029
	1604	7799008901190		1	1	48492918	2019-01-03 17:40:34	5:40:34 PM	48492918186460.2895625PLM029	PLM029
	1604	7799008901190		1	1	48492918	2019-01-03 17:40:42	5:40:42 PM	48492918186460.2895625PLM029	PLM029
	1605	7799008935652		1	1	48492918	2019-01-03 17:41:29	5:41:29 PM	48492918186460.2895625PLM029	PLM029
	1607	7799008935669		1	1	48492918	2019-01-03 17:41:40	5:41:40 PM	48492918186460.2895625PLM029	PLM029
	1607	7799008935669		1	1	48492918	2019-01-03 17:41:41	5:41:41 PM	48492918186460.2895625PLM029	PLM029
	1608	7799008963327		1	1	48492918	2019-01-03 17:42:06	5:42:06 PM	48492918186460.2895625PLM029	PLM029
	1608	7799008963327		1	1	48492918	2019-01-03 17:42:09	5:42:09 PM	48492918186460.2895625PLM029	PLM029
	1608	7799008963327		1	1	48492918	2019-01-03 17:42:11	5:42:11 PM	48492918186460.2895625PLM029	PLM029
	1608	7799008963327		1	1	48492918	2019-01-03 17:42:14	5:42:14 PM	48492918186460.2895625PLM029	PLM029
	1608	7799008935669		1	1	48492918	2019-01-03 17:42:18	5:42:18 PM	48492918186460.2895625PLM029	PLM029
	1608	7799008963327		1	1	48492918	2019-01-03 17:42:23	5:42:23 PM	48492918186460.2895625PLM029	PLM029
	1608	7799008963327		1	1	48492918	2019-01-03 17:42:24	5:42:24 PM	48492918186460.2895625PLM029	PLM029
	1608	7799008963327		1	1	48492918	2019-01-03 17:42:26	5:42:26 PM	48492918186460.2895625PLM029	PLM029
	1608	7799008963327		1	1	48492918	2019-01-03 17:42:31	5:42:31 PM	48492918186460.2895625PLM029	PLM029
	1608	7799008963327		1	1	48492918	2019-01-03 17:42:34	5:42:34 PM	48492918186460.2895625PLM029	PLM029
	1608	7799008963327		1	1	48492918	2019-01-03 17:42:40	5:42:40 PM	48492918186460.2895625PLM029	PLM029
	1608	7799008963327		1	1	48492918	2019-01-03 17:42:43	5:42:43 PM	48492918186460.2895625PLM029	PLM029
	1608	7799008963327		1	1	48492918	2019-01-03 17:42:53	5:42:53 PM	48492918186460.2895625PLM029	PLM029
	1608	7799008963327		1	1	48492918	2019-01-03 17:42:57	5:42:57 PM	48492918186460.2895625PLM029	PLM029
	1613	7799008999821		1	1	48492918	2019-01-03 17:43:39	5:43:39 PM	48492918186460.2895625PLM029	PLM029
	1613	7799008999821		1	1	48492918	2019-01-03 17:43:44	5:43:44 PM	48492918186460.2895625PLM029	PLM029
	1613	7799008999821		1	1	48492918	2019-01-03 17:43:46	5:43:46 PM	48492918186460.2895625PLM029	PLM029
	1613	7799008999821		1	1	48492918	2019-01-03 17:43:50	5:43:50 PM	48492918186460.2895625PLM029	PLM029
	1613	7799008999821		1	1	48492918	2019-01-03 17:43:53	5:43:53 PM	48492918186460.2895625PLM029	PLM029
	1613	7799008999821		1	1	48492918	2019-01-03 17:43:56	5:43:56 PM	48492918186460.2895625PLM029	PLM029
	1613	7799008999821		1	1	48492918	2019-01-03 17:43:58	5:43:58 PM	48492918186460.2895625PLM029	PLM029
	1613	7799008999821		1	1	48492918	2019-01-03 17:43:59	5:43:59 PM	48492918186460.2895625PLM029	PLM029
	1613	7799008999821		1	1	48492918	2019-01-03 17:44:04	5:44:04 PM	48492918186460.2895625PLM029	PLM029
	1613	7799008999821		1	1	48492918	2019-01-03 17:44:08	5:44:08 PM	48492918186460.2895625PLM029	PLM029
	1613	7799008999821		1	1	48492918	2019-01-03 17:44:10	5:44:10 PM	48492918186460.2895625PLM029	PLM029
	1615	7799008901695		1	1	48492918	2019-01-03 17:45:35	5:45:35 PM	48492918186460.2895625PLM029	PLM029
	1615	7799008901695		1	1	48492918	2019-01-03 17:45:39	5:45:39 PM	48492918186460.2895625PLM029	PLM029
	1615	7799008901695		1	1	48492918	2019-01-03 17:45:42	5:45:42 PM	48492918186460.2895625PLM029	PLM029
	1615	7799008901695		1	1	48492918	2019-01-03 17:45:45	5:45:45 PM	48492918186460.2895625PLM029	PLM029
	1615	7799008901695		1	1	48492918	2019-01-03 17:45:47	5:45:47 PM	48492918186460.2895625PLM029	PLM029
	1615	7799008901695		1	1	48492918	2019-01-03 17:45:49	5:45:49 PM	48492918186460.2895625PLM029	PLM029
	1615	7799008901695		1	1	48492918	2019-01-03 17:45:51	5:45:51 PM	48492918186460.2895625PLM029	PLM029
	1615	7799008901695		1	1	48492918	2019-01-03 17:45:53	5:45:53 PM	48492918186460.2895625PLM029	PLM029
	1615	7799008901695		1	1	48492918	2019-01-03 17:45:55	5:45:55 PM	48492918186460.2895625PLM029	PLM029
	1615	7799008901695		1	1	48492918	2019-01-03 17:46:00	5:46:00 PM	48492918186460.2895625PLM029	PLM029
	1615	7799008901695		1	1	48492918	2019-01-03 17:46:02	5:46:02 PM	48492918186460.2895625PLM029	PLM029
	1615	7799008901695		1	1	48492918	2019-01-03 17:46:05	5:46:05 PM	48492918186460.2895625PLM029	PLM029
	1615	7799008901695		1	1	48492918	2019-01-03 17:46:16	5:46:16 PM	48492918186460.2895625PLM029	PLM029
	1615	7799008901695		1	1	48492918	2019-01-03 17:46:18	5:46:18 PM	48492918186460.2895625PLM029	PLM029
	1615	7799008901695		1	1	48492918	2019-01-03 17:46:21	5:46:21 PM	48492918186460.2895625PLM029	PLM029
	1615	7799008901695		1	1	48492918	2019-01-03 17:46:25	5:46:25 PM	48492918186460.2895625PLM029	PLM029
	1615	7799008901695		1	1	48492918	2019-01-03 17:46:27	5:46:27 PM	48492918186460.2895625PLM029	PLM029
	1615	7799008901695		1	1	48492918	2019-01-03 17:46:30	5:46:30 PM	48492918186460.2895625PLM029	PLM029
	1615	7799008901695		1	1	48492918	2019-01-03 17:46:33	5:46:33 PM	48492918186460.2895625PLM029	PLM029
	1615	7799008901695		1	1	48492918	2019-01-03 17:46:36	5:46:36 PM	48492918186460.2895625PLM029	PLM029
	1615	7799008901695		1	1	48492918	2019-01-03 17:46:39	5:46:39 PM	48492918186460.2895625PLM029	PLM029
	1615	7799008901695		1	1	48492918	2019-01-03 17:46:42	5:46:42 PM	48492918186460.2895625PLM029	PLM029
	1615	7799008901695		1	1	48492918	2019-01-03 17:46:46	5:46:46 PM	48492918186460.2895625PLM029	PLM029
	1615	7799008901695		1	1	48492918	2019-01-03 17:46:48	5:46:48 PM	48492918186460.2895625PLM029	PLM029
	1615	7799008901695		1	1	48492918	2019-01-03 17:46:53	5:46:53 PM	48492918186460.2895625PLM029	PLM029
	1615	7799008901695		1	1	48492918	2019-01-03 17:46:54	5:46:54 PM	48492918186460.2895625PLM029	PLM029
	1615	7799008901695		1	1	48492918	2019-01-03 17:46:59	5:46:59 PM	48492918186460.2895625PLM029	PLM029
	1615	7799008901695		1	1	48492918	2019-01-03 17:47:02	5:47:02 PM	48492918186460.2895625PLM029	PLM029
	1615	7799008901695		1	1	48492918	2019-01-03 17:47:06	5:47:06 PM	48492918186460.2895625PLM029	PLM029
	1615	7799008901695		1	1	48492918	2019-01-03 17:47:11	5:47:11 PM	48492918186460.2895625PLM029	PLM029
	1615	7799008901695		1	1	48492918	2019-01-03 17:47:13	5:47:13 PM	48492918186460.2895625PLM029	PLM029
	1615	7799008901695		1	1	48492918	2019-01-03 17:47:21	5:47:21 PM	48492918186460.2895625PLM029	PLM029
	1615	7799008901695		1	1	48492918	2019-01-03 17:47:27	5:47:27 PM	48492918186460.2895625PLM029	PLM029
	1615	7799008901695		1	1	48492918	2019-01-03 17:47:29	5:47:29 PM	48492918186460.2895625PLM029	PLM029
	1615	7799008901695		1	1	48492918	2019-01-03 17:47:33	5:47:33 PM	48492918186460.2895625PLM029	PLM029
	1615	7799008901695		1	1	48492918	2019-01-03 17:47:34	5:47:34 PM	48492918186460.2895625PLM029	PLM029
	1615	7799008901695		1	1	48492918	2019-01-03 17:47:36	5:47:36 PM	48492918186460.2895625PLM029	PLM029
	1615	7799008901695		1	1	48492918	2019-01-03 17:47:38	5:47:38 PM	48492918186460.2895625PLM029	PLM029
	1615	7799008901695		1	1	48492918	2019-01-03 17:47:42	5:47:42 PM	48492918186460.2895625PLM029	PLM029
	1615	7799008901695		1	1	48492918	2019-01-03 17:47:44	5:47:44 PM	48492918186460.2895625PLM029	PLM029
	1617	7799008999173		1	1	48492918	2019-01-03 17:48:18	5:48:18 PM	48492918186460.2895625PLM029	PLM029
	1617	7799008999173		1	1	48492918	2019-01-03 17:48:43	5:48:43 PM	48492918186460.2895625PLM029	PLM029
	1619	7799008999180		1	1	48492918	2019-01-03 17:49:26	5:49:26 PM	48492918186460.2895625PLM029	PLM029
	1619	7799008999180		1	1	48492918	2019-01-03 17:49:30	5:49:30 PM	48492918186460.2895625PLM029	PLM029
	1619	7799008999180		1	1	48492918	2019-01-03 17:49:35	5:49:35 PM	48492918186460.2895625PLM029	PLM029
	1618	7799008999180		1	1	48492918	2019-01-03 17:49:58	5:49:58 PM	48492918186460.2895625PLM029	PLM029
	1618	7799008999180		1	1	48492918	2019-01-03 17:50:02	5:50:02 PM	48492918186460.2895625PLM029	PLM029
	1618	7799008999180		1	1	48492918	2019-01-03 17:50:11	5:50:11 PM	48492918186460.2895625PLM029	PLM029
	1618	7799008999180		1	1	48492918	2019-01-03 17:50:20	5:50:20 PM	48492918186460.2895625PLM029	PLM029
	1620	7799021081862		1	1	48492918	2019-01-03 17:50:49	5:50:49 PM	48492918186460.2895625PLM029	PLM029
	1620	7799021081862		1	1	48492918	2019-01-03 17:50:52	5:50:52 PM	48492918186460.2895625PLM029	PLM029
	1620	7799021081862		1	1	48492918	2019-01-03 17:50:57	5:50:57 PM	48492918186460.2895625PLM029	PLM029
	1621	7799008935249		1	1	48492918	2019-01-03 17:51:15	5:51:15 PM	48492918186460.2895625PLM029	PLM029
	1621	7799008935249		1	1	48492918	2019-01-03 17:51:16	5:51:16 PM	48492918186460.2895625PLM029	PLM029
	1621	7799008935249		1	1	48492918	2019-01-03 17:51:23	5:51:23 PM	48492918186460.2895625PLM029	PLM029
	1621	7799008935249		1	1	48492918	2019-01-03 17:51:23	5:51:23 PM	48492918186460.2895625PLM029	PLM029
	1621	7799008935249		1	1	48492918	2019-01-03 17:51:33	5:51:33 PM	48492918186460.2895625PLM029	PLM029
	1622	7799008935249		1	1	48492918	2019-01-03 17:51:52	5:51:52 PM	48492918186460.2895625PLM029	PLM029
	1622	7799008935249		1	1	48492918	2019-01-03 17:51:53	5:51:53 PM	48492918186460.2895625PLM029	PLM029
	1622	7799008935249		1	1	48492918	2019-01-03 17:52:01	5:52:01 PM	48492918186460.2895625PLM029	PLM029
	1622	7799008935249		1	1	48492918	2019-01-03 17:52:01	5:52:01 PM	48492918186460.2895625PLM029	PLM029
	1624	7799008998855		1	1	48492918	2019-01-03 17:52:48	5:52:48 PM	48492918186460.2895625PLM029	PLM029
	1625	7799021018622		1	1	48492918	2019-01-03 17:53:08	5:53:08 PM	48492918186460.2895625PLM029	PLM029
	1626	7799021018622		1	1	48492918	2019-01-03 17:53:24	5:53:24 PM	48492918186460.2895625PLM029	PLM029
	1626	7799021018622		1	1	48492918	2019-01-03 17:53:29	5:53:29 PM	48492918186460.2895625PLM029	PLM029
	1626	7799021018622		1	1	48492918	2019-01-03 17:53:30	5:53:30 PM	48492918186460.2895625PLM029	PLM029
	1627	7799008901718		1	1	48492918	2019-01-03 17:53:44	5:53:44 PM	48492918186460.2895625PLM029	PLM029
	1627	7799008901718		1	1	48492918	2019-01-03 17:53:47	5:53:47 PM	48492918186460.2895625PLM029	PLM029
	1627	7799008901718		1	1	48492918	2019-01-03 17:53:49	5:53:49 PM	48492918186460.2895625PLM029	PLM029
	1628	7799008901718		1	1	48492918	2019-01-03 17:54:05	5:54:05 PM	48492918186460.2895625PLM029	PLM029
	1628	7799008901718		1	1	48492918	2019-01-03 17:54:10	5:54:10 PM	48492918186460.2895625PLM029	PLM029
	1628	7799008901718		1	1	48492918	2019-01-03 17:54:12	5:54:12 PM	48492918186460.2895625PLM029	PLM029
	1628	7799008901718		1	1	48492918	2019-01-03 17:54:18	5:54:18 PM	48492918186460.2895625PLM029	PLM029
	1629	7799008934945		1	1	48492918	2019-01-03 17:54:34	5:54:34 PM	48492918186460.2895625PLM029	PLM029
	1630	7799021018615		1	1	48492918	2019-01-03 17:55:00	5:55:00 PM	48492918186460.2895625PLM029	PLM029
	1630	7799021018615		1	1	48492918	2019-01-03 17:55:01	5:55:01 PM	48492918186460.2895625PLM029	PLM029
	1630	7799021018615		1	1	48492918	2019-01-03 17:55:01	5:55:01 PM	48492918186460.2895625PLM029	PLM029
	1630	7799021018615		1	1	48492918	2019-01-03 17:55:02	5:55:02 PM	48492918186460.2895625PLM029	PLM029
	1630	7799021018615		1	1	48492918	2019-01-03 17:55:03	5:55:03 PM	48492918186460.2895625PLM029	PLM029
	1630	7799021018615		1	1	48492918	2019-01-03 17:55:07	5:55:07 PM	48492918186460.2895625PLM029	PLM029
	1630	7799021018615		1	1	48492918	2019-01-03 17:55:11	5:55:11 PM	48492918186460.2895625PLM029	PLM029
	1631	7799021018615		1	1	48492918	2019-01-03 17:55:37	5:55:37 PM	48492918186460.2895625PLM029	PLM029
	1631	7799021018615		1	1	48492918	2019-01-03 17:55:37	5:55:37 PM	48492918186460.2895625PLM029	PLM029
	1631	7799021018615		1	1	48492918	2019-01-03 17:55:38	5:55:38 PM	48492918186460.2895625PLM029	PLM029
	1631	7799021018615		1	1	48492918	2019-01-03 17:55:39	5:55:39 PM	48492918186460.2895625PLM029	PLM029
	1631	7799021018615		1	1	48492918	2019-01-03 17:55:41	5:55:41 PM	48492918186460.2895625PLM029	PLM029
	1631	7799021018615		1	1	48492918	2019-01-03 17:55:46	5:55:46 PM	48492918186460.2895625PLM029	PLM029
	1631	7799021018615		1	1	48492918	2019-01-03 17:55:50	5:55:50 PM	48492918186460.2895625PLM029	PLM029
	1632	7799008993867		1	1	48492918	2019-01-03 17:56:21	5:56:21 PM	48492918186460.2895625PLM029	PLM029
	1632	7799008993867		1	1	48492918	2019-01-03 17:56:22	5:56:22 PM	48492918186460.2895625PLM029	PLM029
	1632	7799008993867		1	1	48492918	2019-01-03 17:56:23	5:56:23 PM	48492918186460.2895625PLM029	PLM029
	1633	7799008993867		1	1	48492918	2019-01-03 17:56:44	5:56:44 PM	48492918186460.2895625PLM029	PLM029
	1634	7799008901145		1	1	48492918	2019-01-03 17:57:20	5:57:20 PM	48492918186460.2895625PLM029	PLM029
	1634	7799008901145		1	1	48492918	2019-01-03 17:57:20	5:57:20 PM	48492918186460.2895625PLM029	PLM029
	1634	7799008935614		1	1	48492918	2019-01-03 17:57:26	5:57:26 PM	48492918186460.2895625PLM029	PLM029
	1634	7799008901145		1	1	48492918	2019-01-03 17:57:31	5:57:31 PM	48492918186460.2895625PLM029	PLM029
	1635	7799008954769		1	1	48492918	2019-01-03 17:57:54	5:57:54 PM	48492918186460.2895625PLM029	PLM029
	1636	7799008993454		1	1	48492918	2019-01-03 17:58:10	5:58:10 PM	48492918186460.2895625PLM029	PLM029
	1636	7799008993454		1	1	48492918	2019-01-03 17:58:15	5:58:15 PM	48492918186460.2895625PLM029	PLM029
	1637	7799021081855		1	1	48492918	2019-01-03 17:58:44	5:58:44 PM	48492918186460.2895625PLM029	PLM029
	1637	7799021081855		1	1	48492918	2019-01-03 17:58:49	5:58:49 PM	48492918186460.2895625PLM029	PLM029
	1637	7799021081855		1	1	48492918	2019-01-03 17:59:00	5:59:00 PM	48492918186460.2895625PLM029	PLM029
	1637	7799021081855		1	1	48492918	2019-01-03 17:59:02	5:59:02 PM	48492918186460.2895625PLM029	PLM029
	1637	7799021081855		1	1	48492918	2019-01-03 17:59:04	5:59:04 PM	48492918186460.2895625PLM029	PLM029
	1637	7799021081855		1	1	48492918	2019-01-03 17:59:07	5:59:07 PM	48492918186460.2895625PLM029	PLM029
	1637	7799021081855		1	1	48492918	2019-01-03 17:59:09	5:59:09 PM	48492918186460.2895625PLM029	PLM029
	1637	7799021081855		1	1	48492918	2019-01-03 17:59:12	5:59:12 PM	48492918186460.2895625PLM029	PLM029
	1637	7799021081855		1	1	48492918	2019-01-03 17:59:13	5:59:13 PM	48492918186460.2895625PLM029	PLM029
	1637	7799021081855		1	1	48492918	2019-01-03 17:59:19	5:59:19 PM	48492918186460.2895625PLM029	PLM029
	1637	7799021081855		1	1	48492918	2019-01-03 17:59:22	5:59:22 PM	48492918186460.2895625PLM029	PLM029
	1638	7799008993850		1	1	48492918	2019-01-03 17:59:41	5:59:41 PM	48492918186460.2895625PLM029	PLM029
	1639	7799008901206		1	1	48492918	2019-01-03 18:00:11	6:00:11 PM	48492918186460.2895625PLM029	PLM029
	1639	7799008901206		1	1	48492918	2019-01-03 18:00:23	6:00:23 PM	48492918186460.2895625PLM029	PLM029
	1640	7799008901206		1	1	48492918	2019-01-03 18:00:47	6:00:47 PM	48492918186460.2895625PLM029	PLM029
	1640	7799008901206		1	1	48492918	2019-01-03 18:00:52	6:00:52 PM	48492918186460.2895625PLM029	PLM029
	1641	7799008901206		1	1	48492918	2019-01-03 18:01:32	6:01:32 PM	48492918186460.2895625PLM029	PLM029
	1641	7799008901206		1	1	48492918	2019-01-03 18:01:35	6:01:35 PM	48492918186460.2895625PLM029	PLM029
	1641	7799008901206		1	1	48492918	2019-01-03 18:01:37	6:01:37 PM	48492918186460.2895625PLM029	PLM029
	1641	7799008901206		1	1	48492918	2019-01-03 18:01:44	6:01:44 PM	48492918186460.2895625PLM029	PLM029
	1641	7799008901206		1	1	48492918	2019-01-03 18:01:51	6:01:51 PM	48492918186460.2895625PLM029	PLM029
	1641	7799008901206		1	1	48492918	2019-01-03 18:01:59	6:01:59 PM	48492918186460.2895625PLM029	PLM029
	1641	7799008901206		1	1	48492918	2019-01-03 18:02:09	6:02:09 PM	48492918186460.2895625PLM029	PLM029
	1641	7799008901206		1	1	48492918	2019-01-03 18:02:30	6:02:30 PM	48492918186460.2895625PLM029	PLM029
	1642	7799008901206		1	1	48492918	2019-01-03 18:03:40	6:03:40 PM	48492918186460.2895625PLM029	PLM029
	1642	7799008901206		1	1	48492918	2019-01-03 18:03:43	6:03:43 PM	48492918186460.2895625PLM029	PLM029
	1642	7799008901206		1	1	48492918	2019-01-03 18:03:45	6:03:45 PM	48492918186460.2895625PLM029	PLM029
	1642	7799008901206		1	1	48492918	2019-01-03 18:03:46	6:03:46 PM	48492918186460.2895625PLM029	PLM029
	1642	7799008901206		1	1	48492918	2019-01-03 18:03:55	6:03:55 PM	48492918186460.2895625PLM029	PLM029
	1642	7799008901206		1	1	48492918	2019-01-03 18:03:58	6:03:58 PM	48492918186460.2895625PLM029	PLM029
	1642	7799008901206		1	1	48492918	2019-01-03 18:04:00	6:04:00 PM	48492918186460.2895625PLM029	PLM029
	1643	7799008993911		1	1	48492918	2019-01-03 18:04:51	6:04:51 PM	48492918186460.2895625PLM029	PLM029
	1644	7799008999845		1	1	48492918	2019-01-03 18:05:08	6:05:08 PM	48492918186460.2895625PLM029	PLM029
	1644	7799008999845		1	1	48492918	2019-01-03 18:05:09	6:05:09 PM	48492918186460.2895625PLM029	PLM029
	1644	7799008999845		1	1	48492918	2019-01-03 18:05:11	6:05:11 PM	48492918186460.2895625PLM029	PLM029
	1644	7799008999845		1	1	48492918	2019-01-03 18:05:13	6:05:13 PM	48492918186460.2895625PLM029	PLM029
	1645	7799008999845		1	1	48492918	2019-01-03 18:05:25	6:05:25 PM	48492918186460.2895625PLM029	PLM029
	1645	7799008999845		1	1	48492918	2019-01-03 18:05:26	6:05:26 PM	48492918186460.2895625PLM029	PLM029
	1645	7799008999845		1	1	48492918	2019-01-03 18:05:28	6:05:28 PM	48492918186460.2895625PLM029	PLM029
	1646	7799008901237		1	1	48492918	2019-01-03 18:05:41	6:05:41 PM	48492918186460.2895625PLM029	PLM029
	1646	7799008901237		1	1	48492918	2019-01-03 18:05:42	6:05:42 PM	48492918186460.2895625PLM029	PLM029
	1647	7799008934938		1	1	48492918	2019-01-03 18:05:53	6:05:53 PM	48492918186460.2895625PLM029	PLM029
	1648	7799008935140		1	1	48492918	2019-01-03 18:06:12	6:06:12 PM	48492918186460.2895625PLM029	PLM029
