	8027	7799008447070		1	1	70853171	2013-01-10 10:33:04	10:33:04 AM	708531711119400.01401764PLM062	PLM062
	8027	7799008447070		1	1	70853171	2013-01-10 10:33:10	10:33:10 AM	708531711119400.01401764PLM062	PLM062
	8027	7799008341224		1	1	70853171	2013-01-10 10:33:29	10:33:29 AM	708531711119400.01401764PLM062	PLM062
	8027	74480601		1	1	70853171	2013-01-10 10:33:54	10:33:54 AM	708531711119400.01401764PLM062	PLM062
	8027	7799008225944		1	1	70853171	2013-01-10 10:33:58	10:33:58 AM	708531711119400.01401764PLM062	PLM062
	8027	7799008458731		1	1	70853171	2013-01-10 10:34:11	10:34:11 AM	708531711119400.01401764PLM062	PLM062
	8027	73194901		1	1	70853171	2013-01-10 10:35:14	10:35:14 AM	708531711119400.01401764PLM062	PLM062
	8027	7799008083230		1	1	70853171	2013-01-10 10:35:27	10:35:27 AM	708531711119400.01401764PLM062	PLM062
	8027	7799008438948		1	1	70853171	2013-01-10 10:35:31	10:35:31 AM	708531711119400.01401764PLM062	PLM062
	8027	7799008438948		1	1	70853171	2013-01-10 10:35:36	10:35:36 AM	708531711119400.01401764PLM062	PLM062
	8027	7799008440460		1	1	70853171	2013-01-10 10:36:01	10:36:01 AM	708531711119400.01401764PLM062	PLM062
	8027	73155901		1	1	70853171	2013-01-10 10:36:31	10:36:31 AM	708531711119400.01401764PLM062	PLM062
	8027	7799008287003		1	1	70853171	2013-01-10 10:36:41	10:36:41 AM	708531711119400.01401764PLM062	PLM062
	8027	7799008248790		1	1	70853171	2013-01-10 10:36:55	10:36:55 AM	708531711119400.01401764PLM062	PLM062
	8027	73149601		1	1	70853171	2013-01-10 10:37:08	10:37:08 AM	708531711119400.01401764PLM062	PLM062
	8027	7799008532134		1	1	70853171	2013-01-10 10:37:14	10:37:14 AM	708531711119400.01401764PLM062	PLM062
	8027	7793730907314		1	1	70853171	2013-01-10 10:37:23	10:37:23 AM	708531711119400.01401764PLM062	PLM062
	8027	7799008532233		1	1	70853171	2013-01-10 10:37:42	10:37:42 AM	708531711119400.01401764PLM062	PLM062
	8027	7799008265001		1	1	70853171	2013-01-10 10:38:04	10:38:04 AM	708531711119400.01401764PLM062	PLM062
	8027	7799008108834		1	1	70853171	2013-01-10 10:38:29	10:38:29 AM	708531711119400.01401764PLM062	PLM062
	8027	7799008220581		1	1	70853171	2013-01-10 10:38:45	10:38:45 AM	708531711119400.01401764PLM062	PLM062
	8027	7799008560120		1	1	70853171	2013-01-10 10:39:03	10:39:03 AM	708531711119400.01401764PLM062	PLM062
	8027	7799008039053		1	1	70853171	2013-01-10 10:39:31	10:39:31 AM	708531711119400.01401764PLM062	PLM062
	8027	7799008447087		1	1	70853171	2013-01-10 10:39:46	10:39:46 AM	708531711119400.01401764PLM062	PLM062
	8027	73012415		1	1	70853171	2013-01-10 10:40:04	10:40:04 AM	708531711119400.01401764PLM062	PLM062
	8027	73197201		1	1	70853171	2013-01-10 10:40:54	10:40:54 AM	708531711119400.01401764PLM062	PLM062
	8027	7799008442723		1	1	70853171	2013-01-10 10:41:15	10:41:15 AM	708531711119400.01401764PLM062	PLM062
	8027	75227601		1	1	70853171	2013-01-10 10:41:41	10:41:41 AM	708531711119400.01401764PLM062	PLM062
	8027	7799008269597		1	1	70853171	2013-01-10 10:41:47	10:41:47 AM	708531711119400.01401764PLM062	PLM062
	8027	7799008447193		1	1	70853171	2013-01-10 10:41:55	10:41:55 AM	708531711119400.01401764PLM062	PLM062
	8027	7799008381442		1	1	70853171	2013-01-10 10:42:27	10:42:27 AM	708531711119400.01401764PLM062	PLM062
	8027	71079302		1	1	70853171	2013-01-10 10:42:48	10:42:48 AM	708531711119400.01401764PLM062	PLM062
	8027	71079302		1	1	70853171	2013-01-10 10:42:51	10:42:51 AM	708531711119400.01401764PLM062	PLM062
	8027	71079302		1	1	70853171	2013-01-10 10:42:55	10:42:55 AM	708531711119400.01401764PLM062	PLM062
	8027	7799008101545		1	1	70853171	2013-01-10 10:42:57	10:42:57 AM	708531711119400.01401764PLM062	PLM062
	8027	71473801		1	1	70853171	2013-01-10 10:43:03	10:43:03 AM	708531711119400.01401764PLM062	PLM062
	8027	71079302		1	1	70853171	2013-01-10 10:43:07	10:43:07 AM	708531711119400.01401764PLM062	PLM062
	8027	71079302		1	1	70853171	2013-01-10 10:43:10	10:43:10 AM	708531711119400.01401764PLM062	PLM062
	8027	71079302		1	1	70853171	2013-01-10 10:43:13	10:43:13 AM	708531711119400.01401764PLM062	PLM062
	8027	7799008101545		1	1	70853171	2013-01-10 10:43:17	10:43:17 AM	708531711119400.01401764PLM062	PLM062
	8027	7799008100258		1	1	70853171	2013-01-10 10:43:20	10:43:20 AM	708531711119400.01401764PLM062	PLM062
	8027	71451301		1	1	70853171	2013-01-10 10:43:25	10:43:25 AM	708531711119400.01401764PLM062	PLM062
	8027	7799008101545		1	1	70853171	2013-01-10 10:43:31	10:43:31 AM	708531711119400.01401764PLM062	PLM062
	8027	71079302		1	1	70853171	2013-01-10 10:43:37	10:43:37 AM	708531711119400.01401764PLM062	PLM062
	8027	71079302		1	1	70853171	2013-01-10 10:43:42	10:43:42 AM	708531711119400.01401764PLM062	PLM062
	8027	71079302		1	1	70853171	2013-01-10 10:43:56	10:43:56 AM	708531711119400.01401764PLM062	PLM062
	8027	71079302		1	1	70853171	2013-01-10 10:43:58	10:43:58 AM	708531711119400.01401764PLM062	PLM062
	8027	71079302		1	1	70853171	2013-01-10 10:44:01	10:44:01 AM	708531711119400.01401764PLM062	PLM062
	8027	7799008153841		1	1	70853171	2013-01-10 10:44:07	10:44:07 AM	708531711119400.01401764PLM062	PLM062
	8027	7799008393322		1	1	70853171	2013-01-10 10:44:09	10:44:09 AM	708531711119400.01401764PLM062	PLM062
	8027	71079302		1	1	70853171	2013-01-10 10:44:13	10:44:13 AM	708531711119400.01401764PLM062	PLM062
	8027	7799008393612		1	1	70853171	2013-01-10 10:44:19	10:44:19 AM	708531711119400.01401764PLM062	PLM062
	8027	71079302		1	1	70853171	2013-01-10 10:44:32	10:44:32 AM	708531711119400.01401764PLM062	PLM062
	8027	7793730841601		1	1	70853171	2013-01-10 10:44:38	10:44:38 AM	708531711119400.01401764PLM062	PLM062
	8027	71079302		1	1	70853171	2013-01-10 10:44:41	10:44:41 AM	708531711119400.01401764PLM062	PLM062
	8027	7799008590974		1	1	70853171	2013-01-10 10:45:15	10:45:15 AM	708531711119400.01401764PLM062	PLM062
	8027	7799008590974		1	1	70853171	2013-01-10 10:45:23	10:45:23 AM	708531711119400.01401764PLM062	PLM062
	8027	7799008590974		1	1	70853171	2013-01-10 10:45:45	10:45:45 AM	708531711119400.01401764PLM062	PLM062
	8027	7799008590974		1	1	70853171	2013-01-10 10:46:40	10:46:40 AM	708531711119400.01401764PLM062	PLM062
	8027	7799008590974		1	1	70853171	2013-01-10 10:46:49	10:46:49 AM	708531711119400.01401764PLM062	PLM062
	8027	7799008590974		1	1	70853171	2013-01-10 10:47:11	10:47:11 AM	708531711119400.01401764PLM062	PLM062
	8027	7799008590974		1	1	70853171	2013-01-10 10:47:37	10:47:37 AM	708531711119400.01401764PLM062	PLM062
	8027	7799008590974		1	1	70853171	2013-01-10 10:47:51	10:47:51 AM	708531711119400.01401764PLM062	PLM062
	8027	7799008590974		1	1	70853171	2013-01-10 10:47:58	10:47:58 AM	708531711119400.01401764PLM062	PLM062
	8027	7799008590974		1	1	70853171	2013-01-10 10:48:06	10:48:06 AM	708531711119400.01401764PLM062	PLM062
	8027	7799008590974		1	1	70853171	2013-01-10 10:48:18	10:48:18 AM	708531711119400.01401764PLM062	PLM062
	8027	7799008590974		1	1	70853171	2013-01-10 10:48:24	10:48:24 AM	708531711119400.01401764PLM062	PLM062
	8027	7799008590974		1	1	70853171	2013-01-10 10:48:46	10:48:46 AM	708531711119400.01401764PLM062	PLM062
	8027	7799008590974		1	1	70853171	2013-01-10 10:49:01	10:49:01 AM	708531711119400.01401764PLM062	PLM062
	8027	7799008590974		1	1	70853171	2013-01-10 10:49:13	10:49:13 AM	708531711119400.01401764PLM062	PLM062
	8027	7799008590974		1	1	70853171	2013-01-10 10:49:20	10:49:20 AM	708531711119400.01401764PLM062	PLM062
	8027	7799008590974		1	1	70853171	2013-01-10 10:49:27	10:49:27 AM	708531711119400.01401764PLM062	PLM062
	8027	7799008590974		1	1	70853171	2013-01-10 10:49:36	10:49:36 AM	708531711119400.01401764PLM062	PLM062
	8027	7799008590974		1	1	70853171	2013-01-10 10:49:56	10:49:56 AM	708531711119400.01401764PLM062	PLM062
	8027	7799008590974		1	1	70853171	2013-01-10 10:50:32	10:50:32 AM	708531711119400.01401764PLM062	PLM062
	8027	7799008590974		1	1	70853171	2013-01-10 10:50:55	10:50:55 AM	708531711119400.01401764PLM062	PLM062
	8027	7799008590974		1	1	70853171	2013-01-10 10:51:03	10:51:03 AM	708531711119400.01401764PLM062	PLM062
	8031	73037902		1	1	70853171	2013-01-10 10:56:36	10:56:36 AM	708531711119400.01401764PLM062	PLM062
	8031	72014001		1	1	70853171	2013-01-10 10:56:43	10:56:43 AM	708531711119400.01401764PLM062	PLM062
	8031	73009404		1	1	70853171	2013-01-10 10:56:56	10:56:56 AM	708531711119400.01401764PLM062	PLM062
	8031	73009404		1	1	70853171	2013-01-10 10:56:59	10:56:59 AM	708531711119400.01401764PLM062	PLM062
	8031	73009404		1	1	70853171	2013-01-10 10:57:04	10:57:04 AM	708531711119400.01401764PLM062	PLM062
	8031	73009404		1	1	70853171	2013-01-10 10:57:09	10:57:09 AM	708531711119400.01401764PLM062	PLM062
	8031	73009404		1	1	70853171	2013-01-10 10:57:14	10:57:14 AM	708531711119400.01401764PLM062	PLM062
	8031	73009404		1	1	70853171	2013-01-10 10:57:21	10:57:21 AM	708531711119400.01401764PLM062	PLM062
	8031	73009404		1	1	70853171	2013-01-10 10:57:23	10:57:23 AM	708531711119400.01401764PLM062	PLM062
	8031	73009404		1	1	70853171	2013-01-10 10:57:27	10:57:27 AM	708531711119400.01401764PLM062	PLM062
	8031	73009404		1	1	70853171	2013-01-10 10:57:33	10:57:33 AM	708531711119400.01401764PLM062	PLM062
	8031	73009404		1	1	70853171	2013-01-10 10:57:42	10:57:42 AM	708531711119400.01401764PLM062	PLM062
	8031	73009404		1	1	70853171	2013-01-10 10:57:51	10:57:51 AM	708531711119400.01401764PLM062	PLM062
	8031	73009404		1	1	70853171	2013-01-10 10:57:55	10:57:55 AM	708531711119400.01401764PLM062	PLM062
	8031	73009404		1	1	70853171	2013-01-10 10:58:31	10:58:31 AM	708531711119400.01401764PLM062	PLM062
	8031	73009404		1	1	70853171	2013-01-10 10:58:35	10:58:35 AM	708531711119400.01401764PLM062	PLM062
	8031	73009404		1	1	70853171	2013-01-10 10:58:43	10:58:43 AM	708531711119400.01401764PLM062	PLM062
	8031	73009404		1	1	70853171	2013-01-10 10:58:55	10:58:55 AM	708531711119400.01401764PLM062	PLM062
	8031	73009404		1	1	70853171	2013-01-10 10:59:05	10:59:05 AM	708531711119400.01401764PLM062	PLM062
	8031	73009404		1	1	70853171	2013-01-10 10:59:09	10:59:09 AM	708531711119400.01401764PLM062	PLM062
	8031	73009404		1	1	70853171	2013-01-10 10:59:13	10:59:13 AM	708531711119400.01401764PLM062	PLM062
	8031	73009404		1	1	70853171	2013-01-10 10:59:16	10:59:16 AM	708531711119400.01401764PLM062	PLM062
	8031	73009404		1	1	70853171	2013-01-10 10:59:18	10:59:18 AM	708531711119400.01401764PLM062	PLM062
	8031	73009404		1	1	70853171	2013-01-10 10:59:21	10:59:21 AM	708531711119400.01401764PLM062	PLM062
	8031	73009404		1	1	70853171	2013-01-10 10:59:23	10:59:23 AM	708531711119400.01401764PLM062	PLM062
	8031	73009404		1	1	70853171	2013-01-10 10:59:28	10:59:28 AM	708531711119400.01401764PLM062	PLM062
	8031	73009404		1	1	70853171	2013-01-10 10:59:41	10:59:41 AM	708531711119400.01401764PLM062	PLM062
	8031	73009404		1	1	70853171	2013-01-10 11:00:03	11:00:03 AM	708531711119400.01401764PLM062	PLM062
	8031	73009404		1	1	70853171	2013-01-10 11:00:14	11:00:14 AM	708531711119400.01401764PLM062	PLM062
	8031	73009404		1	1	70853171	2013-01-10 11:00:25	11:00:25 AM	708531711119400.01401764PLM062	PLM062
	8031	73009404		1	1	70853171	2013-01-10 11:00:31	11:00:31 AM	708531711119400.01401764PLM062	PLM062
	8031	73009404		1	1	70853171	2013-01-10 11:00:35	11:00:35 AM	708531711119400.01401764PLM062	PLM062
	8031	73009404		1	1	70853171	2013-01-10 11:00:38	11:00:38 AM	708531711119400.01401764PLM062	PLM062
	8031	73009404		1	1	70853171	2013-01-10 11:00:40	11:00:40 AM	708531711119400.01401764PLM062	PLM062
	8031	73009404		1	1	70853171	2013-01-10 11:00:44	11:00:44 AM	708531711119400.01401764PLM062	PLM062
	8031	73009404		1	1	70853171	2013-01-10 11:00:48	11:00:48 AM	708531711119400.01401764PLM062	PLM062
	8031	73009404		1	1	70853171	2013-01-10 11:00:53	11:00:53 AM	708531711119400.01401764PLM062	PLM062
	8031	73009404		1	1	70853171	2013-01-10 11:00:57	11:00:57 AM	708531711119400.01401764PLM062	PLM062
	8031	73009404		1	1	70853171	2013-01-10 11:01:00	11:01:00 AM	708531711119400.01401764PLM062	PLM062
	8031	73009404		1	1	70853171	2013-01-10 11:01:03	11:01:03 AM	708531711119400.01401764PLM062	PLM062
	8031	73009404		1	1	70853171	2013-01-10 11:01:21	11:01:21 AM	708531711119400.01401764PLM062	PLM062
	8031	73009404		1	1	70853171	2013-01-10 11:01:28	11:01:28 AM	708531711119400.01401764PLM062	PLM062
	8031	73009404		1	1	70853171	2013-01-10 11:01:38	11:01:38 AM	708531711119400.01401764PLM062	PLM062
	8031	73009404		1	1	70853171	2013-01-10 11:01:48	11:01:48 AM	708531711119400.01401764PLM062	PLM062
	8031	73009404		1	1	70853171	2013-01-10 11:01:55	11:01:55 AM	708531711119400.01401764PLM062	PLM062
	8031	73009404		1	1	70853171	2013-01-10 11:02:01	11:02:01 AM	708531711119400.01401764PLM062	PLM062
	8031	73009404		1	1	70853171	2013-01-10 11:02:08	11:02:08 AM	708531711119400.01401764PLM062	PLM062
	8031	73009404		1	1	70853171	2013-01-10 11:02:15	11:02:15 AM	708531711119400.01401764PLM062	PLM062
	8031	73009404		1	1	70853171	2013-01-10 11:02:23	11:02:23 AM	708531711119400.01401764PLM062	PLM062
	8031	73009404		1	1	70853171	2013-01-10 11:02:30	11:02:30 AM	708531711119400.01401764PLM062	PLM062
	8031	73009404		1	1	70853171	2013-01-10 11:02:34	11:02:34 AM	708531711119400.01401764PLM062	PLM062
	8031	73009404		1	1	70853171	2013-01-10 11:02:40	11:02:40 AM	708531711119400.01401764PLM062	PLM062
	8031	73009404		1	1	70853171	2013-01-10 11:02:52	11:02:52 AM	708531711119400.01401764PLM062	PLM062
	8031	73009404		1	1	70853171	2013-01-10 11:03:05	11:03:05 AM	708531711119400.01401764PLM062	PLM062
	8031	73009404		1	1	70853171	2013-01-10 11:03:11	11:03:11 AM	708531711119400.01401764PLM062	PLM062
	8031	73009404		1	1	70853171	2013-01-10 11:03:22	11:03:22 AM	708531711119400.01401764PLM062	PLM062
	8031	73009404		1	1	70853171	2013-01-10 11:03:25	11:03:25 AM	708531711119400.01401764PLM062	PLM062
	8031	73009404		1	1	70853171	2013-01-10 11:03:30	11:03:30 AM	708531711119400.01401764PLM062	PLM062
	8031	73009404		1	1	70853171	2013-01-10 11:03:39	11:03:39 AM	708531711119400.01401764PLM062	PLM062
	8031	73009404		1	1	70853171	2013-01-10 11:03:48	11:03:48 AM	708531711119400.01401764PLM062	PLM062
	8031	73009404		1	1	70853171	2013-01-10 11:03:54	11:03:54 AM	708531711119400.01401764PLM062	PLM062
	8031	73009404		1	1	70853171	2013-01-10 11:04:05	11:04:05 AM	708531711119400.01401764PLM062	PLM062
	8031	73009404		1	1	70853171	2013-01-10 11:04:08	11:04:08 AM	708531711119400.01401764PLM062	PLM062
	8031	73009404		1	1	70853171	2013-01-10 11:04:15	11:04:15 AM	708531711119400.01401764PLM062	PLM062
	8034	73050808		1	1	70853171	2013-01-10 11:06:08	11:06:08 AM	708531711119400.01401764PLM062	PLM062
	8034	73937701		1	1	70853171	2013-01-10 11:06:15	11:06:15 AM	708531711119400.01401764PLM062	PLM062
	8034	73937701		1	1	70853171	2013-01-10 11:06:21	11:06:21 AM	708531711119400.01401764PLM062	PLM062
	8034	73937701		1	1	70853171	2013-01-10 11:06:36	11:06:36 AM	708531711119400.01401764PLM062	PLM062
	8034	73937701		1	1	70853171	2013-01-10 11:06:41	11:06:41 AM	708531711119400.01401764PLM062	PLM062
	8034	73937701		1	1	70853171	2013-01-10 11:06:47	11:06:47 AM	708531711119400.01401764PLM062	PLM062
	8034	74166604		1	1	70853171	2013-01-10 11:06:53	11:06:53 AM	708531711119400.01401764PLM062	PLM062
	8034	74166604		1	1	70853171	2013-01-10 11:06:58	11:06:58 AM	708531711119400.01401764PLM062	PLM062
	8034	74166604		1	1	70853171	2013-01-10 11:07:06	11:07:06 AM	708531711119400.01401764PLM062	PLM062
	8034	74166603		1	1	70853171	2013-01-10 11:07:12	11:07:12 AM	708531711119400.01401764PLM062	PLM062
	8034	73091402		1	1	70853171	2013-01-10 11:07:36	11:07:36 AM	708531711119400.01401764PLM062	PLM062
	8034	73063501		1	1	70853171	2013-01-10 11:08:54	11:08:54 AM	708531711119400.01401764PLM062	PLM062
	8034	73020010		1	1	70853171	2013-01-10 11:09:48	11:09:48 AM	708531711119400.01401764PLM062	PLM062
	8034	73029602		1	1	70853171	2013-01-10 11:09:58	11:09:58 AM	708531711119400.01401764PLM062	PLM062
	8034	73043801		1	1	70853171	2013-01-10 11:10:14	11:10:14 AM	708531711119400.01401764PLM062	PLM062
	8034	73029213		1	1	70853171	2013-01-10 11:10:30	11:10:30 AM	708531711119400.01401764PLM062	PLM062
	8034	73014901		1	1	70853171	2013-01-10 11:10:50	11:10:50 AM	708531711119400.01401764PLM062	PLM062
	8034	73014901		1	1	70853171	2013-01-10 11:10:52	11:10:52 AM	708531711119400.01401764PLM062	PLM062
	8034	73084901		1	1	70853171	2013-01-10 11:10:54	11:10:54 AM	708531711119400.01401764PLM062	PLM062
	8034	73084901		1	1	70853171	2013-01-10 11:10:58	11:10:58 AM	708531711119400.01401764PLM062	PLM062
	8034	73084901		1	1	70853171	2013-01-10 11:11:02	11:11:02 AM	708531711119400.01401764PLM062	PLM062
	8034	73084901		1	1	70853171	2013-01-10 11:11:08	11:11:08 AM	708531711119400.01401764PLM062	PLM062
	8034	92646612		1	1	70853171	2013-01-10 11:11:20	11:11:20 AM	708531711119400.01401764PLM062	PLM062
	8034	73059202		1	1	70853171	2013-01-10 11:11:34	11:11:34 AM	708531711119400.01401764PLM062	PLM062
	8034	73026001		1	1	70853171	2013-01-10 11:12:08	11:12:08 AM	708531711119400.01401764PLM062	PLM062
	8034	73029602		1	1	70853171	2013-01-10 11:12:25	11:12:25 AM	708531711119400.01401764PLM062	PLM062
	8034	73023817		1	1	70853171	2013-01-10 11:12:36	11:12:36 AM	708531711119400.01401764PLM062	PLM062
	8034	92646612		1	1	70853171	2013-01-10 11:12:44	11:12:44 AM	708531711119400.01401764PLM062	PLM062
	8034	73025909		1	1	70853171	2013-01-10 11:12:50	11:12:50 AM	708531711119400.01401764PLM062	PLM062
	8034	73952802		1	1	70853171	2013-01-10 11:13:14	11:13:14 AM	708531711119400.01401764PLM062	PLM062
	8034	73952704		1	1	70853171	2013-01-10 11:13:37	11:13:37 AM	708531711119400.01401764PLM062	PLM062
	8034	07787306		1	1	70853171	2013-01-10 11:14:11	11:14:11 AM	708531711119400.01401764PLM062	PLM062
	8034	72361601		1	1	70853171	2013-01-10 11:14:29	11:14:29 AM	708531711119400.01401764PLM062	PLM062
	8034	72161203		1	1	70853171	2013-01-10 11:14:36	11:14:36 AM	708531711119400.01401764PLM062	PLM062
	8034	7799008175058		1	1	70853171	2013-01-10 11:14:49	11:14:49 AM	708531711119400.01401764PLM062	PLM062
	8034	73057202		1	1	70853171	2013-01-10 11:15:11	11:15:11 AM	708531711119400.01401764PLM062	PLM062
	8034	7799008175072		1	1	70853171	2013-01-10 11:15:26	11:15:26 AM	708531711119400.01401764PLM062	PLM062
	8034	06823006		1	1	70853171	2013-01-10 11:15:39	11:15:39 AM	708531711119400.01401764PLM062	PLM062
	8034	06822906		1	1	70853171	2013-01-10 11:15:44	11:15:44 AM	708531711119400.01401764PLM062	PLM062
	8034	06822906		1	1	70853171	2013-01-10 11:15:49	11:15:49 AM	708531711119400.01401764PLM062	PLM062
	8034	06822906		1	1	70853171	2013-01-10 11:15:56	11:15:56 AM	708531711119400.01401764PLM062	PLM062
	8034	06822906		1	1	70853171	2013-01-10 11:16:11	11:16:11 AM	708531711119400.01401764PLM062	PLM062
	8034	06822906		1	1	70853171	2013-01-10 11:16:12	11:16:12 AM	708531711119400.01401764PLM062	PLM062
	8034	73052102		1	1	70853171	2013-01-10 11:16:24	11:16:24 AM	708531711119400.01401764PLM062	PLM062
	8034	73952704		1	1	70853171	2013-01-10 11:16:30	11:16:30 AM	708531711119400.01401764PLM062	PLM062
	8034	73037902		1	1	70853171	2013-01-10 11:16:44	11:16:44 AM	708531711119400.01401764PLM062	PLM062
	8034	73057201		1	1	70853171	2013-01-10 11:16:58	11:16:58 AM	708531711119400.01401764PLM062	PLM062
	8034	73057201		1	1	70853171	2013-01-10 11:17:08	11:17:08 AM	708531711119400.01401764PLM062	PLM062
