	5258	7799008986050		12	2	70853171	2013-01-10 05:16:11	5:16 AM	70853171538590.5795186PLM062	PLM062
	5259	7799008986050		12	2	70853171	2013-01-10 05:17:03	5:17 AM	70853171538590.5795186PLM062	PLM062
	5260	7799008986050		12	2	70853171	2013-01-10 05:17:59	5:17 AM	70853171538590.5795186PLM062	PLM062
	5261	7799008986050		12	2	70853171	2013-01-10 05:18:36	5:18 AM	70853171538590.5795186PLM062	PLM062
	5262	7799008986050		12	2	70853171	2013-01-10 05:19:21	5:19 AM	70853171538590.5795186PLM062	PLM062
	5246	7799008866246		6	2	70853171	2013-01-10 05:20:48	5:20 AM	70853171538590.5795186PLM062	PLM062
	5246	7799008866246		6	2	70853171	2013-01-10 05:21:16	5:21 AM	70853171538590.5795186PLM062	PLM062
	5246	7799008866246		12	2	70853171	2013-01-10 05:21:35	5:21 AM	70853171538590.5795186PLM062	PLM062
	5245	7799008866246		24	2	70853171	2013-01-10 05:23:03	5:23 AM	70853171538590.5795186PLM062	PLM062
	5249	7799008986098		24	2	70853171	2013-01-10 05:24:03	5:24 AM	70853171538590.5795186PLM062	PLM062
	5254	7799008986098		24	2	70853171	2013-01-10 05:24:29	5:24 AM	70853171538590.5795186PLM062	PLM062
	5255	7799008986098		24	2	70853171	2013-01-10 05:25:28	5:25 AM	70853171538590.5795186PLM062	PLM062
	5256	7799008986098		24	2	70853171	2013-01-10 05:26:11	5:26 AM	70853171538590.5795186PLM062	PLM062
	5251	7799008986098		24	2	70853171	2013-01-10 05:27:11	5:27 AM	70853171538590.5795186PLM062	PLM062
	5250	7799008986098		24	2	70853171	2013-01-10 05:27:31	5:27 AM	70853171538590.5795186PLM062	PLM062
	5252	7799008986098		24	2	70853171	2013-01-10 05:28:38	5:28 AM	70853171538590.5795186PLM062	PLM062
	5257	7799008986098		24	2	70853171	2013-01-10 05:28:56	5:28 AM	70853171538590.5795186PLM062	PLM062
	5238	7799008986098		24	2	70853171	2013-01-10 05:30:03	5:30 AM	70853171538590.5795186PLM062	PLM062
	5237	7799008986098		24	2	70853171	2013-01-10 05:33:07	5:33 AM	70853171538590.5795186PLM062	PLM062
	5413	7799008866215		24	2	70853171	2013-01-10 05:34:38	5:34 AM	70853171538590.5795186PLM062	PLM062
