	0887	7799021036855		1	1	71036267	2013-01-10 00:25:08	12:25:08 AM	7103626711810.7607236PLM036	PLM036
	0887	7799021036855		1	1	71036267	2013-01-10 00:25:09	12:25:09 AM	7103626711810.7607236PLM036	PLM036
	0887	7799021036855		1	1	71036267	2013-01-10 00:25:10	12:25:10 AM	7103626711810.7607236PLM036	PLM036
	0887	7799021036855		1	1	71036267	2013-01-10 00:25:13	12:25:13 AM	7103626711810.7607236PLM036	PLM036
	0887	7799021036855		1	1	71036267	2013-01-10 00:25:15	12:25:15 AM	7103626711810.7607236PLM036	PLM036
	0887	7799021036855		1	1	71036267	2013-01-10 00:25:17	12:25:17 AM	7103626711810.7607236PLM036	PLM036
	0887	7799021036855		1	1	71036267	2013-01-10 00:25:31	12:25:31 AM	7103626711810.7607236PLM036	PLM036
	0887	7799021036855		1	1	71036267	2013-01-10 00:25:33	12:25:33 AM	7103626711810.7607236PLM036	PLM036
	0887	7799021036855		1	1	71036267	2013-01-10 00:25:35	12:25:35 AM	7103626711810.7607236PLM036	PLM036
	0887	7799021036855		1	1	71036267	2013-01-10 00:25:54	12:25:54 AM	7103626711810.7607236PLM036	PLM036
	0887	7799021036855		1	1	71036267	2013-01-10 00:25:55	12:25:55 AM	7103626711810.7607236PLM036	PLM036
	0887	7799021036855		1	1	71036267	2013-01-10 00:25:56	12:25:56 AM	7103626711810.7607236PLM036	PLM036
	0887	7799021036855		1	1	71036267	2013-01-10 00:26:12	12:26:12 AM	7103626711810.7607236PLM036	PLM036
	0887	7799021036855		1	1	71036267	2013-01-10 00:26:13	12:26:13 AM	7103626711810.7607236PLM036	PLM036
	0887	7799021036855		1	1	71036267	2013-01-10 00:26:13	12:26:13 AM	7103626711810.7607236PLM036	PLM036
	0887	7799021036855		1	1	71036267	2013-01-10 00:26:42	12:26:42 AM	7103626711810.7607236PLM036	PLM036
	0887	7799021036855		1	1	71036267	2013-01-10 00:26:43	12:26:43 AM	7103626711810.7607236PLM036	PLM036
	0887	7799021036855		1	1	71036267	2013-01-10 00:26:45	12:26:45 AM	7103626711810.7607236PLM036	PLM036
	0887	7799021036855		1	1	71036267	2013-01-10 00:27:06	12:27:06 AM	7103626711810.7607236PLM036	PLM036
	0887	7799021036855		1	1	71036267	2013-01-10 00:27:10	12:27:10 AM	7103626711810.7607236PLM036	PLM036
	0887	7799021036855		1	1	71036267	2013-01-10 00:27:20	12:27:20 AM	7103626711810.7607236PLM036	PLM036
	0887	7799021036855		1	1	71036267	2013-01-10 00:27:39	12:27:39 AM	7103626711810.7607236PLM036	PLM036
	0887	7799021036855		1	1	71036267	2013-01-10 00:27:40	12:27:40 AM	7103626711810.7607236PLM036	PLM036
	0887	7799021036855		1	1	71036267	2013-01-10 00:27:43	12:27:43 AM	7103626711810.7607236PLM036	PLM036
	0887	7799008375854		1	1	71036267	2013-01-10 00:27:55	12:27:55 AM	7103626711810.7607236PLM036	PLM036
	0887	7799008375854		1	1	71036267	2013-01-10 00:27:58	12:27:58 AM	7103626711810.7607236PLM036	PLM036
	0887	7799008375854		1	1	71036267	2013-01-10 00:28:10	12:28:10 AM	7103626711810.7607236PLM036	PLM036
	0887	7799008375854		1	1	71036267	2013-01-10 00:28:12	12:28:12 AM	7103626711810.7607236PLM036	PLM036
	0887	7799008375854		1	1	71036267	2013-01-10 00:28:15	12:28:15 AM	7103626711810.7607236PLM036	PLM036
	0887	7799008375854		1	1	71036267	2013-01-10 00:28:17	12:28:17 AM	7103626711810.7607236PLM036	PLM036
	0887	7799008375854		1	1	71036267	2013-01-10 00:28:27	12:28:27 AM	7103626711810.7607236PLM036	PLM036
	0887	7799008375854		1	1	71036267	2013-01-10 00:28:30	12:28:30 AM	7103626711810.7607236PLM036	PLM036
	0887	7799008375854		1	1	71036267	2013-01-10 00:28:39	12:28:39 AM	7103626711810.7607236PLM036	PLM036
	0887	7799008375854		1	1	71036267	2013-01-10 00:28:41	12:28:41 AM	7103626711810.7607236PLM036	PLM036
	0887	7799008375854		1	1	71036267	2013-01-10 00:28:43	12:28:43 AM	7103626711810.7607236PLM036	PLM036
	0887	7799008375854		1	1	71036267	2013-01-10 00:28:45	12:28:45 AM	7103626711810.7607236PLM036	PLM036
	0887	7799008375854		1	1	71036267	2013-01-10 00:29:00	12:29:00 AM	7103626711810.7607236PLM036	PLM036
	0887	7799008375854		1	1	71036267	2013-01-10 00:29:05	12:29:05 AM	7103626711810.7607236PLM036	PLM036
	0887	7799008375854		1	1	71036267	2013-01-10 00:29:18	12:29:18 AM	7103626711810.7607236PLM036	PLM036
	0887	7799008375854		1	1	71036267	2013-01-10 00:29:20	12:29:20 AM	7103626711810.7607236PLM036	PLM036
	0887	7799008375854		1	1	71036267	2013-01-10 00:29:25	12:29:25 AM	7103626711810.7607236PLM036	PLM036
	0887	7799008375854		1	1	71036267	2013-01-10 00:29:27	12:29:27 AM	7103626711810.7607236PLM036	PLM036
	0887	7799008375854		1	1	71036267	2013-01-10 00:30:00	12:30:00 AM	7103626711810.7607236PLM036	PLM036
	0887	7799008375854		1	1	71036267	2013-01-10 00:30:02	12:30:02 AM	7103626711810.7607236PLM036	PLM036
	0887	7799008375854		1	1	71036267	2013-01-10 00:30:08	12:30:08 AM	7103626711810.7607236PLM036	PLM036
	0887	7799008375854		1	1	71036267	2013-01-10 00:30:10	12:30:10 AM	7103626711810.7607236PLM036	PLM036
	0887	7799008375854		1	1	71036267	2013-01-10 00:30:23	12:30:23 AM	7103626711810.7607236PLM036	PLM036
	0887	7799008375854		1	1	71036267	2013-01-10 00:30:26	12:30:26 AM	7103626711810.7607236PLM036	PLM036
	0887	7799008375854		1	1	71036267	2013-01-10 00:30:28	12:30:28 AM	7103626711810.7607236PLM036	PLM036
	0887	7799008375854		1	1	71036267	2013-01-10 00:30:31	12:30:31 AM	7103626711810.7607236PLM036	PLM036
	0887	7799008375854		1	1	71036267	2013-01-10 00:30:34	12:30:34 AM	7103626711810.7607236PLM036	PLM036
	0887	7799008375854		1	1	71036267	2013-01-10 00:30:41	12:30:41 AM	7103626711810.7607236PLM036	PLM036
	0887	7799008375854		1	1	71036267	2013-01-10 00:30:50	12:30:50 AM	7103626711810.7607236PLM036	PLM036
	0887	7799008375854		1	1	71036267	2013-01-10 00:30:53	12:30:53 AM	7103626711810.7607236PLM036	PLM036
	0887	7799008375854		1	1	71036267	2013-01-10 00:30:55	12:30:55 AM	7103626711810.7607236PLM036	PLM036
	0887	7799008375854		1	1	71036267	2013-01-10 00:31:01	12:31:01 AM	7103626711810.7607236PLM036	PLM036
	0887	7799008375854		1	1	71036267	2013-01-10 00:31:03	12:31:03 AM	7103626711810.7607236PLM036	PLM036
	0887	7799008375854		1	1	71036267	2013-01-10 00:31:06	12:31:06 AM	7103626711810.7607236PLM036	PLM036
	0887	7799008375854		1	1	71036267	2013-01-10 00:31:08	12:31:08 AM	7103626711810.7607236PLM036	PLM036
	0887	7799008375854		1	1	71036267	2013-01-10 00:31:12	12:31:12 AM	7103626711810.7607236PLM036	PLM036
	0887	7799008375854		1	1	71036267	2013-01-10 00:31:14	12:31:14 AM	7103626711810.7607236PLM036	PLM036
	0887	7799008375854		1	1	71036267	2013-01-10 00:31:16	12:31:16 AM	7103626711810.7607236PLM036	PLM036
	0887	7799008375854		1	1	71036267	2013-01-10 00:31:19	12:31:19 AM	7103626711810.7607236PLM036	PLM036
	0887	7799008375854		1	1	71036267	2013-01-10 00:31:22	12:31:22 AM	7103626711810.7607236PLM036	PLM036
	0887	7799008375854		1	1	71036267	2013-01-10 00:31:24	12:31:24 AM	7103626711810.7607236PLM036	PLM036
	0887	7799008375854		1	1	71036267	2013-01-10 00:31:27	12:31:27 AM	7103626711810.7607236PLM036	PLM036
	0887	7799008375854		1	1	71036267	2013-01-10 00:33:04	12:33:04 AM	7103626711810.7607236PLM036	PLM036
	0887	7799008375854		1	1	71036267	2013-01-10 00:33:07	12:33:07 AM	7103626711810.7607236PLM036	PLM036
	0887	7799008375854		1	1	71036267	2013-01-10 00:33:09	12:33:09 AM	7103626711810.7607236PLM036	PLM036
	0887	7799008375854		1	1	71036267	2013-01-10 00:33:14	12:33:14 AM	7103626711810.7607236PLM036	PLM036
	0887	7799008375854		1	1	71036267	2013-01-10 00:33:19	12:33:19 AM	7103626711810.7607236PLM036	PLM036
	0887	7799008375854		1	1	71036267	2013-01-10 00:33:22	12:33:22 AM	7103626711810.7607236PLM036	PLM036
	0887	7799008375854		1	1	71036267	2013-01-10 00:33:28	12:33:28 AM	7103626711810.7607236PLM036	PLM036
	0887	7799008375854		1	1	71036267	2013-01-10 00:33:31	12:33:31 AM	7103626711810.7607236PLM036	PLM036
	0887	7799008375854		1	1	71036267	2013-01-10 00:33:43	12:33:43 AM	7103626711810.7607236PLM036	PLM036
	0887	7799008375854		1	1	71036267	2013-01-10 00:33:59	12:33:59 AM	7103626711810.7607236PLM036	PLM036
	0887	7799008375854		1	1	71036267	2013-01-10 00:34:02	12:34:02 AM	7103626711810.7607236PLM036	PLM036
	0887	7799008375854		1	1	71036267	2013-01-10 00:34:07	12:34:07 AM	7103626711810.7607236PLM036	PLM036
	0887	7799008375854		1	1	71036267	2013-01-10 00:34:11	12:34:11 AM	7103626711810.7607236PLM036	PLM036
	0887	7799008375854		1	1	71036267	2013-01-10 00:34:14	12:34:14 AM	7103626711810.7607236PLM036	PLM036
	0887	7799008375854		1	1	71036267	2013-01-10 00:34:19	12:34:19 AM	7103626711810.7607236PLM036	PLM036
	0887	7799008375854		1	1	71036267	2013-01-10 00:34:31	12:34:31 AM	7103626711810.7607236PLM036	PLM036
	0887	7799008375854		1	1	71036267	2013-01-10 00:34:35	12:34:35 AM	7103626711810.7607236PLM036	PLM036
	0887	7799008375854		1	1	71036267	2013-01-10 00:34:54	12:34:54 AM	7103626711810.7607236PLM036	PLM036
	0887	7799008375854		1	1	71036267	2013-01-10 00:35:02	12:35:02 AM	7103626711810.7607236PLM036	PLM036
	0887	7799008375854		1	1	71036267	2013-01-10 00:35:06	12:35:06 AM	7103626711810.7607236PLM036	PLM036
	0887	7799008375854		1	1	71036267	2013-01-10 00:35:12	12:35:12 AM	7103626711810.7607236PLM036	PLM036
	0887	7799008375854		1	1	71036267	2013-01-10 00:35:14	12:35:14 AM	7103626711810.7607236PLM036	PLM036
	0887	7799008375854		1	1	71036267	2013-01-10 00:35:19	12:35:19 AM	7103626711810.7607236PLM036	PLM036
	0887	7799008375854		1	1	71036267	2013-01-10 00:35:21	12:35:21 AM	7103626711810.7607236PLM036	PLM036
	0887	7799008375854		1	1	71036267	2013-01-10 00:35:28	12:35:28 AM	7103626711810.7607236PLM036	PLM036
	0887	7799008375854		1	1	71036267	2013-01-10 00:35:38	12:35:38 AM	7103626711810.7607236PLM036	PLM036
	0887	7799008375854		1	1	71036267	2013-01-10 00:35:39	12:35:39 AM	7103626711810.7607236PLM036	PLM036
	0887	7799008375854		1	1	71036267	2013-01-10 00:35:47	12:35:47 AM	7103626711810.7607236PLM036	PLM036
	0887	7799008375854		1	1	71036267	2013-01-10 00:35:48	12:35:48 AM	7103626711810.7607236PLM036	PLM036
	0887	7799008375854		1	1	71036267	2013-01-10 00:35:51	12:35:51 AM	7103626711810.7607236PLM036	PLM036
	0887	7799008375854		1	1	71036267	2013-01-10 00:35:58	12:35:58 AM	7103626711810.7607236PLM036	PLM036
	0887	7799008375854		1	1	71036267	2013-01-10 00:36:07	12:36:07 AM	7103626711810.7607236PLM036	PLM036
	0887	7799008375854		1	1	71036267	2013-01-10 00:36:11	12:36:11 AM	7103626711810.7607236PLM036	PLM036
	0887	7799008375854		1	1	71036267	2013-01-10 00:36:13	12:36:13 AM	7103626711810.7607236PLM036	PLM036
	0887	7799008375854		1	1	71036267	2013-01-10 00:36:17	12:36:17 AM	7103626711810.7607236PLM036	PLM036
	0887	7799008375854		1	1	71036267	2013-01-10 00:36:23	12:36:23 AM	7103626711810.7607236PLM036	PLM036
	0887	7799008375854		1	1	71036267	2013-01-10 00:36:28	12:36:28 AM	7103626711810.7607236PLM036	PLM036
	0887	7799008375854		1	1	71036267	2013-01-10 00:36:33	12:36:33 AM	7103626711810.7607236PLM036	PLM036
	0887	7799008375854		1	1	71036267	2013-01-10 00:36:40	12:36:40 AM	7103626711810.7607236PLM036	PLM036
	0887	7799008375854		1	1	71036267	2013-01-10 00:36:43	12:36:43 AM	7103626711810.7607236PLM036	PLM036
	0887	7799008375854		1	1	71036267	2013-01-10 00:36:57	12:36:57 AM	7103626711810.7607236PLM036	PLM036
	0887	7799008375854		1	1	71036267	2013-01-10 00:37:00	12:37:00 AM	7103626711810.7607236PLM036	PLM036
	0887	7799008375854		1	1	71036267	2013-01-10 00:37:10	12:37:10 AM	7103626711810.7607236PLM036	PLM036
	0887	7799008375854		1	1	71036267	2013-01-10 00:37:18	12:37:18 AM	7103626711810.7607236PLM036	PLM036
	0887	7799008375854		1	1	71036267	2013-01-10 00:37:21	12:37:21 AM	7103626711810.7607236PLM036	PLM036
	0887	7799008375854		1	1	71036267	2013-01-10 00:37:42	12:37:42 AM	7103626711810.7607236PLM036	PLM036
	0887	7799008375854		1	1	71036267	2013-01-10 00:37:46	12:37:46 AM	7103626711810.7607236PLM036	PLM036
	0887	7799008375854		1	1	71036267	2013-01-10 00:37:53	12:37:53 AM	7103626711810.7607236PLM036	PLM036
	0887	7799008375854		1	1	71036267	2013-01-10 00:37:59	12:37:59 AM	7103626711810.7607236PLM036	PLM036
	0887	7799008375854		1	1	71036267	2013-01-10 00:38:01	12:38:01 AM	7103626711810.7607236PLM036	PLM036
	0887	7799008375854		1	1	71036267	2013-01-10 00:38:12	12:38:12 AM	7103626711810.7607236PLM036	PLM036
	0887	7799008375854		1	1	71036267	2013-01-10 00:38:16	12:38:16 AM	7103626711810.7607236PLM036	PLM036
	0887	7799008375854		1	1	71036267	2013-01-10 00:38:24	12:38:24 AM	7103626711810.7607236PLM036	PLM036
	0887	7799008375854		1	1	71036267	2013-01-10 00:38:31	12:38:31 AM	7103626711810.7607236PLM036	PLM036
	0887	7799008375854		1	1	71036267	2013-01-10 00:38:48	12:38:48 AM	7103626711810.7607236PLM036	PLM036
	0887	7799008375854		1	1	71036267	2013-01-10 00:38:49	12:38:49 AM	7103626711810.7607236PLM036	PLM036
	0887	7799008375854		1	1	71036267	2013-01-10 00:38:54	12:38:54 AM	7103626711810.7607236PLM036	PLM036
	0887	7799008375854		1	1	71036267	2013-01-10 00:39:00	12:39:00 AM	7103626711810.7607236PLM036	PLM036
	0887	7799008375854		1	1	71036267	2013-01-10 00:39:09	12:39:09 AM	7103626711810.7607236PLM036	PLM036
	0887	7799008375854		1	1	71036267	2013-01-10 00:39:12	12:39:12 AM	7103626711810.7607236PLM036	PLM036
	0887	7799008375854		1	1	71036267	2013-01-10 00:41:37	12:41:37 AM	7103626711810.7607236PLM036	PLM036
	0887	7799008375854		1	1	71036267	2013-01-10 00:41:39	12:41:39 AM	7103626711810.7607236PLM036	PLM036
	0887	7799008375854		1	1	71036267	2013-01-10 00:41:50	12:41:50 AM	7103626711810.7607236PLM036	PLM036
	0887	7799008375854		1	1	71036267	2013-01-10 00:41:52	12:41:52 AM	7103626711810.7607236PLM036	PLM036
	0887	7799008375854		1	1	71036267	2013-01-10 00:42:08	12:42:08 AM	7103626711810.7607236PLM036	PLM036
	0887	7799008375854		1	1	71036267	2013-01-10 00:42:18	12:42:18 AM	7103626711810.7607236PLM036	PLM036
	0887	7799008375854		1	1	71036267	2013-01-10 00:42:20	12:42:20 AM	7103626711810.7607236PLM036	PLM036
	0887	7799008375854		1	1	71036267	2013-01-10 00:42:27	12:42:27 AM	7103626711810.7607236PLM036	PLM036
	0887	7799008375854		1	1	71036267	2013-01-10 00:42:29	12:42:29 AM	7103626711810.7607236PLM036	PLM036
	0887	7799008375854		1	1	71036267	2013-01-10 00:42:42	12:42:42 AM	7103626711810.7607236PLM036	PLM036
	0887	7799008375854		1	1	71036267	2013-01-10 00:42:45	12:42:45 AM	7103626711810.7607236PLM036	PLM036
	0887	7799008375854		1	1	71036267	2013-01-10 00:42:47	12:42:47 AM	7103626711810.7607236PLM036	PLM036
	0887	7799008375854		1	1	71036267	2013-01-10 00:42:49	12:42:49 AM	7103626711810.7607236PLM036	PLM036
	0887	7799008375854		1	1	71036267	2013-01-10 00:42:50	12:42:50 AM	7103626711810.7607236PLM036	PLM036
	0887	7799008375854		1	1	71036267	2013-01-10 00:43:01	12:43:01 AM	7103626711810.7607236PLM036	PLM036
	0887	7799008375854		1	1	71036267	2013-01-10 00:43:03	12:43:03 AM	7103626711810.7607236PLM036	PLM036
	0887	7799008375854		1	1	71036267	2013-01-10 00:43:07	12:43:07 AM	7103626711810.7607236PLM036	PLM036
	0887	7799008375854		1	1	71036267	2013-01-10 00:43:22	12:43:22 AM	7103626711810.7607236PLM036	PLM036
	0887	7799008375854		1	1	71036267	2013-01-10 00:43:24	12:43:24 AM	7103626711810.7607236PLM036	PLM036
	0887	7799008375854		1	1	71036267	2013-01-10 00:43:31	12:43:31 AM	7103626711810.7607236PLM036	PLM036
	0887	7799008375854		1	1	71036267	2013-01-10 00:43:33	12:43:33 AM	7103626711810.7607236PLM036	PLM036
	0887	7799008375854		1	1	71036267	2013-01-10 00:43:35	12:43:35 AM	7103626711810.7607236PLM036	PLM036
	0887	7799008375854		1	1	71036267	2013-01-10 00:43:38	12:43:38 AM	7103626711810.7607236PLM036	PLM036
	0887	7799008375854		1	1	71036267	2013-01-10 00:43:46	12:43:46 AM	7103626711810.7607236PLM036	PLM036
	0887	7799008375854		1	1	71036267	2013-01-10 00:43:54	12:43:54 AM	7103626711810.7607236PLM036	PLM036
	0887	7799008375854		1	1	71036267	2013-01-10 00:44:00	12:44:00 AM	7103626711810.7607236PLM036	PLM036
	0887	7799008375854		1	1	71036267	2013-01-10 00:44:04	12:44:04 AM	7103626711810.7607236PLM036	PLM036
	0887	7799008375854		1	1	71036267	2013-01-10 00:44:09	12:44:09 AM	7103626711810.7607236PLM036	PLM036
	0887	7799008375854		1	1	71036267	2013-01-10 00:44:12	12:44:12 AM	7103626711810.7607236PLM036	PLM036
	0887	7799008375854		1	1	71036267	2013-01-10 00:44:14	12:44:14 AM	7103626711810.7607236PLM036	PLM036
	0887	7799008375854		1	1	71036267	2013-01-10 00:44:20	12:44:20 AM	7103626711810.7607236PLM036	PLM036
	0887	7799008375854		1	1	71036267	2013-01-10 00:44:22	12:44:22 AM	7103626711810.7607236PLM036	PLM036
	0887	7799008375854		1	1	71036267	2013-01-10 00:44:29	12:44:29 AM	7103626711810.7607236PLM036	PLM036
	0887	7799008375854		1	1	71036267	2013-01-10 00:44:32	12:44:32 AM	7103626711810.7607236PLM036	PLM036
	0887	7799008375854		1	1	71036267	2013-01-10 00:44:37	12:44:37 AM	7103626711810.7607236PLM036	PLM036
	0887	7799008375854		1	1	71036267	2013-01-10 00:44:45	12:44:45 AM	7103626711810.7607236PLM036	PLM036
	0887	7799008375854		1	1	71036267	2013-01-10 00:44:51	12:44:51 AM	7103626711810.7607236PLM036	PLM036
	0887	7799008375854		1	1	71036267	2013-01-10 00:44:58	12:44:58 AM	7103626711810.7607236PLM036	PLM036
	0887	7799008375854		1	1	71036267	2013-01-10 00:45:01	12:45:01 AM	7103626711810.7607236PLM036	PLM036
	0887	7799008375854		1	1	71036267	2013-01-10 00:45:13	12:45:13 AM	7103626711810.7607236PLM036	PLM036
	0887	7799008375854		1	1	71036267	2013-01-10 00:45:21	12:45:21 AM	7103626711810.7607236PLM036	PLM036
	0887	7799008375854		1	1	71036267	2013-01-10 00:45:30	12:45:30 AM	7103626711810.7607236PLM036	PLM036
	0887	7799008375854		1	1	71036267	2013-01-10 00:45:33	12:45:33 AM	7103626711810.7607236PLM036	PLM036
	0887	7799008375854		1	1	71036267	2013-01-10 00:45:40	12:45:40 AM	7103626711810.7607236PLM036	PLM036
	0887	7799008375854		1	1	71036267	2013-01-10 00:45:42	12:45:42 AM	7103626711810.7607236PLM036	PLM036
	0887	7799008375854		1	1	71036267	2013-01-10 00:45:45	12:45:45 AM	7103626711810.7607236PLM036	PLM036
	0887	7799008375854		1	1	71036267	2013-01-10 00:45:53	12:45:53 AM	7103626711810.7607236PLM036	PLM036
	0887	7799008375854		1	1	71036267	2013-01-10 00:45:56	12:45:56 AM	7103626711810.7607236PLM036	PLM036
	0887	7799008375854		1	1	71036267	2013-01-10 00:45:59	12:45:59 AM	7103626711810.7607236PLM036	PLM036
	0887	7799008375854		1	1	71036267	2013-01-10 00:46:33	12:46:33 AM	7103626711810.7607236PLM036	PLM036
	0887	7799008375854		1	1	71036267	2013-01-10 00:46:38	12:46:38 AM	7103626711810.7607236PLM036	PLM036
	0887	7799008375854		1	1	71036267	2013-01-10 00:46:41	12:46:41 AM	7103626711810.7607236PLM036	PLM036
	0887	7799008375854		1	1	71036267	2013-01-10 00:46:58	12:46:58 AM	7103626711810.7607236PLM036	PLM036
	0887	7799008375854		1	1	71036267	2013-01-10 00:47:28	12:47:28 AM	7103626711810.7607236PLM036	PLM036
	0887	7799008375854		1	1	71036267	2013-01-10 00:47:35	12:47:35 AM	7103626711810.7607236PLM036	PLM036
	0887	7799008375854		1	1	71036267	2013-01-10 00:47:56	12:47:56 AM	7103626711810.7607236PLM036	PLM036
	0887	7799008375854		1	1	71036267	2013-01-10 00:48:26	12:48:26 AM	7103626711810.7607236PLM036	PLM036
	0887	7799008375854		1	1	71036267	2013-01-10 00:48:30	12:48:30 AM	7103626711810.7607236PLM036	PLM036
	0887	7799008375854		1	1	71036267	2013-01-10 00:48:43	12:48:43 AM	7103626711810.7607236PLM036	PLM036
	0887	7799008375854		1	1	71036267	2013-01-10 00:48:58	12:48:58 AM	7103626711810.7607236PLM036	PLM036
	0887	7799008375854		1	1	71036267	2013-01-10 00:49:05	12:49:05 AM	7103626711810.7607236PLM036	PLM036
	0887	7799008375854		1	1	71036267	2013-01-10 00:49:09	12:49:09 AM	7103626711810.7607236PLM036	PLM036
	0887	7799008375854		1	1	71036267	2013-01-10 00:49:11	12:49:11 AM	7103626711810.7607236PLM036	PLM036
	0887	7799008375854		1	1	71036267	2013-01-10 00:49:14	12:49:14 AM	7103626711810.7607236PLM036	PLM036
	0887	7799008375854		1	1	71036267	2013-01-10 00:49:16	12:49:16 AM	7103626711810.7607236PLM036	PLM036
	0887	7799008375854		1	1	71036267	2013-01-10 00:49:24	12:49:24 AM	7103626711810.7607236PLM036	PLM036
	0887	7799008375854		1	1	71036267	2013-01-10 00:49:27	12:49:27 AM	7103626711810.7607236PLM036	PLM036
	0887	7799008375854		1	1	71036267	2013-01-10 00:49:29	12:49:29 AM	7103626711810.7607236PLM036	PLM036
	0887	7799008375854		1	1	71036267	2013-01-10 00:49:31	12:49:31 AM	7103626711810.7607236PLM036	PLM036
	0887	7799008375854		1	1	71036267	2013-01-10 00:49:40	12:49:40 AM	7103626711810.7607236PLM036	PLM036
	0887	7799008375854		1	1	71036267	2013-01-10 00:49:54	12:49:54 AM	7103626711810.7607236PLM036	PLM036
	0887	7799008375854		1	1	71036267	2013-01-10 00:50:01	12:50:01 AM	7103626711810.7607236PLM036	PLM036
	0887	7799008375854		1	1	71036267	2013-01-10 00:50:10	12:50:10 AM	7103626711810.7607236PLM036	PLM036
	0887	7799008375854		1	1	71036267	2013-01-10 00:50:12	12:50:12 AM	7103626711810.7607236PLM036	PLM036
	0887	7799008375854		1	1	71036267	2013-01-10 00:50:24	12:50:24 AM	7103626711810.7607236PLM036	PLM036
	0887	7799008375854		1	1	71036267	2013-01-10 00:50:33	12:50:33 AM	7103626711810.7607236PLM036	PLM036
	0887	7799008375854		1	1	71036267	2013-01-10 00:50:37	12:50:37 AM	7103626711810.7607236PLM036	PLM036
	0887	7799008375854		1	1	71036267	2013-01-10 00:50:41	12:50:41 AM	7103626711810.7607236PLM036	PLM036
	0887	7799008375854		1	1	71036267	2013-01-10 00:50:54	12:50:54 AM	7103626711810.7607236PLM036	PLM036
	0887	7799008375854		1	1	71036267	2013-01-10 00:52:09	12:52:09 AM	7103626711810.7607236PLM036	PLM036
	0887	7799008375854		1	1	71036267	2013-01-10 00:52:12	12:52:12 AM	7103626711810.7607236PLM036	PLM036
	0887	7799008375854		1	1	71036267	2013-01-10 00:52:23	12:52:23 AM	7103626711810.7607236PLM036	PLM036
	0887	7799008375854		1	1	71036267	2013-01-10 00:52:33	12:52:33 AM	7103626711810.7607236PLM036	PLM036
	0887	7799008375854		1	1	71036267	2013-01-10 00:52:44	12:52:44 AM	7103626711810.7607236PLM036	PLM036
	0887	7799008375854		1	1	71036267	2013-01-10 00:52:49	12:52:49 AM	7103626711810.7607236PLM036	PLM036
	0887	7799008375854		1	1	71036267	2013-01-10 00:52:58	12:52:58 AM	7103626711810.7607236PLM036	PLM036
	0887	7799008375854		1	1	71036267	2013-01-10 00:53:03	12:53:03 AM	7103626711810.7607236PLM036	PLM036
	0887	7799008375854		1	1	71036267	2013-01-10 00:53:07	12:53:07 AM	7103626711810.7607236PLM036	PLM036
	0887	7799008375854		1	1	71036267	2013-01-10 00:53:13	12:53:13 AM	7103626711810.7607236PLM036	PLM036
	0887	7799008375854		1	1	71036267	2013-01-10 00:53:17	12:53:17 AM	7103626711810.7607236PLM036	PLM036
	0887	7799008375854		1	1	71036267	2013-01-10 00:53:20	12:53:20 AM	7103626711810.7607236PLM036	PLM036
	0887	7799008375854		1	1	71036267	2013-01-10 00:53:28	12:53:28 AM	7103626711810.7607236PLM036	PLM036
	0887	7799008375854		1	1	71036267	2013-01-10 00:53:32	12:53:32 AM	7103626711810.7607236PLM036	PLM036
	0887	7799008375854		1	1	71036267	2013-01-10 00:53:55	12:53:55 AM	7103626711810.7607236PLM036	PLM036
	0887	7799008375854		1	1	71036267	2013-01-10 00:54:03	12:54:03 AM	7103626711810.7607236PLM036	PLM036
	0887	7799008375854		1	1	71036267	2013-01-10 00:54:06	12:54:06 AM	7103626711810.7607236PLM036	PLM036
	0887	7799008375854		1	1	71036267	2013-01-10 00:54:11	12:54:11 AM	7103626711810.7607236PLM036	PLM036
	0887	7799008375854		1	1	71036267	2013-01-10 00:54:41	12:54:41 AM	7103626711810.7607236PLM036	PLM036
	0887	7799008375854		1	1	71036267	2013-01-10 00:54:48	12:54:48 AM	7103626711810.7607236PLM036	PLM036
	0887	7799008375854		1	1	71036267	2013-01-10 00:54:50	12:54:50 AM	7103626711810.7607236PLM036	PLM036
	0887	7799008375854		1	1	71036267	2013-01-10 00:54:52	12:54:52 AM	7103626711810.7607236PLM036	PLM036
	0887	7799008375854		1	1	71036267	2013-01-10 00:54:58	12:54:58 AM	7103626711810.7607236PLM036	PLM036
	0887	7799008375854		1	1	71036267	2013-01-10 00:55:04	12:55:04 AM	7103626711810.7607236PLM036	PLM036
	0887	7799008375854		1	1	71036267	2013-01-10 00:55:08	12:55:08 AM	7103626711810.7607236PLM036	PLM036
	0887	7799008375854		1	1	71036267	2013-01-10 00:55:15	12:55:15 AM	7103626711810.7607236PLM036	PLM036
	0887	7799008375854		1	1	71036267	2013-01-10 00:55:17	12:55:17 AM	7103626711810.7607236PLM036	PLM036
	0887	7799008375854		1	1	71036267	2013-01-10 00:55:19	12:55:19 AM	7103626711810.7607236PLM036	PLM036
	0887	7799008375854		1	1	71036267	2013-01-10 00:55:35	12:55:35 AM	7103626711810.7607236PLM036	PLM036
	0887	7799008375854		1	1	71036267	2013-01-10 00:55:38	12:55:38 AM	7103626711810.7607236PLM036	PLM036
	0887	7799008375854		1	1	71036267	2013-01-10 00:55:51	12:55:51 AM	7103626711810.7607236PLM036	PLM036
	0887	7799008375854		1	1	71036267	2013-01-10 00:55:58	12:55:58 AM	7103626711810.7607236PLM036	PLM036
	0887	7799008375854		1	1	71036267	2013-01-10 00:56:01	12:56:01 AM	7103626711810.7607236PLM036	PLM036
	0887	7799008375854		1	1	71036267	2013-01-10 00:56:10	12:56:10 AM	7103626711810.7607236PLM036	PLM036
	0887	7799008375854		1	1	71036267	2013-01-10 00:56:16	12:56:16 AM	7103626711810.7607236PLM036	PLM036
	0887	7799008375854		1	1	71036267	2013-01-10 00:56:22	12:56:22 AM	7103626711810.7607236PLM036	PLM036
	0887	7799008375854		1	1	71036267	2013-01-10 00:57:09	12:57:09 AM	7103626711810.7607236PLM036	PLM036
	0887	7799008375854		1	1	71036267	2013-01-10 00:57:12	12:57:12 AM	7103626711810.7607236PLM036	PLM036
	0887	7799008375854		1	1	71036267	2013-01-10 00:57:24	12:57:24 AM	7103626711810.7607236PLM036	PLM036
	0887	7799008375854		1	1	71036267	2013-01-10 00:57:28	12:57:28 AM	7103626711810.7607236PLM036	PLM036
	0887	7799008375854		1	1	71036267	2013-01-10 00:57:31	12:57:31 AM	7103626711810.7607236PLM036	PLM036
	0887	7799008375854		1	1	71036267	2013-01-10 00:57:35	12:57:35 AM	7103626711810.7607236PLM036	PLM036
	0887	7799008375854		1	1	71036267	2013-01-10 00:57:41	12:57:41 AM	7103626711810.7607236PLM036	PLM036
	0887	7799008375854		1	1	71036267	2013-01-10 00:57:51	12:57:51 AM	7103626711810.7607236PLM036	PLM036
	0887	7799008375854		1	1	71036267	2013-01-10 00:57:58	12:57:58 AM	7103626711810.7607236PLM036	PLM036
	0887	7799008375854		1	1	71036267	2013-01-10 00:58:01	12:58:01 AM	7103626711810.7607236PLM036	PLM036
	0887	7799008375854		1	1	71036267	2013-01-10 00:58:03	12:58:03 AM	7103626711810.7607236PLM036	PLM036
	0887	7799008375854		1	1	71036267	2013-01-10 00:58:11	12:58:11 AM	7103626711810.7607236PLM036	PLM036
	0887	7799008375854		1	1	71036267	2013-01-10 00:58:14	12:58:14 AM	7103626711810.7607236PLM036	PLM036
	0887	7799008375854		1	1	71036267	2013-01-10 00:58:16	12:58:16 AM	7103626711810.7607236PLM036	PLM036
	0887	7799008375854		1	1	71036267	2013-01-10 00:58:19	12:58:19 AM	7103626711810.7607236PLM036	PLM036
	0887	7799008375854		1	1	71036267	2013-01-10 00:58:21	12:58:21 AM	7103626711810.7607236PLM036	PLM036
	0887	7799008375854		1	1	71036267	2013-01-10 00:58:28	12:58:28 AM	7103626711810.7607236PLM036	PLM036
	0887	7799008375854		1	1	71036267	2013-01-10 00:58:32	12:58:32 AM	7103626711810.7607236PLM036	PLM036
	0887	7799008375854		1	1	71036267	2013-01-10 00:58:34	12:58:34 AM	7103626711810.7607236PLM036	PLM036
	0887	7799008375854		1	1	71036267	2013-01-10 00:58:38	12:58:38 AM	7103626711810.7607236PLM036	PLM036
	0887	7799008375854		1	1	71036267	2013-01-10 00:58:42	12:58:42 AM	7103626711810.7607236PLM036	PLM036
	0887	7799008375854		1	1	71036267	2013-01-10 00:58:55	12:58:55 AM	7103626711810.7607236PLM036	PLM036
	0887	7799008375854		1	1	71036267	2013-01-10 00:59:03	12:59:03 AM	7103626711810.7607236PLM036	PLM036
	0887	7799008375854		1	1	71036267	2013-01-10 00:59:05	12:59:05 AM	7103626711810.7607236PLM036	PLM036
	0887	7799008375854		1	1	71036267	2013-01-10 00:59:09	12:59:09 AM	7103626711810.7607236PLM036	PLM036
	0887	7799008375854		1	1	71036267	2013-01-10 00:59:12	12:59:12 AM	7103626711810.7607236PLM036	PLM036
	0887	7799008375854		1	1	71036267	2013-01-10 00:59:13	12:59:13 AM	7103626711810.7607236PLM036	PLM036
	0887	7799008375854		1	1	71036267	2013-01-10 00:59:16	12:59:16 AM	7103626711810.7607236PLM036	PLM036
	0887	7799008375854		1	1	71036267	2013-01-10 00:59:22	12:59:22 AM	7103626711810.7607236PLM036	PLM036
	0887	7799008375854		1	1	71036267	2013-01-10 00:59:25	12:59:25 AM	7103626711810.7607236PLM036	PLM036
	0887	7799008375854		1	1	71036267	2013-01-10 00:59:27	12:59:27 AM	7103626711810.7607236PLM036	PLM036
	0887	7799008375854		1	1	71036267	2013-01-10 00:59:32	12:59:32 AM	7103626711810.7607236PLM036	PLM036
	0887	7799008375854		1	1	71036267	2013-01-10 00:59:34	12:59:34 AM	7103626711810.7607236PLM036	PLM036
	0887	7799008375854		1	1	71036267	2013-01-10 00:59:48	12:59:48 AM	7103626711810.7607236PLM036	PLM036
	0887	7799008375854		1	1	71036267	2013-01-10 00:59:49	12:59:49 AM	7103626711810.7607236PLM036	PLM036
	0887	7799008375854		1	1	71036267	2013-01-10 00:59:59	12:59:59 AM	7103626711810.7607236PLM036	PLM036
	0887	7799008375854		1	1	71036267	2013-01-10 01:00:02	1:00:02 AM	7103626711810.7607236PLM036	PLM036
	0887	7799008375854		1	1	71036267	2013-01-10 01:00:09	1:00:09 AM	7103626711810.7607236PLM036	PLM036
	0887	7799008375854		1	1	71036267	2013-01-10 01:00:13	1:00:13 AM	7103626711810.7607236PLM036	PLM036
	0887	7799008375854		1	1	71036267	2013-01-10 01:00:21	1:00:21 AM	7103626711810.7607236PLM036	PLM036
	0887	7799008375854		1	1	71036267	2013-01-10 01:00:24	1:00:24 AM	7103626711810.7607236PLM036	PLM036
	0887	7799008375854		1	1	71036267	2013-01-10 01:00:36	1:00:36 AM	7103626711810.7607236PLM036	PLM036
	0887	7799008375854		1	1	71036267	2013-01-10 01:00:41	1:00:41 AM	7103626711810.7607236PLM036	PLM036
	0887	7799008375854		1	1	71036267	2013-01-10 01:00:53	1:00:53 AM	7103626711810.7607236PLM036	PLM036
	0887	7799008375854		1	1	71036267	2013-01-10 01:00:56	1:00:56 AM	7103626711810.7607236PLM036	PLM036
	0887	7799008375854		1	1	71036267	2013-01-10 01:00:59	1:00:59 AM	7103626711810.7607236PLM036	PLM036
	0887	7799008375854		1	1	71036267	2013-01-10 01:01:05	1:01:05 AM	7103626711810.7607236PLM036	PLM036
	0887	7799008375854		1	1	71036267	2013-01-10 01:01:09	1:01:09 AM	7103626711810.7607236PLM036	PLM036
	0887	7799008375854		1	1	71036267	2013-01-10 01:01:12	1:01:12 AM	7103626711810.7607236PLM036	PLM036
	0887	7799008375854		1	1	71036267	2013-01-10 01:01:38	1:01:38 AM	7103626711810.7607236PLM036	PLM036
	0887	7799008375854		1	1	71036267	2013-01-10 01:01:42	1:01:42 AM	7103626711810.7607236PLM036	PLM036
	0887	7799008375854		1	1	71036267	2013-01-10 01:01:46	1:01:46 AM	7103626711810.7607236PLM036	PLM036
	0887	7799008375854		1	1	71036267	2013-01-10 01:01:49	1:01:49 AM	7103626711810.7607236PLM036	PLM036
	0887	7799008375854		1	1	71036267	2013-01-10 01:01:52	1:01:52 AM	7103626711810.7607236PLM036	PLM036
	0887	7799008375854		1	1	71036267	2013-01-10 01:01:54	1:01:54 AM	7103626711810.7607236PLM036	PLM036
	0887	7799008375854		1	1	71036267	2013-01-10 01:02:06	1:02:06 AM	7103626711810.7607236PLM036	PLM036
	0887	7799008375854		1	1	71036267	2013-01-10 01:02:11	1:02:11 AM	7103626711810.7607236PLM036	PLM036
	0887	7799008375854		1	1	71036267	2013-01-10 01:02:16	1:02:16 AM	7103626711810.7607236PLM036	PLM036
	0887	7799008375854		1	1	71036267	2013-01-10 01:02:20	1:02:20 AM	7103626711810.7607236PLM036	PLM036
	0886	7799021037302		1	1	71036267	2013-01-10 01:05:36	1:05:36 AM	7103626711810.7607236PLM036	PLM036
	0886	7799021037302		1	1	71036267	2013-01-10 01:05:37	1:05:37 AM	7103626711810.7607236PLM036	PLM036
	0886	7799021037302		1	1	71036267	2013-01-10 01:05:38	1:05:38 AM	7103626711810.7607236PLM036	PLM036
	0886	7799021037302		1	1	71036267	2013-01-10 01:05:42	1:05:42 AM	7103626711810.7607236PLM036	PLM036
	0886	7799021037302		1	1	71036267	2013-01-10 01:05:43	1:05:43 AM	7103626711810.7607236PLM036	PLM036
	0886	7799021037302		1	1	71036267	2013-01-10 01:05:44	1:05:44 AM	7103626711810.7607236PLM036	PLM036
	0886	7799021037302		1	1	71036267	2013-01-10 01:05:47	1:05:47 AM	7103626711810.7607236PLM036	PLM036
	0886	7799021037302		1	1	71036267	2013-01-10 01:05:48	1:05:48 AM	7103626711810.7607236PLM036	PLM036
	0886	7799021037302		1	1	71036267	2013-01-10 01:05:49	1:05:49 AM	7103626711810.7607236PLM036	PLM036
	0886	7799021037302		1	1	71036267	2013-01-10 01:05:53	1:05:53 AM	7103626711810.7607236PLM036	PLM036
	0886	7799021037302		1	1	71036267	2013-01-10 01:05:54	1:05:54 AM	7103626711810.7607236PLM036	PLM036
	0886	7799021037302		1	1	71036267	2013-01-10 01:05:57	1:05:57 AM	7103626711810.7607236PLM036	PLM036
	0886	7799021037302		1	1	71036267	2013-01-10 01:05:58	1:05:58 AM	7103626711810.7607236PLM036	PLM036
	0886	7799021037302		1	1	71036267	2013-01-10 01:06:01	1:06:01 AM	7103626711810.7607236PLM036	PLM036
	0886	7799021037302		1	1	71036267	2013-01-10 01:06:02	1:06:02 AM	7103626711810.7607236PLM036	PLM036
	0886	7799021037302		1	1	71036267	2013-01-10 01:06:06	1:06:06 AM	7103626711810.7607236PLM036	PLM036
	0886	7799021037302		1	1	71036267	2013-01-10 01:06:07	1:06:07 AM	7103626711810.7607236PLM036	PLM036
	0886	7799021037302		1	1	71036267	2013-01-10 01:06:09	1:06:09 AM	7103626711810.7607236PLM036	PLM036
	0886	7799021037302		1	1	71036267	2013-01-10 01:06:12	1:06:12 AM	7103626711810.7607236PLM036	PLM036
	0886	7799021037302		1	1	71036267	2013-01-10 01:06:13	1:06:13 AM	7103626711810.7607236PLM036	PLM036
	0886	7799021037302		1	1	71036267	2013-01-10 01:06:14	1:06:14 AM	7103626711810.7607236PLM036	PLM036
	0886	7799021037302		1	1	71036267	2013-01-10 01:06:17	1:06:17 AM	7103626711810.7607236PLM036	PLM036
	0886	7799021037302		1	1	71036267	2013-01-10 01:06:20	1:06:20 AM	7103626711810.7607236PLM036	PLM036
	0886	7799021037302		1	1	71036267	2013-01-10 01:06:21	1:06:21 AM	7103626711810.7607236PLM036	PLM036
	0886	7799021037302		1	1	71036267	2013-01-10 01:06:22	1:06:22 AM	7103626711810.7607236PLM036	PLM036
	0886	7799021037302		1	1	71036267	2013-01-10 01:06:26	1:06:26 AM	7103626711810.7607236PLM036	PLM036
	0886	7799021037302		1	1	71036267	2013-01-10 01:06:27	1:06:27 AM	7103626711810.7607236PLM036	PLM036
	0886	7799021037302		1	1	71036267	2013-01-10 01:06:29	1:06:29 AM	7103626711810.7607236PLM036	PLM036
	0886	7799021037302		1	1	71036267	2013-01-10 01:06:34	1:06:34 AM	7103626711810.7607236PLM036	PLM036
	0886	7799021037302		1	1	71036267	2013-01-10 01:06:34	1:06:34 AM	7103626711810.7607236PLM036	PLM036
	0886	7799021037302		1	1	71036267	2013-01-10 01:06:35	1:06:35 AM	7103626711810.7607236PLM036	PLM036
	0886	7799021037302		1	1	71036267	2013-01-10 01:06:38	1:06:38 AM	7103626711810.7607236PLM036	PLM036
	0886	7799021037302		1	1	71036267	2013-01-10 01:06:40	1:06:40 AM	7103626711810.7607236PLM036	PLM036
	0886	7799021037302		1	1	71036267	2013-01-10 01:06:41	1:06:41 AM	7103626711810.7607236PLM036	PLM036
	0886	7799021037302		1	1	71036267	2013-01-10 01:06:43	1:06:43 AM	7103626711810.7607236PLM036	PLM036
	0886	7799021037302		1	1	71036267	2013-01-10 01:06:44	1:06:44 AM	7103626711810.7607236PLM036	PLM036
	0886	7799021037302		1	1	71036267	2013-01-10 01:06:45	1:06:45 AM	7103626711810.7607236PLM036	PLM036
	0886	7799021037302		1	1	71036267	2013-01-10 01:06:48	1:06:48 AM	7103626711810.7607236PLM036	PLM036
	0886	7799021037302		1	1	71036267	2013-01-10 01:06:49	1:06:49 AM	7103626711810.7607236PLM036	PLM036
	0886	7799021037302		1	1	71036267	2013-01-10 01:06:50	1:06:50 AM	7103626711810.7607236PLM036	PLM036
	0886	7799021037302		1	1	71036267	2013-01-10 01:06:53	1:06:53 AM	7103626711810.7607236PLM036	PLM036
	0886	7799021037302		1	1	71036267	2013-01-10 01:06:53	1:06:53 AM	7103626711810.7607236PLM036	PLM036
	0886	7799021037302		1	1	71036267	2013-01-10 01:06:54	1:06:54 AM	7103626711810.7607236PLM036	PLM036
	0886	7799021037302		1	1	71036267	2013-01-10 01:06:56	1:06:56 AM	7103626711810.7607236PLM036	PLM036
	0886	7799021037302		1	1	71036267	2013-01-10 01:06:57	1:06:57 AM	7103626711810.7607236PLM036	PLM036
	0886	7799021037302		1	1	71036267	2013-01-10 01:07:00	1:07:00 AM	7103626711810.7607236PLM036	PLM036
	0886	7799021037302		1	1	71036267	2013-01-10 01:07:03	1:07:03 AM	7103626711810.7607236PLM036	PLM036
	0886	7799021037302		1	1	71036267	2013-01-10 01:07:04	1:07:04 AM	7103626711810.7607236PLM036	PLM036
	0886	7799021037302		1	1	71036267	2013-01-10 01:07:05	1:07:05 AM	7103626711810.7607236PLM036	PLM036
	0886	7799021037302		1	1	71036267	2013-01-10 01:07:08	1:07:08 AM	7103626711810.7607236PLM036	PLM036
	0886	7799021037302		1	1	71036267	2013-01-10 01:07:09	1:07:09 AM	7103626711810.7607236PLM036	PLM036
	0886	7799021037302		1	1	71036267	2013-01-10 01:07:11	1:07:11 AM	7103626711810.7607236PLM036	PLM036
	0886	7799021037302		1	1	71036267	2013-01-10 01:07:14	1:07:14 AM	7103626711810.7607236PLM036	PLM036
	0886	7799021037302		1	1	71036267	2013-01-10 01:07:15	1:07:15 AM	7103626711810.7607236PLM036	PLM036
	0886	7799021037302		1	1	71036267	2013-01-10 01:07:16	1:07:16 AM	7103626711810.7607236PLM036	PLM036
	0886	7799021037302		1	1	71036267	2013-01-10 01:07:31	1:07:31 AM	7103626711810.7607236PLM036	PLM036
	0886	7799021037302		1	1	71036267	2013-01-10 01:07:32	1:07:32 AM	7103626711810.7607236PLM036	PLM036
	0886	7799021037302		1	1	71036267	2013-01-10 01:07:33	1:07:33 AM	7103626711810.7607236PLM036	PLM036
	0886	7799021037302		1	1	71036267	2013-01-10 01:07:37	1:07:37 AM	7103626711810.7607236PLM036	PLM036
	0886	7799021037302		1	1	71036267	2013-01-10 01:07:39	1:07:39 AM	7103626711810.7607236PLM036	PLM036
	0886	7799021037302		1	1	71036267	2013-01-10 01:07:40	1:07:40 AM	7103626711810.7607236PLM036	PLM036
	0886	7799021037302		1	1	71036267	2013-01-10 01:07:43	1:07:43 AM	7103626711810.7607236PLM036	PLM036
	0886	7799021037302		1	1	71036267	2013-01-10 01:07:44	1:07:44 AM	7103626711810.7607236PLM036	PLM036
	0886	7799021037302		1	1	71036267	2013-01-10 01:07:44	1:07:44 AM	7103626711810.7607236PLM036	PLM036
	0886	7799021037302		1	1	71036267	2013-01-10 01:07:58	1:07:58 AM	7103626711810.7607236PLM036	PLM036
	0886	7799021037302		1	1	71036267	2013-01-10 01:07:58	1:07:58 AM	7103626711810.7607236PLM036	PLM036
	0886	7799021037302		1	1	71036267	2013-01-10 01:07:59	1:07:59 AM	7103626711810.7607236PLM036	PLM036
	0886	7799021037302		1	1	71036267	2013-01-10 01:08:03	1:08:03 AM	7103626711810.7607236PLM036	PLM036
	0886	7799021037302		1	1	71036267	2013-01-10 01:08:03	1:08:03 AM	7103626711810.7607236PLM036	PLM036
	0886	7799021037302		1	1	71036267	2013-01-10 01:08:05	1:08:05 AM	7103626711810.7607236PLM036	PLM036
	0886	7799021037302		1	1	71036267	2013-01-10 01:08:07	1:08:07 AM	7103626711810.7607236PLM036	PLM036
	0886	7799021037302		1	1	71036267	2013-01-10 01:08:08	1:08:08 AM	7103626711810.7607236PLM036	PLM036
	0886	7799021037302		1	1	71036267	2013-01-10 01:08:12	1:08:12 AM	7103626711810.7607236PLM036	PLM036
	0886	7799021037302		1	1	71036267	2013-01-10 01:08:14	1:08:14 AM	7103626711810.7607236PLM036	PLM036
	0886	7799021037302		1	1	71036267	2013-01-10 01:08:15	1:08:15 AM	7103626711810.7607236PLM036	PLM036
	0886	7799021037302		1	1	71036267	2013-01-10 01:08:16	1:08:16 AM	7103626711810.7607236PLM036	PLM036
	0886	7799021037302		1	1	71036267	2013-01-10 01:08:19	1:08:19 AM	7103626711810.7607236PLM036	PLM036
	0886	7799021037302		1	1	71036267	2013-01-10 01:08:20	1:08:20 AM	7103626711810.7607236PLM036	PLM036
	0886	7799021037302		1	1	71036267	2013-01-10 01:08:21	1:08:21 AM	7103626711810.7607236PLM036	PLM036
	0886	7799021037302		1	1	71036267	2013-01-10 01:08:26	1:08:26 AM	7103626711810.7607236PLM036	PLM036
	0886	7799021037302		1	1	71036267	2013-01-10 01:08:27	1:08:27 AM	7103626711810.7607236PLM036	PLM036
	0886	7799021037302		1	1	71036267	2013-01-10 01:08:28	1:08:28 AM	7103626711810.7607236PLM036	PLM036
	0886	7799021037302		1	1	71036267	2013-01-10 01:08:32	1:08:32 AM	7103626711810.7607236PLM036	PLM036
	0886	7799021037302		1	1	71036267	2013-01-10 01:08:34	1:08:34 AM	7103626711810.7607236PLM036	PLM036
	0886	7799021037302		1	1	71036267	2013-01-10 01:08:35	1:08:35 AM	7103626711810.7607236PLM036	PLM036
	0886	7799021037302		1	1	71036267	2013-01-10 01:08:40	1:08:40 AM	7103626711810.7607236PLM036	PLM036
	0886	7799021037302		1	1	71036267	2013-01-10 01:08:40	1:08:40 AM	7103626711810.7607236PLM036	PLM036
	0886	7799021037302		1	1	71036267	2013-01-10 01:08:41	1:08:41 AM	7103626711810.7607236PLM036	PLM036
	0886	7799021037302		1	1	71036267	2013-01-10 01:08:43	1:08:43 AM	7103626711810.7607236PLM036	PLM036
	0886	7799021037302		1	1	71036267	2013-01-10 01:08:44	1:08:44 AM	7103626711810.7607236PLM036	PLM036
	0886	7799021037302		1	1	71036267	2013-01-10 01:08:45	1:08:45 AM	7103626711810.7607236PLM036	PLM036
	0886	7799021037302		1	1	71036267	2013-01-10 01:08:47	1:08:47 AM	7103626711810.7607236PLM036	PLM036
	0886	7799021037302		1	1	71036267	2013-01-10 01:08:48	1:08:48 AM	7103626711810.7607236PLM036	PLM036
	0886	7799021037302		1	1	71036267	2013-01-10 01:08:49	1:08:49 AM	7103626711810.7607236PLM036	PLM036
	0886	7799021037302		1	1	71036267	2013-01-10 01:08:53	1:08:53 AM	7103626711810.7607236PLM036	PLM036
	0886	7799021037302		1	1	71036267	2013-01-10 01:08:54	1:08:54 AM	7103626711810.7607236PLM036	PLM036
	0886	7799021037302		1	1	71036267	2013-01-10 01:08:55	1:08:55 AM	7103626711810.7607236PLM036	PLM036
	0886	7799021037302		1	1	71036267	2013-01-10 01:08:58	1:08:58 AM	7103626711810.7607236PLM036	PLM036
	0886	7799021037302		1	1	71036267	2013-01-10 01:08:59	1:08:59 AM	7103626711810.7607236PLM036	PLM036
	0886	7799021037302		1	1	71036267	2013-01-10 01:09:00	1:09:00 AM	7103626711810.7607236PLM036	PLM036
	0886	7799021037302		1	1	71036267	2013-01-10 01:09:13	1:09:13 AM	7103626711810.7607236PLM036	PLM036
	0886	7799021037302		1	1	71036267	2013-01-10 01:09:14	1:09:14 AM	7103626711810.7607236PLM036	PLM036
	0886	7799021037302		1	1	71036267	2013-01-10 01:09:15	1:09:15 AM	7103626711810.7607236PLM036	PLM036
	0886	7799021037302		1	1	71036267	2013-01-10 01:09:18	1:09:18 AM	7103626711810.7607236PLM036	PLM036
	0886	7799021037302		1	1	71036267	2013-01-10 01:09:19	1:09:19 AM	7103626711810.7607236PLM036	PLM036
	0886	7799021037302		1	1	71036267	2013-01-10 01:09:19	1:09:19 AM	7103626711810.7607236PLM036	PLM036
	0886	7799021037302		1	1	71036267	2013-01-10 01:09:22	1:09:22 AM	7103626711810.7607236PLM036	PLM036
	0886	7799021037302		1	1	71036267	2013-01-10 01:09:22	1:09:22 AM	7103626711810.7607236PLM036	PLM036
	0886	7799021037302		1	1	71036267	2013-01-10 01:09:23	1:09:23 AM	7103626711810.7607236PLM036	PLM036
	0886	7799021037302		1	1	71036267	2013-01-10 01:09:26	1:09:26 AM	7103626711810.7607236PLM036	PLM036
	0886	7799021037302		1	1	71036267	2013-01-10 01:09:28	1:09:28 AM	7103626711810.7607236PLM036	PLM036
	0886	7799021037302		1	1	71036267	2013-01-10 01:09:30	1:09:30 AM	7103626711810.7607236PLM036	PLM036
	0886	7799021037302		1	1	71036267	2013-01-10 01:09:37	1:09:37 AM	7103626711810.7607236PLM036	PLM036
	0886	7799021037302		1	1	71036267	2013-01-10 01:09:37	1:09:37 AM	7103626711810.7607236PLM036	PLM036
	0886	7799021037302		1	1	71036267	2013-01-10 01:09:38	1:09:38 AM	7103626711810.7607236PLM036	PLM036
	0886	7799021037302		1	1	71036267	2013-01-10 01:09:42	1:09:42 AM	7103626711810.7607236PLM036	PLM036
	0886	7799021037302		1	1	71036267	2013-01-10 01:09:43	1:09:43 AM	7103626711810.7607236PLM036	PLM036
	0886	7799021037302		1	1	71036267	2013-01-10 01:09:43	1:09:43 AM	7103626711810.7607236PLM036	PLM036
	0886	7799021037302		1	1	71036267	2013-01-10 01:09:45	1:09:45 AM	7103626711810.7607236PLM036	PLM036
	0886	7799021037302		1	1	71036267	2013-01-10 01:09:46	1:09:46 AM	7103626711810.7607236PLM036	PLM036
	0886	7799021037302		1	1	71036267	2013-01-10 01:09:47	1:09:47 AM	7103626711810.7607236PLM036	PLM036
	0886	7799021037302		1	1	71036267	2013-01-10 01:09:50	1:09:50 AM	7103626711810.7607236PLM036	PLM036
	0886	7799021037302		1	1	71036267	2013-01-10 01:09:50	1:09:50 AM	7103626711810.7607236PLM036	PLM036
	0886	7799021037302		1	1	71036267	2013-01-10 01:09:51	1:09:51 AM	7103626711810.7607236PLM036	PLM036
	0886	7799021037302		1	1	71036267	2013-01-10 01:10:01	1:10:01 AM	7103626711810.7607236PLM036	PLM036
	0886	7799021037302		1	1	71036267	2013-01-10 01:10:01	1:10:01 AM	7103626711810.7607236PLM036	PLM036
	0886	7799021037302		1	1	71036267	2013-01-10 01:10:02	1:10:02 AM	7103626711810.7607236PLM036	PLM036
	0886	7799021037302		1	1	71036267	2013-01-10 01:10:05	1:10:05 AM	7103626711810.7607236PLM036	PLM036
	0886	7799021037302		1	1	71036267	2013-01-10 01:10:06	1:10:06 AM	7103626711810.7607236PLM036	PLM036
	0886	7799021037302		1	1	71036267	2013-01-10 01:10:06	1:10:06 AM	7103626711810.7607236PLM036	PLM036
	0886	7799021037302		1	1	71036267	2013-01-10 01:10:09	1:10:09 AM	7103626711810.7607236PLM036	PLM036
	0886	7799021037302		1	1	71036267	2013-01-10 01:10:11	1:10:11 AM	7103626711810.7607236PLM036	PLM036
	0886	7799021037302		1	1	71036267	2013-01-10 01:10:12	1:10:12 AM	7103626711810.7607236PLM036	PLM036
	0886	7799021037302		1	1	71036267	2013-01-10 01:10:15	1:10:15 AM	7103626711810.7607236PLM036	PLM036
	0886	7799021037302		1	1	71036267	2013-01-10 01:10:17	1:10:17 AM	7103626711810.7607236PLM036	PLM036
	0886	7799021037302		1	1	71036267	2013-01-10 01:10:18	1:10:18 AM	7103626711810.7607236PLM036	PLM036
	0886	7799021037302		1	1	71036267	2013-01-10 01:10:22	1:10:22 AM	7103626711810.7607236PLM036	PLM036
	0886	7799021037302		1	1	71036267	2013-01-10 01:10:22	1:10:22 AM	7103626711810.7607236PLM036	PLM036
	0886	7799021037302		1	1	71036267	2013-01-10 01:10:23	1:10:23 AM	7103626711810.7607236PLM036	PLM036
	0886	7799021037302		1	1	71036267	2013-01-10 01:10:36	1:10:36 AM	7103626711810.7607236PLM036	PLM036
	0886	7799021037302		1	1	71036267	2013-01-10 01:10:36	1:10:36 AM	7103626711810.7607236PLM036	PLM036
	0886	7799021037302		1	1	71036267	2013-01-10 01:10:37	1:10:37 AM	7103626711810.7607236PLM036	PLM036
	0886	7799021037302		1	1	71036267	2013-01-10 01:10:40	1:10:40 AM	7103626711810.7607236PLM036	PLM036
	0886	7799021037302		1	1	71036267	2013-01-10 01:10:40	1:10:40 AM	7103626711810.7607236PLM036	PLM036
	0886	7799021037302		1	1	71036267	2013-01-10 01:10:43	1:10:43 AM	7103626711810.7607236PLM036	PLM036
	0886	7799021037302		1	1	71036267	2013-01-10 01:10:46	1:10:46 AM	7103626711810.7607236PLM036	PLM036
	0886	7799021037302		1	1	71036267	2013-01-10 01:10:47	1:10:47 AM	7103626711810.7607236PLM036	PLM036
	0886	7799021037302		1	1	71036267	2013-01-10 01:10:48	1:10:48 AM	7103626711810.7607236PLM036	PLM036
	0886	7799021037302		1	1	71036267	2013-01-10 01:10:51	1:10:51 AM	7103626711810.7607236PLM036	PLM036
	0886	7799021037302		1	1	71036267	2013-01-10 01:10:51	1:10:51 AM	7103626711810.7607236PLM036	PLM036
	0886	7799021037302		1	1	71036267	2013-01-10 01:10:52	1:10:52 AM	7103626711810.7607236PLM036	PLM036
	0886	7799021037302		1	1	71036267	2013-01-10 01:10:56	1:10:56 AM	7103626711810.7607236PLM036	PLM036
	0886	7799021037302		1	1	71036267	2013-01-10 01:10:56	1:10:56 AM	7103626711810.7607236PLM036	PLM036
	0886	7799021037302		1	1	71036267	2013-01-10 01:10:57	1:10:57 AM	7103626711810.7607236PLM036	PLM036
	0886	7799021037302		1	1	71036267	2013-01-10 01:11:00	1:11:00 AM	7103626711810.7607236PLM036	PLM036
	0886	7799021037302		1	1	71036267	2013-01-10 01:11:00	1:11:00 AM	7103626711810.7607236PLM036	PLM036
	0886	7799021037302		1	1	71036267	2013-01-10 01:11:01	1:11:01 AM	7103626711810.7607236PLM036	PLM036
	0886	7799021037302		1	1	71036267	2013-01-10 01:11:04	1:11:04 AM	7103626711810.7607236PLM036	PLM036
	0886	7799021037302		1	1	71036267	2013-01-10 01:11:05	1:11:05 AM	7103626711810.7607236PLM036	PLM036
	0886	7799021037302		1	1	71036267	2013-01-10 01:11:08	1:11:08 AM	7103626711810.7607236PLM036	PLM036
	0886	7799021037302		1	1	71036267	2013-01-10 01:11:12	1:11:12 AM	7103626711810.7607236PLM036	PLM036
	0886	7799021037302		1	1	71036267	2013-01-10 01:11:12	1:11:12 AM	7103626711810.7607236PLM036	PLM036
	0886	7799021037302		1	1	71036267	2013-01-10 01:11:13	1:11:13 AM	7103626711810.7607236PLM036	PLM036
	0886	7799021037302		1	1	71036267	2013-01-10 01:11:18	1:11:18 AM	7103626711810.7607236PLM036	PLM036
	0886	7799021037302		1	1	71036267	2013-01-10 01:11:18	1:11:18 AM	7103626711810.7607236PLM036	PLM036
	0886	7799021037302		1	1	71036267	2013-01-10 01:11:19	1:11:19 AM	7103626711810.7607236PLM036	PLM036
	0886	7799021037302		1	1	71036267	2013-01-10 01:11:22	1:11:22 AM	7103626711810.7607236PLM036	PLM036
	0886	7799021037302		1	1	71036267	2013-01-10 01:11:22	1:11:22 AM	7103626711810.7607236PLM036	PLM036
	0886	7799021037302		1	1	71036267	2013-01-10 01:11:23	1:11:23 AM	7103626711810.7607236PLM036	PLM036
	0886	7799021037302		1	1	71036267	2013-01-10 01:11:26	1:11:26 AM	7103626711810.7607236PLM036	PLM036
	0886	7799021037302		1	1	71036267	2013-01-10 01:11:28	1:11:28 AM	7103626711810.7607236PLM036	PLM036
	0886	7799021037302		1	1	71036267	2013-01-10 01:11:30	1:11:30 AM	7103626711810.7607236PLM036	PLM036
	0886	7799021037302		1	1	71036267	2013-01-10 01:11:39	1:11:39 AM	7103626711810.7607236PLM036	PLM036
	0886	7799021037302		1	1	71036267	2013-01-10 01:11:40	1:11:40 AM	7103626711810.7607236PLM036	PLM036
	0886	7799021037302		1	1	71036267	2013-01-10 01:11:40	1:11:40 AM	7103626711810.7607236PLM036	PLM036
	0886	7799021037302		1	1	71036267	2013-01-10 01:11:51	1:11:51 AM	7103626711810.7607236PLM036	PLM036
	0886	7799021037302		1	1	71036267	2013-01-10 01:11:52	1:11:52 AM	7103626711810.7607236PLM036	PLM036
	0886	7799021037302		1	1	71036267	2013-01-10 01:11:53	1:11:53 AM	7103626711810.7607236PLM036	PLM036
	0886	7799021037302		1	1	71036267	2013-01-10 01:11:55	1:11:55 AM	7103626711810.7607236PLM036	PLM036
	0886	7799021037302		1	1	71036267	2013-01-10 01:11:55	1:11:55 AM	7103626711810.7607236PLM036	PLM036
	0886	7799021037302		1	1	71036267	2013-01-10 01:11:56	1:11:56 AM	7103626711810.7607236PLM036	PLM036
	0886	7799021037302		1	1	71036267	2013-01-10 01:11:58	1:11:58 AM	7103626711810.7607236PLM036	PLM036
	0886	7799021037302		1	1	71036267	2013-01-10 01:11:59	1:11:59 AM	7103626711810.7607236PLM036	PLM036
	0886	7799021037302		1	1	71036267	2013-01-10 01:11:59	1:11:59 AM	7103626711810.7607236PLM036	PLM036
	0886	7799021037302		1	1	71036267	2013-01-10 01:12:05	1:12:05 AM	7103626711810.7607236PLM036	PLM036
	0886	7799021037302		1	1	71036267	2013-01-10 01:12:06	1:12:06 AM	7103626711810.7607236PLM036	PLM036
	0886	7799021037302		1	1	71036267	2013-01-10 01:12:06	1:12:06 AM	7103626711810.7607236PLM036	PLM036
	0886	7799021037302		1	1	71036267	2013-01-10 01:12:09	1:12:09 AM	7103626711810.7607236PLM036	PLM036
	0886	7799021037302		1	1	71036267	2013-01-10 01:12:12	1:12:12 AM	7103626711810.7607236PLM036	PLM036
	0886	7799021037302		1	1	71036267	2013-01-10 01:12:12	1:12:12 AM	7103626711810.7607236PLM036	PLM036
	0886	7799021037302		1	1	71036267	2013-01-10 01:12:15	1:12:15 AM	7103626711810.7607236PLM036	PLM036
	0886	7799021037302		1	1	71036267	2013-01-10 01:12:15	1:12:15 AM	7103626711810.7607236PLM036	PLM036
	0886	7799021037302		1	1	71036267	2013-01-10 01:12:16	1:12:16 AM	7103626711810.7607236PLM036	PLM036
	0886	7799021037302		1	1	71036267	2013-01-10 01:12:19	1:12:19 AM	7103626711810.7607236PLM036	PLM036
	0886	7799021037302		1	1	71036267	2013-01-10 01:12:20	1:12:20 AM	7103626711810.7607236PLM036	PLM036
	0886	7799021037302		1	1	71036267	2013-01-10 01:12:20	1:12:20 AM	7103626711810.7607236PLM036	PLM036
	0886	7799021037302		1	1	71036267	2013-01-10 01:12:23	1:12:23 AM	7103626711810.7607236PLM036	PLM036
	0886	7799021037302		1	1	71036267	2013-01-10 01:12:23	1:12:23 AM	7103626711810.7607236PLM036	PLM036
	0886	7799021037302		1	1	71036267	2013-01-10 01:12:24	1:12:24 AM	7103626711810.7607236PLM036	PLM036
	0886	7799021037302		1	1	71036267	2013-01-10 01:12:29	1:12:29 AM	7103626711810.7607236PLM036	PLM036
	0886	7799021037302		1	1	71036267	2013-01-10 01:12:30	1:12:30 AM	7103626711810.7607236PLM036	PLM036
	0886	7799021037302		1	1	71036267	2013-01-10 01:12:31	1:12:31 AM	7103626711810.7607236PLM036	PLM036
	0886	7799021037302		1	1	71036267	2013-01-10 01:12:34	1:12:34 AM	7103626711810.7607236PLM036	PLM036
	0886	7799021037302		1	1	71036267	2013-01-10 01:12:34	1:12:34 AM	7103626711810.7607236PLM036	PLM036
	0886	7799021037302		1	1	71036267	2013-01-10 01:12:35	1:12:35 AM	7103626711810.7607236PLM036	PLM036
	0886	7799021037302		1	1	71036267	2013-01-10 01:12:37	1:12:37 AM	7103626711810.7607236PLM036	PLM036
	0886	7799021037302		1	1	71036267	2013-01-10 01:12:38	1:12:38 AM	7103626711810.7607236PLM036	PLM036
	0886	7799021037302		1	1	71036267	2013-01-10 01:12:39	1:12:39 AM	7103626711810.7607236PLM036	PLM036
	0886	7799021037302		1	1	71036267	2013-01-10 01:12:42	1:12:42 AM	7103626711810.7607236PLM036	PLM036
	0886	7799021037302		1	1	71036267	2013-01-10 01:12:43	1:12:43 AM	7103626711810.7607236PLM036	PLM036
	0886	7799021037302		1	1	71036267	2013-01-10 01:12:44	1:12:44 AM	7103626711810.7607236PLM036	PLM036
	0886	7799021037302		1	1	71036267	2013-01-10 01:15:45	1:15:45 AM	7103626711810.7607236PLM036	PLM036
	0886	7799021037302		1	1	71036267	2013-01-10 01:15:45	1:15:45 AM	7103626711810.7607236PLM036	PLM036
	0885	7799008257716		1	1	71036267	2013-01-10 01:16:39	1:16:39 AM	7103626711810.7607236PLM036	PLM036
	0885	7799008257716		1	1	71036267	2013-01-10 01:16:40	1:16:40 AM	7103626711810.7607236PLM036	PLM036
	0885	7799008257716		1	1	71036267	2013-01-10 01:16:41	1:16:41 AM	7103626711810.7607236PLM036	PLM036
	0885	7799008257716		1	1	71036267	2013-01-10 01:16:44	1:16:44 AM	7103626711810.7607236PLM036	PLM036
	0885	7799008257716		1	1	71036267	2013-01-10 01:16:44	1:16:44 AM	7103626711810.7607236PLM036	PLM036
	0885	7799008257716		1	1	71036267	2013-01-10 01:16:45	1:16:45 AM	7103626711810.7607236PLM036	PLM036
	0885	7799008257716		1	1	71036267	2013-01-10 01:16:48	1:16:48 AM	7103626711810.7607236PLM036	PLM036
	0885	7799008257716		1	1	71036267	2013-01-10 01:16:49	1:16:49 AM	7103626711810.7607236PLM036	PLM036
	0885	7799008257716		1	1	71036267	2013-01-10 01:16:50	1:16:50 AM	7103626711810.7607236PLM036	PLM036
	0885	7799008257716		1	1	71036267	2013-01-10 01:16:53	1:16:53 AM	7103626711810.7607236PLM036	PLM036
	0885	7799008257716		1	1	71036267	2013-01-10 01:16:53	1:16:53 AM	7103626711810.7607236PLM036	PLM036
	0885	7799008257716		1	1	71036267	2013-01-10 01:16:54	1:16:54 AM	7103626711810.7607236PLM036	PLM036
	0885	7799008257716		1	1	71036267	2013-01-10 01:17:00	1:17:00 AM	7103626711810.7607236PLM036	PLM036
	0885	7799008257716		1	1	71036267	2013-01-10 01:17:02	1:17:02 AM	7103626711810.7607236PLM036	PLM036
	0885	7799008257716		1	1	71036267	2013-01-10 01:17:04	1:17:04 AM	7103626711810.7607236PLM036	PLM036
	0885	7799008257716		1	1	71036267	2013-01-10 01:17:06	1:17:06 AM	7103626711810.7607236PLM036	PLM036
	0885	7799008257716		1	1	71036267	2013-01-10 01:17:08	1:17:08 AM	7103626711810.7607236PLM036	PLM036
	0885	7799008257716		1	1	71036267	2013-01-10 01:17:09	1:17:09 AM	7103626711810.7607236PLM036	PLM036
	0885	7799008257716		1	1	71036267	2013-01-10 01:17:13	1:17:13 AM	7103626711810.7607236PLM036	PLM036
	0885	7799008257716		1	1	71036267	2013-01-10 01:17:13	1:17:13 AM	7103626711810.7607236PLM036	PLM036
	0885	7799008257716		1	1	71036267	2013-01-10 01:17:14	1:17:14 AM	7103626711810.7607236PLM036	PLM036
	0885	7799008257716		1	1	71036267	2013-01-10 01:17:17	1:17:17 AM	7103626711810.7607236PLM036	PLM036
