	8074	7799021009811		1	1	71036267	2019-01-05 18:11:45	6:11:45 PM	710362671839120.04535276PLM022	PLM022
	8074	7799008536934		1	1	71036267	2019-01-05 18:12:05	6:12:05 PM	710362671839120.04535276PLM022	PLM022
	8074	7799008730868		1	1	71036267	2019-01-05 18:12:11	6:12:11 PM	710362671839120.04535276PLM022	PLM022
	8074	7799008535296		1	1	71036267	2019-01-05 18:12:17	6:12:17 PM	710362671839120.04535276PLM022	PLM022
	8074	7799021012323		1	1	71036267	2019-01-05 18:12:21	6:12:21 PM	710362671839120.04535276PLM022	PLM022
	8074	7791750404509		1	1	71036267	2019-01-05 18:12:24	6:12:24 PM	710362671839120.04535276PLM022	PLM022
	8074	7799008600482		1	1	71036267	2019-01-05 18:12:34	6:12:34 PM	710362671839120.04535276PLM022	PLM022
	8074	7799008381619		1	1	71036267	2019-01-05 18:12:38	6:12:38 PM	710362671839120.04535276PLM022	PLM022
	8074	7799008631202		1	1	71036267	2019-01-05 18:13:09	6:13:09 PM	710362671839120.04535276PLM022	PLM022
	8074	7799008381619		1	1	71036267	2019-01-05 18:13:51	6:13:51 PM	710362671839120.04535276PLM022	PLM022
	8074	7793730814384		1	1	71036267	2019-01-05 18:13:57	6:13:57 PM	710362671839120.04535276PLM022	PLM022
	8074	7799008299976		1	1	71036267	2019-01-05 18:14:01	6:14:01 PM	710362671839120.04535276PLM022	PLM022
	8074	7799008575353		1	1	71036267	2019-01-05 18:14:08	6:14:08 PM	710362671839120.04535276PLM022	PLM022
	8074	7799008628936		1	1	71036267	2019-01-05 18:14:37	6:14:37 PM	710362671839120.04535276PLM022	PLM022
	8074	7799008590943		1	1	71036267	2019-01-05 18:14:52	6:14:52 PM	710362671839120.04535276PLM022	PLM022
	8074	7799008562117		1	1	71036267	2019-01-05 18:14:55	6:14:55 PM	710362671839120.04535276PLM022	PLM022
	8074	7799008562117		1	1	71036267	2019-01-05 18:14:58	6:14:58 PM	710362671839120.04535276PLM022	PLM022
	8074	7799008538761		1	1	71036267	2019-01-05 18:15:03	6:15:03 PM	710362671839120.04535276PLM022	PLM022
	8074	7799008598895		1	1	71036267	2019-01-05 18:15:08	6:15:08 PM	710362671839120.04535276PLM022	PLM022
	8074	7799008632742		1	1	71036267	2019-01-05 18:15:11	6:15:11 PM	710362671839120.04535276PLM022	PLM022
	8074	7799008557458		1	1	71036267	2019-01-05 18:15:14	6:15:14 PM	710362671839120.04535276PLM022	PLM022
	8074	7799008788975		1	1	71036267	2019-01-05 18:15:18	6:15:18 PM	710362671839120.04535276PLM022	PLM022
	8074	7799008673004		1	1	71036267	2019-01-05 18:15:27	6:15:27 PM	710362671839120.04535276PLM022	PLM022
	8074	7793730580470		1	1	71036267	2019-01-05 18:15:35	6:15:35 PM	710362671839120.04535276PLM022	PLM022
	8074	7799008672489		1	1	71036267	2019-01-05 18:15:37	6:15:37 PM	710362671839120.04535276PLM022	PLM022
	8074	7799008655178		1	1	71036267	2019-01-05 18:15:40	6:15:40 PM	710362671839120.04535276PLM022	PLM022
	8074	7799008720746		1	1	71036267	2019-01-05 18:15:43	6:15:43 PM	710362671839120.04535276PLM022	PLM022
	8074	7799008431963		1	1	71036267	2019-01-05 18:15:48	6:15:48 PM	710362671839120.04535276PLM022	PLM022
	8074	70515102		1	1	71036267	2019-01-05 18:16:06	6:16:06 PM	710362671839120.04535276PLM022	PLM022
	8074	7799008572413		1	1	71036267	2019-01-05 18:17:20	6:17:20 PM	710362671839120.04535276PLM022	PLM022
	8074	7799008572413		1	1	71036267	2019-01-05 18:17:45	6:17:45 PM	710362671839120.04535276PLM022	PLM022
	8074	7799008572413		1	1	71036267	2019-01-05 18:18:17	6:18:17 PM	710362671839120.04535276PLM022	PLM022
	8074	7799008572437		1	1	71036267	2019-01-05 18:18:33	6:18:33 PM	710362671839120.04535276PLM022	PLM022
	8074	7799008572437		1	1	71036267	2019-01-05 18:18:56	6:18:56 PM	710362671839120.04535276PLM022	PLM022
	8074	7799008572437		1	1	71036267	2019-01-05 18:19:17	6:19:17 PM	710362671839120.04535276PLM022	PLM022
	8074	7799008572437		1	1	71036267	2019-01-05 18:19:17	6:19:17 PM	710362671839120.04535276PLM022	PLM022
	8074	7799008572437		1	1	71036267	2019-01-05 18:19:25	6:19:25 PM	710362671839120.04535276PLM022	PLM022
	8074	7799008197432		1	1	71036267	2019-01-05 18:19:42	6:19:42 PM	710362671839120.04535276PLM022	PLM022
	8074	74205303		1	1	71036267	2019-01-05 18:19:59	6:19:59 PM	710362671839120.04535276PLM022	PLM022
	8074	74205303		1	1	71036267	2019-01-05 18:20:10	6:20:10 PM	710362671839120.04535276PLM022	PLM022
	8074	7799008325408		1	1	71036267	2019-01-05 18:20:27	6:20:27 PM	710362671839120.04535276PLM022	PLM022
	8074	7799008372877		1	1	71036267	2019-01-05 18:20:35	6:20:35 PM	710362671839120.04535276PLM022	PLM022
	8074	7799008372877		1	1	71036267	2019-01-05 18:20:36	6:20:36 PM	710362671839120.04535276PLM022	PLM022
	8074	7793730540191		1	1	71036267	2019-01-05 18:20:38	6:20:38 PM	710362671839120.04535276PLM022	PLM022
	8074	7799008406190		1	1	71036267	2019-01-05 18:20:42	6:20:42 PM	710362671839120.04535276PLM022	PLM022
	8074	7799008358062		1	1	71036267	2019-01-05 18:20:43	6:20:43 PM	710362671839120.04535276PLM022	PLM022
	8074	7799008615639		1	1	71036267	2019-01-05 18:20:47	6:20:47 PM	710362671839120.04535276PLM022	PLM022
	8074	7799021000658		1	1	71036267	2019-01-05 18:20:49	6:20:49 PM	710362671839120.04535276PLM022	PLM022
	8074	7799008715070		1	1	71036267	2019-01-05 18:20:58	6:20:58 PM	710362671839120.04535276PLM022	PLM022
	8078	7799008662466		1	1	71036267	2019-01-05 18:23:20	6:23:20 PM	710362671839120.04535276PLM022	PLM022
	8078	7799008536903		1	1	71036267	2019-01-05 18:23:27	6:23:27 PM	710362671839120.04535276PLM022	PLM022
	8078	7799008380001		1	1	71036267	2019-01-05 18:23:42	6:23:42 PM	710362671839120.04535276PLM022	PLM022
	8078	7799008282244		1	1	71036267	2019-01-05 18:23:50	6:23:50 PM	710362671839120.04535276PLM022	PLM022
	8078	7799008553771		1	1	71036267	2019-01-05 18:24:29	6:24:29 PM	710362671839120.04535276PLM022	PLM022
	8078	7799008667157		1	1	71036267	2019-01-05 18:25:12	6:25:12 PM	710362671839120.04535276PLM022	PLM022
	8078	72362201		1	1	71036267	2019-01-05 18:25:24	6:25:24 PM	710362671839120.04535276PLM022	PLM022
	8078	7799008340326		1	1	71036267	2019-01-05 18:25:43	6:25:43 PM	710362671839120.04535276PLM022	PLM022
	8078	7793730405148		1	1	71036267	2019-01-05 18:25:47	6:25:47 PM	710362671839120.04535276PLM022	PLM022
	8078	7799008540733		1	1	71036267	2019-01-05 18:26:31	6:26:31 PM	710362671839120.04535276PLM022	PLM022
	8078	7799008600338		1	1	71036267	2019-01-05 18:26:46	6:26:46 PM	710362671839120.04535276PLM022	PLM022
	8078	7799008377612		1	1	71036267	2019-01-05 18:26:53	6:26:53 PM	710362671839120.04535276PLM022	PLM022
	8078	7799008698328		1	1	71036267	2019-01-05 18:27:04	6:27:04 PM	710362671839120.04535276PLM022	PLM022
	8078	7799008626116		1	1	71036267	2019-01-05 18:27:07	6:27:07 PM	710362671839120.04535276PLM022	PLM022
	8078	7799008540726		1	1	71036267	2019-01-05 18:27:13	6:27:13 PM	710362671839120.04535276PLM022	PLM022
	8078	75256801		1	1	71036267	2019-01-05 18:27:23	6:27:23 PM	710362671839120.04535276PLM022	PLM022
	8078	7799008627939		1	1	71036267	2019-01-05 18:27:30	6:27:30 PM	710362671839120.04535276PLM022	PLM022
	8078	7799021010169		1	1	71036267	2019-01-05 18:27:33	6:27:33 PM	710362671839120.04535276PLM022	PLM022
	8078	75217401		1	1	71036267	2019-01-05 18:27:41	6:27:41 PM	710362671839120.04535276PLM022	PLM022
	8078	7799008667140		1	1	71036267	2019-01-05 18:27:53	6:27:53 PM	710362671839120.04535276PLM022	PLM022
	8078	7799008710341		1	1	71036267	2019-01-05 18:28:06	6:28:06 PM	710362671839120.04535276PLM022	PLM022
	8078	7799008375861		1	1	71036267	2019-01-05 18:28:11	6:28:11 PM	710362671839120.04535276PLM022	PLM022
	8078	73209001		1	1	71036267	2019-01-05 18:28:30	6:28:30 PM	710362671839120.04535276PLM022	PLM022
	8078	7799008592893		1	1	71036267	2019-01-05 18:28:36	6:28:36 PM	710362671839120.04535276PLM022	PLM022
	8078	7799008696850		1	1	71036267	2019-01-05 18:28:46	6:28:46 PM	710362671839120.04535276PLM022	PLM022
	8078	7793730580470		1	1	71036267	2019-01-05 18:28:51	6:28:51 PM	710362671839120.04535276PLM022	PLM022
	8078	7799008602653		1	1	71036267	2019-01-05 18:29:02	6:29:02 PM	710362671839120.04535276PLM022	PLM022
	8078	7799008540726		1	1	71036267	2019-01-05 18:29:21	6:29:21 PM	710362671839120.04535276PLM022	PLM022
	8078	7799008540726		1	1	71036267	2019-01-05 18:29:22	6:29:22 PM	710362671839120.04535276PLM022	PLM022
	8078	7799008540726		1	1	71036267	2019-01-05 18:29:23	6:29:23 PM	710362671839120.04535276PLM022	PLM022
	8078	7799008540733		1	1	71036267	2019-01-05 18:29:42	6:29:42 PM	710362671839120.04535276PLM022	PLM022
	8078	7793730580463		1	1	71036267	2019-01-05 18:30:00	6:30:00 PM	710362671839120.04535276PLM022	PLM022
	8078	7793730731889		1	1	71036267	2019-01-05 18:30:25	6:30:25 PM	710362671839120.04535276PLM022	PLM022
	8078	7799008602622		1	1	71036267	2019-01-05 18:30:34	6:30:34 PM	710362671839120.04535276PLM022	PLM022
	8078	7799008718064		1	1	71036267	2019-01-05 18:30:37	6:30:37 PM	710362671839120.04535276PLM022	PLM022
	8078	7793730789118		1	1	71036267	2019-01-05 18:30:48	6:30:48 PM	710362671839120.04535276PLM022	PLM022
	8078	7799008718064		1	1	71036267	2019-01-05 18:30:53	6:30:53 PM	710362671839120.04535276PLM022	PLM022
	8078	7799008711928		1	1	71036267	2019-01-05 18:31:03	6:31:03 PM	710362671839120.04535276PLM022	PLM022
	8078	7799008593333		1	1	71036267	2019-01-05 18:31:06	6:31:06 PM	710362671839120.04535276PLM022	PLM022
	8078	7799008655161		1	1	71036267	2019-01-05 18:31:28	6:31:28 PM	710362671839120.04535276PLM022	PLM022
	8078	75268801		1	1	71036267	2019-01-05 18:32:10	6:32:10 PM	710362671839120.04535276PLM022	PLM022
	8078	7799008658636		1	1	71036267	2019-01-05 18:32:17	6:32:17 PM	710362671839120.04535276PLM022	PLM022
	8078	7799008732916		1	1	71036267	2019-01-05 18:32:31	6:32:31 PM	710362671839120.04535276PLM022	PLM022
	8078	7799008711935		1	1	71036267	2019-01-05 18:32:52	6:32:52 PM	710362671839120.04535276PLM022	PLM022
	8078	7799008698007		1	1	71036267	2019-01-05 18:33:04	6:33:04 PM	710362671839120.04535276PLM022	PLM022
	8078	7799008663869		1	1	71036267	2019-01-05 18:33:15	6:33:15 PM	710362671839120.04535276PLM022	PLM022
	8078	7799008663920		1	1	71036267	2019-01-05 18:33:21	6:33:21 PM	710362671839120.04535276PLM022	PLM022
	8078	7799008301075		1	1	71036267	2019-01-05 18:33:29	6:33:29 PM	710362671839120.04535276PLM022	PLM022
	8078	7799008716404		1	1	71036267	2019-01-05 18:33:45	6:33:45 PM	710362671839120.04535276PLM022	PLM022
	8078	7799008224107		1	1	71036267	2019-01-05 18:33:48	6:33:48 PM	710362671839120.04535276PLM022	PLM022
	8078	7799008448329		1	1	71036267	2019-01-05 18:33:50	6:33:50 PM	710362671839120.04535276PLM022	PLM022
	8078	7799008657097		1	1	71036267	2019-01-05 18:33:52	6:33:52 PM	710362671839120.04535276PLM022	PLM022
	8078	76113803		1	1	71036267	2019-01-05 18:34:01	6:34:01 PM	710362671839120.04535276PLM022	PLM022
	8078	7799008602653		1	1	71036267	2019-01-05 18:34:04	6:34:04 PM	710362671839120.04535276PLM022	PLM022
	8078	7793730580463		1	1	71036267	2019-01-05 18:34:23	6:34:23 PM	710362671839120.04535276PLM022	PLM022
	8078	7799008602646		1	1	71036267	2019-01-05 18:34:25	6:34:25 PM	710362671839120.04535276PLM022	PLM022
	8078	7799008397566		1	1	71036267	2019-01-05 18:34:32	6:34:32 PM	710362671839120.04535276PLM022	PLM022
	8078	7793730580463		1	1	71036267	2019-01-05 18:34:34	6:34:34 PM	710362671839120.04535276PLM022	PLM022
	8078	7799008711782		1	1	71036267	2019-01-05 18:34:39	6:34:39 PM	710362671839120.04535276PLM022	PLM022
	8078	7799008613246		1	1	71036267	2019-01-05 18:35:58	6:35:58 PM	710362671839120.04535276PLM022	PLM022
	8078	7799008671703		1	1	71036267	2019-01-05 18:36:02	6:36:02 PM	710362671839120.04535276PLM022	PLM022
	8078	7799008712000		1	1	71036267	2019-01-05 18:36:07	6:36:07 PM	710362671839120.04535276PLM022	PLM022
	8078	73026029		1	1	71036267	2019-01-05 18:36:22	6:36:22 PM	710362671839120.04535276PLM022	PLM022
	8078	7799008626079		1	1	71036267	2019-01-05 18:36:27	6:36:27 PM	710362671839120.04535276PLM022	PLM022
	8078	75268406		1	1	71036267	2019-01-05 18:36:36	6:36:36 PM	710362671839120.04535276PLM022	PLM022
	8078	75268406		1	1	71036267	2019-01-05 18:36:40	6:36:40 PM	710362671839120.04535276PLM022	PLM022
	8078	74540301		1	1	71036267	2019-01-05 18:36:48	6:36:48 PM	710362671839120.04535276PLM022	PLM022
	8078	7799008716404		1	1	71036267	2019-01-05 18:36:53	6:36:53 PM	710362671839120.04535276PLM022	PLM022
	8078	7799008707105		1	1	71036267	2019-01-05 18:36:56	6:36:56 PM	710362671839120.04535276PLM022	PLM022
	8078	7799008698618		1	1	71036267	2019-01-05 18:36:58	6:36:58 PM	710362671839120.04535276PLM022	PLM022
	8078	7799008707181		1	1	71036267	2019-01-05 18:37:01	6:37:01 PM	710362671839120.04535276PLM022	PLM022
	8078	7799008448336		1	1	71036267	2019-01-05 18:37:06	6:37:06 PM	710362671839120.04535276PLM022	PLM022
	8078	7799008388038		1	1	71036267	2019-01-05 18:37:09	6:37:09 PM	710362671839120.04535276PLM022	PLM022
	8078	7799008672526		1	1	71036267	2019-01-05 18:37:11	6:37:11 PM	710362671839120.04535276PLM022	PLM022
	8078	7799008718064		1	1	71036267	2019-01-05 18:37:13	6:37:13 PM	710362671839120.04535276PLM022	PLM022
	8078	7799008731629		1	1	71036267	2019-01-05 18:37:21	6:37:21 PM	710362671839120.04535276PLM022	PLM022
	8078	70479501		1	1	71036267	2019-01-05 18:37:48	6:37:48 PM	710362671839120.04535276PLM022	PLM022
