	5264	7799008648682		99	2	71036267	2019-01-05 08:24:40	8:24 AM	71036267847570.301948PLM022	PLM022
	5272	7799008986050		12	2	71036267	2019-01-05 08:25:43	8:25 AM	71036267847570.301948PLM022	PLM022
	5266	7799008986050		12	2	71036267	2019-01-05 08:26:12	8:26 AM	71036267847570.301948PLM022	PLM022
	5267	7799008986050		12	2	71036267	2019-01-05 08:26:44	8:26 AM	71036267847570.301948PLM022	PLM022
	5275	7799008986050		12	2	71036267	2019-01-05 08:27:07	8:27 AM	71036267847570.301948PLM022	PLM022
	5276	7799008986050		12	2	71036267	2019-01-05 08:27:42	8:27 AM	71036267847570.301948PLM022	PLM022
	5270	7799008986050		12	2	71036267	2019-01-05 08:28:16	8:28 AM	71036267847570.301948PLM022	PLM022
	5263	7799008986050		12	2	71036267	2019-01-05 08:29:01	8:29 AM	71036267847570.301948PLM022	PLM022
	5248	7799008986098		24	2	71036267	2019-01-05 08:29:49	8:29 AM	71036267847570.301948PLM022	PLM022
	5253	7799008986098		24	2	71036267	2019-01-05 08:30:14	8:30 AM	71036267847570.301948PLM022	PLM022
	5247	7799008866246		24	2	71036267	2019-01-05 08:30:41	8:30 AM	71036267847570.301948PLM022	PLM022
	5278	7799008986074		24	2	71036267	2019-01-05 08:31:49	8:31 AM	71036267847570.301948PLM022	PLM022
	5279	7799008986074		24	2	71036267	2019-01-05 08:32:27	8:32 AM	71036267847570.301948PLM022	PLM022
	5280	7799008986074		24	2	71036267	2019-01-05 08:33:03	8:33 AM	71036267847570.301948PLM022	PLM022
	5284	7799008649238		36	2	71036267	2019-01-05 08:33:46	8:33 AM	71036267847570.301948PLM022	PLM022
	5283	7799008649238		36	2	71036267	2019-01-05 08:34:17	8:34 AM	71036267847570.301948PLM022	PLM022
	5285	7799008986074		24	2	71036267	2019-01-05 08:35:00	8:35 AM	71036267847570.301948PLM022	PLM022
	5286	7799008986074		24	2	71036267	2019-01-05 08:35:29	8:35 AM	71036267847570.301948PLM022	PLM022
	5287	7799008986074		24	2	71036267	2019-01-05 08:36:10	8:36 AM	71036267847570.301948PLM022	PLM022
	5281	7799008866215		24	2	71036267	2019-01-05 08:37:29	8:37 AM	71036267847570.301948PLM022	PLM022
	5282	7799008866215		24	2	71036267	2019-01-05 08:38:06	8:38 AM	71036267847570.301948PLM022	PLM022
	5409	7799008866215		24	2	71036267	2019-01-05 08:40:54	8:40 AM	71036267847570.301948PLM022	PLM022
	5412	7799008866215		24	2	71036267	2019-01-05 08:42:02	8:42 AM	71036267847570.301948PLM022	PLM022
	5411	7799008866215		24	2	71036267	2019-01-05 08:42:32	8:42 AM	71036267847570.301948PLM022	PLM022
	5288	7799008866215		24	2	71036267	2019-01-05 08:43:17	8:43 AM	71036267847570.301948PLM022	PLM022
