	5678	7799021051872		29	2	71036267	2019-01-05 13:43:11	1:43 PM	710362671619390.81449PLM022	PLM022
	5672	7799008794471		16	2	71036267	2019-01-05 13:46:11	1:46 PM	710362671619390.81449PLM022	PLM022
	5679	7799008942452		15	2	71036267	2019-01-05 13:47:15	1:47 PM	710362671619390.81449PLM022	PLM022
	5681	7799008992051		35	2	71036267	2019-01-05 13:48:30	1:48 PM	710362671619390.81449PLM022	PLM022
	5673	7799021029475		100	2	71036267	2019-01-05 13:55:38	1:55 PM	710362671619390.81449PLM022	PLM022
	5667	7799008243443		87	2	71036267	2019-01-05 13:57:14	1:57 PM	710362671619390.81449PLM022	PLM022
	5668	7799021021820		28	2	71036267	2019-01-05 13:59:06	1:59 PM	710362671619390.81449PLM022	PLM022
	5657	7799008689036		250	2	71036267	2019-01-05 14:05:25	2:05 PM	710362671619390.81449PLM022	PLM022
	5658	7799008865836		22	2	71036267	2019-01-05 14:08:36	2:08 PM	710362671619390.81449PLM022	PLM022
	5658	7799008865836		203	2	71036267	2019-01-05 14:08:50	2:08 PM	710362671619390.81449PLM022	PLM022
	5659	7799008865836		225	2	71036267	2019-01-05 14:10:20	2:10 PM	710362671619390.81449PLM022	PLM022
	5660	7799008865836		225	2	71036267	2019-01-05 14:11:22	2:11 PM	710362671619390.81449PLM022	PLM022
	5661	7799008865836		225	2	71036267	2019-01-05 14:17:41	2:17 PM	710362671619390.81449PLM022	PLM022
	5663	7799008222530		401	2	71036267	2019-01-05 14:29:28	2:29 PM	710362671619390.81449PLM022	PLM022
	5666	7791750338590		396	2	71036267	2019-01-05 14:34:15	2:34 PM	710362671619390.81449PLM022	PLM022
	5680	7799021021820		1	2	71036267	2019-01-05 14:34:45	2:34 PM	710362671619390.81449PLM022	PLM022
	5664	7799021038286		83	2	71036267	2019-01-05 14:36:46	2:36 PM	710362671619390.81449PLM022	PLM022
	5750	7793730551555		230	2	71036267	2019-01-05 14:42:00	2:42 PM	710362671619390.81449PLM022	PLM022
	5748	7799008284378		399	2	71036267	2019-01-05 14:49:47	2:49 PM	710362671619390.81449PLM022	PLM022
	5751	7793730853048		921	2	71036267	2019-01-05 15:03:11	3:03 PM	710362671619390.81449PLM022	PLM022
	5749	7799008993249		69	2	71036267	2019-01-05 15:12:36	3:12 PM	710362671619390.81449PLM022	PLM022
	5753	7793730853048		906	2	71036267	2019-01-05 15:29:08	3:29 PM	710362671619390.81449PLM022	PLM022
	5746	7799008564166		230	2	71036267	2019-01-05 15:40:58	3:40 PM	710362671619390.81449PLM022	PLM022
	5747	7799021022186		47	2	71036267	2019-01-05 15:43:50	3:43 PM	710362671619390.81449PLM022	PLM022
	5745	7799008564166		234	2	71036267	2019-01-05 15:48:35	3:48 PM	710362671619390.81449PLM022	PLM022
	5760	7799008564166		234	2	71036267	2019-01-05 15:57:38	3:57 PM	710362671619390.81449PLM022	PLM022
	5765	7799008440538		143	2	71036267	2019-01-05 16:04:20	4:04 PM	710362671619390.81449PLM022	PLM022
	5766	7799008135984		504	2	71036267	2019-01-05 16:09:27	4:09 PM	710362671619390.81449PLM022	PLM022
	5767	7799008440538		170	2	71036267	2019-01-05 16:14:18	4:14 PM	710362671619390.81449PLM022	PLM022
	5759	7799008370941		201	2	71036267	2019-01-05 16:17:56	4:17 PM	710362671619390.81449PLM022	PLM022
