	0397	7799021090376		1	1	71434386	2013-01-08 09:57:56	9:57:57 AM	714343861136500.7055475PLM062	PLM062
	0397	7799021090376		1	1	71434386	2013-01-08 09:58:03	9:58:03 AM	714343861136500.7055475PLM062	PLM062
	0397	7799021090376		1	1	71434386	2013-01-08 09:58:08	9:58:08 AM	714343861136500.7055475PLM062	PLM062
	0397	7799021090376		1	1	71434386	2013-01-08 09:58:13	9:58:13 AM	714343861136500.7055475PLM062	PLM062
	0397	7799021090376		1	1	71434386	2013-01-08 09:58:46	9:58:46 AM	714343861136500.7055475PLM062	PLM062
	0397	7799021090376		1	1	71434386	2013-01-08 09:59:19	9:59:19 AM	714343861136500.7055475PLM062	PLM062
	0397	7799021090376		1	1	71434386	2013-01-08 09:59:29	9:59:29 AM	714343861136500.7055475PLM062	PLM062
	0397	7799021090376		1	1	71434386	2013-01-08 09:59:35	9:59:35 AM	714343861136500.7055475PLM062	PLM062
	0397	7799021090376		1	1	71434386	2013-01-08 09:59:40	9:59:40 AM	714343861136500.7055475PLM062	PLM062
	0397	7799021090376		1	1	71434386	2013-01-08 09:59:45	9:59:45 AM	714343861136500.7055475PLM062	PLM062
	0397	7799021090376		1	1	71434386	2013-01-08 10:00:00	10:00:00 AM	714343861136500.7055475PLM062	PLM062
	0397	7799021090376		1	1	71434386	2013-01-08 10:00:10	10:00:10 AM	714343861136500.7055475PLM062	PLM062
	0397	7799021090376		1	1	71434386	2013-01-08 10:00:26	10:00:26 AM	714343861136500.7055475PLM062	PLM062
	0397	7799021090376		1	1	71434386	2013-01-08 10:00:45	10:00:45 AM	714343861136500.7055475PLM062	PLM062
	0397	7799021090376		1	1	71434386	2013-01-08 10:00:52	10:00:52 AM	714343861136500.7055475PLM062	PLM062
	0397	7799021090376		1	1	71434386	2013-01-08 10:01:00	10:01:00 AM	714343861136500.7055475PLM062	PLM062
	0397	7799021090376		1	1	71434386	2013-01-08 10:01:10	10:01:10 AM	714343861136500.7055475PLM062	PLM062
	0397	7799021090376		1	1	71434386	2013-01-08 10:01:22	10:01:22 AM	714343861136500.7055475PLM062	PLM062
	0397	7799021090376		1	1	71434386	2013-01-08 10:01:33	10:01:33 AM	714343861136500.7055475PLM062	PLM062
	0397	7799021090376		1	1	71434386	2013-01-08 10:01:42	10:01:42 AM	714343861136500.7055475PLM062	PLM062
	0397	7799021090376		1	1	71434386	2013-01-08 10:01:48	10:01:48 AM	714343861136500.7055475PLM062	PLM062
	0397	7799021090376		1	1	71434386	2013-01-08 10:01:55	10:01:55 AM	714343861136500.7055475PLM062	PLM062
	0397	7799021090376		1	1	71434386	2013-01-08 10:02:12	10:02:12 AM	714343861136500.7055475PLM062	PLM062
	0397	7799021090376		1	1	71434386	2013-01-08 10:02:19	10:02:19 AM	714343861136500.7055475PLM062	PLM062
	0397	7799021090376		1	1	71434386	2013-01-08 10:02:25	10:02:25 AM	714343861136500.7055475PLM062	PLM062
	0397	7799021090376		1	1	71434386	2013-01-08 10:02:33	10:02:33 AM	714343861136500.7055475PLM062	PLM062
	0397	7799021090376		1	1	71434386	2013-01-08 10:02:47	10:02:47 AM	714343861136500.7055475PLM062	PLM062
	0397	7799021090376		1	1	71434386	2013-01-08 10:03:05	10:03:05 AM	714343861136500.7055475PLM062	PLM062
	0397	7799021090376		1	1	71434386	2013-01-08 10:04:08	10:04:08 AM	714343861136500.7055475PLM062	PLM062
	0397	7799021090376		1	1	71434386	2013-01-08 10:04:14	10:04:14 AM	714343861136500.7055475PLM062	PLM062
	0397	7799021090376		1	1	71434386	2013-01-08 10:04:21	10:04:21 AM	714343861136500.7055475PLM062	PLM062
	0397	7799021090376		1	1	71434386	2013-01-08 10:04:33	10:04:33 AM	714343861136500.7055475PLM062	PLM062
	0397	7799021090376		1	1	71434386	2013-01-08 10:04:39	10:04:39 AM	714343861136500.7055475PLM062	PLM062
	0397	7799021090376		1	1	71434386	2013-01-08 10:04:47	10:04:47 AM	714343861136500.7055475PLM062	PLM062
	0397	7799021090376		1	1	71434386	2013-01-08 10:05:04	10:05:04 AM	714343861136500.7055475PLM062	PLM062
	0397	7799021090376		1	1	71434386	2013-01-08 10:05:14	10:05:14 AM	714343861136500.7055475PLM062	PLM062
	0397	7799021090376		1	1	71434386	2013-01-08 10:05:22	10:05:22 AM	714343861136500.7055475PLM062	PLM062
	0397	7799021090376		1	1	71434386	2013-01-08 10:05:32	10:05:32 AM	714343861136500.7055475PLM062	PLM062
	0397	7799021090376		1	1	71434386	2013-01-08 10:05:38	10:05:38 AM	714343861136500.7055475PLM062	PLM062
	0397	7799021090376		1	1	71434386	2013-01-08 10:05:47	10:05:47 AM	714343861136500.7055475PLM062	PLM062
	0397	7799021090376		1	1	71434386	2013-01-08 10:05:55	10:05:55 AM	714343861136500.7055475PLM062	PLM062
	0397	7799021090376		1	1	71434386	2013-01-08 10:06:46	10:06:46 AM	714343861136500.7055475PLM062	PLM062
	0397	7799021090376		1	1	71434386	2013-01-08 10:07:03	10:07:03 AM	714343861136500.7055475PLM062	PLM062
	0397	7799021090376		1	1	71434386	2013-01-08 10:07:10	10:07:10 AM	714343861136500.7055475PLM062	PLM062
	0397	7799021090376		1	1	71434386	2013-01-08 10:07:16	10:07:16 AM	714343861136500.7055475PLM062	PLM062
	0397	7799021090376		1	1	71434386	2013-01-08 10:07:26	10:07:26 AM	714343861136500.7055475PLM062	PLM062
	0397	7799021090376		1	1	71434386	2013-01-08 10:07:46	10:07:46 AM	714343861136500.7055475PLM062	PLM062
	0397	7799021090376		1	1	71434386	2013-01-08 10:07:54	10:07:54 AM	714343861136500.7055475PLM062	PLM062
	0397	7799021090376		1	1	71434386	2013-01-08 10:08:00	10:08:00 AM	714343861136500.7055475PLM062	PLM062
	0397	7799021090376		1	1	71434386	2013-01-08 10:08:14	10:08:14 AM	714343861136500.7055475PLM062	PLM062
	0397	7799021090376		1	1	71434386	2013-01-08 10:08:22	10:08:22 AM	714343861136500.7055475PLM062	PLM062
	0397	7799021090376		1	1	71434386	2013-01-08 10:08:29	10:08:29 AM	714343861136500.7055475PLM062	PLM062
	0397	7799021090376		1	1	71434386	2013-01-08 10:08:36	10:08:36 AM	714343861136500.7055475PLM062	PLM062
	0397	7799021090376		1	1	71434386	2013-01-08 10:08:44	10:08:44 AM	714343861136500.7055475PLM062	PLM062
	0397	7799021090376		1	1	71434386	2013-01-08 10:08:51	10:08:51 AM	714343861136500.7055475PLM062	PLM062
	0397	7799021090376		1	1	71434386	2013-01-08 10:08:56	10:08:56 AM	714343861136500.7055475PLM062	PLM062
	0397	7799021090376		1	1	71434386	2013-01-08 10:09:03	10:09:03 AM	714343861136500.7055475PLM062	PLM062
	0397	7799021090376		1	1	71434386	2013-01-08 10:09:12	10:09:12 AM	714343861136500.7055475PLM062	PLM062
	0397	7799021090376		1	1	71434386	2013-01-08 10:09:18	10:09:18 AM	714343861136500.7055475PLM062	PLM062
	0397	7799021090376		1	1	71434386	2013-01-08 10:09:24	10:09:24 AM	714343861136500.7055475PLM062	PLM062
	0397	7799021090376		1	1	71434386	2013-01-08 10:09:29	10:09:29 AM	714343861136500.7055475PLM062	PLM062
	0397	7799021090376		1	1	71434386	2013-01-08 10:09:40	10:09:40 AM	714343861136500.7055475PLM062	PLM062
	0397	7799021090376		1	1	71434386	2013-01-08 10:09:50	10:09:50 AM	714343861136500.7055475PLM062	PLM062
	0397	7799021090376		1	1	71434386	2013-01-08 10:09:58	10:09:58 AM	714343861136500.7055475PLM062	PLM062
	0397	7799021090376		1	1	71434386	2013-01-08 10:10:07	10:10:07 AM	714343861136500.7055475PLM062	PLM062
	0397	7799021090376		1	1	71434386	2013-01-08 10:10:19	10:10:19 AM	714343861136500.7055475PLM062	PLM062
	0397	7799021090376		1	1	71434386	2013-01-08 10:10:31	10:10:31 AM	714343861136500.7055475PLM062	PLM062
	0397	7799021090376		1	1	71434386	2013-01-08 10:10:35	10:10:35 AM	714343861136500.7055475PLM062	PLM062
	0397	7799021090376		1	1	71434386	2013-01-08 10:10:46	10:10:46 AM	714343861136500.7055475PLM062	PLM062
	0397	7799021090376		1	1	71434386	2013-01-08 10:10:55	10:10:55 AM	714343861136500.7055475PLM062	PLM062
	0397	7799021090376		1	1	71434386	2013-01-08 10:11:02	10:11:02 AM	714343861136500.7055475PLM062	PLM062
	0397	7799021090376		1	1	71434386	2013-01-08 10:11:11	10:11:11 AM	714343861136500.7055475PLM062	PLM062
	0397	7799021090376		1	1	71434386	2013-01-08 10:11:22	10:11:22 AM	714343861136500.7055475PLM062	PLM062
	0397	7799021090376		1	1	71434386	2013-01-08 10:11:36	10:11:36 AM	714343861136500.7055475PLM062	PLM062
	0397	7799021090376		1	1	71434386	2013-01-08 10:11:41	10:11:41 AM	714343861136500.7055475PLM062	PLM062
	0397	7799021090376		1	1	71434386	2013-01-08 10:11:47	10:11:47 AM	714343861136500.7055475PLM062	PLM062
	0397	7799021090376		1	1	71434386	2013-01-08 10:11:58	10:11:58 AM	714343861136500.7055475PLM062	PLM062
	0397	7799021090376		1	1	71434386	2013-01-08 10:12:03	10:12:03 AM	714343861136500.7055475PLM062	PLM062
	0397	7799021090376		1	1	71434386	2013-01-08 10:12:17	10:12:17 AM	714343861136500.7055475PLM062	PLM062
	0397	7799021090376		1	1	71434386	2013-01-08 10:14:01	10:14:01 AM	714343861136500.7055475PLM062	PLM062
	0397	7799021090376		1	1	71434386	2013-01-08 10:14:09	10:14:09 AM	714343861136500.7055475PLM062	PLM062
	0397	7799021090376		1	1	71434386	2013-01-08 10:14:16	10:14:16 AM	714343861136500.7055475PLM062	PLM062
	0397	7799021090376		1	1	71434386	2013-01-08 10:14:25	10:14:25 AM	714343861136500.7055475PLM062	PLM062
	0397	7799021090376		1	1	71434386	2013-01-08 10:14:35	10:14:35 AM	714343861136500.7055475PLM062	PLM062
	0397	7799021090376		1	1	71434386	2013-01-08 10:14:38	10:14:38 AM	714343861136500.7055475PLM062	PLM062
	0397	7799021090376		1	1	71434386	2013-01-08 10:14:56	10:14:56 AM	714343861136500.7055475PLM062	PLM062
	0397	7799021090376		1	1	71434386	2013-01-08 10:15:09	10:15:09 AM	714343861136500.7055475PLM062	PLM062
	0397	7799021090376		1	1	71434386	2013-01-08 10:15:19	10:15:19 AM	714343861136500.7055475PLM062	PLM062
	0397	7799021090376		1	1	71434386	2013-01-08 10:15:30	10:15:30 AM	714343861136500.7055475PLM062	PLM062
	0397	7799021090376		1	1	71434386	2013-01-08 10:15:35	10:15:35 AM	714343861136500.7055475PLM062	PLM062
	0397	7799021090376		1	1	71434386	2013-01-08 10:15:49	10:15:49 AM	714343861136500.7055475PLM062	PLM062
	0397	7799021090376		1	1	71434386	2013-01-08 10:16:04	10:16:04 AM	714343861136500.7055475PLM062	PLM062
	0397	7799021090376		1	1	71434386	2013-01-08 10:16:13	10:16:13 AM	714343861136500.7055475PLM062	PLM062
	0397	7799021090376		1	1	71434386	2013-01-08 10:16:22	10:16:22 AM	714343861136500.7055475PLM062	PLM062
	0397	7799021090376		1	1	71434386	2013-01-08 10:16:26	10:16:26 AM	714343861136500.7055475PLM062	PLM062
	0397	7799021090376		1	1	71434386	2013-01-08 10:16:30	10:16:30 AM	714343861136500.7055475PLM062	PLM062
	0397	7799021090376		1	1	71434386	2013-01-08 10:16:39	10:16:39 AM	714343861136500.7055475PLM062	PLM062
	0397	7799021090376		1	1	71434386	2013-01-08 10:16:46	10:16:46 AM	714343861136500.7055475PLM062	PLM062
	0397	7799021090376		1	1	71434386	2013-01-08 10:16:54	10:16:54 AM	714343861136500.7055475PLM062	PLM062
	0397	7799021090376		1	1	71434386	2013-01-08 10:17:02	10:17:02 AM	714343861136500.7055475PLM062	PLM062
	0397	7799021090376		1	1	71434386	2013-01-08 10:17:07	10:17:07 AM	714343861136500.7055475PLM062	PLM062
	0397	7799021090376		1	1	71434386	2013-01-08 10:17:17	10:17:17 AM	714343861136500.7055475PLM062	PLM062
	0397	7799021090376		1	1	71434386	2013-01-08 10:17:26	10:17:26 AM	714343861136500.7055475PLM062	PLM062
	0397	7799021090376		1	1	71434386	2013-01-08 10:17:32	10:17:32 AM	714343861136500.7055475PLM062	PLM062
	0397	7799021090376		1	1	71434386	2013-01-08 10:17:42	10:17:42 AM	714343861136500.7055475PLM062	PLM062
	0397	7799021090376		1	1	71434386	2013-01-08 10:17:48	10:17:48 AM	714343861136500.7055475PLM062	PLM062
	0397	7799021090376		1	1	71434386	2013-01-08 10:17:54	10:17:54 AM	714343861136500.7055475PLM062	PLM062
	0397	7799021090376		1	1	71434386	2013-01-08 10:18:06	10:18:06 AM	714343861136500.7055475PLM062	PLM062
	0397	7799021090376		1	1	71434386	2013-01-08 10:18:19	10:18:19 AM	714343861136500.7055475PLM062	PLM062
	0397	7799021090376		1	1	71434386	2013-01-08 10:18:25	10:18:25 AM	714343861136500.7055475PLM062	PLM062
	0397	7799021090376		1	1	71434386	2013-01-08 10:18:36	10:18:36 AM	714343861136500.7055475PLM062	PLM062
	0397	7799021090376		1	1	71434386	2013-01-08 10:18:42	10:18:42 AM	714343861136500.7055475PLM062	PLM062
	0397	7799021090376		1	1	71434386	2013-01-08 10:18:49	10:18:49 AM	714343861136500.7055475PLM062	PLM062
	0397	7799021090376		1	1	71434386	2013-01-08 10:18:59	10:18:59 AM	714343861136500.7055475PLM062	PLM062
	0397	7799021090376		1	1	71434386	2013-01-08 10:19:05	10:19:05 AM	714343861136500.7055475PLM062	PLM062
	0397	7799021090376		1	1	71434386	2013-01-08 10:19:12	10:19:12 AM	714343861136500.7055475PLM062	PLM062
	0397	7799021090376		1	1	71434386	2013-01-08 10:19:24	10:19:24 AM	714343861136500.7055475PLM062	PLM062
	0397	7799021090376		1	1	71434386	2013-01-08 10:19:33	10:19:33 AM	714343861136500.7055475PLM062	PLM062
	0397	7799021090376		1	1	71434386	2013-01-08 10:19:42	10:19:42 AM	714343861136500.7055475PLM062	PLM062
	0397	7799021090376		1	1	71434386	2013-01-08 10:20:02	10:20:02 AM	714343861136500.7055475PLM062	PLM062
	0397	7799021090376		1	1	71434386	2013-01-08 10:20:11	10:20:11 AM	714343861136500.7055475PLM062	PLM062
	0397	7799021090376		1	1	71434386	2013-01-08 10:20:28	10:20:28 AM	714343861136500.7055475PLM062	PLM062
	0397	7799021090376		1	1	71434386	2013-01-08 10:20:35	10:20:35 AM	714343861136500.7055475PLM062	PLM062
	0397	7799021090376		1	1	71434386	2013-01-08 10:20:42	10:20:42 AM	714343861136500.7055475PLM062	PLM062
	0397	7799021090376		1	1	71434386	2013-01-08 10:20:48	10:20:48 AM	714343861136500.7055475PLM062	PLM062
	0397	7799021090376		1	1	71434386	2013-01-08 10:21:32	10:21:32 AM	714343861136500.7055475PLM062	PLM062
	0397	7799021090376		1	1	71434386	2013-01-08 10:22:02	10:22:02 AM	714343861136500.7055475PLM062	PLM062
	0397	7799021090376		1	1	71434386	2013-01-08 10:22:06	10:22:06 AM	714343861136500.7055475PLM062	PLM062
	0397	7799021090376		1	1	71434386	2013-01-08 10:22:12	10:22:12 AM	714343861136500.7055475PLM062	PLM062
	0397	7799021090376		1	1	71434386	2013-01-08 10:22:15	10:22:15 AM	714343861136500.7055475PLM062	PLM062
	0397	7799021090376		1	1	71434386	2013-01-08 10:22:44	10:22:44 AM	714343861136500.7055475PLM062	PLM062
	0395	7799021090345		1	1	71434386	2013-01-08 10:26:38	10:26:38 AM	714343861136500.7055475PLM062	PLM062
	0395	7799021090345		1	1	71434386	2013-01-08 10:26:45	10:26:45 AM	714343861136500.7055475PLM062	PLM062
	0395	7799021090345		1	1	71434386	2013-01-08 10:26:49	10:26:49 AM	714343861136500.7055475PLM062	PLM062
	0395	7799021090345		1	1	71434386	2013-01-08 10:26:54	10:26:54 AM	714343861136500.7055475PLM062	PLM062
	0395	7799021090345		1	1	71434386	2013-01-08 10:27:03	10:27:03 AM	714343861136500.7055475PLM062	PLM062
	0395	7799021090345		1	1	71434386	2013-01-08 10:27:08	10:27:08 AM	714343861136500.7055475PLM062	PLM062
	0395	7799021090345		1	1	71434386	2013-01-08 10:27:12	10:27:12 AM	714343861136500.7055475PLM062	PLM062
	0395	7799021090345		1	1	71434386	2013-01-08 10:27:17	10:27:17 AM	714343861136500.7055475PLM062	PLM062
	0395	7799021090345		1	1	71434386	2013-01-08 10:27:22	10:27:22 AM	714343861136500.7055475PLM062	PLM062
	0395	7799021090345		1	1	71434386	2013-01-08 10:27:26	10:27:26 AM	714343861136500.7055475PLM062	PLM062
	0395	7799021090345		1	1	71434386	2013-01-08 10:27:30	10:27:30 AM	714343861136500.7055475PLM062	PLM062
	0395	7799021090345		1	1	71434386	2013-01-08 10:27:37	10:27:37 AM	714343861136500.7055475PLM062	PLM062
	0395	7799021090345		1	1	71434386	2013-01-08 10:27:41	10:27:41 AM	714343861136500.7055475PLM062	PLM062
	0395	7799021090345		1	1	71434386	2013-01-08 10:27:49	10:27:49 AM	714343861136500.7055475PLM062	PLM062
	0395	7799021090345		1	1	71434386	2013-01-08 10:27:53	10:27:53 AM	714343861136500.7055475PLM062	PLM062
	0395	7799021090345		1	1	71434386	2013-01-08 10:28:01	10:28:01 AM	714343861136500.7055475PLM062	PLM062
	0395	7799021090345		1	1	71434386	2013-01-08 10:28:06	10:28:06 AM	714343861136500.7055475PLM062	PLM062
	0395	7799021090345		1	1	71434386	2013-01-08 10:28:10	10:28:10 AM	714343861136500.7055475PLM062	PLM062
	0395	7799021090345		1	1	71434386	2013-01-08 10:28:16	10:28:16 AM	714343861136500.7055475PLM062	PLM062
	0395	7799021090345		1	1	71434386	2013-01-08 10:28:26	10:28:26 AM	714343861136500.7055475PLM062	PLM062
	0395	7799021090345		1	1	71434386	2013-01-08 10:28:34	10:28:34 AM	714343861136500.7055475PLM062	PLM062
	0395	7799021090345		1	1	71434386	2013-01-08 10:28:38	10:28:38 AM	714343861136500.7055475PLM062	PLM062
	0395	7799021090345		1	1	71434386	2013-01-08 10:28:42	10:28:42 AM	714343861136500.7055475PLM062	PLM062
	0395	7799021090345		1	1	71434386	2013-01-08 10:28:47	10:28:47 AM	714343861136500.7055475PLM062	PLM062
	0395	7799021090345		1	1	71434386	2013-01-08 10:28:51	10:28:51 AM	714343861136500.7055475PLM062	PLM062
	0395	7799021090345		1	1	71434386	2013-01-08 10:28:55	10:28:55 AM	714343861136500.7055475PLM062	PLM062
	0395	7799021090345		1	1	71434386	2013-01-08 10:29:06	10:29:06 AM	714343861136500.7055475PLM062	PLM062
	0395	7799021090345		1	1	71434386	2013-01-08 10:29:10	10:29:10 AM	714343861136500.7055475PLM062	PLM062
	0395	7799021090345		1	1	71434386	2013-01-08 10:29:14	10:29:14 AM	714343861136500.7055475PLM062	PLM062
	0395	7799021090345		1	1	71434386	2013-01-08 10:29:20	10:29:20 AM	714343861136500.7055475PLM062	PLM062
	0395	7799021090345		1	1	71434386	2013-01-08 10:29:25	10:29:25 AM	714343861136500.7055475PLM062	PLM062
	0395	7799021090345		1	1	71434386	2013-01-08 10:29:37	10:29:37 AM	714343861136500.7055475PLM062	PLM062
	0395	7799021090345		1	1	71434386	2013-01-08 10:29:47	10:29:47 AM	714343861136500.7055475PLM062	PLM062
	0395	7799021090345		1	1	71434386	2013-01-08 10:29:52	10:29:52 AM	714343861136500.7055475PLM062	PLM062
	0395	7799021090345		1	1	71434386	2013-01-08 10:29:57	10:29:57 AM	714343861136500.7055475PLM062	PLM062
	0395	7799021090345		1	1	71434386	2013-01-08 10:30:01	10:30:01 AM	714343861136500.7055475PLM062	PLM062
	0395	7799021090345		1	1	71434386	2013-01-08 10:30:06	10:30:06 AM	714343861136500.7055475PLM062	PLM062
	0395	7799021090345		1	1	71434386	2013-01-08 10:30:10	10:30:10 AM	714343861136500.7055475PLM062	PLM062
	0395	7799021090345		1	1	71434386	2013-01-08 10:30:15	10:30:15 AM	714343861136500.7055475PLM062	PLM062
	0395	7799021090345		1	1	71434386	2013-01-08 10:30:20	10:30:20 AM	714343861136500.7055475PLM062	PLM062
	0395	7799021090345		1	1	71434386	2013-01-08 10:30:25	10:30:25 AM	714343861136500.7055475PLM062	PLM062
	0395	7799021090345		1	1	71434386	2013-01-08 10:30:30	10:30:30 AM	714343861136500.7055475PLM062	PLM062
	0395	7799021090345		1	1	71434386	2013-01-08 10:30:35	10:30:35 AM	714343861136500.7055475PLM062	PLM062
	0395	7799021090345		1	1	71434386	2013-01-08 10:30:40	10:30:40 AM	714343861136500.7055475PLM062	PLM062
	0395	7799021090345		1	1	71434386	2013-01-08 10:30:45	10:30:45 AM	714343861136500.7055475PLM062	PLM062
	0395	7799021090345		1	1	71434386	2013-01-08 10:30:52	10:30:52 AM	714343861136500.7055475PLM062	PLM062
	0395	7799021090345		1	1	71434386	2013-01-08 10:30:58	10:30:58 AM	714343861136500.7055475PLM062	PLM062
	0395	7799021090345		1	1	71434386	2013-01-08 10:34:45	10:34:45 AM	714343861136500.7055475PLM062	PLM062
	0395	7799021090345		1	1	71434386	2013-01-08 10:34:59	10:34:59 AM	714343861136500.7055475PLM062	PLM062
	0395	7799021090345		1	1	71434386	2013-01-08 10:35:03	10:35:03 AM	714343861136500.7055475PLM062	PLM062
	0395	7799021090345		1	1	71434386	2013-01-08 10:35:15	10:35:15 AM	714343861136500.7055475PLM062	PLM062
	0395	7799021090345		1	1	71434386	2013-01-08 10:35:25	10:35:25 AM	714343861136500.7055475PLM062	PLM062
	0395	7799021090345		1	1	71434386	2013-01-08 10:35:30	10:35:30 AM	714343861136500.7055475PLM062	PLM062
	0395	7799021090345		1	1	71434386	2013-01-08 10:35:37	10:35:37 AM	714343861136500.7055475PLM062	PLM062
	0395	7799021090345		1	1	71434386	2013-01-08 10:35:46	10:35:46 AM	714343861136500.7055475PLM062	PLM062
	0395	7799021090345		1	1	71434386	2013-01-08 10:35:51	10:35:51 AM	714343861136500.7055475PLM062	PLM062
	0395	7799021090345		1	1	71434386	2013-01-08 10:36:11	10:36:11 AM	714343861136500.7055475PLM062	PLM062
	0395	7799021090345		1	1	71434386	2013-01-08 10:36:18	10:36:18 AM	714343861136500.7055475PLM062	PLM062
	0395	7799021090345		1	1	71434386	2013-01-08 10:36:23	10:36:23 AM	714343861136500.7055475PLM062	PLM062
	0395	7799021090345		1	1	71434386	2013-01-08 10:36:28	10:36:28 AM	714343861136500.7055475PLM062	PLM062
	0395	7799021090345		1	1	71434386	2013-01-08 10:36:34	10:36:34 AM	714343861136500.7055475PLM062	PLM062
	0395	7799021090345		1	1	71434386	2013-01-08 10:36:46	10:36:46 AM	714343861136500.7055475PLM062	PLM062
	0395	7799021090345		1	1	71434386	2013-01-08 10:36:54	10:36:54 AM	714343861136500.7055475PLM062	PLM062
	0395	7799021090345		1	1	71434386	2013-01-08 10:37:03	10:37:03 AM	714343861136500.7055475PLM062	PLM062
	0395	7799021090345		1	1	71434386	2013-01-08 10:37:10	10:37:10 AM	714343861136500.7055475PLM062	PLM062
	0395	7799021090345		1	1	71434386	2013-01-08 10:37:15	10:37:15 AM	714343861136500.7055475PLM062	PLM062
	0395	7799021090345		1	1	71434386	2013-01-08 10:37:20	10:37:20 AM	714343861136500.7055475PLM062	PLM062
	0395	7799021090345		1	1	71434386	2013-01-08 10:37:26	10:37:26 AM	714343861136500.7055475PLM062	PLM062
	0395	7799021090345		1	1	71434386	2013-01-08 10:37:31	10:37:31 AM	714343861136500.7055475PLM062	PLM062
	0395	7799021090345		1	1	71434386	2013-01-08 10:37:36	10:37:36 AM	714343861136500.7055475PLM062	PLM062
	0395	7799021090345		1	1	71434386	2013-01-08 10:37:43	10:37:43 AM	714343861136500.7055475PLM062	PLM062
	0395	7799021090345		1	1	71434386	2013-01-08 10:38:04	10:38:04 AM	714343861136500.7055475PLM062	PLM062
	0395	7799021090345		1	1	71434386	2013-01-08 10:38:09	10:38:09 AM	714343861136500.7055475PLM062	PLM062
	0395	7799021090345		1	1	71434386	2013-01-08 10:38:13	10:38:13 AM	714343861136500.7055475PLM062	PLM062
	0395	7799021090345		1	1	71434386	2013-01-08 10:38:18	10:38:18 AM	714343861136500.7055475PLM062	PLM062
	0395	7799021090345		1	1	71434386	2013-01-08 10:38:25	10:38:25 AM	714343861136500.7055475PLM062	PLM062
	0395	7799021090345		1	1	71434386	2013-01-08 10:38:30	10:38:30 AM	714343861136500.7055475PLM062	PLM062
	0395	7799021090345		1	1	71434386	2013-01-08 10:38:36	10:38:36 AM	714343861136500.7055475PLM062	PLM062
	0395	7799021090345		1	1	71434386	2013-01-08 10:38:42	10:38:42 AM	714343861136500.7055475PLM062	PLM062
	0395	7799021090345		1	1	71434386	2013-01-08 10:38:50	10:38:50 AM	714343861136500.7055475PLM062	PLM062
	0395	7799021090345		1	1	71434386	2013-01-08 10:39:02	10:39:02 AM	714343861136500.7055475PLM062	PLM062
	0395	7799021090345		1	1	71434386	2013-01-08 10:39:07	10:39:07 AM	714343861136500.7055475PLM062	PLM062
	0395	7799021090345		1	1	71434386	2013-01-08 10:39:34	10:39:34 AM	714343861136500.7055475PLM062	PLM062
	0395	7799021090345		1	1	71434386	2013-01-08 10:39:39	10:39:39 AM	714343861136500.7055475PLM062	PLM062
	0395	7799021090345		1	1	71434386	2013-01-08 10:39:55	10:39:55 AM	714343861136500.7055475PLM062	PLM062
	0395	7799021090345		1	1	71434386	2013-01-08 10:39:59	10:39:59 AM	714343861136500.7055475PLM062	PLM062
	0395	7799021090345		1	1	71434386	2013-01-08 10:40:05	10:40:05 AM	714343861136500.7055475PLM062	PLM062
	0395	7799021090345		1	1	71434386	2013-01-08 10:40:11	10:40:11 AM	714343861136500.7055475PLM062	PLM062
	0395	7799021090345		1	1	71434386	2013-01-08 10:40:26	10:40:26 AM	714343861136500.7055475PLM062	PLM062
	0395	7799021090345		1	1	71434386	2013-01-08 10:40:32	10:40:32 AM	714343861136500.7055475PLM062	PLM062
	0395	7799021090345		1	1	71434386	2013-01-08 10:40:38	10:40:38 AM	714343861136500.7055475PLM062	PLM062
	0395	7799021090345		1	1	71434386	2013-01-08 10:40:52	10:40:52 AM	714343861136500.7055475PLM062	PLM062
	0395	7799021090345		1	1	71434386	2013-01-08 10:40:58	10:40:58 AM	714343861136500.7055475PLM062	PLM062
	0395	7799021090345		1	1	71434386	2013-01-08 10:41:06	10:41:06 AM	714343861136500.7055475PLM062	PLM062
	0395	7799021090345		1	1	71434386	2013-01-08 10:41:24	10:41:24 AM	714343861136500.7055475PLM062	PLM062
	0395	7799021090345		1	1	71434386	2013-01-08 10:41:29	10:41:29 AM	714343861136500.7055475PLM062	PLM062
	0395	7799021090345		1	1	71434386	2013-01-08 10:41:40	10:41:40 AM	714343861136500.7055475PLM062	PLM062
	0395	7799021090345		1	1	71434386	2013-01-08 10:41:45	10:41:45 AM	714343861136500.7055475PLM062	PLM062
	0395	7799021090345		1	1	71434386	2013-01-08 10:42:07	10:42:07 AM	714343861136500.7055475PLM062	PLM062
	0395	7799021090345		1	1	71434386	2013-01-08 10:42:12	10:42:12 AM	714343861136500.7055475PLM062	PLM062
	0395	7799021090345		1	1	71434386	2013-01-08 10:42:19	10:42:19 AM	714343861136500.7055475PLM062	PLM062
	0395	7799021090345		1	1	71434386	2013-01-08 10:42:23	10:42:23 AM	714343861136500.7055475PLM062	PLM062
	0395	7799021090345		1	1	71434386	2013-01-08 10:42:28	10:42:28 AM	714343861136500.7055475PLM062	PLM062
	0395	7799021090345		1	1	71434386	2013-01-08 10:42:32	10:42:32 AM	714343861136500.7055475PLM062	PLM062
	0395	7799021090345		1	1	71434386	2013-01-08 10:42:39	10:42:39 AM	714343861136500.7055475PLM062	PLM062
	0395	7799021090345		1	1	71434386	2013-01-08 10:42:56	10:42:56 AM	714343861136500.7055475PLM062	PLM062
	0395	7799021090345		1	1	71434386	2013-01-08 10:43:08	10:43:08 AM	714343861136500.7055475PLM062	PLM062
	0395	7799021090345		1	1	71434386	2013-01-08 10:43:30	10:43:30 AM	714343861136500.7055475PLM062	PLM062
	0395	7799021090345		1	1	71434386	2013-01-08 10:43:37	10:43:37 AM	714343861136500.7055475PLM062	PLM062
	0395	7799021090345		1	1	71434386	2013-01-08 10:43:43	10:43:43 AM	714343861136500.7055475PLM062	PLM062
	0392	7799021095654		1	1	71434386	2013-01-08 10:44:57	10:44:57 AM	714343861136500.7055475PLM062	PLM062
	0392	7799021095654		1	1	71434386	2013-01-08 10:44:59	10:44:59 AM	714343861136500.7055475PLM062	PLM062
	0392	7799021095654		1	1	71434386	2013-01-08 10:45:05	10:45:05 AM	714343861136500.7055475PLM062	PLM062
	0392	7799021095654		1	1	71434386	2013-01-08 10:45:08	10:45:08 AM	714343861136500.7055475PLM062	PLM062
	0392	7799021095654		1	1	71434386	2013-01-08 10:45:10	10:45:10 AM	714343861136500.7055475PLM062	PLM062
	0392	7799021095654		1	1	71434386	2013-01-08 10:45:16	10:45:16 AM	714343861136500.7055475PLM062	PLM062
	0392	7799021095654		1	1	71434386	2013-01-08 10:45:17	10:45:17 AM	714343861136500.7055475PLM062	PLM062
	0392	7799021095654		1	1	71434386	2013-01-08 10:45:21	10:45:21 AM	714343861136500.7055475PLM062	PLM062
	0392	7799021095654		1	1	71434386	2013-01-08 10:45:28	10:45:28 AM	714343861136500.7055475PLM062	PLM062
	0392	7799021095654		1	1	71434386	2013-01-08 10:45:30	10:45:30 AM	714343861136500.7055475PLM062	PLM062
	0392	7799021095654		1	1	71434386	2013-01-08 10:45:32	10:45:32 AM	714343861136500.7055475PLM062	PLM062
	0392	7799021095654		1	1	71434386	2013-01-08 10:45:37	10:45:37 AM	714343861136500.7055475PLM062	PLM062
	0392	7799021095654		1	1	71434386	2013-01-08 10:45:38	10:45:38 AM	714343861136500.7055475PLM062	PLM062
	0392	7799021095654		1	1	71434386	2013-01-08 10:45:39	10:45:39 AM	714343861136500.7055475PLM062	PLM062
	0392	7799021095654		1	1	71434386	2013-01-08 10:45:46	10:45:46 AM	714343861136500.7055475PLM062	PLM062
	0392	7799021095654		1	1	71434386	2013-01-08 10:45:47	10:45:47 AM	714343861136500.7055475PLM062	PLM062
	0392	7799021095654		1	1	71434386	2013-01-08 10:45:48	10:45:48 AM	714343861136500.7055475PLM062	PLM062
	0392	7799021095654		1	1	71434386	2013-01-08 10:45:53	10:45:53 AM	714343861136500.7055475PLM062	PLM062
	0392	7799021095654		1	1	71434386	2013-01-08 10:45:55	10:45:55 AM	714343861136500.7055475PLM062	PLM062
	0392	7799021095654		1	1	71434386	2013-01-08 10:45:59	10:45:59 AM	714343861136500.7055475PLM062	PLM062
	0392	7799021095654		1	1	71434386	2013-01-08 10:46:06	10:46:06 AM	714343861136500.7055475PLM062	PLM062
	0392	7799021095654		1	1	71434386	2013-01-08 10:46:07	10:46:07 AM	714343861136500.7055475PLM062	PLM062
	0392	7799021095654		1	1	71434386	2013-01-08 10:46:08	10:46:08 AM	714343861136500.7055475PLM062	PLM062
	0392	7799021095654		1	1	71434386	2013-01-08 10:46:14	10:46:14 AM	714343861136500.7055475PLM062	PLM062
	0392	7799021095654		1	1	71434386	2013-01-08 10:46:15	10:46:15 AM	714343861136500.7055475PLM062	PLM062
	0392	7799021095654		1	1	71434386	2013-01-08 10:46:16	10:46:16 AM	714343861136500.7055475PLM062	PLM062
	0392	7799021095654		1	1	71434386	2013-01-08 10:46:22	10:46:22 AM	714343861136500.7055475PLM062	PLM062
	0392	7799021095654		1	1	71434386	2013-01-08 10:46:25	10:46:25 AM	714343861136500.7055475PLM062	PLM062
	0392	7799021095654		1	1	71434386	2013-01-08 10:46:30	10:46:30 AM	714343861136500.7055475PLM062	PLM062
	0392	7799021095654		1	1	71434386	2013-01-08 10:46:47	10:46:47 AM	714343861136500.7055475PLM062	PLM062
	0392	7799021095654		1	1	71434386	2013-01-08 10:46:49	10:46:49 AM	714343861136500.7055475PLM062	PLM062
	0392	7799021095654		1	1	71434386	2013-01-08 10:46:50	10:46:50 AM	714343861136500.7055475PLM062	PLM062
	0392	7799021095654		1	1	71434386	2013-01-08 10:46:54	10:46:54 AM	714343861136500.7055475PLM062	PLM062
	0392	7799021095654		1	1	71434386	2013-01-08 10:46:55	10:46:56 AM	714343861136500.7055475PLM062	PLM062
	0392	7799021095654		1	1	71434386	2013-01-08 10:46:57	10:46:57 AM	714343861136500.7055475PLM062	PLM062
	0392	7799021095654		1	1	71434386	2013-01-08 10:47:02	10:47:02 AM	714343861136500.7055475PLM062	PLM062
	0392	7799021095654		1	1	71434386	2013-01-08 10:47:03	10:47:03 AM	714343861136500.7055475PLM062	PLM062
	0392	7799021095654		1	1	71434386	2013-01-08 10:47:04	10:47:04 AM	714343861136500.7055475PLM062	PLM062
	0392	7799021095654		1	1	71434386	2013-01-08 10:47:09	10:47:09 AM	714343861136500.7055475PLM062	PLM062
	0392	7799021095654		1	1	71434386	2013-01-08 10:47:10	10:47:10 AM	714343861136500.7055475PLM062	PLM062
	0392	7799021095654		1	1	71434386	2013-01-08 10:47:11	10:47:11 AM	714343861136500.7055475PLM062	PLM062
	0392	7799021095654		1	1	71434386	2013-01-08 10:47:15	10:47:15 AM	714343861136500.7055475PLM062	PLM062
	0392	7799021095654		1	1	71434386	2013-01-08 10:47:16	10:47:16 AM	714343861136500.7055475PLM062	PLM062
	0392	7799021095654		1	1	71434386	2013-01-08 10:47:18	10:47:18 AM	714343861136500.7055475PLM062	PLM062
	0392	7799021095654		1	1	71434386	2013-01-08 10:47:23	10:47:23 AM	714343861136500.7055475PLM062	PLM062
	0392	7799021095654		1	1	71434386	2013-01-08 10:47:24	10:47:24 AM	714343861136500.7055475PLM062	PLM062
	0392	7799021095654		1	1	71434386	2013-01-08 10:47:28	10:47:28 AM	714343861136500.7055475PLM062	PLM062
	0392	7799021095654		1	1	71434386	2013-01-08 10:47:33	10:47:33 AM	714343861136500.7055475PLM062	PLM062
	0392	7799021095654		1	1	71434386	2013-01-08 10:47:34	10:47:34 AM	714343861136500.7055475PLM062	PLM062
	0392	7799021095654		1	1	71434386	2013-01-08 10:47:35	10:47:35 AM	714343861136500.7055475PLM062	PLM062
	0392	7799021095654		1	1	71434386	2013-01-08 10:47:41	10:47:41 AM	714343861136500.7055475PLM062	PLM062
	0392	7799021095654		1	1	71434386	2013-01-08 10:47:42	10:47:42 AM	714343861136500.7055475PLM062	PLM062
	0392	7799021095654		1	1	71434386	2013-01-08 10:47:43	10:47:43 AM	714343861136500.7055475PLM062	PLM062
	0392	7799021095654		1	1	71434386	2013-01-08 10:47:47	10:47:47 AM	714343861136500.7055475PLM062	PLM062
	0392	7799021095654		1	1	71434386	2013-01-08 10:47:48	10:47:48 AM	714343861136500.7055475PLM062	PLM062
	0392	7799021095654		1	1	71434386	2013-01-08 10:47:49	10:47:49 AM	714343861136500.7055475PLM062	PLM062
	0392	7799021095654		1	1	71434386	2013-01-08 10:47:53	10:47:53 AM	714343861136500.7055475PLM062	PLM062
	0392	7799021095654		1	1	71434386	2013-01-08 10:47:54	10:47:54 AM	714343861136500.7055475PLM062	PLM062
	0392	7799021095654		1	1	71434386	2013-01-08 10:47:55	10:47:55 AM	714343861136500.7055475PLM062	PLM062
	0392	7799021095654		1	1	71434386	2013-01-08 10:47:59	10:47:59 AM	714343861136500.7055475PLM062	PLM062
	0392	7799021095654		1	1	71434386	2013-01-08 10:48:01	10:48:01 AM	714343861136500.7055475PLM062	PLM062
	0392	7799021095654		1	1	71434386	2013-01-08 10:48:03	10:48:03 AM	714343861136500.7055475PLM062	PLM062
	0392	7799021095654		1	1	71434386	2013-01-08 10:48:07	10:48:07 AM	714343861136500.7055475PLM062	PLM062
	0392	7799021095654		1	1	71434386	2013-01-08 10:48:09	10:48:09 AM	714343861136500.7055475PLM062	PLM062
	0392	7799021095654		1	1	71434386	2013-01-08 10:48:12	10:48:12 AM	714343861136500.7055475PLM062	PLM062
	0392	7799021095654		1	1	71434386	2013-01-08 10:48:18	10:48:18 AM	714343861136500.7055475PLM062	PLM062
	0392	7799021095654		1	1	71434386	2013-01-08 10:48:19	10:48:19 AM	714343861136500.7055475PLM062	PLM062
	0392	7799021095654		1	1	71434386	2013-01-08 10:48:22	10:48:22 AM	714343861136500.7055475PLM062	PLM062
	0393	7799021095661		1	1	71434386	2013-01-08 10:50:14	10:50:14 AM	714343861136500.7055475PLM062	PLM062
	0393	7799021095661		1	1	71434386	2013-01-08 10:50:16	10:50:16 AM	714343861136500.7055475PLM062	PLM062
	0393	7799021095661		1	1	71434386	2013-01-08 10:50:18	10:50:18 AM	714343861136500.7055475PLM062	PLM062
	0393	7799021095661		1	1	71434386	2013-01-08 10:50:23	10:50:23 AM	714343861136500.7055475PLM062	PLM062
	0393	7799021095661		1	1	71434386	2013-01-08 10:50:24	10:50:24 AM	714343861136500.7055475PLM062	PLM062
	0393	7799021095661		1	1	71434386	2013-01-08 10:50:26	10:50:26 AM	714343861136500.7055475PLM062	PLM062
	0393	7799021095661		1	1	71434386	2013-01-08 10:50:32	10:50:32 AM	714343861136500.7055475PLM062	PLM062
	0393	7799021095661		1	1	71434386	2013-01-08 10:50:37	10:50:37 AM	714343861136500.7055475PLM062	PLM062
	0393	7799021095661		1	1	71434386	2013-01-08 10:50:37	10:50:37 AM	714343861136500.7055475PLM062	PLM062
	0393	7799021095661		1	1	71434386	2013-01-08 10:50:43	10:50:43 AM	714343861136500.7055475PLM062	PLM062
	0393	7799021095661		1	1	71434386	2013-01-08 10:50:44	10:50:44 AM	714343861136500.7055475PLM062	PLM062
	0393	7799021095661		1	1	71434386	2013-01-08 10:50:45	10:50:45 AM	714343861136500.7055475PLM062	PLM062
	0393	7799021095661		1	1	71434386	2013-01-08 10:50:50	10:50:50 AM	714343861136500.7055475PLM062	PLM062
	0393	7799021095661		1	1	71434386	2013-01-08 10:50:51	10:50:51 AM	714343861136500.7055475PLM062	PLM062
	0393	7799021095661		1	1	71434386	2013-01-08 10:50:52	10:50:52 AM	714343861136500.7055475PLM062	PLM062
	0393	7799021095661		1	1	71434386	2013-01-08 10:50:56	10:50:56 AM	714343861136500.7055475PLM062	PLM062
	0393	7799021095661		1	1	71434386	2013-01-08 10:51:00	10:51:00 AM	714343861136500.7055475PLM062	PLM062
	0393	7799021095661		1	1	71434386	2013-01-08 10:51:02	10:51:02 AM	714343861136500.7055475PLM062	PLM062
	0393	7799021095661		1	1	71434386	2013-01-08 10:51:09	10:51:09 AM	714343861136500.7055475PLM062	PLM062
	0393	7799021095661		1	1	71434386	2013-01-08 10:51:10	10:51:10 AM	714343861136500.7055475PLM062	PLM062
	0393	7799021095661		1	1	71434386	2013-01-08 10:51:12	10:51:12 AM	714343861136500.7055475PLM062	PLM062
	0393	7799021095661		1	1	71434386	2013-01-08 10:51:17	10:51:17 AM	714343861136500.7055475PLM062	PLM062
	0393	7799021095661		1	1	71434386	2013-01-08 10:51:18	10:51:18 AM	714343861136500.7055475PLM062	PLM062
	0393	7799021095661		1	1	71434386	2013-01-08 10:51:19	10:51:19 AM	714343861136500.7055475PLM062	PLM062
	0393	7799021095661		1	1	71434386	2013-01-08 10:51:24	10:51:24 AM	714343861136500.7055475PLM062	PLM062
	0393	7799021095661		1	1	71434386	2013-01-08 10:51:28	10:51:28 AM	714343861136500.7055475PLM062	PLM062
	0393	7799021095661		1	1	71434386	2013-01-08 10:51:30	10:51:30 AM	714343861136500.7055475PLM062	PLM062
	0393	7799021095661		1	1	71434386	2013-01-08 10:51:35	10:51:35 AM	714343861136500.7055475PLM062	PLM062
	0393	7799021095661		1	1	71434386	2013-01-08 10:51:36	10:51:36 AM	714343861136500.7055475PLM062	PLM062
	0393	7799021095661		1	1	71434386	2013-01-08 10:51:38	10:51:38 AM	714343861136500.7055475PLM062	PLM062
	0393	7799021095661		1	1	71434386	2013-01-08 10:51:42	10:51:42 AM	714343861136500.7055475PLM062	PLM062
	0393	7799021095661		1	1	71434386	2013-01-08 10:51:45	10:51:45 AM	714343861136500.7055475PLM062	PLM062
	0393	7799021095661		1	1	71434386	2013-01-08 10:51:46	10:51:46 AM	714343861136500.7055475PLM062	PLM062
	0393	7799021095661		1	1	71434386	2013-01-08 10:51:50	10:51:50 AM	714343861136500.7055475PLM062	PLM062
	0393	7799021095661		1	1	71434386	2013-01-08 10:51:51	10:51:51 AM	714343861136500.7055475PLM062	PLM062
	0393	7799021095661		1	1	71434386	2013-01-08 10:51:53	10:51:53 AM	714343861136500.7055475PLM062	PLM062
	0393	7799021095661		1	1	71434386	2013-01-08 10:51:59	10:51:59 AM	714343861136500.7055475PLM062	PLM062
	0393	7799021095661		1	1	71434386	2013-01-08 10:52:00	10:52:00 AM	714343861136500.7055475PLM062	PLM062
	0393	7799021095661		1	1	71434386	2013-01-08 10:52:02	10:52:02 AM	714343861136500.7055475PLM062	PLM062
	0393	7799021095661		1	1	71434386	2013-01-08 10:52:07	10:52:07 AM	714343861136500.7055475PLM062	PLM062
	0393	7799021095661		1	1	71434386	2013-01-08 10:52:09	10:52:09 AM	714343861136500.7055475PLM062	PLM062
	0393	7799021095661		1	1	71434386	2013-01-08 10:52:10	10:52:10 AM	714343861136500.7055475PLM062	PLM062
	0393	7799021095661		1	1	71434386	2013-01-08 10:52:15	10:52:15 AM	714343861136500.7055475PLM062	PLM062
	0393	7799021095661		1	1	71434386	2013-01-08 10:52:18	10:52:18 AM	714343861136500.7055475PLM062	PLM062
	0393	7799021095661		1	1	71434386	2013-01-08 10:52:20	10:52:20 AM	714343861136500.7055475PLM062	PLM062
	0393	7799021095661		1	1	71434386	2013-01-08 10:52:25	10:52:25 AM	714343861136500.7055475PLM062	PLM062
	0393	7799021095661		1	1	71434386	2013-01-08 10:52:27	10:52:27 AM	714343861136500.7055475PLM062	PLM062
	0393	7799021095661		1	1	71434386	2013-01-08 10:52:30	10:52:30 AM	714343861136500.7055475PLM062	PLM062
	0393	7799021095661		1	1	71434386	2013-01-08 10:52:35	10:52:35 AM	714343861136500.7055475PLM062	PLM062
	0393	7799021095661		1	1	71434386	2013-01-08 10:52:36	10:52:36 AM	714343861136500.7055475PLM062	PLM062
	0393	7799021095661		1	1	71434386	2013-01-08 10:52:39	10:52:39 AM	714343861136500.7055475PLM062	PLM062
	0393	7799021095661		1	1	71434386	2013-01-08 10:52:44	10:52:44 AM	714343861136500.7055475PLM062	PLM062
	0393	7799021095661		1	1	71434386	2013-01-08 10:52:45	10:52:45 AM	714343861136500.7055475PLM062	PLM062
	0393	7799021095661		1	1	71434386	2013-01-08 10:52:46	10:52:46 AM	714343861136500.7055475PLM062	PLM062
	0393	7799021095661		1	1	71434386	2013-01-08 10:52:50	10:52:50 AM	714343861136500.7055475PLM062	PLM062
	0393	7799021095661		1	1	71434386	2013-01-08 10:52:51	10:52:51 AM	714343861136500.7055475PLM062	PLM062
	0393	7799021095661		1	1	71434386	2013-01-08 10:52:54	10:52:54 AM	714343861136500.7055475PLM062	PLM062
	0393	7799021095661		1	1	71434386	2013-01-08 10:52:59	10:52:59 AM	714343861136500.7055475PLM062	PLM062
	0393	7799021095661		1	1	71434386	2013-01-08 10:53:00	10:53:00 AM	714343861136500.7055475PLM062	PLM062
	0393	7799021095661		1	1	71434386	2013-01-08 10:53:01	10:53:01 AM	714343861136500.7055475PLM062	PLM062
	0393	7799021095661		1	1	71434386	2013-01-08 10:53:05	10:53:05 AM	714343861136500.7055475PLM062	PLM062
	0393	7799021095661		1	1	71434386	2013-01-08 10:53:06	10:53:06 AM	714343861136500.7055475PLM062	PLM062
	0393	7799021095661		1	1	71434386	2013-01-08 10:53:07	10:53:07 AM	714343861136500.7055475PLM062	PLM062
	0393	7799021095661		1	1	71434386	2013-01-08 10:53:13	10:53:13 AM	714343861136500.7055475PLM062	PLM062
	0393	7799021095661		1	1	71434386	2013-01-08 10:53:16	10:53:16 AM	714343861136500.7055475PLM062	PLM062
	0393	7799021095661		1	1	71434386	2013-01-08 10:53:17	10:53:17 AM	714343861136500.7055475PLM062	PLM062
	0393	7799021095661		1	1	71434386	2013-01-08 10:53:23	10:53:23 AM	714343861136500.7055475PLM062	PLM062
	0393	7799021095661		1	1	71434386	2013-01-08 10:53:25	10:53:25 AM	714343861136500.7055475PLM062	PLM062
	0393	7799021095661		1	1	71434386	2013-01-08 10:53:26	10:53:26 AM	714343861136500.7055475PLM062	PLM062
	0393	7799021095661		1	1	71434386	2013-01-08 10:53:33	10:53:33 AM	714343861136500.7055475PLM062	PLM062
	0393	7799021095661		1	1	71434386	2013-01-08 10:53:36	10:53:36 AM	714343861136500.7055475PLM062	PLM062
	0393	7799021095661		1	1	71434386	2013-01-08 10:53:37	10:53:37 AM	714343861136500.7055475PLM062	PLM062
	0393	7799021095661		1	1	71434386	2013-01-08 10:53:43	10:53:43 AM	714343861136500.7055475PLM062	PLM062
	0393	7799021095661		1	1	71434386	2013-01-08 10:53:44	10:53:44 AM	714343861136500.7055475PLM062	PLM062
	0393	7799021095661		1	1	71434386	2013-01-08 10:53:45	10:53:45 AM	714343861136500.7055475PLM062	PLM062
	0393	7799021095661		1	1	71434386	2013-01-08 10:53:52	10:53:52 AM	714343861136500.7055475PLM062	PLM062
	0393	7799021095661		1	1	71434386	2013-01-08 10:53:53	10:53:53 AM	714343861136500.7055475PLM062	PLM062
	0393	7799021095661		1	1	71434386	2013-01-08 10:53:54	10:53:54 AM	714343861136500.7055475PLM062	PLM062
	0432	7799021024067		1	1	71434386	2013-01-08 10:56:26	10:56:26 AM	714343861136500.7055475PLM062	PLM062
	0432	7799021024067		1	1	71434386	2013-01-08 10:56:29	10:56:29 AM	714343861136500.7055475PLM062	PLM062
	0432	7799021024067		1	1	71434386	2013-01-08 10:56:32	10:56:32 AM	714343861136500.7055475PLM062	PLM062
	0432	7799021024067		1	1	71434386	2013-01-08 10:56:37	10:56:37 AM	714343861136500.7055475PLM062	PLM062
	0432	7799021024067		1	1	71434386	2013-01-08 10:56:40	10:56:40 AM	714343861136500.7055475PLM062	PLM062
	0432	7799021024067		1	1	71434386	2013-01-08 10:56:51	10:56:51 AM	714343861136500.7055475PLM062	PLM062
	0432	7799021024067		1	1	71434386	2013-01-08 10:56:53	10:56:53 AM	714343861136500.7055475PLM062	PLM062
	0432	7799021024067		1	1	71434386	2013-01-08 10:56:55	10:56:55 AM	714343861136500.7055475PLM062	PLM062
	0432	7799021024067		1	1	71434386	2013-01-08 10:57:01	10:57:01 AM	714343861136500.7055475PLM062	PLM062
	0432	7799021024067		1	1	71434386	2013-01-08 10:57:03	10:57:03 AM	714343861136500.7055475PLM062	PLM062
	0432	7799021024067		1	1	71434386	2013-01-08 10:57:04	10:57:04 AM	714343861136500.7055475PLM062	PLM062
	0432	7799021024067		1	1	71434386	2013-01-08 10:57:10	10:57:10 AM	714343861136500.7055475PLM062	PLM062
	0432	7799021024067		1	1	71434386	2013-01-08 10:57:11	10:57:11 AM	714343861136500.7055475PLM062	PLM062
	0432	7799021024067		1	1	71434386	2013-01-08 10:57:12	10:57:12 AM	714343861136500.7055475PLM062	PLM062
	0432	7799021024067		1	1	71434386	2013-01-08 10:57:16	10:57:16 AM	714343861136500.7055475PLM062	PLM062
	0432	7799021024067		1	1	71434386	2013-01-08 10:57:17	10:57:17 AM	714343861136500.7055475PLM062	PLM062
	0432	7799021024067		1	1	71434386	2013-01-08 10:57:18	10:57:18 AM	714343861136500.7055475PLM062	PLM062
	0432	7799021024067		1	1	71434386	2013-01-08 10:57:21	10:57:21 AM	714343861136500.7055475PLM062	PLM062
	0432	7799021024067		1	1	71434386	2013-01-08 10:57:23	10:57:23 AM	714343861136500.7055475PLM062	PLM062
	0432	7799021024067		1	1	71434386	2013-01-08 10:57:23	10:57:23 AM	714343861136500.7055475PLM062	PLM062
	0432	7799021024067		1	1	71434386	2013-01-08 10:57:33	10:57:33 AM	714343861136500.7055475PLM062	PLM062
	0432	7799021024067		1	1	71434386	2013-01-08 10:57:40	10:57:40 AM	714343861136500.7055475PLM062	PLM062
	0432	7799021024067		1	1	71434386	2013-01-08 10:57:45	10:57:45 AM	714343861136500.7055475PLM062	PLM062
	0432	7799021024067		1	1	71434386	2013-01-08 10:57:48	10:57:48 AM	714343861136500.7055475PLM062	PLM062
	0432	7799021024067		1	1	71434386	2013-01-08 10:57:51	10:57:51 AM	714343861136500.7055475PLM062	PLM062
	0432	7799021024067		1	1	71434386	2013-01-08 10:57:54	10:57:54 AM	714343861136500.7055475PLM062	PLM062
	0432	7799021024067		1	1	71434386	2013-01-08 10:57:58	10:57:58 AM	714343861136500.7055475PLM062	PLM062
	0437	7799021067569		1	1	71434386	2013-01-08 11:00:46	11:00:46 AM	714343861136500.7055475PLM062	PLM062
	0437	7799021067569		1	1	71434386	2013-01-08 11:00:47	11:00:47 AM	714343861136500.7055475PLM062	PLM062
	0437	7799021067569		1	1	71434386	2013-01-08 11:00:48	11:00:48 AM	714343861136500.7055475PLM062	PLM062
	0437	7799021067569		1	1	71434386	2013-01-08 11:01:09	11:01:09 AM	714343861136500.7055475PLM062	PLM062
	0437	7799021067569		1	1	71434386	2013-01-08 11:01:11	11:01:11 AM	714343861136500.7055475PLM062	PLM062
	0437	7799021067569		1	1	71434386	2013-01-08 11:01:12	11:01:12 AM	714343861136500.7055475PLM062	PLM062
	0437	7799021067569		1	1	71434386	2013-01-08 11:01:21	11:01:21 AM	714343861136500.7055475PLM062	PLM062
	0437	7799021067569		1	1	71434386	2013-01-08 11:01:22	11:01:22 AM	714343861136500.7055475PLM062	PLM062
	0437	7799021067569		1	1	71434386	2013-01-08 11:01:23	11:01:23 AM	714343861136500.7055475PLM062	PLM062
	0437	7799021067569		1	1	71434386	2013-01-08 11:01:27	11:01:27 AM	714343861136500.7055475PLM062	PLM062
	0437	7799021067569		1	1	71434386	2013-01-08 11:01:28	11:01:28 AM	714343861136500.7055475PLM062	PLM062
	0437	7799021067569		1	1	71434386	2013-01-08 11:01:29	11:01:29 AM	714343861136500.7055475PLM062	PLM062
	0437	7799021067569		1	1	71434386	2013-01-08 11:01:33	11:01:33 AM	714343861136500.7055475PLM062	PLM062
	0437	7799021067569		1	1	71434386	2013-01-08 11:01:36	11:01:36 AM	714343861136500.7055475PLM062	PLM062
	0437	7799021067569		1	1	71434386	2013-01-08 11:01:39	11:01:39 AM	714343861136500.7055475PLM062	PLM062
	0437	7799021067569		1	1	71434386	2013-01-08 11:01:42	11:01:42 AM	714343861136500.7055475PLM062	PLM062
	0437	7799021067569		1	1	71434386	2013-01-08 11:01:46	11:01:46 AM	714343861136500.7055475PLM062	PLM062
	0437	7799021067569		1	1	71434386	2013-01-08 11:03:40	11:03:40 AM	714343861136500.7055475PLM062	PLM062
	0437	7799021067569		1	1	71434386	2013-01-08 11:03:48	11:03:48 AM	714343861136500.7055475PLM062	PLM062
	0437	7799021067569		1	1	71434386	2013-01-08 11:03:54	11:03:54 AM	714343861136500.7055475PLM062	PLM062
	0437	7799021067569		1	1	71434386	2013-01-08 11:04:10	11:04:10 AM	714343861136500.7055475PLM062	PLM062
	0437	7799021067569		1	1	71434386	2013-01-08 11:04:16	11:04:16 AM	714343861136500.7055475PLM062	PLM062
	0437	7799021067569		1	1	71434386	2013-01-08 11:04:19	11:04:19 AM	714343861136500.7055475PLM062	PLM062
	0437	7799021067569		1	1	71434386	2013-01-08 11:04:26	11:04:26 AM	714343861136500.7055475PLM062	PLM062
	0437	7799021067569		1	1	71434386	2013-01-08 11:04:31	11:04:31 AM	714343861136500.7055475PLM062	PLM062
	0437	7799021067569		1	1	71434386	2013-01-08 11:04:34	11:04:34 AM	714343861136500.7055475PLM062	PLM062
	0437	7799021067569		1	1	71434386	2013-01-08 11:04:47	11:04:47 AM	714343861136500.7055475PLM062	PLM062
	0437	7799021067569		1	1	71434386	2013-01-08 11:04:51	11:04:51 AM	714343861136500.7055475PLM062	PLM062
	0437	7799021067569		1	1	71434386	2013-01-08 11:04:58	11:04:58 AM	714343861136500.7055475PLM062	PLM062
	0432	7799021024067		1	1	71434386	2013-01-08 11:09:52	11:09:52 AM	714343861136500.7055475PLM062	PLM062
	0432	7799021024067		1	1	71434386	2013-01-08 11:09:55	11:09:55 AM	714343861136500.7055475PLM062	PLM062
	0432	7799021024067		1	1	71434386	2013-01-08 11:09:58	11:09:58 AM	714343861136500.7055475PLM062	PLM062
	0432	7799021024067		1	1	71434386	2013-01-08 11:10:02	11:10:02 AM	714343861136500.7055475PLM062	PLM062
	0432	7799021024067		1	1	71434386	2013-01-08 11:10:04	11:10:04 AM	714343861136500.7055475PLM062	PLM062
	0432	7799021024067		1	1	71434386	2013-01-08 11:10:07	11:10:07 AM	714343861136500.7055475PLM062	PLM062
	0432	7799021024067		1	1	71434386	2013-01-08 11:10:10	11:10:10 AM	714343861136500.7055475PLM062	PLM062
	0432	7799021024067		1	1	71434386	2013-01-08 11:10:14	11:10:14 AM	714343861136500.7055475PLM062	PLM062
	0432	7799021024067		1	1	71434386	2013-01-08 11:10:17	11:10:17 AM	714343861136500.7055475PLM062	PLM062
	0432	7799021024067		1	1	71434386	2013-01-08 11:10:20	11:10:20 AM	714343861136500.7055475PLM062	PLM062
	0432	7799021024067		1	1	71434386	2013-01-08 11:10:23	11:10:23 AM	714343861136500.7055475PLM062	PLM062
	0432	7799021024067		1	1	71434386	2013-01-08 11:10:26	11:10:26 AM	714343861136500.7055475PLM062	PLM062
	0432	7799021024067		1	1	71434386	2013-01-08 11:10:32	11:10:32 AM	714343861136500.7055475PLM062	PLM062
	0432	7799021024067		1	1	71434386	2013-01-08 11:10:35	11:10:35 AM	714343861136500.7055475PLM062	PLM062
	0432	7799021024067		1	1	71434386	2013-01-08 11:10:38	11:10:38 AM	714343861136500.7055475PLM062	PLM062
	0435	7799021095593		1	1	71434386	2013-01-08 11:18:24	11:18:24 AM	714343861136500.7055475PLM062	PLM062
	0435	7799021095593		1	1	71434386	2013-01-08 11:18:27	11:18:27 AM	714343861136500.7055475PLM062	PLM062
	0435	7799021095593		1	1	71434386	2013-01-08 11:18:31	11:18:31 AM	714343861136500.7055475PLM062	PLM062
	0435	7799021095593		1	1	71434386	2013-01-08 11:18:35	11:18:35 AM	714343861136500.7055475PLM062	PLM062
	0435	7799021095593		1	1	71434386	2013-01-08 11:18:37	11:18:37 AM	714343861136500.7055475PLM062	PLM062
	0435	7799021095593		1	1	71434386	2013-01-08 11:18:43	11:18:43 AM	714343861136500.7055475PLM062	PLM062
	0435	7799021095593		1	1	71434386	2013-01-08 11:18:45	11:18:45 AM	714343861136500.7055475PLM062	PLM062
	0435	7799021095593		1	1	71434386	2013-01-08 11:18:47	11:18:47 AM	714343861136500.7055475PLM062	PLM062
	0435	7799021095593		1	1	71434386	2013-01-08 11:18:55	11:18:55 AM	714343861136500.7055475PLM062	PLM062
	0435	7799021095593		1	1	71434386	2013-01-08 11:18:57	11:18:57 AM	714343861136500.7055475PLM062	PLM062
	0435	7799021095593		1	1	71434386	2013-01-08 11:18:58	11:18:58 AM	714343861136500.7055475PLM062	PLM062
	0435	7799021095593		1	1	71434386	2013-01-08 11:19:06	11:19:06 AM	714343861136500.7055475PLM062	PLM062
	0435	7799021095593		1	1	71434386	2013-01-08 11:19:07	11:19:07 AM	714343861136500.7055475PLM062	PLM062
	0435	7799021095593		1	1	71434386	2013-01-08 11:19:08	11:19:08 AM	714343861136500.7055475PLM062	PLM062
	0435	7799021095593		1	1	71434386	2013-01-08 11:19:15	11:19:15 AM	714343861136500.7055475PLM062	PLM062
	0435	7799021095593		1	1	71434386	2013-01-08 11:19:17	11:19:17 AM	714343861136500.7055475PLM062	PLM062
	0435	7799021095593		1	1	71434386	2013-01-08 11:19:19	11:19:19 AM	714343861136500.7055475PLM062	PLM062
	0435	7799021095593		1	1	71434386	2013-01-08 11:19:27	11:19:27 AM	714343861136500.7055475PLM062	PLM062
	0435	7799021095593		1	1	71434386	2013-01-08 11:19:30	11:19:30 AM	714343861136500.7055475PLM062	PLM062
	0435	7799021095593		1	1	71434386	2013-01-08 11:19:32	11:19:32 AM	714343861136500.7055475PLM062	PLM062
	0435	7799021095593		1	1	71434386	2013-01-08 11:19:36	11:19:36 AM	714343861136500.7055475PLM062	PLM062
	0435	7799021095593		1	1	71434386	2013-01-08 11:19:37	11:19:37 AM	714343861136500.7055475PLM062	PLM062
	0435	7799021095593		1	1	71434386	2013-01-08 11:19:39	11:19:39 AM	714343861136500.7055475PLM062	PLM062
	0435	7799021095593		1	1	71434386	2013-01-08 11:19:46	11:19:46 AM	714343861136500.7055475PLM062	PLM062
	0435	7799021095593		1	1	71434386	2013-01-08 11:19:49	11:19:49 AM	714343861136500.7055475PLM062	PLM062
	0435	7799021095593		1	1	71434386	2013-01-08 11:19:50	11:19:50 AM	714343861136500.7055475PLM062	PLM062
	0435	7799021095593		1	1	71434386	2013-01-08 11:19:57	11:19:57 AM	714343861136500.7055475PLM062	PLM062
	0435	7799021095593		1	1	71434386	2013-01-08 11:19:58	11:19:58 AM	714343861136500.7055475PLM062	PLM062
	0435	7799021095593		1	1	71434386	2013-01-08 11:20:00	11:20:00 AM	714343861136500.7055475PLM062	PLM062
	0435	7799021095593		1	1	71434386	2013-01-08 11:20:05	11:20:05 AM	714343861136500.7055475PLM062	PLM062
	0435	7799021095593		1	1	71434386	2013-01-08 11:20:07	11:20:07 AM	714343861136500.7055475PLM062	PLM062
	0435	7799021095593		1	1	71434386	2013-01-08 11:20:08	11:20:08 AM	714343861136500.7055475PLM062	PLM062
	0435	7799021095593		1	1	71434386	2013-01-08 11:20:14	11:20:14 AM	714343861136500.7055475PLM062	PLM062
	0435	7799021095593		1	1	71434386	2013-01-08 11:20:15	11:20:15 AM	714343861136500.7055475PLM062	PLM062
	0435	7799021095593		1	1	71434386	2013-01-08 11:20:17	11:20:17 AM	714343861136500.7055475PLM062	PLM062
	0435	7799021095593		1	1	71434386	2013-01-08 11:20:25	11:20:25 AM	714343861136500.7055475PLM062	PLM062
	0435	7799021095593		1	1	71434386	2013-01-08 11:20:27	11:20:27 AM	714343861136500.7055475PLM062	PLM062
	0435	7799021095593		1	1	71434386	2013-01-08 11:20:29	11:20:29 AM	714343861136500.7055475PLM062	PLM062
	0435	7799021095593		1	1	71434386	2013-01-08 11:20:59	11:20:59 AM	714343861136500.7055475PLM062	PLM062
	0435	7799021095593		1	1	71434386	2013-01-08 11:21:00	11:21:00 AM	714343861136500.7055475PLM062	PLM062
	0435	7799021095593		1	1	71434386	2013-01-08 11:21:03	11:21:03 AM	714343861136500.7055475PLM062	PLM062
	0435	7799021095593		1	1	71434386	2013-01-08 11:21:14	11:21:14 AM	714343861136500.7055475PLM062	PLM062
	0435	7799021095593		1	1	71434386	2013-01-08 11:21:16	11:21:16 AM	714343861136500.7055475PLM062	PLM062
	0435	7799021095593		1	1	71434386	2013-01-08 11:21:18	11:21:18 AM	714343861136500.7055475PLM062	PLM062
	0435	7799021095593		1	1	71434386	2013-01-08 11:21:25	11:21:25 AM	714343861136500.7055475PLM062	PLM062
	0435	7799021095593		1	1	71434386	2013-01-08 11:21:26	11:21:26 AM	714343861136500.7055475PLM062	PLM062
	0435	7799021095593		1	1	71434386	2013-01-08 11:21:28	11:21:28 AM	714343861136500.7055475PLM062	PLM062
	0435	7799021095593		1	1	71434386	2013-01-08 11:21:39	11:21:39 AM	714343861136500.7055475PLM062	PLM062
	0435	7799021095593		1	1	71434386	2013-01-08 11:21:41	11:21:41 AM	714343861136500.7055475PLM062	PLM062
	0435	7799021095593		1	1	71434386	2013-01-08 11:21:42	11:21:42 AM	714343861136500.7055475PLM062	PLM062
	0435	7799021095593		1	1	71434386	2013-01-08 11:21:47	11:21:47 AM	714343861136500.7055475PLM062	PLM062
	0435	7799021095593		1	1	71434386	2013-01-08 11:21:48	11:21:48 AM	714343861136500.7055475PLM062	PLM062
	0435	7799021095593		1	1	71434386	2013-01-08 11:21:49	11:21:49 AM	714343861136500.7055475PLM062	PLM062
	0435	7799021095593		1	1	71434386	2013-01-08 11:21:55	11:21:55 AM	714343861136500.7055475PLM062	PLM062
	0435	7799021095593		1	1	71434386	2013-01-08 11:21:57	11:21:57 AM	714343861136500.7055475PLM062	PLM062
	0435	7799021095593		1	1	71434386	2013-01-08 11:22:01	11:22:01 AM	714343861136500.7055475PLM062	PLM062
	0435	7799021095593		1	1	71434386	2013-01-08 11:22:08	11:22:08 AM	714343861136500.7055475PLM062	PLM062
	0435	7799021095593		1	1	71434386	2013-01-08 11:22:09	11:22:09 AM	714343861136500.7055475PLM062	PLM062
	0435	7799021095593		1	1	71434386	2013-01-08 11:22:11	11:22:11 AM	714343861136500.7055475PLM062	PLM062
	0435	7799021095593		1	1	71434386	2013-01-08 11:22:17	11:22:17 AM	714343861136500.7055475PLM062	PLM062
	0435	7799021095593		1	1	71434386	2013-01-08 11:22:18	11:22:18 AM	714343861136500.7055475PLM062	PLM062
	0435	7799021095593		1	1	71434386	2013-01-08 11:22:19	11:22:19 AM	714343861136500.7055475PLM062	PLM062
	0435	7799021095593		1	1	71434386	2013-01-08 11:22:26	11:22:26 AM	714343861136500.7055475PLM062	PLM062
	0435	7799021095593		1	1	71434386	2013-01-08 11:22:27	11:22:27 AM	714343861136500.7055475PLM062	PLM062
	0435	7799021095593		1	1	71434386	2013-01-08 11:22:29	11:22:29 AM	714343861136500.7055475PLM062	PLM062
	0435	7799021095593		1	1	71434386	2013-01-08 11:22:36	11:22:36 AM	714343861136500.7055475PLM062	PLM062
	0435	7799021095593		1	1	71434386	2013-01-08 11:22:39	11:22:39 AM	714343861136500.7055475PLM062	PLM062
	0435	7799021095593		1	1	71434386	2013-01-08 11:22:42	11:22:42 AM	714343861136500.7055475PLM062	PLM062
	0435	7799021095593		1	1	71434386	2013-01-08 11:22:50	11:22:50 AM	714343861136500.7055475PLM062	PLM062
	0435	7799021095593		1	1	71434386	2013-01-08 11:22:52	11:22:52 AM	714343861136500.7055475PLM062	PLM062
	0435	7799021095593		1	1	71434386	2013-01-08 11:22:53	11:22:53 AM	714343861136500.7055475PLM062	PLM062
	0435	7799021095593		1	1	71434386	2013-01-08 11:23:00	11:23:00 AM	714343861136500.7055475PLM062	PLM062
	0435	7799021095593		1	1	71434386	2013-01-08 11:23:01	11:23:01 AM	714343861136500.7055475PLM062	PLM062
	0435	7799021095593		1	1	71434386	2013-01-08 11:23:03	11:23:03 AM	714343861136500.7055475PLM062	PLM062
	0435	7799021095593		1	1	71434386	2013-01-08 11:23:08	11:23:08 AM	714343861136500.7055475PLM062	PLM062
	0435	7799021095593		1	1	71434386	2013-01-08 11:23:11	11:23:11 AM	714343861136500.7055475PLM062	PLM062
	0435	7799021095593		1	1	71434386	2013-01-08 11:23:13	11:23:13 AM	714343861136500.7055475PLM062	PLM062
	0435	7799021095593		1	1	71434386	2013-01-08 11:23:21	11:23:21 AM	714343861136500.7055475PLM062	PLM062
	0435	7799021095593		1	1	71434386	2013-01-08 11:23:23	11:23:23 AM	714343861136500.7055475PLM062	PLM062
	0435	7799021095593		1	1	71434386	2013-01-08 11:23:25	11:23:25 AM	714343861136500.7055475PLM062	PLM062
	0435	7799021095593		1	1	71434386	2013-01-08 11:23:31	11:23:31 AM	714343861136500.7055475PLM062	PLM062
	0435	7799021095593		1	1	71434386	2013-01-08 11:23:32	11:23:32 AM	714343861136500.7055475PLM062	PLM062
	0435	7799021095593		1	1	71434386	2013-01-08 11:23:33	11:23:33 AM	714343861136500.7055475PLM062	PLM062
	0435	7799021095593		1	1	71434386	2013-01-08 11:23:39	11:23:39 AM	714343861136500.7055475PLM062	PLM062
	0435	7799021095593		1	1	71434386	2013-01-08 11:23:40	11:23:40 AM	714343861136500.7055475PLM062	PLM062
	0435	7799021095593		1	1	71434386	2013-01-08 11:23:41	11:23:41 AM	714343861136500.7055475PLM062	PLM062
	0435	7799021095593		1	1	71434386	2013-01-08 11:23:46	11:23:46 AM	714343861136500.7055475PLM062	PLM062
	0435	7799021095593		1	1	71434386	2013-01-08 11:23:47	11:23:47 AM	714343861136500.7055475PLM062	PLM062
	0435	7799021095593		1	1	71434386	2013-01-08 11:23:49	11:23:49 AM	714343861136500.7055475PLM062	PLM062
	0435	7799021095593		1	1	71434386	2013-01-08 11:23:57	11:23:57 AM	714343861136500.7055475PLM062	PLM062
	0435	7799021095593		1	1	71434386	2013-01-08 11:23:58	11:23:58 AM	714343861136500.7055475PLM062	PLM062
	0435	7799021095593		1	1	71434386	2013-01-08 11:23:59	11:23:59 AM	714343861136500.7055475PLM062	PLM062
	0435	7799021095593		1	1	71434386	2013-01-08 11:24:06	11:24:06 AM	714343861136500.7055475PLM062	PLM062
	0435	7799021095593		1	1	71434386	2013-01-08 11:24:07	11:24:07 AM	714343861136500.7055475PLM062	PLM062
	0435	7799021095593		1	1	71434386	2013-01-08 11:24:08	11:24:08 AM	714343861136500.7055475PLM062	PLM062
	0435	7799021095593		1	1	71434386	2013-01-08 11:24:16	11:24:16 AM	714343861136500.7055475PLM062	PLM062
	0435	7799021095593		1	1	71434386	2013-01-08 11:24:17	11:24:17 AM	714343861136500.7055475PLM062	PLM062
	0435	7799021095593		1	1	71434386	2013-01-08 11:24:19	11:24:19 AM	714343861136500.7055475PLM062	PLM062
	0435	7799021095593		1	1	71434386	2013-01-08 11:24:26	11:24:26 AM	714343861136500.7055475PLM062	PLM062
	0435	7799021095593		1	1	71434386	2013-01-08 11:24:28	11:24:28 AM	714343861136500.7055475PLM062	PLM062
	0435	7799021095593		1	1	71434386	2013-01-08 11:24:29	11:24:29 AM	714343861136500.7055475PLM062	PLM062
	0435	7799021095593		1	1	71434386	2013-01-08 11:24:36	11:24:36 AM	714343861136500.7055475PLM062	PLM062
	0435	7799021095593		1	1	71434386	2013-01-08 11:24:38	11:24:38 AM	714343861136500.7055475PLM062	PLM062
	0435	7799021095593		1	1	71434386	2013-01-08 11:24:39	11:24:39 AM	714343861136500.7055475PLM062	PLM062
	0435	7799021095593		1	1	71434386	2013-01-08 11:24:43	11:24:43 AM	714343861136500.7055475PLM062	PLM062
	0435	7799021095593		1	1	71434386	2013-01-08 11:24:45	11:24:45 AM	714343861136500.7055475PLM062	PLM062
	0435	7799021095593		1	1	71434386	2013-01-08 11:24:46	11:24:46 AM	714343861136500.7055475PLM062	PLM062
	0435	7799021095593		1	1	71434386	2013-01-08 11:24:53	11:24:53 AM	714343861136500.7055475PLM062	PLM062
	0435	7799021095593		1	1	71434386	2013-01-08 11:24:58	11:24:58 AM	714343861136500.7055475PLM062	PLM062
	0435	7799021095593		1	1	71434386	2013-01-08 11:25:06	11:25:06 AM	714343861136500.7055475PLM062	PLM062
	0435	7799021095593		1	1	71434386	2013-01-08 11:30:52	11:30:52 AM	714343861136500.7055475PLM062	PLM062
	0435	7799021095593		1	1	71434386	2013-01-08 11:30:54	11:30:54 AM	714343861136500.7055475PLM062	PLM062
	0435	7799021095593		1	1	71434386	2013-01-08 11:30:59	11:30:59 AM	714343861136500.7055475PLM062	PLM062
	0435	7799021095593		1	1	71434386	2013-01-08 11:31:06	11:31:06 AM	714343861136500.7055475PLM062	PLM062
	0435	7799021095593		1	1	71434386	2013-01-08 11:31:07	11:31:07 AM	714343861136500.7055475PLM062	PLM062
	0435	7799021095593		1	1	71434386	2013-01-08 11:31:11	11:31:11 AM	714343861136500.7055475PLM062	PLM062
	0435	7799021095593		1	1	71434386	2013-01-08 11:31:17	11:31:17 AM	714343861136500.7055475PLM062	PLM062
	0435	7799021095593		1	1	71434386	2013-01-08 11:31:20	11:31:20 AM	714343861136500.7055475PLM062	PLM062
	0435	7799021095593		1	1	71434386	2013-01-08 11:31:25	11:31:25 AM	714343861136500.7055475PLM062	PLM062
	0435	7799021095593		1	1	71434386	2013-01-08 11:31:37	11:31:37 AM	714343861136500.7055475PLM062	PLM062
	0435	7799021095593		1	1	71434386	2013-01-08 11:31:41	11:31:41 AM	714343861136500.7055475PLM062	PLM062
	0435	7799021095593		1	1	71434386	2013-01-08 11:31:47	11:31:47 AM	714343861136500.7055475PLM062	PLM062
	0435	7799021095593		1	1	71434386	2013-01-08 11:31:57	11:31:57 AM	714343861136500.7055475PLM062	PLM062
	0435	7799021095593		1	1	71434386	2013-01-08 11:32:03	11:32:03 AM	714343861136500.7055475PLM062	PLM062
	0435	7799021095593		1	1	71434386	2013-01-08 11:32:10	11:32:10 AM	714343861136500.7055475PLM062	PLM062
	0435	7799021095593		1	1	71434386	2013-01-08 11:32:22	11:32:22 AM	714343861136500.7055475PLM062	PLM062
	0435	7799021095593		1	1	71434386	2013-01-08 11:32:23	11:32:23 AM	714343861136500.7055475PLM062	PLM062
	0435	7799021095593		1	1	71434386	2013-01-08 11:32:24	11:32:24 AM	714343861136500.7055475PLM062	PLM062
	0435	7799021095593		1	1	71434386	2013-01-08 11:34:34	11:34:34 AM	714343861136500.7055475PLM062	PLM062
	0435	7799021095593		1	1	71434386	2013-01-08 11:34:35	11:34:35 AM	714343861136500.7055475PLM062	PLM062
	0435	7799021095593		1	1	71434386	2013-01-08 11:34:36	11:34:36 AM	714343861136500.7055475PLM062	PLM062
	0435	7799021095593		1	1	71434386	2013-01-08 11:34:50	11:34:50 AM	714343861136500.7055475PLM062	PLM062
	0435	7799021095593		1	1	71434386	2013-01-08 11:34:55	11:34:55 AM	714343861136500.7055475PLM062	PLM062
	0435	7799021095593		1	1	71434386	2013-01-08 11:34:57	11:34:57 AM	714343861136500.7055475PLM062	PLM062
	0435	7799021095593		1	1	71434386	2013-01-08 11:35:02	11:35:02 AM	714343861136500.7055475PLM062	PLM062
	0435	7799021095593		1	1	71434386	2013-01-08 11:35:07	11:35:07 AM	714343861136500.7055475PLM062	PLM062
	0435	7799021095593		1	1	71434386	2013-01-08 11:35:08	11:35:08 AM	714343861136500.7055475PLM062	PLM062
	0435	7799021095593		1	1	71434386	2013-01-08 11:35:13	11:35:13 AM	714343861136500.7055475PLM062	PLM062
	0435	7799021095593		1	1	71434386	2013-01-08 11:35:14	11:35:14 AM	714343861136500.7055475PLM062	PLM062
	0435	7799021095593		1	1	71434386	2013-01-08 11:35:22	11:35:22 AM	714343861136500.7055475PLM062	PLM062
