	3061	7799008695556		235	2	72050205	2019-01-04 14:10:47	2:10 PM	720502051756440.01401764PLM024	PLM024
	3062	7799021056129		168	2	72050205	2019-01-04 14:14:49	2:14 PM	720502051756440.01401764PLM024	PLM024
	3050	7799021079074		168	2	72050205	2019-01-04 14:18:46	2:18 PM	720502051756440.01401764PLM024	PLM024
	3060	7799021058246		120	2	72050205	2019-01-04 14:22:18	2:22 PM	720502051756440.01401764PLM024	PLM024
	3063	7799021074130		216	2	72050205	2019-01-04 14:28:03	2:28 PM	720502051756440.01401764PLM024	PLM024
	3064	7799008974231		90	2	72050205	2019-01-04 14:31:51	2:31 PM	720502051756440.01401764PLM024	PLM024
	3056	7799021058666		176	2	72050205	2019-01-04 14:38:42	2:38 PM	720502051756440.01401764PLM024	PLM024
	3053	7799021058147		273	2	72050205	2019-01-04 14:44:14	2:44 PM	720502051756440.01401764PLM024	PLM024
	2954	7799021072709		76	2	72050205	2019-01-04 14:49:51	2:49 PM	720502051756440.01401764PLM024	PLM024
	2955	7799008933368		300	2	72050205	2019-01-04 14:55:30	2:55 PM	720502051756440.01401764PLM024	PLM024
	2955	7799008933368		105	2	72050205	2019-01-04 14:57:25	2:57 PM	720502051756440.01401764PLM024	PLM024
	2956	7799008933368		349	2	72050205	2019-01-04 15:05:36	3:05 PM	720502051756440.01401764PLM024	PLM024
	2958	7799008945477		336	2	72050205	2019-01-04 15:13:00	3:13 PM	720502051756440.01401764PLM024	PLM024
	2958	7799008945477		2	2	72050205	2019-01-04 15:15:10	3:15 PM	720502051756440.01401764PLM024	PLM024
	2960	7799021058048		138	2	72050205	2019-01-04 15:18:16	3:18 PM	720502051756440.01401764PLM024	PLM024
	2961	7799008440538		100	2	72050205	2019-01-04 15:21:38	3:21 PM	720502051756440.01401764PLM024	PLM024
	2961	7799008440538		100	2	72050205	2019-01-04 15:23:25	3:23 PM	720502051756440.01401764PLM024	PLM024
	2961	7799008440538		100	2	72050205	2019-01-04 15:28:02	3:28 PM	720502051756440.01401764PLM024	PLM024
	2961	7799008440538		100	2	72050205	2019-01-04 15:35:25	3:35 PM	720502051756440.01401764PLM024	PLM024
	2961	7799008440538		100	2	72050205	2019-01-04 15:43:41	3:43 PM	720502051756440.01401764PLM024	PLM024
	2961	7799008440538		100	2	72050205	2019-01-04 15:46:00	3:46 PM	720502051756440.01401764PLM024	PLM024
	2961	7799008440538		100	2	72050205	2019-01-04 15:48:40	3:48 PM	720502051756440.01401764PLM024	PLM024
	2961	7799008440538		80	2	72050205	2019-01-04 15:50:45	3:50 PM	720502051756440.01401764PLM024	PLM024
	2951	7799021102697		58	2	72050205	2019-01-04 15:59:55	3:59 PM	720502051756440.01401764PLM024	PLM024
	2952	7799008242965		239	2	72050205	2019-01-04 16:07:07	4:07 PM	720502051756440.01401764PLM024	PLM024
	2970	7799021058260		180	2	72050205	2019-01-04 16:22:41	4:22 PM	720502051756440.01401764PLM024	PLM024
	2969	7799021071542		249	2	72050205	2019-01-04 16:27:14	4:27 PM	720502051756440.01401764PLM024	PLM024
	2971	7799008768274		412	2	72050205	2019-01-04 16:36:25	4:36 PM	720502051756440.01401764PLM024	PLM024
	2980	7799008964195		150	2	72050205	2019-01-04 16:42:48	4:42 PM	720502051756440.01401764PLM024	PLM024
	2967	7799008901954		20	2	72050205	2019-01-04 16:49:17	4:49 PM	720502051756440.01401764PLM024	PLM024
	2967	7799008901954		34	2	72050205	2019-01-04 16:51:15	4:51 PM	720502051756440.01401764PLM024	PLM024
	2967	7799008991405		8	2	72050205	2019-01-04 16:51:34	4:51 PM	720502051756440.01401764PLM024	PLM024
	2978	7799008323671		52	2	72050205	2019-01-04 16:56:17	4:56 PM	720502051756440.01401764PLM024	PLM024
	4449	7799008986043		24	2	72050205	2019-01-04 17:09:19	5:09 PM	720502051756440.01401764PLM024	PLM024
	4449	7799008986043		24	2	72050205	2019-01-04 17:10:33	5:10 PM	720502051756440.01401764PLM024	PLM024
	4450	7799008986043		24	2	72050205	2019-01-04 17:11:26	5:11 PM	720502051756440.01401764PLM024	PLM024
	4451	7799008986043		24	2	72050205	2019-01-04 17:13:38	5:13 PM	720502051756440.01401764PLM024	PLM024
	4452	7799008986043		24	2	72050205	2019-01-04 17:14:45	5:14 PM	720502051756440.01401764PLM024	PLM024
	4453	7799008649306		108	2	72050205	2019-01-04 17:17:48	5:17 PM	720502051756440.01401764PLM024	PLM024
	4454	7799008649276		108	2	72050205	2019-01-04 17:18:58	5:18 PM	720502051756440.01401764PLM024	PLM024
	4458	7799008649306		108	2	72050205	2019-01-04 17:20:58	5:20 PM	720502051756440.01401764PLM024	PLM024
	4483	7799008649306		108	2	72050205	2019-01-04 17:22:16	5:22 PM	720502051756440.01401764PLM024	PLM024
	4484	7799008649207		108	2	72050205	2019-01-04 17:24:05	5:24 PM	720502051756440.01401764PLM024	PLM024
	4392	7799008649160		108	2	72050205	2019-01-04 17:26:21	5:26 PM	720502051756440.01401764PLM024	PLM024
	4394	7799008649276		108	2	72050205	2019-01-04 17:28:45	5:28 PM	720502051756440.01401764PLM024	PLM024
	4397	7799008649320		108	2	72050205	2019-01-04 17:29:39	5:29 PM	720502051756440.01401764PLM024	PLM024
	4485	7799008649320		108	2	72050205	2019-01-04 17:30:50	5:30 PM	720502051756440.01401764PLM024	PLM024
	4486	7799008649276		108	2	72050205	2019-01-04 17:32:11	5:32 PM	720502051756440.01401764PLM024	PLM024
	4488	7799008649306		108	2	72050205	2019-01-04 17:33:30	5:33 PM	720502051756440.01401764PLM024	PLM024
	4487	7799008649153		107	2	72050205	2019-01-04 17:34:32	5:34 PM	720502051756440.01401764PLM024	PLM024
	4525	7799008649153		108	2	72050205	2019-01-04 17:36:43	5:36 PM	720502051756440.01401764PLM024	PLM024
	4522	7799008649153		108	2	72050205	2019-01-04 17:37:43	5:37 PM	720502051756440.01401764PLM024	PLM024
	4520	7799008649276		108	2	72050205	2019-01-04 17:38:57	5:38 PM	720502051756440.01401764PLM024	PLM024
	4482	7799008649955		99	2	72050205	2019-01-04 17:42:01	5:42 PM	720502051756440.01401764PLM024	PLM024
	4476	7799008649276		108	2	72050205	2019-01-04 17:42:59	5:42 PM	720502051756440.01401764PLM024	PLM024
	4469	7799008649320		108	2	72050205	2019-01-04 17:43:43	5:43 PM	720502051756440.01401764PLM024	PLM024
	4470	7799008649320		108	2	72050205	2019-01-04 17:45:31	5:45 PM	720502051756440.01401764PLM024	PLM024
	4471	7799008649276		108	2	72050205	2019-01-04 17:46:22	5:46 PM	720502051756440.01401764PLM024	PLM024
	4479	7799008649290		108	2	72050205	2019-01-04 17:49:53	5:49 PM	720502051756440.01401764PLM024	PLM024
	4480	7799008649160		108	2	72050205	2019-01-04 17:51:34	5:51 PM	720502051756440.01401764PLM024	PLM024
	4481	7799008649306		108	2	72050205	2019-01-04 17:53:07	5:53 PM	720502051756440.01401764PLM024	PLM024
