	7075	7799008527307		1	1	72050205	2019-01-05 10:07:05	10:07:05 AM	720502051249320.7055475PLM086	PLM086
	7075	7799008527307		1	1	72050205	2019-01-05 10:07:10	10:07:10 AM	720502051249320.7055475PLM086	PLM086
	7075	7799008527307		1	1	72050205	2019-01-05 10:07:14	10:07:14 AM	720502051249320.7055475PLM086	PLM086
	7075	7799008527307		1	1	72050205	2019-01-05 10:07:18	10:07:18 AM	720502051249320.7055475PLM086	PLM086
	7075	7799008527307		1	1	72050205	2019-01-05 10:07:27	10:07:27 AM	720502051249320.7055475PLM086	PLM086
	7075	7799008527307		1	1	72050205	2019-01-05 10:07:36	10:07:36 AM	720502051249320.7055475PLM086	PLM086
	7075	7799008527307		1	1	72050205	2019-01-05 10:07:42	10:07:42 AM	720502051249320.7055475PLM086	PLM086
	7075	7799008668000		1	1	72050205	2019-01-05 10:08:04	10:08:04 AM	720502051249320.7055475PLM086	PLM086
	7075	7799008722849		1	1	72050205	2019-01-05 10:08:13	10:08:13 AM	720502051249320.7055475PLM086	PLM086
	7075	7799008726540		1	1	72050205	2019-01-05 10:08:23	10:08:23 AM	720502051249320.7055475PLM086	PLM086
	7075	7799008726540		1	1	72050205	2019-01-05 10:08:31	10:08:31 AM	720502051249320.7055475PLM086	PLM086
	7075	7799008511061		1	1	72050205	2019-01-05 10:08:38	10:08:38 AM	720502051249320.7055475PLM086	PLM086
	7075	7799008511061		1	1	72050205	2019-01-05 10:08:42	10:08:42 AM	720502051249320.7055475PLM086	PLM086
	7075	7799008511139		1	1	72050205	2019-01-05 10:08:52	10:08:52 AM	720502051249320.7055475PLM086	PLM086
	7075	7799008511139		1	1	72050205	2019-01-05 10:09:03	10:09:03 AM	720502051249320.7055475PLM086	PLM086
	7075	7799008667331		1	1	72050205	2019-01-05 10:09:14	10:09:14 AM	720502051249320.7055475PLM086	PLM086
	7075	7799008667331		1	1	72050205	2019-01-05 10:09:23	10:09:23 AM	720502051249320.7055475PLM086	PLM086
	7075	7799008710600		1	1	72050205	2019-01-05 10:09:32	10:09:32 AM	720502051249320.7055475PLM086	PLM086
	7075	7799008711218		1	1	72050205	2019-01-05 10:09:55	10:09:55 AM	720502051249320.7055475PLM086	PLM086
	7075	7799008711218		1	1	72050205	2019-01-05 10:10:02	10:10:02 AM	720502051249320.7055475PLM086	PLM086
	7075	7799008722849		1	1	72050205	2019-01-05 10:10:09	10:10:09 AM	720502051249320.7055475PLM086	PLM086
	7075	7799008722788		1	1	72050205	2019-01-05 10:10:16	10:10:16 AM	720502051249320.7055475PLM086	PLM086
	7075	7799008711218		1	1	72050205	2019-01-05 10:10:36	10:10:36 AM	720502051249320.7055475PLM086	PLM086
	7075	7799008666945		1	1	72050205	2019-01-05 10:10:44	10:10:44 AM	720502051249320.7055475PLM086	PLM086
	7075	7799008708911		1	1	72050205	2019-01-05 10:11:18	10:11:18 AM	720502051249320.7055475PLM086	PLM086
	7075	7799008711225		1	1	72050205	2019-01-05 10:11:22	10:11:22 AM	720502051249320.7055475PLM086	PLM086
	7075	7799008711225		1	1	72050205	2019-01-05 10:11:30	10:11:30 AM	720502051249320.7055475PLM086	PLM086
	7075	7799008666990		1	1	72050205	2019-01-05 10:11:36	10:11:36 AM	720502051249320.7055475PLM086	PLM086
	7075	7799008721651		1	1	72050205	2019-01-05 10:11:43	10:11:43 AM	720502051249320.7055475PLM086	PLM086
	7075	7799008721651		1	1	72050205	2019-01-05 10:11:55	10:11:55 AM	720502051249320.7055475PLM086	PLM086
	7075	7799008710679		1	1	72050205	2019-01-05 10:12:03	10:12:03 AM	720502051249320.7055475PLM086	PLM086
	7075	7799008710662		1	1	72050205	2019-01-05 10:12:16	10:12:16 AM	720502051249320.7055475PLM086	PLM086
	7075	7799008605760		1	1	72050205	2019-01-05 10:12:22	10:12:22 AM	720502051249320.7055475PLM086	PLM086
	7075	7799008710662		1	1	72050205	2019-01-05 10:12:33	10:12:33 AM	720502051249320.7055475PLM086	PLM086
	7075	7799008708928		1	1	72050205	2019-01-05 10:12:47	10:12:47 AM	720502051249320.7055475PLM086	PLM086
	7075	7799008722054		1	1	72050205	2019-01-05 10:13:09	10:13:09 AM	720502051249320.7055475PLM086	PLM086
	7075	7799008722177		1	1	72050205	2019-01-05 10:13:13	10:13:13 AM	720502051249320.7055475PLM086	PLM086
	7075	7799008711218		1	1	72050205	2019-01-05 10:13:28	10:13:28 AM	720502051249320.7055475PLM086	PLM086
	7075	7799008576794		1	1	72050205	2019-01-05 10:13:43	10:13:43 AM	720502051249320.7055475PLM086	PLM086
	7075	7799008576794		1	1	72050205	2019-01-05 10:13:46	10:13:46 AM	720502051249320.7055475PLM086	PLM086
	7075	7799008576794		1	1	72050205	2019-01-05 10:13:57	10:13:57 AM	720502051249320.7055475PLM086	PLM086
	7075	7799008576794		1	1	72050205	2019-01-05 10:14:08	10:14:08 AM	720502051249320.7055475PLM086	PLM086
	7075	7799008576794		1	1	72050205	2019-01-05 10:14:19	10:14:19 AM	720502051249320.7055475PLM086	PLM086
	7076	7799008721798		1	1	72050205	2019-01-05 10:17:30	10:17:30 AM	720502051249320.7055475PLM086	PLM086
	7076	7799008726380		1	1	72050205	2019-01-05 10:17:44	10:17:44 AM	720502051249320.7055475PLM086	PLM086
	7076	7799008726380		1	1	72050205	2019-01-05 10:17:49	10:17:49 AM	720502051249320.7055475PLM086	PLM086
	7076	7799008722818		1	1	72050205	2019-01-05 10:18:00	10:18:00 AM	720502051249320.7055475PLM086	PLM086
	7076	7799008605807		1	1	72050205	2019-01-05 10:18:18	10:18:18 AM	720502051249320.7055475PLM086	PLM086
	7076	7799008605807		1	1	72050205	2019-01-05 10:18:30	10:18:30 AM	720502051249320.7055475PLM086	PLM086
	7076	7799008511061		1	1	72050205	2019-01-05 10:18:40	10:18:40 AM	720502051249320.7055475PLM086	PLM086
	7076	7799008511061		1	1	72050205	2019-01-05 10:18:45	10:18:45 AM	720502051249320.7055475PLM086	PLM086
	7076	7799008511061		1	1	72050205	2019-01-05 10:18:49	10:18:49 AM	720502051249320.7055475PLM086	PLM086
	7076	7799008511061		1	1	72050205	2019-01-05 10:18:56	10:18:56 AM	720502051249320.7055475PLM086	PLM086
	7076	7799008605760		1	1	72050205	2019-01-05 10:19:21	10:19:21 AM	720502051249320.7055475PLM086	PLM086
	7076	7799008605760		1	1	72050205	2019-01-05 10:19:23	10:19:23 AM	720502051249320.7055475PLM086	PLM086
	7076	7799008708911		1	1	72050205	2019-01-05 10:19:33	10:19:33 AM	720502051249320.7055475PLM086	PLM086
	7076	7799008608228		1	1	72050205	2019-01-05 10:19:42	10:19:42 AM	720502051249320.7055475PLM086	PLM086
	7076	7799008608228		1	1	72050205	2019-01-05 10:19:48	10:19:48 AM	720502051249320.7055475PLM086	PLM086
	7076	7799008608228		1	1	72050205	2019-01-05 10:19:55	10:19:55 AM	720502051249320.7055475PLM086	PLM086
	7076	7799008708911		1	1	72050205	2019-01-05 10:20:06	10:20:06 AM	720502051249320.7055475PLM086	PLM086
	7076	7799008709321		1	1	72050205	2019-01-05 10:20:59	10:20:59 AM	720502051249320.7055475PLM086	PLM086
	7076	7799008709321		1	1	72050205	2019-01-05 10:21:00	10:21:00 AM	720502051249320.7055475PLM086	PLM086
	7076	7799008709321		1	1	72050205	2019-01-05 10:21:07	10:21:07 AM	720502051249320.7055475PLM086	PLM086
	7076	7799008722849		1	1	72050205	2019-01-05 10:21:11	10:21:11 AM	720502051249320.7055475PLM086	PLM086
	7076	7799008722788		1	1	72050205	2019-01-05 10:21:15	10:21:15 AM	720502051249320.7055475PLM086	PLM086
	7076	7799008726502		1	1	72050205	2019-01-05 10:21:22	10:21:22 AM	720502051249320.7055475PLM086	PLM086
	7076	7799008726502		1	1	72050205	2019-01-05 10:21:29	10:21:29 AM	720502051249320.7055475PLM086	PLM086
	7076	7799008721644		1	1	72050205	2019-01-05 10:21:41	10:21:41 AM	720502051249320.7055475PLM086	PLM086
	7076	7799008721644		1	1	72050205	2019-01-05 10:21:49	10:21:49 AM	720502051249320.7055475PLM086	PLM086
	7076	7799008721644		1	1	72050205	2019-01-05 10:22:01	10:22:01 AM	720502051249320.7055475PLM086	PLM086
	7076	7799008725802		1	1	72050205	2019-01-05 10:22:07	10:22:07 AM	720502051249320.7055475PLM086	PLM086
	7076	7799008722818		1	1	72050205	2019-01-05 10:22:16	10:22:16 AM	720502051249320.7055475PLM086	PLM086
	7076	7799008722818		1	1	72050205	2019-01-05 10:22:20	10:22:20 AM	720502051249320.7055475PLM086	PLM086
	7076	7799008667898		1	1	72050205	2019-01-05 10:22:28	10:22:28 AM	720502051249320.7055475PLM086	PLM086
	7076	7799008732046		1	1	72050205	2019-01-05 10:22:32	10:22:32 AM	720502051249320.7055475PLM086	PLM086
	7076	7799008576886		1	1	72050205	2019-01-05 10:22:38	10:22:38 AM	720502051249320.7055475PLM086	PLM086
	7076	7799008667638		1	1	72050205	2019-01-05 10:22:45	10:22:45 AM	720502051249320.7055475PLM086	PLM086
	7076	7799008667638		1	1	72050205	2019-01-05 10:22:57	10:22:57 AM	720502051249320.7055475PLM086	PLM086
	7076	7799008710679		1	1	72050205	2019-01-05 10:23:03	10:23:03 AM	720502051249320.7055475PLM086	PLM086
	7076	7799008722047		1	1	72050205	2019-01-05 10:23:10	10:23:10 AM	720502051249320.7055475PLM086	PLM086
	7076	7799008726335		1	1	72050205	2019-01-05 10:23:17	10:23:17 AM	720502051249320.7055475PLM086	PLM086
	7077	7799008576824		1	1	72050205	2019-01-05 10:27:14	10:27:14 AM	720502051249320.7055475PLM086	PLM086
	7077	7799008576824		1	1	72050205	2019-01-05 10:27:26	10:27:26 AM	720502051249320.7055475PLM086	PLM086
	7077	7799008576824		1	1	72050205	2019-01-05 10:27:35	10:27:35 AM	720502051249320.7055475PLM086	PLM086
	7077	7799008576824		1	1	72050205	2019-01-05 10:27:42	10:27:42 AM	720502051249320.7055475PLM086	PLM086
	7077	7799008576824		1	1	72050205	2019-01-05 10:27:52	10:27:52 AM	720502051249320.7055475PLM086	PLM086
	7077	7799008576824		1	1	72050205	2019-01-05 10:27:58	10:27:58 AM	720502051249320.7055475PLM086	PLM086
	7077	7799008577227		1	1	72050205	2019-01-05 10:28:04	10:28:04 AM	720502051249320.7055475PLM086	PLM086
	7077	7799008577227		1	1	72050205	2019-01-05 10:28:09	10:28:09 AM	720502051249320.7055475PLM086	PLM086
	7077	7799008577227		1	1	72050205	2019-01-05 10:28:14	10:28:14 AM	720502051249320.7055475PLM086	PLM086
	7077	7799008577227		1	1	72050205	2019-01-05 10:28:22	10:28:22 AM	720502051249320.7055475PLM086	PLM086
	7077	7799008577227		1	1	72050205	2019-01-05 10:28:26	10:28:26 AM	720502051249320.7055475PLM086	PLM086
	7077	7799008577227		1	1	72050205	2019-01-05 10:28:30	10:28:30 AM	720502051249320.7055475PLM086	PLM086
	7077	7799008726557		1	1	72050205	2019-01-05 10:28:42	10:28:42 AM	720502051249320.7055475PLM086	PLM086
	7077	7799008669250		1	1	72050205	2019-01-05 10:28:50	10:28:50 AM	720502051249320.7055475PLM086	PLM086
	7077	7799008669250		1	1	72050205	2019-01-05 10:28:58	10:28:58 AM	720502051249320.7055475PLM086	PLM086
	7077	7799008722207		1	1	72050205	2019-01-05 10:29:14	10:29:14 AM	720502051249320.7055475PLM086	PLM086
	7077	7799008722207		1	1	72050205	2019-01-05 10:29:24	10:29:24 AM	720502051249320.7055475PLM086	PLM086
	7077	7799008722207		1	1	72050205	2019-01-05 10:29:32	10:29:32 AM	720502051249320.7055475PLM086	PLM086
	7077	7799008722207		1	1	72050205	2019-01-05 10:29:39	10:29:39 AM	720502051249320.7055475PLM086	PLM086
	7077	7799008576824		1	1	72050205	2019-01-05 10:29:47	10:29:47 AM	720502051249320.7055475PLM086	PLM086
	7077	7799008576824		1	1	72050205	2019-01-05 10:29:50	10:29:50 AM	720502051249320.7055475PLM086	PLM086
	7077	7799008576824		1	1	72050205	2019-01-05 10:29:55	10:29:55 AM	720502051249320.7055475PLM086	PLM086
	7077	7799008726557		1	1	72050205	2019-01-05 10:30:04	10:30:04 AM	720502051249320.7055475PLM086	PLM086
	7077	7799008726557		1	1	72050205	2019-01-05 10:30:10	10:30:10 AM	720502051249320.7055475PLM086	PLM086
	7077	7799008726496		1	1	72050205	2019-01-05 10:30:36	10:30:36 AM	720502051249320.7055475PLM086	PLM086
	7077	7799008726496		1	1	72050205	2019-01-05 10:30:44	10:30:44 AM	720502051249320.7055475PLM086	PLM086
	7077	7799008726496		1	1	72050205	2019-01-05 10:30:54	10:30:54 AM	720502051249320.7055475PLM086	PLM086
	7077	7799008726496		1	1	72050205	2019-01-05 10:31:00	10:31:00 AM	720502051249320.7055475PLM086	PLM086
	7077	7799008726496		1	1	72050205	2019-01-05 10:31:05	10:31:05 AM	720502051249320.7055475PLM086	PLM086
	7077	7799008726496		1	1	72050205	2019-01-05 10:31:14	10:31:14 AM	720502051249320.7055475PLM086	PLM086
	7077	7799008726496		1	1	72050205	2019-01-05 10:31:24	10:31:24 AM	720502051249320.7055475PLM086	PLM086
	7077	7799008726496		1	1	72050205	2019-01-05 10:31:32	10:31:32 AM	720502051249320.7055475PLM086	PLM086
	7077	7799008726496		1	1	72050205	2019-01-05 10:31:38	10:31:38 AM	720502051249320.7055475PLM086	PLM086
	7077	7799008726496		1	1	72050205	2019-01-05 10:31:42	10:31:42 AM	720502051249320.7055475PLM086	PLM086
	7077	7799008726496		1	1	72050205	2019-01-05 10:31:46	10:31:46 AM	720502051249320.7055475PLM086	PLM086
	7077	7799008726496		1	1	72050205	2019-01-05 10:31:53	10:31:53 AM	720502051249320.7055475PLM086	PLM086
	7077	7799008726496		1	1	72050205	2019-01-05 10:31:59	10:31:59 AM	720502051249320.7055475PLM086	PLM086
	7077	7799008726496		1	1	72050205	2019-01-05 10:32:06	10:32:06 AM	720502051249320.7055475PLM086	PLM086
	7078	7799008726298		1	1	72050205	2019-01-05 10:35:07	10:35:07 AM	720502051249320.7055475PLM086	PLM086
	7078	7799008726298		1	1	72050205	2019-01-05 10:35:11	10:35:11 AM	720502051249320.7055475PLM086	PLM086
	7078	7799008726298		1	1	72050205	2019-01-05 10:35:17	10:35:17 AM	720502051249320.7055475PLM086	PLM086
	7078	7799008726298		1	1	72050205	2019-01-05 10:35:24	10:35:24 AM	720502051249320.7055475PLM086	PLM086
	7078	7799008726298		1	1	72050205	2019-01-05 10:35:38	10:35:38 AM	720502051249320.7055475PLM086	PLM086
	7078	7799008726298		1	1	72050205	2019-01-05 10:35:48	10:35:48 AM	720502051249320.7055475PLM086	PLM086
	7078	7799008726298		1	1	72050205	2019-01-05 10:35:58	10:35:58 AM	720502051249320.7055475PLM086	PLM086
	7078	7799008726298		1	1	72050205	2019-01-05 10:36:06	10:36:06 AM	720502051249320.7055475PLM086	PLM086
	7078	7799008726298		1	1	72050205	2019-01-05 10:36:16	10:36:16 AM	720502051249320.7055475PLM086	PLM086
	7078	7799008726298		1	1	72050205	2019-01-05 10:36:39	10:36:39 AM	720502051249320.7055475PLM086	PLM086
	7078	7799008726298		1	1	72050205	2019-01-05 10:36:46	10:36:46 AM	720502051249320.7055475PLM086	PLM086
	7078	7799008726298		1	1	72050205	2019-01-05 10:36:55	10:36:55 AM	720502051249320.7055475PLM086	PLM086
	7078	7799008726298		1	1	72050205	2019-01-05 10:37:03	10:37:03 AM	720502051249320.7055475PLM086	PLM086
	7078	7799008726298		1	1	72050205	2019-01-05 10:37:11	10:37:11 AM	720502051249320.7055475PLM086	PLM086
	7078	7799008726298		1	1	72050205	2019-01-05 10:37:22	10:37:22 AM	720502051249320.7055475PLM086	PLM086
	7078	7799008726328		1	1	72050205	2019-01-05 10:37:39	10:37:39 AM	720502051249320.7055475PLM086	PLM086
	7078	7799008726328		1	1	72050205	2019-01-05 10:37:43	10:37:43 AM	720502051249320.7055475PLM086	PLM086
	7078	7799008726328		1	1	72050205	2019-01-05 10:37:48	10:37:48 AM	720502051249320.7055475PLM086	PLM086
	7078	7799008726328		1	1	72050205	2019-01-05 10:37:56	10:37:56 AM	720502051249320.7055475PLM086	PLM086
	7078	7799008726328		1	1	72050205	2019-01-05 10:38:05	10:38:05 AM	720502051249320.7055475PLM086	PLM086
	7078	7799008726328		1	1	72050205	2019-01-05 10:38:19	10:38:19 AM	720502051249320.7055475PLM086	PLM086
	7078	7799008726311		1	1	72050205	2019-01-05 10:38:32	10:38:32 AM	720502051249320.7055475PLM086	PLM086
	7078	7799008726311		1	1	72050205	2019-01-05 10:38:39	10:38:39 AM	720502051249320.7055475PLM086	PLM086
	7078	7799008726328		1	1	72050205	2019-01-05 10:38:49	10:38:49 AM	720502051249320.7055475PLM086	PLM086
	7078	7799008726328		1	1	72050205	2019-01-05 10:38:55	10:38:55 AM	720502051249320.7055475PLM086	PLM086
	7078	7799008726328		1	1	72050205	2019-01-05 10:39:02	10:39:02 AM	720502051249320.7055475PLM086	PLM086
	7078	7799008726328		1	1	72050205	2019-01-05 10:39:18	10:39:18 AM	720502051249320.7055475PLM086	PLM086
	7078	7799008726328		1	1	72050205	2019-01-05 10:39:23	10:39:23 AM	720502051249320.7055475PLM086	PLM086
	7078	7799008726328		1	1	72050205	2019-01-05 10:39:29	10:39:29 AM	720502051249320.7055475PLM086	PLM086
	7074	43138409		1	1	72050205	2019-01-05 10:54:35	10:54:35 AM	720502051249320.7055475PLM086	PLM086
	7074	7799008542584		1	1	72050205	2019-01-05 10:54:45	10:54:45 AM	720502051249320.7055475PLM086	PLM086
	7074	7799008691978		1	1	72050205	2019-01-05 10:54:53	10:54:53 AM	720502051249320.7055475PLM086	PLM086
	7074	7799008691961		1	1	72050205	2019-01-05 10:55:00	10:55:00 AM	720502051249320.7055475PLM086	PLM086
	7074	7799008795249		1	1	72050205	2019-01-05 10:55:09	10:55:09 AM	720502051249320.7055475PLM086	PLM086
	7074	7799008542577		1	1	72050205	2019-01-05 10:55:16	10:55:16 AM	720502051249320.7055475PLM086	PLM086
	7074	7799008795232		1	1	72050205	2019-01-05 10:55:24	10:55:24 AM	720502051249320.7055475PLM086	PLM086
	7074	7799008691985		1	1	72050205	2019-01-05 10:55:37	10:55:37 AM	720502051249320.7055475PLM086	PLM086
	7074	7799008542577		1	1	72050205	2019-01-05 10:55:46	10:55:46 AM	720502051249320.7055475PLM086	PLM086
	7074	7799008542577		1	1	72050205	2019-01-05 10:55:56	10:55:56 AM	720502051249320.7055475PLM086	PLM086
	7074	7799008691978		1	1	72050205	2019-01-05 10:56:08	10:56:08 AM	720502051249320.7055475PLM086	PLM086
	7074	7799008691978		1	1	72050205	2019-01-05 10:56:21	10:56:21 AM	720502051249320.7055475PLM086	PLM086
	7074	7799008794839		1	1	72050205	2019-01-05 10:56:27	10:56:27 AM	720502051249320.7055475PLM086	PLM086
	7074	7799008794839		1	1	72050205	2019-01-05 10:56:31	10:56:31 AM	720502051249320.7055475PLM086	PLM086
	7074	7799008691961		1	1	72050205	2019-01-05 10:56:38	10:56:38 AM	720502051249320.7055475PLM086	PLM086
	7074	7799008794839		1	1	72050205	2019-01-05 10:56:46	10:56:46 AM	720502051249320.7055475PLM086	PLM086
	7074	7799008842189		1	1	72050205	2019-01-05 10:56:52	10:56:52 AM	720502051249320.7055475PLM086	PLM086
	7074	7799008691961		1	1	72050205	2019-01-05 10:57:01	10:57:01 AM	720502051249320.7055475PLM086	PLM086
	7074	7799008691985		1	1	72050205	2019-01-05 10:57:09	10:57:09 AM	720502051249320.7055475PLM086	PLM086
	7074	7799008795249		1	1	72050205	2019-01-05 10:57:21	10:57:21 AM	720502051249320.7055475PLM086	PLM086
	7074	7799008795737		1	1	72050205	2019-01-05 10:57:30	10:57:30 AM	720502051249320.7055475PLM086	PLM086
	7074	7799008795737		1	1	72050205	2019-01-05 10:57:38	10:57:38 AM	720502051249320.7055475PLM086	PLM086
	7074	7799008795751		1	1	72050205	2019-01-05 10:57:45	10:57:45 AM	720502051249320.7055475PLM086	PLM086
	7074	7799008795751		1	1	72050205	2019-01-05 10:57:52	10:57:52 AM	720502051249320.7055475PLM086	PLM086
	7074	7799008795751		1	1	72050205	2019-01-05 10:57:59	10:57:59 AM	720502051249320.7055475PLM086	PLM086
	7074	7799008795744		1	1	72050205	2019-01-05 10:58:06	10:58:06 AM	720502051249320.7055475PLM086	PLM086
	7074	7799008795744		1	1	72050205	2019-01-05 10:58:13	10:58:13 AM	720502051249320.7055475PLM086	PLM086
	7074	7799008795744		1	1	72050205	2019-01-05 10:58:21	10:58:21 AM	720502051249320.7055475PLM086	PLM086
	7074	7799008795744		1	1	72050205	2019-01-05 10:58:28	10:58:28 AM	720502051249320.7055475PLM086	PLM086
	7074	7799008691961		1	1	72050205	2019-01-05 10:58:36	10:58:36 AM	720502051249320.7055475PLM086	PLM086
	7074	7799008842189		1	1	72050205	2019-01-05 10:58:47	10:58:47 AM	720502051249320.7055475PLM086	PLM086
	7074	7799008842189		1	1	72050205	2019-01-05 10:58:53	10:58:53 AM	720502051249320.7055475PLM086	PLM086
	7074	7799008691992		1	1	72050205	2019-01-05 10:58:58	10:58:58 AM	720502051249320.7055475PLM086	PLM086
	7074	7799008691992		1	1	72050205	2019-01-05 10:59:07	10:59:07 AM	720502051249320.7055475PLM086	PLM086
	7074	7799008842318		1	1	72050205	2019-01-05 10:59:16	10:59:16 AM	720502051249320.7055475PLM086	PLM086
	7074	7799008842318		1	1	72050205	2019-01-05 10:59:23	10:59:23 AM	720502051249320.7055475PLM086	PLM086
	7073	7799008723211		1	1	72050205	2019-01-05 11:04:01	11:04:01 AM	720502051249320.7055475PLM086	PLM086
	7073	7799008843353		1	1	72050205	2019-01-05 11:04:09	11:04:09 AM	720502051249320.7055475PLM086	PLM086
	7073	7799008843339		1	1	72050205	2019-01-05 11:04:17	11:04:17 AM	720502051249320.7055475PLM086	PLM086
	7073	7799008843414		1	1	72050205	2019-01-05 11:04:28	11:04:28 AM	720502051249320.7055475PLM086	PLM086
	7073	7799008843339		1	1	72050205	2019-01-05 11:04:41	11:04:41 AM	720502051249320.7055475PLM086	PLM086
	7073	7799008843322		1	1	72050205	2019-01-05 11:04:52	11:04:52 AM	720502051249320.7055475PLM086	PLM086
	7073	42300201		1	1	72050205	2019-01-05 11:05:04	11:05:04 AM	720502051249320.7055475PLM086	PLM086
	7073	7799008777603		1	1	72050205	2019-01-05 11:05:16	11:05:16 AM	720502051249320.7055475PLM086	PLM086
	7073	7799008691534		1	1	72050205	2019-01-05 11:05:25	11:05:25 AM	720502051249320.7055475PLM086	PLM086
	7073	7799008843346		1	1	72050205	2019-01-05 11:05:34	11:05:34 AM	720502051249320.7055475PLM086	PLM086
	7073	7799008843445		1	1	72050205	2019-01-05 11:05:42	11:05:42 AM	720502051249320.7055475PLM086	PLM086
	7073	7799008795775		1	1	72050205	2019-01-05 11:05:59	11:05:59 AM	720502051249320.7055475PLM086	PLM086
	7073	7799008692265		1	1	72050205	2019-01-05 11:06:07	11:06:07 AM	720502051249320.7055475PLM086	PLM086
	7073	7799008692265		1	1	72050205	2019-01-05 11:06:13	11:06:13 AM	720502051249320.7055475PLM086	PLM086
	7073	7799008777603		1	1	72050205	2019-01-05 11:06:25	11:06:25 AM	720502051249320.7055475PLM086	PLM086
	7073	7799008842165		1	1	72050205	2019-01-05 11:06:37	11:06:37 AM	720502051249320.7055475PLM086	PLM086
	7073	7799008692265		1	1	72050205	2019-01-05 11:06:44	11:06:44 AM	720502051249320.7055475PLM086	PLM086
	7073	7799008622194		1	1	72050205	2019-01-05 11:06:53	11:06:53 AM	720502051249320.7055475PLM086	PLM086
	7073	7799008691534		1	1	72050205	2019-01-05 11:07:04	11:07:04 AM	720502051249320.7055475PLM086	PLM086
	7073	7799008723181		1	1	72050205	2019-01-05 11:07:14	11:07:14 AM	720502051249320.7055475PLM086	PLM086
	7073	7799008723181		1	1	72050205	2019-01-05 11:07:19	11:07:19 AM	720502051249320.7055475PLM086	PLM086
	7073	7799008777597		1	1	72050205	2019-01-05 11:07:31	11:07:31 AM	720502051249320.7055475PLM086	PLM086
	7073	7799008795485		1	1	72050205	2019-01-05 11:07:43	11:07:43 AM	720502051249320.7055475PLM086	PLM086
	7073	7799008795140		1	1	72050205	2019-01-05 11:08:04	11:08:04 AM	720502051249320.7055475PLM086	PLM086
	7073	7799008689678		1	1	72050205	2019-01-05 11:08:25	11:08:25 AM	720502051249320.7055475PLM086	PLM086
	7073	7799008689661		1	1	72050205	2019-01-05 11:08:32	11:08:32 AM	720502051249320.7055475PLM086	PLM086
	7073	7799008842110		1	1	72050205	2019-01-05 11:08:42	11:08:42 AM	720502051249320.7055475PLM086	PLM086
	7073	7799008843186		1	1	72050205	2019-01-05 11:08:49	11:08:49 AM	720502051249320.7055475PLM086	PLM086
	7073	7799008843476		1	1	72050205	2019-01-05 11:09:00	11:09:00 AM	720502051249320.7055475PLM086	PLM086
	7073	7799008689654		1	1	72050205	2019-01-05 11:09:05	11:09:05 AM	720502051249320.7055475PLM086	PLM086
	7073	7799008689661		1	1	72050205	2019-01-05 11:09:19	11:09:19 AM	720502051249320.7055475PLM086	PLM086
	7073	7799008689678		1	1	72050205	2019-01-05 11:09:26	11:09:26 AM	720502051249320.7055475PLM086	PLM086
	7073	7799008843513		1	1	72050205	2019-01-05 11:09:32	11:09:32 AM	720502051249320.7055475PLM086	PLM086
	7073	7799008843513		1	1	72050205	2019-01-05 11:09:37	11:09:37 AM	720502051249320.7055475PLM086	PLM086
	7073	7799008689654		1	1	72050205	2019-01-05 11:09:43	11:09:43 AM	720502051249320.7055475PLM086	PLM086
	7073	7799008795065		1	1	72050205	2019-01-05 11:09:50	11:09:50 AM	720502051249320.7055475PLM086	PLM086
	7073	7799008692265		1	1	72050205	2019-01-05 11:10:03	11:10:03 AM	720502051249320.7055475PLM086	PLM086
	7073	7799008692265		1	1	72050205	2019-01-05 11:10:10	11:10:10 AM	720502051249320.7055475PLM086	PLM086
	7073	7799008777597		1	1	72050205	2019-01-05 11:10:19	11:10:19 AM	720502051249320.7055475PLM086	PLM086
	7073	7799008689678		1	1	72050205	2019-01-05 11:10:29	11:10:29 AM	720502051249320.7055475PLM086	PLM086
	7073	7799008842110		1	1	72050205	2019-01-05 11:10:38	11:10:38 AM	720502051249320.7055475PLM086	PLM086
	7073	7799008689661		1	1	72050205	2019-01-05 11:10:46	11:10:46 AM	720502051249320.7055475PLM086	PLM086
	7073	7799008689661		1	1	72050205	2019-01-05 11:10:51	11:10:51 AM	720502051249320.7055475PLM086	PLM086
	7073	7799008689661		1	1	72050205	2019-01-05 11:10:56	11:10:56 AM	720502051249320.7055475PLM086	PLM086
	7073	7799008843230		1	1	72050205	2019-01-05 11:11:03	11:11:03 AM	720502051249320.7055475PLM086	PLM086
	7073	7799008843476		1	1	72050205	2019-01-05 11:11:22	11:11:22 AM	720502051249320.7055475PLM086	PLM086
	7073	7799008843230		1	1	72050205	2019-01-05 11:11:30	11:11:30 AM	720502051249320.7055475PLM086	PLM086
	7073	7799008843513		1	1	72050205	2019-01-05 11:11:40	11:11:40 AM	720502051249320.7055475PLM086	PLM086
	7073	7799008689654		1	1	72050205	2019-01-05 11:12:23	11:12:23 AM	720502051249320.7055475PLM086	PLM086
	7073	7799008842110		1	1	72050205	2019-01-05 11:12:30	11:12:30 AM	720502051249320.7055475PLM086	PLM086
	7073	7799008843513		1	1	72050205	2019-01-05 11:12:37	11:12:37 AM	720502051249320.7055475PLM086	PLM086
	7073	7799008843483		1	1	72050205	2019-01-05 11:12:48	11:12:48 AM	720502051249320.7055475PLM086	PLM086
	7073	7799008794822		1	1	72050205	2019-01-05 11:12:56	11:12:56 AM	720502051249320.7055475PLM086	PLM086
	7073	7799008843421		1	1	72050205	2019-01-05 11:13:00	11:13:00 AM	720502051249320.7055475PLM086	PLM086
	7073	7799008842899		1	1	72050205	2019-01-05 11:13:07	11:13:07 AM	720502051249320.7055475PLM086	PLM086
	7072	43196101		1	1	72050205	2019-01-05 11:20:34	11:20:34 AM	720502051249320.7055475PLM086	PLM086
	7072	7799008709338		1	1	72050205	2019-01-05 11:20:45	11:20:45 AM	720502051249320.7055475PLM086	PLM086
	7072	7799008711232		1	1	72050205	2019-01-05 11:20:50	11:20:50 AM	720502051249320.7055475PLM086	PLM086
	7072	7799008711232		1	1	72050205	2019-01-05 11:20:57	11:20:57 AM	720502051249320.7055475PLM086	PLM086
	7072	7799008709338		1	1	72050205	2019-01-05 11:21:09	11:21:09 AM	720502051249320.7055475PLM086	PLM086
	7072	7799008726366		1	1	72050205	2019-01-05 11:21:17	11:21:17 AM	720502051249320.7055475PLM086	PLM086
	7072	7799008726366		1	1	72050205	2019-01-05 11:21:32	11:21:32 AM	720502051249320.7055475PLM086	PLM086
	7072	7799008710549		1	1	72050205	2019-01-05 11:22:04	11:22:04 AM	720502051249320.7055475PLM086	PLM086
	7072	7799008710549		1	1	72050205	2019-01-05 11:22:10	11:22:10 AM	720502051249320.7055475PLM086	PLM086
	7072	7799008710549		1	1	72050205	2019-01-05 11:22:13	11:22:13 AM	720502051249320.7055475PLM086	PLM086
	7072	7799008732046		1	1	72050205	2019-01-05 11:22:20	11:22:20 AM	720502051249320.7055475PLM086	PLM086
	7072	43196201		1	1	72050205	2019-01-05 11:22:46	11:22:46 AM	720502051249320.7055475PLM086	PLM086
	7072	7799008732046		1	1	72050205	2019-01-05 11:22:54	11:22:54 AM	720502051249320.7055475PLM086	PLM086
	7072	43185301		1	1	72050205	2019-01-05 11:23:07	11:23:07 AM	720502051249320.7055475PLM086	PLM086
	7072	7799008711232		1	1	72050205	2019-01-05 11:23:18	11:23:18 AM	720502051249320.7055475PLM086	PLM086
	7072	7799008711232		1	1	72050205	2019-01-05 11:23:22	11:23:22 AM	720502051249320.7055475PLM086	PLM086
	7072	7799008666983		1	1	72050205	2019-01-05 11:23:34	11:23:34 AM	720502051249320.7055475PLM086	PLM086
	7072	7799008666983		1	1	72050205	2019-01-05 11:23:42	11:23:42 AM	720502051249320.7055475PLM086	PLM086
	7072	7799008666983		1	1	72050205	2019-01-05 11:23:51	11:23:51 AM	720502051249320.7055475PLM086	PLM086
	7072	7799008666983		1	1	72050205	2019-01-05 11:23:58	11:23:58 AM	720502051249320.7055475PLM086	PLM086
	7072	7799008667638		1	1	72050205	2019-01-05 11:24:04	11:24:04 AM	720502051249320.7055475PLM086	PLM086
	7072	43195501		1	1	72050205	2019-01-05 11:24:25	11:24:25 AM	720502051249320.7055475PLM086	PLM086
	7072	7799008722054		1	1	72050205	2019-01-05 11:24:44	11:24:44 AM	720502051249320.7055475PLM086	PLM086
	7072	7799008722054		1	1	72050205	2019-01-05 11:24:51	11:24:51 AM	720502051249320.7055475PLM086	PLM086
	7072	43184305		1	1	72050205	2019-01-05 11:25:19	11:25:19 AM	720502051249320.7055475PLM086	PLM086
	7072	7799008726380		1	1	72050205	2019-01-05 11:25:33	11:25:33 AM	720502051249320.7055475PLM086	PLM086
	7072	7799008726380		1	1	72050205	2019-01-05 11:25:40	11:25:40 AM	720502051249320.7055475PLM086	PLM086
	7072	7799008726380		1	1	72050205	2019-01-05 11:25:43	11:25:43 AM	720502051249320.7055475PLM086	PLM086
	7072	7799008726380		1	1	72050205	2019-01-05 11:26:05	11:26:05 AM	720502051249320.7055475PLM086	PLM086
	7072	7799008726380		1	1	72050205	2019-01-05 11:26:10	11:26:10 AM	720502051249320.7055475PLM086	PLM086
	7072	7799008726380		1	1	72050205	2019-01-05 11:26:17	11:26:17 AM	720502051249320.7055475PLM086	PLM086
	7072	7799008726380		1	1	72050205	2019-01-05 11:26:26	11:26:26 AM	720502051249320.7055475PLM086	PLM086
	7072	7799008726359		1	1	72050205	2019-01-05 11:26:38	11:26:38 AM	720502051249320.7055475PLM086	PLM086
	7072	7799008726359		1	1	72050205	2019-01-05 11:26:43	11:26:43 AM	720502051249320.7055475PLM086	PLM086
	7072	7799008726359		1	1	72050205	2019-01-05 11:26:59	11:26:59 AM	720502051249320.7055475PLM086	PLM086
	7072	7799008726359		1	1	72050205	2019-01-05 11:27:05	11:27:05 AM	720502051249320.7055475PLM086	PLM086
	7072	7799008726359		1	1	72050205	2019-01-05 11:27:12	11:27:12 AM	720502051249320.7055475PLM086	PLM086
	7072	7799008669281		1	1	72050205	2019-01-05 11:27:24	11:27:24 AM	720502051249320.7055475PLM086	PLM086
	7072	7799008708843		1	1	72050205	2019-01-05 11:27:33	11:27:33 AM	720502051249320.7055475PLM086	PLM086
	7072	7799008708843		1	1	72050205	2019-01-05 11:27:38	11:27:38 AM	720502051249320.7055475PLM086	PLM086
	7072	7799008721934		1	1	72050205	2019-01-05 11:27:50	11:27:50 AM	720502051249320.7055475PLM086	PLM086
	7072	7799008576886		1	1	72050205	2019-01-05 11:28:00	11:28:00 AM	720502051249320.7055475PLM086	PLM086
	7072	7799008722368		1	1	72050205	2019-01-05 11:28:08	11:28:08 AM	720502051249320.7055475PLM086	PLM086
	7072	7799008722368		1	1	72050205	2019-01-05 11:28:16	11:28:16 AM	720502051249320.7055475PLM086	PLM086
	7072	7799008669281		1	1	72050205	2019-01-05 11:28:23	11:28:23 AM	720502051249320.7055475PLM086	PLM086
	7072	7799008404219		1	1	72050205	2019-01-05 11:28:33	11:28:33 AM	720502051249320.7055475PLM086	PLM086
	7072	7799008669359		1	1	72050205	2019-01-05 11:28:41	11:28:41 AM	720502051249320.7055475PLM086	PLM086
	7072	7799008721989		1	1	72050205	2019-01-05 11:28:49	11:28:49 AM	720502051249320.7055475PLM086	PLM086
	7072	43184303		1	1	72050205	2019-01-05 11:29:20	11:29:20 AM	720502051249320.7055475PLM086	PLM086
	7072	7799008710556		1	1	72050205	2019-01-05 11:29:38	11:29:38 AM	720502051249320.7055475PLM086	PLM086
	7072	7799008709031		1	1	72050205	2019-01-05 11:29:49	11:29:49 AM	720502051249320.7055475PLM086	PLM086
	7072	7799008721972		1	1	72050205	2019-01-05 11:29:54	11:29:54 AM	720502051249320.7055475PLM086	PLM086
	7072	7799008721965		1	1	72050205	2019-01-05 11:29:59	11:29:59 AM	720502051249320.7055475PLM086	PLM086
	7072	7799008606828		1	1	72050205	2019-01-05 11:30:06	11:30:06 AM	720502051249320.7055475PLM086	PLM086
	7072	7799008709024		1	1	72050205	2019-01-05 11:30:16	11:30:16 AM	720502051249320.7055475PLM086	PLM086
	7072	7799008727240		1	1	72050205	2019-01-05 11:30:23	11:30:23 AM	720502051249320.7055475PLM086	PLM086
	7072	7799008722382		1	1	72050205	2019-01-05 11:30:33	11:30:33 AM	720502051249320.7055475PLM086	PLM086
	7072	7799008576480		1	1	72050205	2019-01-05 11:30:43	11:30:43 AM	720502051249320.7055475PLM086	PLM086
	7072	7799008576480		1	1	72050205	2019-01-05 11:31:00	11:31:00 AM	720502051249320.7055475PLM086	PLM086
	7072	7799008576923		1	1	72050205	2019-01-05 11:31:14	11:31:14 AM	720502051249320.7055475PLM086	PLM086
	7072	7799008576923		1	1	72050205	2019-01-05 11:31:23	11:31:23 AM	720502051249320.7055475PLM086	PLM086
	7072	7799008726380		1	1	72050205	2019-01-05 11:31:36	11:31:36 AM	720502051249320.7055475PLM086	PLM086
	7072	7799008726380		1	1	72050205	2019-01-05 11:31:40	11:31:40 AM	720502051249320.7055475PLM086	PLM086
	7072	7799008710556		1	1	72050205	2019-01-05 11:31:55	11:31:55 AM	720502051249320.7055475PLM086	PLM086
	7072	7799008667447		1	1	72050205	2019-01-05 11:32:07	11:32:07 AM	720502051249320.7055475PLM086	PLM086
	7072	7799008667447		1	1	72050205	2019-01-05 11:32:15	11:32:15 AM	720502051249320.7055475PLM086	PLM086
	7072	7799008722245		1	1	72050205	2019-01-05 11:32:23	11:32:23 AM	720502051249320.7055475PLM086	PLM086
	7072	7799008722245		1	1	72050205	2019-01-05 11:32:27	11:32:27 AM	720502051249320.7055475PLM086	PLM086
	7072	7799008666952		1	1	72050205	2019-01-05 11:33:05	11:33:05 AM	720502051249320.7055475PLM086	PLM086
	7072	7799008666952		1	1	72050205	2019-01-05 11:33:10	11:33:10 AM	720502051249320.7055475PLM086	PLM086
	7072	7799008666952		1	1	72050205	2019-01-05 11:33:16	11:33:16 AM	720502051249320.7055475PLM086	PLM086
	7072	7799008666952		1	1	72050205	2019-01-05 11:33:23	11:33:23 AM	720502051249320.7055475PLM086	PLM086
	7072	7799008605807		1	1	72050205	2019-01-05 11:33:37	11:33:37 AM	720502051249320.7055475PLM086	PLM086
	7072	7799008605807		1	1	72050205	2019-01-05 11:33:47	11:33:47 AM	720502051249320.7055475PLM086	PLM086
	7072	7799008605807		1	1	72050205	2019-01-05 11:34:02	11:34:02 AM	720502051249320.7055475PLM086	PLM086
	7072	7799008605807		1	1	72050205	2019-01-05 11:34:10	11:34:10 AM	720502051249320.7055475PLM086	PLM086
	7072	7799008605807		1	1	72050205	2019-01-05 11:34:15	11:34:15 AM	720502051249320.7055475PLM086	PLM086
	7072	7799008605807		1	1	72050205	2019-01-05 11:34:19	11:34:19 AM	720502051249320.7055475PLM086	PLM086
	7072	7799008726380		1	1	72050205	2019-01-05 11:34:27	11:34:27 AM	720502051249320.7055475PLM086	PLM086
	7072	7799008726380		1	1	72050205	2019-01-05 11:34:29	11:34:29 AM	720502051249320.7055475PLM086	PLM086
	7072	7799008721644		1	1	72050205	2019-01-05 11:34:38	11:34:38 AM	720502051249320.7055475PLM086	PLM086
	7072	7799008721644		1	1	72050205	2019-01-05 11:34:42	11:34:42 AM	720502051249320.7055475PLM086	PLM086
	7072	7799008722047		1	1	72050205	2019-01-05 11:34:50	11:34:50 AM	720502051249320.7055475PLM086	PLM086
	7072	7799008722047		1	1	72050205	2019-01-05 11:35:01	11:35:01 AM	720502051249320.7055475PLM086	PLM086
	7072	7799008667935		1	1	72050205	2019-01-05 11:35:08	11:35:08 AM	720502051249320.7055475PLM086	PLM086
	7072	7799008667935		1	1	72050205	2019-01-05 11:35:13	11:35:13 AM	720502051249320.7055475PLM086	PLM086
	7072	7799008710570		1	1	72050205	2019-01-05 11:35:19	11:35:19 AM	720502051249320.7055475PLM086	PLM086
	7072	7799008667799		1	1	72050205	2019-01-05 11:35:51	11:35:51 AM	720502051249320.7055475PLM086	PLM086
	7072	7799008667799		1	1	72050205	2019-01-05 11:35:59	11:35:59 AM	720502051249320.7055475PLM086	PLM086
	7072	7799008711225		1	1	72050205	2019-01-05 11:36:06	11:36:06 AM	720502051249320.7055475PLM086	PLM086
	7072	7799008725802		1	1	72050205	2019-01-05 11:36:19	11:36:19 AM	720502051249320.7055475PLM086	PLM086
	7072	7799008709338		1	1	72050205	2019-01-05 11:36:37	11:36:37 AM	720502051249320.7055475PLM086	PLM086
	7072	7799008725802		1	1	72050205	2019-01-05 11:36:48	11:36:48 AM	720502051249320.7055475PLM086	PLM086
	7072	7799008725802		1	1	72050205	2019-01-05 11:36:59	11:36:59 AM	720502051249320.7055475PLM086	PLM086
	7072	7799008725802		1	1	72050205	2019-01-05 11:37:14	11:37:14 AM	720502051249320.7055475PLM086	PLM086
	7072	7799008725802		1	1	72050205	2019-01-05 11:37:21	11:37:21 AM	720502051249320.7055475PLM086	PLM086
	7072	7799008667416		1	1	72050205	2019-01-05 11:37:30	11:37:30 AM	720502051249320.7055475PLM086	PLM086
	7072	7799008667416		1	1	72050205	2019-01-05 11:37:35	11:37:35 AM	720502051249320.7055475PLM086	PLM086
	7072	7799008666945		1	1	72050205	2019-01-05 11:37:42	11:37:42 AM	720502051249320.7055475PLM086	PLM086
	7072	7799008666945		1	1	72050205	2019-01-05 11:37:51	11:37:51 AM	720502051249320.7055475PLM086	PLM086
	7072	7799008666945		1	1	72050205	2019-01-05 11:37:58	11:37:58 AM	720502051249320.7055475PLM086	PLM086
	7072	7799008710570		1	1	72050205	2019-01-05 11:38:05	11:38:05 AM	720502051249320.7055475PLM086	PLM086
	7072	7799008722177		1	1	72050205	2019-01-05 11:38:10	11:38:10 AM	720502051249320.7055475PLM086	PLM086
	7072	7799008667997		1	1	72050205	2019-01-05 11:38:14	11:38:14 AM	720502051249320.7055475PLM086	PLM086
	7072	7799008710433		1	1	72050205	2019-01-05 11:38:17	11:38:17 AM	720502051249320.7055475PLM086	PLM086
	7072	7799008710433		1	1	72050205	2019-01-05 11:38:22	11:38:22 AM	720502051249320.7055475PLM086	PLM086
	7072	7799008710433		1	1	72050205	2019-01-05 11:38:27	11:38:27 AM	720502051249320.7055475PLM086	PLM086
	7072	7799008711218		1	1	72050205	2019-01-05 11:38:38	11:38:38 AM	720502051249320.7055475PLM086	PLM086
	7072	7799008711218		1	1	72050205	2019-01-05 11:38:45	11:38:45 AM	720502051249320.7055475PLM086	PLM086
	7072	7799008667607		1	1	72050205	2019-01-05 11:38:52	11:38:52 AM	720502051249320.7055475PLM086	PLM086
	7072	7799008666891		1	1	72050205	2019-01-05 11:39:01	11:39:01 AM	720502051249320.7055475PLM086	PLM086
	7072	7799008732008		1	1	72050205	2019-01-05 11:39:04	11:39:04 AM	720502051249320.7055475PLM086	PLM086
	7072	7799008711225		1	1	72050205	2019-01-05 11:41:17	11:41:17 AM	720502051249320.7055475PLM086	PLM086
	7072	7799008726373		1	1	72050205	2019-01-05 11:41:56	11:41:56 AM	720502051249320.7055475PLM086	PLM086
	7072	7799008726373		1	1	72050205	2019-01-05 11:42:05	11:42:05 AM	720502051249320.7055475PLM086	PLM086
	7072	7799008726373		1	1	72050205	2019-01-05 11:42:11	11:42:11 AM	720502051249320.7055475PLM086	PLM086
	7072	7799008726373		1	1	72050205	2019-01-05 11:42:18	11:42:18 AM	720502051249320.7055475PLM086	PLM086
	7072	7799008710532		1	1	72050205	2019-01-05 11:42:36	11:42:36 AM	720502051249320.7055475PLM086	PLM086
	7072	7799008726342		1	1	72050205	2019-01-05 11:42:49	11:42:49 AM	720502051249320.7055475PLM086	PLM086
	7072	7799008726342		1	1	72050205	2019-01-05 11:43:02	11:43:02 AM	720502051249320.7055475PLM086	PLM086
	7072	7799008726342		1	1	72050205	2019-01-05 11:43:04	11:43:04 AM	720502051249320.7055475PLM086	PLM086
	7072	7799008726342		1	1	72050205	2019-01-05 11:43:09	11:43:09 AM	720502051249320.7055475PLM086	PLM086
	7072	7799008726342		1	1	72050205	2019-01-05 11:43:18	11:43:18 AM	720502051249320.7055475PLM086	PLM086
	7072	7799008726342		1	1	72050205	2019-01-05 11:43:25	11:43:25 AM	720502051249320.7055475PLM086	PLM086
	7072	7799008722269		1	1	72050205	2019-01-05 11:43:37	11:43:37 AM	720502051249320.7055475PLM086	PLM086
	7072	43183701		1	1	72050205	2019-01-05 11:44:08	11:44:08 AM	720502051249320.7055475PLM086	PLM086
	7072	7799008667614		1	1	72050205	2019-01-05 11:44:16	11:44:16 AM	720502051249320.7055475PLM086	PLM086
	7072	7799008667614		1	1	72050205	2019-01-05 11:44:22	11:44:22 AM	720502051249320.7055475PLM086	PLM086
	7072	7799008722160		1	1	72050205	2019-01-05 11:44:30	11:44:30 AM	720502051249320.7055475PLM086	PLM086
	7072	7799008722160		1	1	72050205	2019-01-05 11:44:38	11:44:38 AM	720502051249320.7055475PLM086	PLM086
	7072	7799008722160		1	1	72050205	2019-01-05 11:44:45	11:44:45 AM	720502051249320.7055475PLM086	PLM086
	7072	7799008726397		1	1	72050205	2019-01-05 11:44:54	11:44:54 AM	720502051249320.7055475PLM086	PLM086
	7072	7799008725895		1	1	72050205	2019-01-05 11:45:01	11:45:01 AM	720502051249320.7055475PLM086	PLM086
	7072	7799008710587		1	1	72050205	2019-01-05 11:45:13	11:45:13 AM	720502051249320.7055475PLM086	PLM086
	7072	7799008667430		1	1	72050205	2019-01-05 11:45:21	11:45:21 AM	720502051249320.7055475PLM086	PLM086
	7072	7799008667966		1	1	72050205	2019-01-05 11:45:26	11:45:26 AM	720502051249320.7055475PLM086	PLM086
	7072	7799008710990		1	1	72050205	2019-01-05 11:45:37	11:45:37 AM	720502051249320.7055475PLM086	PLM086
	7072	7799008710990		1	1	72050205	2019-01-05 11:45:44	11:45:44 AM	720502051249320.7055475PLM086	PLM086
	7072	7799008666938		1	1	72050205	2019-01-05 11:45:51	11:45:51 AM	720502051249320.7055475PLM086	PLM086
	7072	7799008667881		1	1	72050205	2019-01-05 11:46:00	11:46:00 AM	720502051249320.7055475PLM086	PLM086
	7072	7799008607245		1	1	72050205	2019-01-05 11:46:08	11:46:08 AM	720502051249320.7055475PLM086	PLM086
	7072	7799008722160		1	1	72050205	2019-01-05 11:46:25	11:46:25 AM	720502051249320.7055475PLM086	PLM086
	7072	7799008722160		1	1	72050205	2019-01-05 11:46:33	11:46:33 AM	720502051249320.7055475PLM086	PLM086
	7072	7799008722160		1	1	72050205	2019-01-05 11:46:45	11:46:45 AM	720502051249320.7055475PLM086	PLM086
	7072	7799008722047		1	1	72050205	2019-01-05 11:46:56	11:46:56 AM	720502051249320.7055475PLM086	PLM086
	7072	7799008722269		1	1	72050205	2019-01-05 11:47:06	11:47:06 AM	720502051249320.7055475PLM086	PLM086
	7072	7799008710532		1	1	72050205	2019-01-05 11:47:18	11:47:18 AM	720502051249320.7055475PLM086	PLM086
	7072	7799008667096		1	1	72050205	2019-01-05 11:47:36	11:47:36 AM	720502051249320.7055475PLM086	PLM086
	7072	7799008667096		1	1	72050205	2019-01-05 11:47:42	11:47:42 AM	720502051249320.7055475PLM086	PLM086
	7072	7799008666990		1	1	72050205	2019-01-05 11:47:50	11:47:50 AM	720502051249320.7055475PLM086	PLM086
	7072	7799008666990		1	1	72050205	2019-01-05 11:47:57	11:47:57 AM	720502051249320.7055475PLM086	PLM086
	7072	7799008666990		1	1	72050205	2019-01-05 11:48:06	11:48:06 AM	720502051249320.7055475PLM086	PLM086
	7072	7799008605791		1	1	72050205	2019-01-05 11:48:14	11:48:14 AM	720502051249320.7055475PLM086	PLM086
	7072	7799008605791		1	1	72050205	2019-01-05 11:48:20	11:48:20 AM	720502051249320.7055475PLM086	PLM086
	7072	7799008711232		1	1	72050205	2019-01-05 11:54:24	11:54:24 AM	720502051249320.7055475PLM086	PLM086
	7121	7799008747194		1	1	72050205	2019-01-05 11:58:32	11:58:32 AM	720502051249320.7055475PLM086	PLM086
	7121	7799008806983		1	1	72050205	2019-01-05 11:58:38	11:58:38 AM	720502051249320.7055475PLM086	PLM086
	7121	7799008846903		1	1	72050205	2019-01-05 11:58:42	11:58:42 AM	720502051249320.7055475PLM086	PLM086
	7121	7799008746364		1	1	72050205	2019-01-05 11:58:46	11:58:46 AM	720502051249320.7055475PLM086	PLM086
	7121	7799008746494		1	1	72050205	2019-01-05 11:58:49	11:58:49 AM	720502051249320.7055475PLM086	PLM086
	7121	7799008719375		1	1	72050205	2019-01-05 11:58:56	11:58:56 AM	720502051249320.7055475PLM086	PLM086
	7121	7799008754178		1	1	72050205	2019-01-05 11:59:01	11:59:01 AM	720502051249320.7055475PLM086	PLM086
	7121	7799008846927		1	1	72050205	2019-01-05 11:59:03	11:59:03 AM	720502051249320.7055475PLM086	PLM086
	7121	7799008807935		1	1	72050205	2019-01-05 11:59:09	11:59:09 AM	720502051249320.7055475PLM086	PLM086
	7121	7799008580449		1	1	72050205	2019-01-05 11:59:13	11:59:13 AM	720502051249320.7055475PLM086	PLM086
	7121	7799008835068		1	1	72050205	2019-01-05 11:59:18	11:59:18 AM	720502051249320.7055475PLM086	PLM086
	7121	7799008771885		1	1	72050205	2019-01-05 11:59:26	11:59:26 AM	720502051249320.7055475PLM086	PLM086
	7121	7799008781044		1	1	72050205	2019-01-05 11:59:31	11:59:31 AM	720502051249320.7055475PLM086	PLM086
	7121	7799008847009		1	1	72050205	2019-01-05 11:59:35	11:59:35 AM	720502051249320.7055475PLM086	PLM086
	7121	7799008829562		1	1	72050205	2019-01-05 11:59:38	11:59:38 AM	720502051249320.7055475PLM086	PLM086
	7121	7799008807027		1	1	72050205	2019-01-05 11:59:43	11:59:43 AM	720502051249320.7055475PLM086	PLM086
	7121	7799008719375		1	1	72050205	2019-01-05 11:59:46	11:59:46 AM	720502051249320.7055475PLM086	PLM086
	7121	7799008747156		1	1	72050205	2019-01-05 11:59:53	11:59:53 AM	720502051249320.7055475PLM086	PLM086
	7121	7799008781068		1	1	72050205	2019-01-05 11:59:57	11:59:57 AM	720502051249320.7055475PLM086	PLM086
	7121	7799008565866		1	1	72050205	2019-01-05 12:00:02	12:00:02 PM	720502051249320.7055475PLM086	PLM086
	7121	7799008835587		1	1	72050205	2019-01-05 12:00:04	12:00:04 PM	720502051249320.7055475PLM086	PLM086
	7121	7799008846965		1	1	72050205	2019-01-05 12:00:11	12:00:11 PM	720502051249320.7055475PLM086	PLM086
	7121	7799008772554		1	1	72050205	2019-01-05 12:00:15	12:00:15 PM	720502051249320.7055475PLM086	PLM086
	7121	7799008807935		1	1	72050205	2019-01-05 12:00:21	12:00:21 PM	720502051249320.7055475PLM086	PLM086
	7121	7799008772721		1	1	72050205	2019-01-05 12:00:24	12:00:24 PM	720502051249320.7055475PLM086	PLM086
	7121	7799008846965		1	1	72050205	2019-01-05 12:00:28	12:00:28 PM	720502051249320.7055475PLM086	PLM086
	7121	7799008772448		1	1	72050205	2019-01-05 12:00:33	12:00:33 PM	720502051249320.7055475PLM086	PLM086
	7121	7799008747194		1	1	72050205	2019-01-05 12:00:37	12:00:37 PM	720502051249320.7055475PLM086	PLM086
	7121	7799008747170		1	1	72050205	2019-01-05 12:00:40	12:00:40 PM	720502051249320.7055475PLM086	PLM086
	7121	7799008833712		1	1	72050205	2019-01-05 12:00:52	12:00:52 PM	720502051249320.7055475PLM086	PLM086
	7121	7799008835600		1	1	72050205	2019-01-05 12:00:58	12:00:58 PM	720502051249320.7055475PLM086	PLM086
	7121	7799008835839		1	1	72050205	2019-01-05 12:01:07	12:01:07 PM	720502051249320.7055475PLM086	PLM086
	7121	7799008828510		1	1	72050205	2019-01-05 12:01:15	12:01:15 PM	720502051249320.7055475PLM086	PLM086
	7121	7799008846965		1	1	72050205	2019-01-05 12:01:18	12:01:18 PM	720502051249320.7055475PLM086	PLM086
	7121	7799008772554		1	1	72050205	2019-01-05 12:01:22	12:01:22 PM	720502051249320.7055475PLM086	PLM086
	7121	7799008779676		1	1	72050205	2019-01-05 12:01:26	12:01:26 PM	720502051249320.7055475PLM086	PLM086
	7121	7799008747156		1	1	72050205	2019-01-05 12:01:29	12:01:29 PM	720502051249320.7055475PLM086	PLM086
	7121	7799008771793		1	1	72050205	2019-01-05 12:01:34	12:01:34 PM	720502051249320.7055475PLM086	PLM086
	7121	7799008754956		1	1	72050205	2019-01-05 12:01:38	12:01:38 PM	720502051249320.7055475PLM086	PLM086
	7121	7799008747187		1	1	72050205	2019-01-05 12:01:41	12:01:41 PM	720502051249320.7055475PLM086	PLM086
	7121	7799008828510		1	1	72050205	2019-01-05 12:01:44	12:01:44 PM	720502051249320.7055475PLM086	PLM086
	7121	7799008771793		1	1	72050205	2019-01-05 12:01:49	12:01:49 PM	720502051249320.7055475PLM086	PLM086
	7121	7799008779676		1	1	72050205	2019-01-05 12:01:52	12:01:52 PM	720502051249320.7055475PLM086	PLM086
	7121	7799008828558		1	1	72050205	2019-01-05 12:01:55	12:01:55 PM	720502051249320.7055475PLM086	PLM086
	7121	7799008780863		1	1	72050205	2019-01-05 12:02:05	12:02:05 PM	720502051249320.7055475PLM086	PLM086
	7121	7799008846927		1	1	72050205	2019-01-05 12:02:18	12:02:18 PM	720502051249320.7055475PLM086	PLM086
	7121	7799008719399		1	1	72050205	2019-01-05 12:02:23	12:02:23 PM	720502051249320.7055475PLM086	PLM086
	7121	7799008772721		1	1	72050205	2019-01-05 12:02:27	12:02:27 PM	720502051249320.7055475PLM086	PLM086
	7121	7799008772554		1	1	72050205	2019-01-05 12:02:30	12:02:30 PM	720502051249320.7055475PLM086	PLM086
	7121	7799008835068		1	1	72050205	2019-01-05 12:02:38	12:02:38 PM	720502051249320.7055475PLM086	PLM086
	7121	7799008806976		1	1	72050205	2019-01-05 12:02:43	12:02:43 PM	720502051249320.7055475PLM086	PLM086
	7121	7799008772578		1	1	72050205	2019-01-05 12:02:47	12:02:47 PM	720502051249320.7055475PLM086	PLM086
	7121	7799008806976		1	1	72050205	2019-01-05 12:02:51	12:02:51 PM	720502051249320.7055475PLM086	PLM086
	7121	7799008846934		1	1	72050205	2019-01-05 12:02:57	12:02:57 PM	720502051249320.7055475PLM086	PLM086
	7121	7799008834139		1	1	72050205	2019-01-05 12:03:00	12:03:00 PM	720502051249320.7055475PLM086	PLM086
	7121	7799008834108		1	1	72050205	2019-01-05 12:03:09	12:03:09 PM	720502051249320.7055475PLM086	PLM086
	7121	7799008846910		1	1	72050205	2019-01-05 12:03:14	12:03:14 PM	720502051249320.7055475PLM086	PLM086
	7121	7799008747149		1	1	72050205	2019-01-05 12:03:18	12:03:18 PM	720502051249320.7055475PLM086	PLM086
	7121	7799008771793		1	1	72050205	2019-01-05 12:03:24	12:03:24 PM	720502051249320.7055475PLM086	PLM086
	7121	7799008779676		1	1	72050205	2019-01-05 12:03:32	12:03:32 PM	720502051249320.7055475PLM086	PLM086
	7121	7799008924588		1	1	72050205	2019-01-05 12:03:37	12:03:37 PM	720502051249320.7055475PLM086	PLM086
	7121	7799008828534		1	1	72050205	2019-01-05 12:03:41	12:03:41 PM	720502051249320.7055475PLM086	PLM086
	7121	7799008847009		1	1	72050205	2019-01-05 12:03:46	12:03:46 PM	720502051249320.7055475PLM086	PLM086
	7121	7799008781075		1	1	72050205	2019-01-05 12:03:49	12:03:49 PM	720502051249320.7055475PLM086	PLM086
	7121	7799008806952		1	1	72050205	2019-01-05 12:03:53	12:03:53 PM	720502051249320.7055475PLM086	PLM086
	7121	7799008764474		1	1	72050205	2019-01-05 12:05:38	12:05:38 PM	720502051249320.7055475PLM086	PLM086
	7121	7799008808031		1	1	72050205	2019-01-05 12:05:43	12:05:43 PM	720502051249320.7055475PLM086	PLM086
	7121	7799008779638		1	1	72050205	2019-01-05 12:05:47	12:05:47 PM	720502051249320.7055475PLM086	PLM086
	7121	7799008779638		1	1	72050205	2019-01-05 12:06:14	12:06:14 PM	720502051249320.7055475PLM086	PLM086
	7121	7799008808031		1	1	72050205	2019-01-05 12:06:34	12:06:34 PM	720502051249320.7055475PLM086	PLM086
	7121	7799008764474		1	1	72050205	2019-01-05 12:06:41	12:06:41 PM	720502051249320.7055475PLM086	PLM086
	7121	7799008756363		1	1	72050205	2019-01-05 12:06:51	12:06:51 PM	720502051249320.7055475PLM086	PLM086
	7121	7799008772455		1	1	72050205	2019-01-05 12:06:52	12:06:52 PM	720502051249320.7055475PLM086	PLM086
	7121	7799008771861		1	1	72050205	2019-01-05 12:07:11	12:07:11 PM	720502051249320.7055475PLM086	PLM086
	7121	7799008771861		1	1	72050205	2019-01-05 12:07:12	12:07:12 PM	720502051249320.7055475PLM086	PLM086
	7121	7799008808024		1	1	72050205	2019-01-05 12:07:20	12:07:20 PM	720502051249320.7055475PLM086	PLM086
	7121	7799008808024		1	1	72050205	2019-01-05 12:07:21	12:07:21 PM	720502051249320.7055475PLM086	PLM086
	7121	7799008764481		1	1	72050205	2019-01-05 12:07:36	12:07:36 PM	720502051249320.7055475PLM086	PLM086
	7121	7799008764481		1	1	72050205	2019-01-05 12:07:44	12:07:44 PM	720502051249320.7055475PLM086	PLM086
	7121	7799008593234		1	1	72050205	2019-01-05 12:07:59	12:07:59 PM	720502051249320.7055475PLM086	PLM086
	7121	7799008808031		1	1	72050205	2019-01-05 12:08:06	12:08:06 PM	720502051249320.7055475PLM086	PLM086
	7121	7799008808000		1	1	72050205	2019-01-05 12:08:12	12:08:12 PM	720502051249320.7055475PLM086	PLM086
	7121	7799008781099		1	1	72050205	2019-01-05 12:08:28	12:08:28 PM	720502051249320.7055475PLM086	PLM086
	7121	7799008754116		1	1	72050205	2019-01-05 12:08:40	12:08:40 PM	720502051249320.7055475PLM086	PLM086
	7121	7799008719399		1	1	72050205	2019-01-05 12:08:46	12:08:46 PM	720502051249320.7055475PLM086	PLM086
	7121	7799008753676		1	1	72050205	2019-01-05 12:08:50	12:08:50 PM	720502051249320.7055475PLM086	PLM086
	7121	7799008741680		1	1	72050205	2019-01-05 12:08:58	12:08:58 PM	720502051249320.7055475PLM086	PLM086
	7121	7799008580449		1	1	72050205	2019-01-05 12:09:10	12:09:10 PM	720502051249320.7055475PLM086	PLM086
	7121	7799008580449		1	1	72050205	2019-01-05 12:09:29	12:09:29 PM	720502051249320.7055475PLM086	PLM086
	7121	7799008593234		1	1	72050205	2019-01-05 12:09:43	12:09:43 PM	720502051249320.7055475PLM086	PLM086
	7121	7799008593234		1	1	72050205	2019-01-05 12:09:43	12:09:43 PM	720502051249320.7055475PLM086	PLM086
	7121	7799008756325		1	1	72050205	2019-01-05 12:09:51	12:09:51 PM	720502051249320.7055475PLM086	PLM086
	7121	7799008807898		1	1	72050205	2019-01-05 12:10:03	12:10:03 PM	720502051249320.7055475PLM086	PLM086
	7121	7799008771953		1	1	72050205	2019-01-05 12:10:08	12:10:08 PM	720502051249320.7055475PLM086	PLM086
	7121	7799008771953		1	1	72050205	2019-01-05 12:10:16	12:10:16 PM	720502051249320.7055475PLM086	PLM086
	7121	7799008808031		1	1	72050205	2019-01-05 12:10:23	12:10:23 PM	720502051249320.7055475PLM086	PLM086
	7121	7799008836553		1	1	72050205	2019-01-05 12:10:35	12:10:35 PM	720502051249320.7055475PLM086	PLM086
	7121	7799008836553		1	1	72050205	2019-01-05 12:10:39	12:10:39 PM	720502051249320.7055475PLM086	PLM086
	7121	7799008830742		1	1	72050205	2019-01-05 12:10:47	12:10:47 PM	720502051249320.7055475PLM086	PLM086
	7121	7799008806990		1	1	72050205	2019-01-05 12:10:49	12:10:49 PM	720502051249320.7055475PLM086	PLM086
	7121	7799008746753		1	1	72050205	2019-01-05 12:10:59	12:10:59 PM	720502051249320.7055475PLM086	PLM086
	7121	7799008829388		1	1	72050205	2019-01-05 12:11:05	12:11:05 PM	720502051249320.7055475PLM086	PLM086
	7121	7799008829388		1	1	72050205	2019-01-05 12:11:06	12:11:06 PM	720502051249320.7055475PLM086	PLM086
	7121	7799008780962		1	1	72050205	2019-01-05 12:11:15	12:11:15 PM	720502051249320.7055475PLM086	PLM086
	7121	7799008780962		1	1	72050205	2019-01-05 12:11:21	12:11:21 PM	720502051249320.7055475PLM086	PLM086
	7121	7799008781112		1	1	72050205	2019-01-05 12:11:26	12:11:26 PM	720502051249320.7055475PLM086	PLM086
	7121	7799008833903		1	1	72050205	2019-01-05 12:11:33	12:11:33 PM	720502051249320.7055475PLM086	PLM086
	7121	7799008808000		1	1	72050205	2019-01-05 12:11:36	12:11:36 PM	720502051249320.7055475PLM086	PLM086
	7121	7799008779720		1	1	72050205	2019-01-05 12:11:54	12:11:54 PM	720502051249320.7055475PLM086	PLM086
	7121	7799008779720		1	1	72050205	2019-01-05 12:12:03	12:12:03 PM	720502051249320.7055475PLM086	PLM086
	7121	7799008829593		1	1	72050205	2019-01-05 12:12:08	12:12:08 PM	720502051249320.7055475PLM086	PLM086
	7121	7799008835105		1	1	72050205	2019-01-05 12:12:20	12:12:20 PM	720502051249320.7055475PLM086	PLM086
	7121	7799008835105		1	1	72050205	2019-01-05 12:12:21	12:12:21 PM	720502051249320.7055475PLM086	PLM086
	7121	7799008771861		1	1	72050205	2019-01-05 12:12:26	12:12:26 PM	720502051249320.7055475PLM086	PLM086
	7121	7799008831527		1	1	72050205	2019-01-05 12:12:31	12:12:31 PM	720502051249320.7055475PLM086	PLM086
	7121	7799008831527		1	1	72050205	2019-01-05 12:12:37	12:12:37 PM	720502051249320.7055475PLM086	PLM086
	7121	7799008771953		1	1	72050205	2019-01-05 12:12:44	12:12:44 PM	720502051249320.7055475PLM086	PLM086
	7121	7799008779713		1	1	72050205	2019-01-05 12:12:54	12:12:54 PM	720502051249320.7055475PLM086	PLM086
	7121	7799008835860		1	1	72050205	2019-01-05 12:12:57	12:12:57 PM	720502051249320.7055475PLM086	PLM086
	7121	7799008829586		1	1	72050205	2019-01-05 12:13:12	12:13:12 PM	720502051249320.7055475PLM086	PLM086
	7121	7799008829586		1	1	72050205	2019-01-05 12:13:14	12:13:14 PM	720502051249320.7055475PLM086	PLM086
	7121	7799008808017		1	1	72050205	2019-01-05 12:13:34	12:13:34 PM	720502051249320.7055475PLM086	PLM086
	7121	7799008835099		1	1	72050205	2019-01-05 12:13:39	12:13:39 PM	720502051249320.7055475PLM086	PLM086
	7121	7799008835433		1	1	72050205	2019-01-05 12:13:44	12:13:44 PM	720502051249320.7055475PLM086	PLM086
	7121	7799008835433		1	1	72050205	2019-01-05 12:13:45	12:13:45 PM	720502051249320.7055475PLM086	PLM086
	7121	7799008835556		1	1	72050205	2019-01-05 12:13:51	12:13:51 PM	720502051249320.7055475PLM086	PLM086
	7121	7799008781099		1	1	72050205	2019-01-05 12:13:59	12:13:59 PM	720502051249320.7055475PLM086	PLM086
	7121	7799008771885		1	1	72050205	2019-01-05 12:14:12	12:14:12 PM	720502051249320.7055475PLM086	PLM086
	7121	7799008747118		1	1	72050205	2019-01-05 12:14:18	12:14:18 PM	720502051249320.7055475PLM086	PLM086
	7121	7799008846927		1	1	72050205	2019-01-05 12:14:25	12:14:25 PM	720502051249320.7055475PLM086	PLM086
	7121	7799008781099		1	1	72050205	2019-01-05 12:14:30	12:14:30 PM	720502051249320.7055475PLM086	PLM086
	7121	7799008781099		1	1	72050205	2019-01-05 12:14:33	12:14:33 PM	720502051249320.7055475PLM086	PLM086
	7121	7799008772462		1	1	72050205	2019-01-05 12:14:38	12:14:38 PM	720502051249320.7055475PLM086	PLM086
	7121	7799008780986		1	1	72050205	2019-01-05 12:14:44	12:14:44 PM	720502051249320.7055475PLM086	PLM086
	7121	7799008834085		1	1	72050205	2019-01-05 12:14:49	12:14:49 PM	720502051249320.7055475PLM086	PLM086
	7121	7799008828671		1	1	72050205	2019-01-05 12:14:54	12:14:54 PM	720502051249320.7055475PLM086	PLM086
	7121	7799008807898		1	1	72050205	2019-01-05 12:14:57	12:14:57 PM	720502051249320.7055475PLM086	PLM086
	7121	7799008835426		1	1	72050205	2019-01-05 12:15:04	12:15:04 PM	720502051249320.7055475PLM086	PLM086
	7121	7799008835426		1	1	72050205	2019-01-05 12:15:06	12:15:06 PM	720502051249320.7055475PLM086	PLM086
	7121	7799008828640		1	1	72050205	2019-01-05 12:15:13	12:15:13 PM	720502051249320.7055475PLM086	PLM086
	7121	7799008828640		1	1	72050205	2019-01-05 12:15:15	12:15:15 PM	720502051249320.7055475PLM086	PLM086
	7121	7799008719702		1	1	72050205	2019-01-05 12:15:18	12:15:18 PM	720502051249320.7055475PLM086	PLM086
	7121	7799008781044		1	1	72050205	2019-01-05 12:15:26	12:15:26 PM	720502051249320.7055475PLM086	PLM086
	7121	7799008771977		1	1	72050205	2019-01-05 12:15:31	12:15:31 PM	720502051249320.7055475PLM086	PLM086
	7121	7799008771977		1	1	72050205	2019-01-05 12:15:32	12:15:32 PM	720502051249320.7055475PLM086	PLM086
	7121	7799008773063		1	1	72050205	2019-01-05 12:15:39	12:15:39 PM	720502051249320.7055475PLM086	PLM086
	7121	7799008773063		1	1	72050205	2019-01-05 12:15:40	12:15:40 PM	720502051249320.7055475PLM086	PLM086
	7121	7799008779645		1	1	72050205	2019-01-05 12:15:51	12:15:51 PM	720502051249320.7055475PLM086	PLM086
	7121	7799008779645		1	1	72050205	2019-01-05 12:15:55	12:15:55 PM	720502051249320.7055475PLM086	PLM086
	7121	7799008780900		1	1	72050205	2019-01-05 12:16:01	12:16:01 PM	720502051249320.7055475PLM086	PLM086
	7121	7799008751801		1	1	72050205	2019-01-05 12:16:07	12:16:07 PM	720502051249320.7055475PLM086	PLM086
	7121	7799008751801		1	1	72050205	2019-01-05 12:16:19	12:16:19 PM	720502051249320.7055475PLM086	PLM086
	7121	7799008846927		1	1	72050205	2019-01-05 12:16:24	12:16:24 PM	720502051249320.7055475PLM086	PLM086
	7121	7799008835563		1	1	72050205	2019-01-05 12:16:39	12:16:39 PM	720502051249320.7055475PLM086	PLM086
	7121	7799008846934		1	1	72050205	2019-01-05 12:16:41	12:16:41 PM	720502051249320.7055475PLM086	PLM086
	7121	7799008747187		1	1	72050205	2019-01-05 12:16:44	12:16:44 PM	720502051249320.7055475PLM086	PLM086
	7121	7799008704418		1	1	72050205	2019-01-05 12:16:47	12:16:47 PM	720502051249320.7055475PLM086	PLM086
	7121	7799008719740		1	1	72050205	2019-01-05 12:16:51	12:16:51 PM	720502051249320.7055475PLM086	PLM086
	7121	7799008754512		1	1	72050205	2019-01-05 12:17:01	12:17:01 PM	720502051249320.7055475PLM086	PLM086
	7121	7799008836553		1	1	72050205	2019-01-05 12:17:05	12:17:05 PM	720502051249320.7055475PLM086	PLM086
	7121	7799008835136		1	1	72050205	2019-01-05 12:17:45	12:17:45 PM	720502051249320.7055475PLM086	PLM086
	7121	7799008835136		1	1	72050205	2019-01-05 12:17:49	12:17:49 PM	720502051249320.7055475PLM086	PLM086
	7121	7799008704425		1	1	72050205	2019-01-05 12:18:31	12:18:31 PM	720502051249320.7055475PLM086	PLM086
	7121	7799008836546		1	1	72050205	2019-01-05 12:18:36	12:18:36 PM	720502051249320.7055475PLM086	PLM086
	7121	7799008704418		1	1	72050205	2019-01-05 12:18:41	12:18:41 PM	720502051249320.7055475PLM086	PLM086
	7121	7799008836546		1	1	72050205	2019-01-05 12:18:44	12:18:44 PM	720502051249320.7055475PLM086	PLM086
	7121	7799008704418		1	1	72050205	2019-01-05 12:18:50	12:18:50 PM	720502051249320.7055475PLM086	PLM086
	7121	7799008808017		1	1	72050205	2019-01-05 12:18:57	12:18:57 PM	720502051249320.7055475PLM086	PLM086
	7121	7799008835532		1	1	72050205	2019-01-05 12:19:12	12:19:12 PM	720502051249320.7055475PLM086	PLM086
	7121	7799008835525		1	1	72050205	2019-01-05 12:19:13	12:19:13 PM	720502051249320.7055475PLM086	PLM086
	7121	7799008835532		1	1	72050205	2019-01-05 12:19:14	12:19:14 PM	720502051249320.7055475PLM086	PLM086
	7121	7799008808017		1	1	72050205	2019-01-05 12:19:19	12:19:19 PM	720502051249320.7055475PLM086	PLM086
	7121	7799008808000		1	1	72050205	2019-01-05 12:19:22	12:19:22 PM	720502051249320.7055475PLM086	PLM086
	7121	7799008846989		1	1	72050205	2019-01-05 12:19:25	12:19:25 PM	720502051249320.7055475PLM086	PLM086
	7121	7799008836379		1	1	72050205	2019-01-05 12:19:34	12:19:34 PM	720502051249320.7055475PLM086	PLM086
	7121	7799008836379		1	1	72050205	2019-01-05 12:19:36	12:19:36 PM	720502051249320.7055475PLM086	PLM086
	7121	7799008754550		1	1	72050205	2019-01-05 12:19:47	12:19:47 PM	720502051249320.7055475PLM086	PLM086
	7121	7799008754550		1	1	72050205	2019-01-05 12:19:59	12:19:59 PM	720502051249320.7055475PLM086	PLM086
	7121	7799008754550		1	1	72050205	2019-01-05 12:20:00	12:20:00 PM	720502051249320.7055475PLM086	PLM086
	7121	7799008719740		1	1	72050205	2019-01-05 12:20:19	12:20:19 PM	720502051249320.7055475PLM086	PLM086
	7121	7799008779713		1	1	72050205	2019-01-05 12:20:23	12:20:23 PM	720502051249320.7055475PLM086	PLM086
	7121	7799008779713		1	1	72050205	2019-01-05 12:20:26	12:20:26 PM	720502051249320.7055475PLM086	PLM086
	7121	7799008834085		1	1	72050205	2019-01-05 12:20:30	12:20:30 PM	720502051249320.7055475PLM086	PLM086
	7121	7799008834085		1	1	72050205	2019-01-05 12:20:32	12:20:32 PM	720502051249320.7055475PLM086	PLM086
	7121	7799008846880		1	1	72050205	2019-01-05 12:20:39	12:20:39 PM	720502051249320.7055475PLM086	PLM086
	7121	7799008846880		1	1	72050205	2019-01-05 12:20:40	12:20:40 PM	720502051249320.7055475PLM086	PLM086
	7121	7799008593234		1	1	72050205	2019-01-05 12:20:44	12:20:44 PM	720502051249320.7055475PLM086	PLM086
	7121	7799008780900		1	1	72050205	2019-01-05 12:20:50	12:20:50 PM	720502051249320.7055475PLM086	PLM086
	7121	7799008780900		1	1	72050205	2019-01-05 12:20:51	12:20:51 PM	720502051249320.7055475PLM086	PLM086
	7121	7799008779638		1	1	72050205	2019-01-05 12:20:58	12:20:58 PM	720502051249320.7055475PLM086	PLM086
	7121	7799008829388		1	1	72050205	2019-01-05 12:21:06	12:21:06 PM	720502051249320.7055475PLM086	PLM086
	7121	7799008829388		1	1	72050205	2019-01-05 12:21:07	12:21:07 PM	720502051249320.7055475PLM086	PLM086
	7121	7799008834092		1	1	72050205	2019-01-05 12:21:12	12:21:12 PM	720502051249320.7055475PLM086	PLM086
	7121	7799008834092		1	1	72050205	2019-01-05 12:21:13	12:21:13 PM	720502051249320.7055475PLM086	PLM086
	7121	7799008833743		1	1	72050205	2019-01-05 12:21:19	12:21:19 PM	720502051249320.7055475PLM086	PLM086
	7121	7799008833743		1	1	72050205	2019-01-05 12:21:22	12:21:22 PM	720502051249320.7055475PLM086	PLM086
	7121	7799008771946		1	1	72050205	2019-01-05 12:21:26	12:21:26 PM	720502051249320.7055475PLM086	PLM086
	7121	7799008828640		1	1	72050205	2019-01-05 12:21:33	12:21:33 PM	720502051249320.7055475PLM086	PLM086
	7121	7799008773155		1	1	72050205	2019-01-05 12:21:40	12:21:40 PM	720502051249320.7055475PLM086	PLM086
	7121	7799008754239		1	1	72050205	2019-01-05 12:21:47	12:21:47 PM	720502051249320.7055475PLM086	PLM086
	7121	7799008771946		1	1	72050205	2019-01-05 12:21:59	12:21:59 PM	720502051249320.7055475PLM086	PLM086
	7121	7799008771946		1	1	72050205	2019-01-05 12:22:00	12:22:00 PM	720502051249320.7055475PLM086	PLM086
	7121	7799008771878		1	1	72050205	2019-01-05 12:22:10	12:22:10 PM	720502051249320.7055475PLM086	PLM086
	7121	7799008771878		1	1	72050205	2019-01-05 12:22:19	12:22:19 PM	720502051249320.7055475PLM086	PLM086
	7121	7799008808048		1	1	72050205	2019-01-05 12:22:30	12:22:30 PM	720502051249320.7055475PLM086	PLM086
	7121	7799008808048		1	1	72050205	2019-01-05 12:22:31	12:22:31 PM	720502051249320.7055475PLM086	PLM086
	7122	7799008824055		1	1	72050205	2019-01-05 12:27:28	12:27:28 PM	720502051249320.7055475PLM086	PLM086
	7122	7799008776033		1	1	72050205	2019-01-05 12:27:30	12:27:30 PM	720502051249320.7055475PLM086	PLM086
	7122	7799008830834		1	1	72050205	2019-01-05 12:27:32	12:27:32 PM	720502051249320.7055475PLM086	PLM086
	7122	7799008802329		1	1	72050205	2019-01-05 12:27:35	12:27:35 PM	720502051249320.7055475PLM086	PLM086
	7122	7799008802992		1	1	72050205	2019-01-05 12:27:38	12:27:38 PM	720502051249320.7055475PLM086	PLM086
	7122	7799008829746		1	1	72050205	2019-01-05 12:27:41	12:27:41 PM	720502051249320.7055475PLM086	PLM086
	7122	7799008765181		1	1	72050205	2019-01-05 12:27:44	12:27:44 PM	720502051249320.7055475PLM086	PLM086
	7122	7799008778518		1	1	72050205	2019-01-05 12:27:48	12:27:48 PM	720502051249320.7055475PLM086	PLM086
	7122	7799008802992		1	1	72050205	2019-01-05 12:27:52	12:27:52 PM	720502051249320.7055475PLM086	PLM086
	7122	7799008766096		1	1	72050205	2019-01-05 12:27:55	12:27:55 PM	720502051249320.7055475PLM086	PLM086
	7122	7799008580586		1	1	72050205	2019-01-05 12:27:58	12:27:58 PM	720502051249320.7055475PLM086	PLM086
	7122	7799008767024		1	1	72050205	2019-01-05 12:28:01	12:28:01 PM	720502051249320.7055475PLM086	PLM086
	7122	7799008779980		1	1	72050205	2019-01-05 12:28:04	12:28:04 PM	720502051249320.7055475PLM086	PLM086
	7122	7799008778495		1	1	72050205	2019-01-05 12:28:07	12:28:07 PM	720502051249320.7055475PLM086	PLM086
	7122	7799008751269		1	1	72050205	2019-01-05 12:28:12	12:28:12 PM	720502051249320.7055475PLM086	PLM086
	7122	7799008831497		1	1	72050205	2019-01-05 12:28:15	12:28:15 PM	720502051249320.7055475PLM086	PLM086
	7122	7799008802114		1	1	72050205	2019-01-05 12:28:17	12:28:17 PM	720502051249320.7055475PLM086	PLM086
	7122	7799008751221		1	1	72050205	2019-01-05 12:28:20	12:28:20 PM	720502051249320.7055475PLM086	PLM086
	7122	7799008829746		1	1	72050205	2019-01-05 12:28:22	12:28:22 PM	720502051249320.7055475PLM086	PLM086
	7122	7799008824055		1	1	72050205	2019-01-05 12:28:24	12:28:24 PM	720502051249320.7055475PLM086	PLM086
	7122	7799008829036		1	1	72050205	2019-01-05 12:28:39	12:28:39 PM	720502051249320.7055475PLM086	PLM086
	7122	7799008753614		1	1	72050205	2019-01-05 12:28:43	12:28:43 PM	720502051249320.7055475PLM086	PLM086
	7122	7799008802336		1	1	72050205	2019-01-05 12:28:45	12:28:45 PM	720502051249320.7055475PLM086	PLM086
	7122	7799008831480		1	1	72050205	2019-01-05 12:28:48	12:28:48 PM	720502051249320.7055475PLM086	PLM086
	7122	7799008831480		1	1	72050205	2019-01-05 12:28:49	12:28:49 PM	720502051249320.7055475PLM086	PLM086
	7122	7799008751245		1	1	72050205	2019-01-05 12:28:53	12:28:53 PM	720502051249320.7055475PLM086	PLM086
	7122	7799008776231		1	1	72050205	2019-01-05 12:28:55	12:28:55 PM	720502051249320.7055475PLM086	PLM086
	7122	7799008802664		1	1	72050205	2019-01-05 12:28:58	12:28:58 PM	720502051249320.7055475PLM086	PLM086
	7122	7799008803180		1	1	72050205	2019-01-05 12:29:01	12:29:01 PM	720502051249320.7055475PLM086	PLM086
	7122	7799008432243		1	1	72050205	2019-01-05 12:29:03	12:29:03 PM	720502051249320.7055475PLM086	PLM086
	7122	7799008824079		1	1	72050205	2019-01-05 12:29:05	12:29:05 PM	720502051249320.7055475PLM086	PLM086
	7122	7799008778914		1	1	72050205	2019-01-05 12:29:08	12:29:08 PM	720502051249320.7055475PLM086	PLM086
	7122	7799008608631		1	1	72050205	2019-01-05 12:29:11	12:29:11 PM	720502051249320.7055475PLM086	PLM086
	7122	7799008828909		1	1	72050205	2019-01-05 12:29:13	12:29:13 PM	720502051249320.7055475PLM086	PLM086
	7122	7799008802497		1	1	72050205	2019-01-05 12:29:18	12:29:18 PM	720502051249320.7055475PLM086	PLM086
	7122	7799008776033		1	1	72050205	2019-01-05 12:29:21	12:29:21 PM	720502051249320.7055475PLM086	PLM086
	7122	7799008828831		1	1	72050205	2019-01-05 12:29:24	12:29:24 PM	720502051249320.7055475PLM086	PLM086
	7122	7799008765266		1	1	72050205	2019-01-05 12:29:27	12:29:27 PM	720502051249320.7055475PLM086	PLM086
	7122	7799008803180		1	1	72050205	2019-01-05 12:29:29	12:29:29 PM	720502051249320.7055475PLM086	PLM086
	7122	7799008776019		1	1	72050205	2019-01-05 12:29:32	12:29:32 PM	720502051249320.7055475PLM086	PLM086
	7122	7799008829715		1	1	72050205	2019-01-05 12:29:34	12:29:34 PM	720502051249320.7055475PLM086	PLM086
	7122	7799008751320		1	1	72050205	2019-01-05 12:29:38	12:29:38 PM	720502051249320.7055475PLM086	PLM086
	7122	7799008829784		1	1	72050205	2019-01-05 12:29:42	12:29:42 PM	720502051249320.7055475PLM086	PLM086
	7122	7799008778914		1	1	72050205	2019-01-05 12:29:50	12:29:50 PM	720502051249320.7055475PLM086	PLM086
	7122	7799008802657		1	1	72050205	2019-01-05 12:29:56	12:29:56 PM	720502051249320.7055475PLM086	PLM086
	7122	7799008802398		1	1	72050205	2019-01-05 12:29:58	12:29:58 PM	720502051249320.7055475PLM086	PLM086
	7122	7799008778525		1	1	72050205	2019-01-05 12:30:04	12:30:04 PM	720502051249320.7055475PLM086	PLM086
	7122	7799008753607		1	1	72050205	2019-01-05 12:30:15	12:30:15 PM	720502051249320.7055475PLM086	PLM086
	7122	7799008776002		1	1	72050205	2019-01-05 12:30:20	12:30:20 PM	720502051249320.7055475PLM086	PLM086
	7122	7799008765198		1	1	72050205	2019-01-05 12:30:24	12:30:24 PM	720502051249320.7055475PLM086	PLM086
	7122	7799008766089		1	1	72050205	2019-01-05 12:30:27	12:30:27 PM	720502051249320.7055475PLM086	PLM086
	7122	7799008776231		1	1	72050205	2019-01-05 12:30:31	12:30:31 PM	720502051249320.7055475PLM086	PLM086
	7122	7799008753393		1	1	72050205	2019-01-05 12:30:32	12:30:32 PM	720502051249320.7055475PLM086	PLM086
	7122	7799008829746		1	1	72050205	2019-01-05 12:30:35	12:30:35 PM	720502051249320.7055475PLM086	PLM086
	7122	7799008751245		1	1	72050205	2019-01-05 12:30:38	12:30:38 PM	720502051249320.7055475PLM086	PLM086
	7122	7799008538976		1	1	72050205	2019-01-05 12:30:41	12:30:41 PM	720502051249320.7055475PLM086	PLM086
	7122	7799008836522		1	1	72050205	2019-01-05 12:30:43	12:30:43 PM	720502051249320.7055475PLM086	PLM086
	7122	7799008201498		1	1	72050205	2019-01-05 12:30:47	12:30:47 PM	720502051249320.7055475PLM086	PLM086
	7122	7799008186245		1	1	72050205	2019-01-05 12:30:49	12:30:49 PM	720502051249320.7055475PLM086	PLM086
	7122	7799008829883		1	1	72050205	2019-01-05 12:30:52	12:30:52 PM	720502051249320.7055475PLM086	PLM086
	7122	7799008802459		1	1	72050205	2019-01-05 12:30:54	12:30:54 PM	720502051249320.7055475PLM086	PLM086
	7122	7799008753621		1	1	72050205	2019-01-05 12:30:58	12:30:58 PM	720502051249320.7055475PLM086	PLM086
	7122	7799008802992		1	1	72050205	2019-01-05 12:31:01	12:31:01 PM	720502051249320.7055475PLM086	PLM086
	7122	7799008765259		1	1	72050205	2019-01-05 12:31:03	12:31:03 PM	720502051249320.7055475PLM086	PLM086
	7122	7799008829869		1	1	72050205	2019-01-05 12:31:06	12:31:06 PM	720502051249320.7055475PLM086	PLM086
	7122	7799008776248		1	1	72050205	2019-01-05 12:31:10	12:31:10 PM	720502051249320.7055475PLM086	PLM086
	7122	7799008836072		1	1	72050205	2019-01-05 12:31:13	12:31:13 PM	720502051249320.7055475PLM086	PLM086
	7122	7793730547305		1	1	72050205	2019-01-05 12:31:18	12:31:18 PM	720502051249320.7055475PLM086	PLM086
	7122	7799008776231		1	1	72050205	2019-01-05 12:31:21	12:31:21 PM	720502051249320.7055475PLM086	PLM086
	7122	7793730008271		1	1	72050205	2019-01-05 12:31:26	12:31:26 PM	720502051249320.7055475PLM086	PLM086
	7122	7799008829746		1	1	72050205	2019-01-05 12:31:28	12:31:28 PM	720502051249320.7055475PLM086	PLM086
	7122	7799008776231		1	1	72050205	2019-01-05 12:31:31	12:31:31 PM	720502051249320.7055475PLM086	PLM086
	7122	7799008802336		1	1	72050205	2019-01-05 12:31:40	12:31:40 PM	720502051249320.7055475PLM086	PLM086
	7122	7799008776248		1	1	72050205	2019-01-05 12:31:44	12:31:44 PM	720502051249320.7055475PLM086	PLM086
	7122	7799008765204		1	1	72050205	2019-01-05 12:31:47	12:31:47 PM	720502051249320.7055475PLM086	PLM086
	7122	7799008829739		1	1	72050205	2019-01-05 12:31:50	12:31:50 PM	720502051249320.7055475PLM086	PLM086
	7122	7799008802992		1	1	72050205	2019-01-05 12:31:53	12:31:53 PM	720502051249320.7055475PLM086	PLM086
	7122	7799008776255		1	1	72050205	2019-01-05 12:31:55	12:31:55 PM	720502051249320.7055475PLM086	PLM086
	7122	7799008765600		1	1	72050205	2019-01-05 12:31:59	12:31:59 PM	720502051249320.7055475PLM086	PLM086
	7122	7799008829722		1	1	72050205	2019-01-05 12:32:02	12:32:02 PM	720502051249320.7055475PLM086	PLM086
	7122	7799008829074		1	1	72050205	2019-01-05 12:32:08	12:32:08 PM	720502051249320.7055475PLM086	PLM086
	7122	7799008779980		1	1	72050205	2019-01-05 12:32:10	12:32:10 PM	720502051249320.7055475PLM086	PLM086
	7122	7799008766096		1	1	72050205	2019-01-05 12:32:15	12:32:15 PM	720502051249320.7055475PLM086	PLM086
	7122	7799008438412		1	1	72050205	2019-01-05 12:32:19	12:32:19 PM	720502051249320.7055475PLM086	PLM086
	7122	7799008803012		1	1	72050205	2019-01-05 12:32:25	12:32:25 PM	720502051249320.7055475PLM086	PLM086
	7122	7799008829753		1	1	72050205	2019-01-05 12:32:26	12:32:26 PM	720502051249320.7055475PLM086	PLM086
	7122	7799008753393		1	1	72050205	2019-01-05 12:32:31	12:32:31 PM	720502051249320.7055475PLM086	PLM086
	7122	7799008802442		1	1	72050205	2019-01-05 12:32:38	12:32:38 PM	720502051249320.7055475PLM086	PLM086
	7122	7799008753416		1	1	72050205	2019-01-05 12:32:43	12:32:43 PM	720502051249320.7055475PLM086	PLM086
	7122	7799008824086		1	1	72050205	2019-01-05 12:32:47	12:32:47 PM	720502051249320.7055475PLM086	PLM086
	7122	7799008765198		1	1	72050205	2019-01-05 12:32:48	12:32:48 PM	720502051249320.7055475PLM086	PLM086
	7122	7799008765198		1	1	72050205	2019-01-05 12:32:52	12:32:52 PM	720502051249320.7055475PLM086	PLM086
	7122	7799008828848		1	1	72050205	2019-01-05 12:32:54	12:32:54 PM	720502051249320.7055475PLM086	PLM086
	7122	7799008828213		1	1	72050205	2019-01-05 12:32:56	12:32:56 PM	720502051249320.7055475PLM086	PLM086
	7122	7799008802657		1	1	72050205	2019-01-05 12:32:58	12:32:58 PM	720502051249320.7055475PLM086	PLM086
	7122	7799008751375		1	1	72050205	2019-01-05 12:33:03	12:33:03 PM	720502051249320.7055475PLM086	PLM086
	7122	7799008432243		1	1	72050205	2019-01-05 12:33:04	12:33:04 PM	720502051249320.7055475PLM086	PLM086
	7122	7799008751405		1	1	72050205	2019-01-05 12:33:10	12:33:10 PM	720502051249320.7055475PLM086	PLM086
	7122	7799008766072		1	1	72050205	2019-01-05 12:33:12	12:33:12 PM	720502051249320.7055475PLM086	PLM086
	7122	7799008802688		1	1	72050205	2019-01-05 12:33:21	12:33:21 PM	720502051249320.7055475PLM086	PLM086
	7122	7799008802688		1	1	72050205	2019-01-05 12:33:23	12:33:23 PM	720502051249320.7055475PLM086	PLM086
	7122	7799008776033		1	1	72050205	2019-01-05 12:33:27	12:33:27 PM	720502051249320.7055475PLM086	PLM086
	7122	7799008765198		1	1	72050205	2019-01-05 12:33:29	12:33:29 PM	720502051249320.7055475PLM086	PLM086
	7122	7799008802985		1	1	72050205	2019-01-05 12:33:31	12:33:31 PM	720502051249320.7055475PLM086	PLM086
	7122	7799008753416		1	1	72050205	2019-01-05 12:33:35	12:33:35 PM	720502051249320.7055475PLM086	PLM086
	7122	7799008828879		1	1	72050205	2019-01-05 12:33:36	12:33:36 PM	720502051249320.7055475PLM086	PLM086
	7122	7799021013894		1	1	72050205	2019-01-05 12:33:41	12:33:41 PM	720502051249320.7055475PLM086	PLM086
	7122	7799008830544		1	1	72050205	2019-01-05 12:33:43	12:33:43 PM	720502051249320.7055475PLM086	PLM086
	7122	7799008765150		1	1	72050205	2019-01-05 12:33:50	12:33:50 PM	720502051249320.7055475PLM086	PLM086
	7122	7799008828909		1	1	72050205	2019-01-05 12:33:51	12:33:51 PM	720502051249320.7055475PLM086	PLM086
	7122	7799008802329		1	1	72050205	2019-01-05 12:33:56	12:33:56 PM	720502051249320.7055475PLM086	PLM086
	7122	7799008765600		1	1	72050205	2019-01-05 12:33:56	12:33:56 PM	720502051249320.7055475PLM086	PLM086
	7122	7799008828183		1	1	72050205	2019-01-05 12:34:00	12:34:00 PM	720502051249320.7055475PLM086	PLM086
	7122	7799008803005		1	1	72050205	2019-01-05 12:34:02	12:34:02 PM	720502051249320.7055475PLM086	PLM086
	7122	7799008765167		1	1	72050205	2019-01-05 12:34:09	12:34:09 PM	720502051249320.7055475PLM086	PLM086
	7122	7799008765495		1	1	72050205	2019-01-05 12:34:12	12:34:12 PM	720502051249320.7055475PLM086	PLM086
	7122	7799008802107		1	1	72050205	2019-01-05 12:34:18	12:34:18 PM	720502051249320.7055475PLM086	PLM086
	7122	7799008753607		1	1	72050205	2019-01-05 12:34:21	12:34:21 PM	720502051249320.7055475PLM086	PLM086
	7122	7799008802992		1	1	72050205	2019-01-05 12:34:27	12:34:27 PM	720502051249320.7055475PLM086	PLM086
	7122	7799008776224		1	1	72050205	2019-01-05 12:34:31	12:34:31 PM	720502051249320.7055475PLM086	PLM086
	7122	7799008753584		1	1	72050205	2019-01-05 12:34:34	12:34:34 PM	720502051249320.7055475PLM086	PLM086
	7122	7799008753607		1	1	72050205	2019-01-05 12:34:38	12:34:38 PM	720502051249320.7055475PLM086	PLM086
	7122	7799008830537		1	1	72050205	2019-01-05 12:34:43	12:34:43 PM	720502051249320.7055475PLM086	PLM086
	7122	7799008767000		1	1	72050205	2019-01-05 12:34:44	12:34:44 PM	720502051249320.7055475PLM086	PLM086
	7122	7799008802435		1	1	72050205	2019-01-05 12:34:51	12:34:51 PM	720502051249320.7055475PLM086	PLM086
	7122	7799008803012		1	1	72050205	2019-01-05 12:34:58	12:34:58 PM	720502051249320.7055475PLM086	PLM086
	7122	7799008830810		1	1	72050205	2019-01-05 12:35:01	12:35:01 PM	720502051249320.7055475PLM086	PLM086
	7122	7799008766096		1	1	72050205	2019-01-05 12:35:02	12:35:02 PM	720502051249320.7055475PLM086	PLM086
	7122	7799008776248		1	1	72050205	2019-01-05 12:35:07	12:35:07 PM	720502051249320.7055475PLM086	PLM086
	7122	7799008753492		1	1	72050205	2019-01-05 12:35:11	12:35:11 PM	720502051249320.7055475PLM086	PLM086
	7122	7799008776026		1	1	72050205	2019-01-05 12:35:17	12:35:17 PM	720502051249320.7055475PLM086	PLM086
	7122	7799008836539		1	1	72050205	2019-01-05 12:35:24	12:35:24 PM	720502051249320.7055475PLM086	PLM086
	7122	7799008802121		1	1	72050205	2019-01-05 12:35:29	12:35:29 PM	720502051249320.7055475PLM086	PLM086
	7122	7799008778525		1	1	72050205	2019-01-05 12:35:33	12:35:33 PM	720502051249320.7055475PLM086	PLM086
	7122	7799008829722		1	1	72050205	2019-01-05 12:35:35	12:35:35 PM	720502051249320.7055475PLM086	PLM086
	7122	7799008765198		1	1	72050205	2019-01-05 12:35:41	12:35:41 PM	720502051249320.7055475PLM086	PLM086
	7122	7799008829845		1	1	72050205	2019-01-05 12:35:43	12:35:43 PM	720502051249320.7055475PLM086	PLM086
	7122	7799008776248		1	1	72050205	2019-01-05 12:35:46	12:35:46 PM	720502051249320.7055475PLM086	PLM086
	7122	7799008802442		1	1	72050205	2019-01-05 12:35:50	12:35:50 PM	720502051249320.7055475PLM086	PLM086
	7122	7799008828848		1	1	72050205	2019-01-05 12:35:54	12:35:54 PM	720502051249320.7055475PLM086	PLM086
	7122	7799008829715		1	1	72050205	2019-01-05 12:35:55	12:35:55 PM	720502051249320.7055475PLM086	PLM086
	7122	7799008753591		1	1	72050205	2019-01-05 12:35:58	12:35:58 PM	720502051249320.7055475PLM086	PLM086
	7122	7799008767000		1	1	72050205	2019-01-05 12:36:02	12:36:02 PM	720502051249320.7055475PLM086	PLM086
	7122	7799008829289		1	1	72050205	2019-01-05 12:36:04	12:36:04 PM	720502051249320.7055475PLM086	PLM086
	7122	7799008765563		1	1	72050205	2019-01-05 12:36:08	12:36:08 PM	720502051249320.7055475PLM086	PLM086
	7122	7799008766096		1	1	72050205	2019-01-05 12:36:09	12:36:09 PM	720502051249320.7055475PLM086	PLM086
	7122	7799008802107		1	1	72050205	2019-01-05 12:36:15	12:36:15 PM	720502051249320.7055475PLM086	PLM086
	7122	7799008824079		1	1	72050205	2019-01-05 12:36:22	12:36:22 PM	720502051249320.7055475PLM086	PLM086
	7122	7799008835815		1	1	72050205	2019-01-05 12:36:28	12:36:28 PM	720502051249320.7055475PLM086	PLM086
	7122	7799008750224		1	1	72050205	2019-01-05 12:36:30	12:36:30 PM	720502051249320.7055475PLM086	PLM086
	7122	7799008753409		1	1	72050205	2019-01-05 12:36:40	12:36:40 PM	720502051249320.7055475PLM086	PLM086
	7122	7799008802985		1	1	72050205	2019-01-05 12:36:42	12:36:42 PM	720502051249320.7055475PLM086	PLM086
	7122	7799008765174		1	1	72050205	2019-01-05 12:36:43	12:36:43 PM	720502051249320.7055475PLM086	PLM086
	7122	7799008802329		1	1	72050205	2019-01-05 12:36:44	12:36:44 PM	720502051249320.7055475PLM086	PLM086
	7122	7799008833866		1	1	72050205	2019-01-05 12:36:53	12:36:53 PM	720502051249320.7055475PLM086	PLM086
	7122	7799008779973		1	1	72050205	2019-01-05 12:36:54	12:36:54 PM	720502051249320.7055475PLM086	PLM086
	7122	7799008831459		1	1	72050205	2019-01-05 12:36:58	12:36:58 PM	720502051249320.7055475PLM086	PLM086
	7122	7799008591445		1	1	72050205	2019-01-05 12:37:00	12:37:00 PM	720502051249320.7055475PLM086	PLM086
	7122	7793730623283		1	1	72050205	2019-01-05 12:37:03	12:37:03 PM	720502051249320.7055475PLM086	PLM086
	7122	7799008765181		1	1	72050205	2019-01-05 12:37:05	12:37:05 PM	720502051249320.7055475PLM086	PLM086
	7122	7799008765167		1	1	72050205	2019-01-05 12:37:10	12:37:10 PM	720502051249320.7055475PLM086	PLM086
	7122	7799008802664		1	1	72050205	2019-01-05 12:37:11	12:37:11 PM	720502051249320.7055475PLM086	PLM086
	7122	7799008776002		1	1	72050205	2019-01-05 12:37:13	12:37:13 PM	720502051249320.7055475PLM086	PLM086
	7122	7799008802985		1	1	72050205	2019-01-05 12:37:15	12:37:15 PM	720502051249320.7055475PLM086	PLM086
	7122	7799008751443		1	1	72050205	2019-01-05 12:37:18	12:37:18 PM	720502051249320.7055475PLM086	PLM086
	7122	7799008751450		1	1	72050205	2019-01-05 12:37:22	12:37:22 PM	720502051249320.7055475PLM086	PLM086
	7122	7799008778907		1	1	72050205	2019-01-05 12:37:25	12:37:25 PM	720502051249320.7055475PLM086	PLM086
	7122	7799008767017		1	1	72050205	2019-01-05 12:37:31	12:37:31 PM	720502051249320.7055475PLM086	PLM086
	7122	7799008766089		1	1	72050205	2019-01-05 12:37:36	12:37:36 PM	720502051249320.7055475PLM086	PLM086
	7122	7799008765617		1	1	72050205	2019-01-05 12:37:39	12:37:39 PM	720502051249320.7055475PLM086	PLM086
	7122	7799008765457		1	1	72050205	2019-01-05 12:37:40	12:37:40 PM	720502051249320.7055475PLM086	PLM086
	7122	7799008780580		1	1	72050205	2019-01-05 12:37:49	12:37:49 PM	720502051249320.7055475PLM086	PLM086
	7122	7799008802480		1	1	72050205	2019-01-05 12:37:51	12:37:51 PM	720502051249320.7055475PLM086	PLM086
	7122	7799008828848		1	1	72050205	2019-01-05 12:37:56	12:37:56 PM	720502051249320.7055475PLM086	PLM086
	7122	7799008778501		1	1	72050205	2019-01-05 12:37:58	12:37:58 PM	720502051249320.7055475PLM086	PLM086
	7122	7799008802985		1	1	72050205	2019-01-05 12:38:01	12:38:01 PM	720502051249320.7055475PLM086	PLM086
	7122	7799008831480		1	1	72050205	2019-01-05 12:38:03	12:38:03 PM	720502051249320.7055475PLM086	PLM086
	7122	7799008778907		1	1	72050205	2019-01-05 12:38:07	12:38:07 PM	720502051249320.7055475PLM086	PLM086
	7122	7799008829289		1	1	72050205	2019-01-05 12:38:10	12:38:10 PM	720502051249320.7055475PLM086	PLM086
	7122	7799008751269		1	1	72050205	2019-01-05 12:38:12	12:38:12 PM	720502051249320.7055475PLM086	PLM086
	7122	7799008802671		1	1	72050205	2019-01-05 12:38:20	12:38:20 PM	720502051249320.7055475PLM086	PLM086
	7122	7799008753225		1	1	72050205	2019-01-05 12:38:21	12:38:21 PM	720502051249320.7055475PLM086	PLM086
	7122	7799008767000		1	1	72050205	2019-01-05 12:38:24	12:38:24 PM	720502051249320.7055475PLM086	PLM086
	7122	7799008824086		1	1	72050205	2019-01-05 12:38:27	12:38:27 PM	720502051249320.7055475PLM086	PLM086
	7122	7799008831480		1	1	72050205	2019-01-05 12:38:30	12:38:30 PM	720502051249320.7055475PLM086	PLM086
	7122	7799008753591		1	1	72050205	2019-01-05 12:38:39	12:38:39 PM	720502051249320.7055475PLM086	PLM086
	7122	7793730547077		1	1	72050205	2019-01-05 12:38:43	12:38:43 PM	720502051249320.7055475PLM086	PLM086
	7122	7799008802428		1	1	72050205	2019-01-05 12:38:45	12:38:45 PM	720502051249320.7055475PLM086	PLM086
	7122	7799008829722		1	1	72050205	2019-01-05 12:38:48	12:38:48 PM	720502051249320.7055475PLM086	PLM086
	7122	7799008751009		1	1	72050205	2019-01-05 12:38:51	12:38:51 PM	720502051249320.7055475PLM086	PLM086
	7122	7799008803180		1	1	72050205	2019-01-05 12:38:54	12:38:54 PM	720502051249320.7055475PLM086	PLM086
	7122	7799008753607		1	1	72050205	2019-01-05 12:39:00	12:39:00 PM	720502051249320.7055475PLM086	PLM086
	7122	7799008828824		1	1	72050205	2019-01-05 12:39:01	12:39:01 PM	720502051249320.7055475PLM086	PLM086
	7122	7799008830827		1	1	72050205	2019-01-05 12:39:05	12:39:05 PM	720502051249320.7055475PLM086	PLM086
	7122	7799008829074		1	1	72050205	2019-01-05 12:39:06	12:39:06 PM	720502051249320.7055475PLM086	PLM086
	7122	7799008201498		1	1	72050205	2019-01-05 12:39:08	12:39:08 PM	720502051249320.7055475PLM086	PLM086
	7122	7799008830810		1	1	72050205	2019-01-05 12:39:14	12:39:14 PM	720502051249320.7055475PLM086	PLM086
	7122	7793730546957		1	1	72050205	2019-01-05 12:39:16	12:39:16 PM	720502051249320.7055475PLM086	PLM086
	7122	7799008802329		1	1	72050205	2019-01-05 12:39:18	12:39:18 PM	720502051249320.7055475PLM086	PLM086
	7122	7799008765259		1	1	72050205	2019-01-05 12:39:22	12:39:22 PM	720502051249320.7055475PLM086	PLM086
	7122	7799008753638		1	1	72050205	2019-01-05 12:39:25	12:39:25 PM	720502051249320.7055475PLM086	PLM086
	7122	7799008830520		1	1	72050205	2019-01-05 12:39:27	12:39:27 PM	720502051249320.7055475PLM086	PLM086
	7122	7799008539294		1	1	72050205	2019-01-05 12:39:30	12:39:30 PM	720502051249320.7055475PLM086	PLM086
	7122	7799008802497		1	1	72050205	2019-01-05 12:39:37	12:39:37 PM	720502051249320.7055475PLM086	PLM086
	7122	7799008753195		1	1	72050205	2019-01-05 12:39:40	12:39:40 PM	720502051249320.7055475PLM086	PLM086
	7122	7799008803012		1	1	72050205	2019-01-05 12:39:42	12:39:42 PM	720502051249320.7055475PLM086	PLM086
	7122	7799008753553		1	1	72050205	2019-01-05 12:39:45	12:39:45 PM	720502051249320.7055475PLM086	PLM086
	7122	7799008802985		1	1	72050205	2019-01-05 12:39:49	12:39:49 PM	720502051249320.7055475PLM086	PLM086
	7122	7799008831497		1	1	72050205	2019-01-05 12:39:50	12:39:50 PM	720502051249320.7055475PLM086	PLM086
	7122	7799008833842		1	1	72050205	2019-01-05 12:39:52	12:39:52 PM	720502051249320.7055475PLM086	PLM086
	7122	7799008802138		1	1	72050205	2019-01-05 12:39:56	12:39:56 PM	720502051249320.7055475PLM086	PLM086
	7122	7799008752532		1	1	72050205	2019-01-05 12:40:00	12:40:00 PM	720502051249320.7055475PLM086	PLM086
	7122	7799008830827		1	1	72050205	2019-01-05 12:40:07	12:40:07 PM	720502051249320.7055475PLM086	PLM086
	7122	7799008831497		1	1	72050205	2019-01-05 12:40:10	12:40:10 PM	720502051249320.7055475PLM086	PLM086
	7122	7799008765488		1	1	72050205	2019-01-05 12:40:13	12:40:13 PM	720502051249320.7055475PLM086	PLM086
	7122	7799008776255		1	1	72050205	2019-01-05 12:40:17	12:40:17 PM	720502051249320.7055475PLM086	PLM086
	7122	7799008753584		1	1	72050205	2019-01-05 12:40:23	12:40:23 PM	720502051249320.7055475PLM086	PLM086
	7122	7799008413211		1	1	72050205	2019-01-05 12:40:27	12:40:27 PM	720502051249320.7055475PLM086	PLM086
	7122	7799008413242		1	1	72050205	2019-01-05 12:40:29	12:40:29 PM	720502051249320.7055475PLM086	PLM086
	7122	7799008802497		1	1	72050205	2019-01-05 12:40:32	12:40:32 PM	720502051249320.7055475PLM086	PLM086
	7122	7799008765174		1	1	72050205	2019-01-05 12:40:34	12:40:34 PM	720502051249320.7055475PLM086	PLM086
	7122	7799008778518		1	1	72050205	2019-01-05 12:40:39	12:40:39 PM	720502051249320.7055475PLM086	PLM086
	7122	7799008833811		1	1	72050205	2019-01-05 12:40:41	12:40:41 PM	720502051249320.7055475PLM086	PLM086
	7122	7799008776231		1	1	72050205	2019-01-05 12:40:46	12:40:46 PM	720502051249320.7055475PLM086	PLM086
	7122	7799008765600		1	1	72050205	2019-01-05 12:40:48	12:40:48 PM	720502051249320.7055475PLM086	PLM086
	7122	7799008778914		1	1	72050205	2019-01-05 12:40:50	12:40:50 PM	720502051249320.7055475PLM086	PLM086
	7122	7799008765266		1	1	72050205	2019-01-05 12:40:52	12:40:52 PM	720502051249320.7055475PLM086	PLM086
	7122	7799008776224		1	1	72050205	2019-01-05 12:40:58	12:40:58 PM	720502051249320.7055475PLM086	PLM086
	7122	7799008765617		1	1	72050205	2019-01-05 12:41:01	12:41:01 PM	720502051249320.7055475PLM086	PLM086
	7122	7799008824086		1	1	72050205	2019-01-05 12:41:05	12:41:05 PM	720502051249320.7055475PLM086	PLM086
	7122	7799008742458		1	1	72050205	2019-01-05 12:41:07	12:41:07 PM	720502051249320.7055475PLM086	PLM086
	7122	7799008802459		1	1	72050205	2019-01-05 12:41:11	12:41:11 PM	720502051249320.7055475PLM086	PLM086
	7122	7799008753386		1	1	72050205	2019-01-05 12:41:13	12:41:13 PM	720502051249320.7055475PLM086	PLM086
	7122	7799008765181		1	1	72050205	2019-01-05 12:41:19	12:41:19 PM	720502051249320.7055475PLM086	PLM086
	7122	7799008824079		1	1	72050205	2019-01-05 12:41:21	12:41:21 PM	720502051249320.7055475PLM086	PLM086
	7122	7799008753638		1	1	72050205	2019-01-05 12:41:26	12:41:26 PM	720502051249320.7055475PLM086	PLM086
	7122	7799008765198		1	1	72050205	2019-01-05 12:41:27	12:41:27 PM	720502051249320.7055475PLM086	PLM086
	7122	7799008753614		1	1	72050205	2019-01-05 12:41:33	12:41:33 PM	720502051249320.7055475PLM086	PLM086
	7122	7799008802442		1	1	72050205	2019-01-05 12:41:34	12:41:34 PM	720502051249320.7055475PLM086	PLM086
	7122	7799008828206		1	1	72050205	2019-01-05 12:41:40	12:41:40 PM	720502051249320.7055475PLM086	PLM086
	7122	7799008776002		1	1	72050205	2019-01-05 12:41:42	12:41:42 PM	720502051249320.7055475PLM086	PLM086
	7122	7799008824062		1	1	72050205	2019-01-05 12:41:55	12:41:55 PM	720502051249320.7055475PLM086	PLM086
	7122	7799008829715		1	1	72050205	2019-01-05 12:41:56	12:41:56 PM	720502051249320.7055475PLM086	PLM086
	7122	7799008751405		1	1	72050205	2019-01-05 12:41:59	12:41:59 PM	720502051249320.7055475PLM086	PLM086
	7122	7799008765617		1	1	72050205	2019-01-05 12:42:01	12:42:01 PM	720502051249320.7055475PLM086	PLM086
	7122	7799008765174		1	1	72050205	2019-01-05 12:42:03	12:42:03 PM	720502051249320.7055475PLM086	PLM086
	7122	7799008829036		1	1	72050205	2019-01-05 12:42:08	12:42:08 PM	720502051249320.7055475PLM086	PLM086
	7122	7799008776026		1	1	72050205	2019-01-05 12:42:09	12:42:09 PM	720502051249320.7055475PLM086	PLM086
	7122	7793730547077		1	1	72050205	2019-01-05 12:42:14	12:42:14 PM	720502051249320.7055475PLM086	PLM086
	7122	7799008751238		1	1	72050205	2019-01-05 12:42:16	12:42:16 PM	720502051249320.7055475PLM086	PLM086
	7122	7799008751436		1	1	72050205	2019-01-05 12:42:19	12:42:19 PM	720502051249320.7055475PLM086	PLM086
	7122	7799008824055		1	1	72050205	2019-01-05 12:42:21	12:42:21 PM	720502051249320.7055475PLM086	PLM086
	7122	7799008778501		1	1	72050205	2019-01-05 12:42:25	12:42:25 PM	720502051249320.7055475PLM086	PLM086
	7122	7799008833842		1	1	72050205	2019-01-05 12:42:26	12:42:26 PM	720502051249320.7055475PLM086	PLM086
	7122	7799008766997		1	1	72050205	2019-01-05 12:42:30	12:42:30 PM	720502051249320.7055475PLM086	PLM086
	7122	7799008802435		1	1	72050205	2019-01-05 12:42:31	12:42:31 PM	720502051249320.7055475PLM086	PLM086
	7122	7799008830810		1	1	72050205	2019-01-05 12:42:35	12:42:35 PM	720502051249320.7055475PLM086	PLM086
	7122	7799008802398		1	1	72050205	2019-01-05 12:42:38	12:42:38 PM	720502051249320.7055475PLM086	PLM086
	7122	7799008776033		1	1	72050205	2019-01-05 12:42:42	12:42:42 PM	720502051249320.7055475PLM086	PLM086
	7122	7799008766997		1	1	72050205	2019-01-05 12:42:44	12:42:44 PM	720502051249320.7055475PLM086	PLM086
	7122	7799008802473		1	1	72050205	2019-01-05 12:42:50	12:42:50 PM	720502051249320.7055475PLM086	PLM086
	7122	7799008776224		1	1	72050205	2019-01-05 12:42:51	12:42:51 PM	720502051249320.7055475PLM086	PLM086
	7122	7799008830827		1	1	72050205	2019-01-05 12:42:54	12:42:54 PM	720502051249320.7055475PLM086	PLM086
	7122	7799008830506		1	1	72050205	2019-01-05 12:42:57	12:42:57 PM	720502051249320.7055475PLM086	PLM086
	7122	7799008765181		1	1	72050205	2019-01-05 12:43:01	12:43:01 PM	720502051249320.7055475PLM086	PLM086
	7122	7799008829708		1	1	72050205	2019-01-05 12:43:03	12:43:03 PM	720502051249320.7055475PLM086	PLM086
	7122	7799008830483		1	1	72050205	2019-01-05 12:43:04	12:43:04 PM	720502051249320.7055475PLM086	PLM086
	7122	7799008776255		1	1	72050205	2019-01-05 12:43:09	12:43:09 PM	720502051249320.7055475PLM086	PLM086
	7122	7799008765488		1	1	72050205	2019-01-05 12:43:11	12:43:11 PM	720502051249320.7055475PLM086	PLM086
	7122	7799008751009		1	1	72050205	2019-01-05 12:43:14	12:43:14 PM	720502051249320.7055475PLM086	PLM086
	7122	7799008751443		1	1	72050205	2019-01-05 12:43:16	12:43:16 PM	720502051249320.7055475PLM086	PLM086
	7122	7799008802992		1	1	72050205	2019-01-05 12:43:21	12:43:21 PM	720502051249320.7055475PLM086	PLM086
	7122	7799008751382		1	1	72050205	2019-01-05 12:43:23	12:43:23 PM	720502051249320.7055475PLM086	PLM086
	7122	7799008829722		1	1	72050205	2019-01-05 12:43:25	12:43:25 PM	720502051249320.7055475PLM086	PLM086
	7122	7799008753621		1	1	72050205	2019-01-05 12:43:29	12:43:29 PM	720502051249320.7055475PLM086	PLM086
	7122	7799008830483		1	1	72050205	2019-01-05 12:43:31	12:43:31 PM	720502051249320.7055475PLM086	PLM086
	7122	7799008802114		1	1	72050205	2019-01-05 12:43:37	12:43:37 PM	720502051249320.7055475PLM086	PLM086
	7122	7799008829883		1	1	72050205	2019-01-05 12:43:38	12:43:38 PM	720502051249320.7055475PLM086	PLM086
	7122	7799008638935		1	1	72050205	2019-01-05 12:43:43	12:43:43 PM	720502051249320.7055475PLM086	PLM086
	7122	7799008830827		1	1	72050205	2019-01-05 12:43:44	12:43:44 PM	720502051249320.7055475PLM086	PLM086
	7122	7799008824062		1	1	72050205	2019-01-05 12:43:49	12:43:49 PM	720502051249320.7055475PLM086	PLM086
	7122	7799008833828		1	1	72050205	2019-01-05 12:43:50	12:43:50 PM	720502051249320.7055475PLM086	PLM086
	7122	7799008802459		1	1	72050205	2019-01-05 12:43:54	12:43:54 PM	720502051249320.7055475PLM086	PLM086
	7122	7799008778495		1	1	72050205	2019-01-05 12:43:56	12:43:56 PM	720502051249320.7055475PLM086	PLM086
	7122	7799008829845		1	1	72050205	2019-01-05 12:43:59	12:43:59 PM	720502051249320.7055475PLM086	PLM086
	7122	7799008829753		1	1	72050205	2019-01-05 12:44:07	12:44:07 PM	720502051249320.7055475PLM086	PLM086
	7122	7799008765600		1	1	72050205	2019-01-05 12:44:08	12:44:08 PM	720502051249320.7055475PLM086	PLM086
	7122	7799008751405		1	1	72050205	2019-01-05 12:44:09	12:44:09 PM	720502051249320.7055475PLM086	PLM086
	7122	7799008829784		1	1	72050205	2019-01-05 12:44:14	12:44:14 PM	720502051249320.7055475PLM086	PLM086
	7122	7799008438436		1	1	72050205	2019-01-05 12:44:18	12:44:18 PM	720502051249320.7055475PLM086	PLM086
	7122	7799008802428		1	1	72050205	2019-01-05 12:44:19	12:44:19 PM	720502051249320.7055475PLM086	PLM086
	7122	7799008778907		1	1	72050205	2019-01-05 12:44:25	12:44:25 PM	720502051249320.7055475PLM086	PLM086
	7122	7799008836089		1	1	72050205	2019-01-05 12:44:27	12:44:27 PM	720502051249320.7055475PLM086	PLM086
	7122	7799008752631		1	1	72050205	2019-01-05 12:44:32	12:44:32 PM	720502051249320.7055475PLM086	PLM086
	7122	7799008779973		1	1	72050205	2019-01-05 12:44:34	12:44:34 PM	720502051249320.7055475PLM086	PLM086
	7122	7799008766072		1	1	72050205	2019-01-05 12:44:37	12:44:37 PM	720502051249320.7055475PLM086	PLM086
	7122	7799008830834		1	1	72050205	2019-01-05 12:44:40	12:44:40 PM	720502051249320.7055475PLM086	PLM086
	7122	7799008824062		1	1	72050205	2019-01-05 12:44:46	12:44:46 PM	720502051249320.7055475PLM086	PLM086
	7122	7799008776026		1	1	72050205	2019-01-05 12:44:47	12:44:47 PM	720502051249320.7055475PLM086	PLM086
	7122	7799008833828		1	1	72050205	2019-01-05 12:44:51	12:44:51 PM	720502051249320.7055475PLM086	PLM086
	7122	7799008802107		1	1	72050205	2019-01-05 12:44:52	12:44:52 PM	720502051249320.7055475PLM086	PLM086
	7122	7799008802336		1	1	72050205	2019-01-05 12:44:55	12:44:55 PM	720502051249320.7055475PLM086	PLM086
	7122	7799008836058		1	1	72050205	2019-01-05 12:44:58	12:44:58 PM	720502051249320.7055475PLM086	PLM086
	7122	7799008766997		1	1	72050205	2019-01-05 12:45:02	12:45:02 PM	720502051249320.7055475PLM086	PLM086
	7122	7799008836539		1	1	72050205	2019-01-05 12:45:03	12:45:03 PM	720502051249320.7055475PLM086	PLM086
	7122	7799008776255		1	1	72050205	2019-01-05 12:45:08	12:45:08 PM	720502051249320.7055475PLM086	PLM086
	7122	7799008753393		1	1	72050205	2019-01-05 12:45:10	12:45:10 PM	720502051249320.7055475PLM086	PLM086
	7122	7799008829784		1	1	72050205	2019-01-05 12:45:12	12:45:12 PM	720502051249320.7055475PLM086	PLM086
	7122	7799008765174		1	1	72050205	2019-01-05 12:45:14	12:45:14 PM	720502051249320.7055475PLM086	PLM086
	7122	7799008432243		1	1	72050205	2019-01-05 12:45:20	12:45:20 PM	720502051249320.7055475PLM086	PLM086
	7122	7799008776019		1	1	72050205	2019-01-05 12:45:22	12:45:22 PM	720502051249320.7055475PLM086	PLM086
	7122	7799008766089		1	1	72050205	2019-01-05 12:45:24	12:45:24 PM	720502051249320.7055475PLM086	PLM086
	7122	7799008802442		1	1	72050205	2019-01-05 12:45:29	12:45:29 PM	720502051249320.7055475PLM086	PLM086
	7122	7799008828930		1	1	72050205	2019-01-05 12:45:32	12:45:32 PM	720502051249320.7055475PLM086	PLM086
	7122	7799008829791		1	1	72050205	2019-01-05 12:45:36	12:45:36 PM	720502051249320.7055475PLM086	PLM086
	7122	7799008765181		1	1	72050205	2019-01-05 12:45:38	12:45:38 PM	720502051249320.7055475PLM086	PLM086
	7122	7799008742441		1	1	72050205	2019-01-05 12:45:42	12:45:42 PM	720502051249320.7055475PLM086	PLM086
	7122	7799008802107		1	1	72050205	2019-01-05 12:45:44	12:45:44 PM	720502051249320.7055475PLM086	PLM086
	7122	7799008802497		1	1	72050205	2019-01-05 12:45:49	12:45:49 PM	720502051249320.7055475PLM086	PLM086
	7122	7799008802107		1	1	72050205	2019-01-05 12:45:51	12:45:51 PM	720502051249320.7055475PLM086	PLM086
	7122	7799008765181		1	1	72050205	2019-01-05 12:45:55	12:45:55 PM	720502051249320.7055475PLM086	PLM086
	7122	7799008765174		1	1	72050205	2019-01-05 12:45:57	12:45:57 PM	720502051249320.7055475PLM086	PLM086
	7122	7799008830827		1	1	72050205	2019-01-05 12:46:03	12:46:03 PM	720502051249320.7055475PLM086	PLM086
	7122	7799008776019		1	1	72050205	2019-01-05 12:46:04	12:46:04 PM	720502051249320.7055475PLM086	PLM086
	7122	7799008751467		1	1	72050205	2019-01-05 12:46:09	12:46:09 PM	720502051249320.7055475PLM086	PLM086
	7122	7799008828213		1	1	72050205	2019-01-05 12:46:10	12:46:10 PM	720502051249320.7055475PLM086	PLM086
	7122	7799008778907		1	1	72050205	2019-01-05 12:46:15	12:46:15 PM	720502051249320.7055475PLM086	PLM086
	7122	7799008828183		1	1	72050205	2019-01-05 12:46:16	12:46:16 PM	720502051249320.7055475PLM086	PLM086
	7122	7799008776248		1	1	72050205	2019-01-05 12:46:19	12:46:19 PM	720502051249320.7055475PLM086	PLM086
	7122	7799008802466		1	1	72050205	2019-01-05 12:46:23	12:46:23 PM	720502051249320.7055475PLM086	PLM086
	7122	7799008751269		1	1	72050205	2019-01-05 12:46:26	12:46:26 PM	720502051249320.7055475PLM086	PLM086
	7122	7799008830483		1	1	72050205	2019-01-05 12:46:28	12:46:28 PM	720502051249320.7055475PLM086	PLM086
	7122	7799008765198		1	1	72050205	2019-01-05 12:46:37	12:46:37 PM	720502051249320.7055475PLM086	PLM086
	7122	7799008765600		1	1	72050205	2019-01-05 12:46:40	12:46:40 PM	720502051249320.7055475PLM086	PLM086
