	3375	7799008938561		42	2	73479832	2013-01-09 12:52:56	12:52 PM	734798321324160.7607236PLM062	PLM062
	3376	7799008384498		96	2	73479832	2013-01-09 12:54:21	12:54 PM	734798321324160.7607236PLM062	PLM062
	3377	7799008384498		66	2	73479832	2013-01-09 12:56:25	12:56 PM	734798321324160.7607236PLM062	PLM062
	3378	7799021052930		9	2	73479832	2013-01-09 12:57:20	12:57 PM	734798321324160.7607236PLM062	PLM062
	3373	7799008874241		30	2	73479832	2013-01-09 12:58:35	12:58 PM	734798321324160.7607236PLM062	PLM062
	3373	7799008874241		15	2	73479832	2013-01-09 12:58:51	12:58 PM	734798321324160.7607236PLM062	PLM062
	3374	7799008384498		96	2	73479832	2013-01-09 13:00:14	1:00 PM	734798321324160.7607236PLM062	PLM062
	3386	7799021057683		99	2	73479832	2013-01-09 13:06:01	1:06 PM	734798321324160.7607236PLM062	PLM062
	3387	7799021057713		129	2	73479832	2013-01-09 13:12:23	1:12 PM	734798321324160.7607236PLM062	PLM062
	3389	7799008996110		50	2	73479832	2013-01-09 13:16:47	1:16 PM	734798321324160.7607236PLM062	PLM062
