	7127	7799008780641		1	1	73479832	2019-01-05 18:08:10	6:08:10 PM	73479832183910.2895625PLM067	PLM067
	7127	7799008755472		1	1	73479832	2019-01-05 18:08:13	6:08:13 PM	73479832183910.2895625PLM067	PLM067
	7127	7799008846910		1	1	73479832	2019-01-05 18:08:36	6:08:36 PM	73479832183910.2895625PLM067	PLM067
	7127	7799008677750		1	1	73479832	2019-01-05 18:08:45	6:08:45 PM	73479832183910.2895625PLM067	PLM067
	7127	7799008758114		1	1	73479832	2019-01-05 18:09:01	6:09:01 PM	73479832183910.2895625PLM067	PLM067
	7127	7799008758114		1	1	73479832	2019-01-05 18:09:44	6:09:44 PM	73479832183910.2895625PLM067	PLM067
	7127	7799008758114		1	1	73479832	2019-01-05 18:09:54	6:09:54 PM	73479832183910.2895625PLM067	PLM067
	7127	7799008758114		1	1	73479832	2019-01-05 18:09:58	6:09:58 PM	73479832183910.2895625PLM067	PLM067
	7127	7799008758114		1	1	73479832	2019-01-05 18:10:09	6:10:09 PM	73479832183910.2895625PLM067	PLM067
	7127	7799008758114		1	1	73479832	2019-01-05 18:10:10	6:10:10 PM	73479832183910.2895625PLM067	PLM067
	7127	7799008758114		1	1	73479832	2019-01-05 18:10:13	6:10:13 PM	73479832183910.2895625PLM067	PLM067
	7127	7799008779485		1	1	73479832	2019-01-05 18:10:17	6:10:17 PM	73479832183910.2895625PLM067	PLM067
	7127	7799008780993		1	1	73479832	2019-01-05 18:10:38	6:10:38 PM	73479832183910.2895625PLM067	PLM067
	7127	7799008780993		1	1	73479832	2019-01-05 18:10:39	6:10:39 PM	73479832183910.2895625PLM067	PLM067
	7127	7799008846934		1	1	73479832	2019-01-05 18:10:48	6:10:48 PM	73479832183910.2895625PLM067	PLM067
	7127	7799008781013		1	1	73479832	2019-01-05 18:10:51	6:10:51 PM	73479832183910.2895625PLM067	PLM067
	7127	7799008781013		1	1	73479832	2019-01-05 18:11:08	6:11:08 PM	73479832183910.2895625PLM067	PLM067
	7127	7799008846934		1	1	73479832	2019-01-05 18:11:13	6:11:13 PM	73479832183910.2895625PLM067	PLM067
	7127	7799008847092		1	1	73479832	2019-01-05 18:11:33	6:11:33 PM	73479832183910.2895625PLM067	PLM067
	7127	7799008847092		1	1	73479832	2019-01-05 18:11:39	6:11:39 PM	73479832183910.2895625PLM067	PLM067
	7127	7799008677750		1	1	73479832	2019-01-05 18:11:51	6:11:51 PM	73479832183910.2895625PLM067	PLM067
	7127	7799008827780		1	1	73479832	2019-01-05 18:12:00	6:12:00 PM	73479832183910.2895625PLM067	PLM067
	7127	7799008771311		1	1	73479832	2019-01-05 18:12:13	6:12:13 PM	73479832183910.2895625PLM067	PLM067
	7127	7799008771311		1	1	73479832	2019-01-05 18:12:18	6:12:18 PM	73479832183910.2895625PLM067	PLM067
	7127	7799008771311		1	1	73479832	2019-01-05 18:12:20	6:12:20 PM	73479832183910.2895625PLM067	PLM067
	7127	7799008771311		1	1	73479832	2019-01-05 18:12:21	6:12:21 PM	73479832183910.2895625PLM067	PLM067
	7127	7799008771311		1	1	73479832	2019-01-05 18:12:23	6:12:23 PM	73479832183910.2895625PLM067	PLM067
	7127	7799008836003		1	1	73479832	2019-01-05 18:12:34	6:12:34 PM	73479832183910.2895625PLM067	PLM067
	7127	7799008747187		1	1	73479832	2019-01-05 18:12:56	6:12:56 PM	73479832183910.2895625PLM067	PLM067
	7127	7799008747187		1	1	73479832	2019-01-05 18:12:58	6:12:58 PM	73479832183910.2895625PLM067	PLM067
	7127	7799008767802		1	1	73479832	2019-01-05 18:13:08	6:13:08 PM	73479832183910.2895625PLM067	PLM067
	7127	7799008829432		1	1	73479832	2019-01-05 18:13:13	6:13:13 PM	73479832183910.2895625PLM067	PLM067
	7127	7799008829432		1	1	73479832	2019-01-05 18:13:19	6:13:19 PM	73479832183910.2895625PLM067	PLM067
	7127	7799008835280		1	1	73479832	2019-01-05 18:13:22	6:13:22 PM	73479832183910.2895625PLM067	PLM067
	7127	7799008835280		1	1	73479832	2019-01-05 18:13:24	6:13:24 PM	73479832183910.2895625PLM067	PLM067
	7127	7799008836010		1	1	73479832	2019-01-05 18:13:31	6:13:31 PM	73479832183910.2895625PLM067	PLM067
	7127	7799008835600		1	1	73479832	2019-01-05 18:13:37	6:13:37 PM	73479832183910.2895625PLM067	PLM067
	7127	7799008835600		1	1	73479832	2019-01-05 18:13:39	6:13:39 PM	73479832183910.2895625PLM067	PLM067
	7127	7799008836003		1	1	73479832	2019-01-05 18:13:46	6:13:46 PM	73479832183910.2895625PLM067	PLM067
	7127	7799008771885		1	1	73479832	2019-01-05 18:13:52	6:13:52 PM	73479832183910.2895625PLM067	PLM067
	7127	7799008831619		1	1	73479832	2019-01-05 18:14:04	6:14:04 PM	73479832183910.2895625PLM067	PLM067
	7127	7799008831619		1	1	73479832	2019-01-05 18:14:06	6:14:06 PM	73479832183910.2895625PLM067	PLM067
	7127	7799008831602		1	1	73479832	2019-01-05 18:14:08	6:14:08 PM	73479832183910.2895625PLM067	PLM067
	7127	7799008580449		1	1	73479832	2019-01-05 18:14:25	6:14:25 PM	73479832183910.2895625PLM067	PLM067
	7127	7799008827759		1	1	73479832	2019-01-05 18:15:04	6:15:04 PM	73479832183910.2895625PLM067	PLM067
	7127	7799008807935		1	1	73479832	2019-01-05 18:15:09	6:15:09 PM	73479832183910.2895625PLM067	PLM067
	7127	7799008823799		1	1	73479832	2019-01-05 18:15:16	6:15:16 PM	73479832183910.2895625PLM067	PLM067
	7127	7799008823799		1	1	73479832	2019-01-05 18:15:18	6:15:18 PM	73479832183910.2895625PLM067	PLM067
	7127	7799008836119		1	1	73479832	2019-01-05 18:15:32	6:15:32 PM	73479832183910.2895625PLM067	PLM067
	7127	7799008831589		1	1	73479832	2019-01-05 18:15:46	6:15:46 PM	73479832183910.2895625PLM067	PLM067
	7127	7799008831541		1	1	73479832	2019-01-05 18:15:57	6:15:57 PM	73479832183910.2895625PLM067	PLM067
	7127	7799008831558		1	1	73479832	2019-01-05 18:15:58	6:15:58 PM	73479832183910.2895625PLM067	PLM067
	7127	7799008831558		1	1	73479832	2019-01-05 18:16:03	6:16:03 PM	73479832183910.2895625PLM067	PLM067
	7127	7799008781136		1	1	73479832	2019-01-05 18:16:31	6:16:31 PM	73479832183910.2895625PLM067	PLM067
	7127	7799008755274		1	1	73479832	2019-01-05 18:17:03	6:17:03 PM	73479832183910.2895625PLM067	PLM067
	7127	7799008767796		1	1	73479832	2019-01-05 18:17:07	6:17:07 PM	73479832183910.2895625PLM067	PLM067
	7127	7799008772110		1	1	73479832	2019-01-05 18:17:20	6:17:20 PM	73479832183910.2895625PLM067	PLM067
	7127	7799008772110		1	1	73479832	2019-01-05 18:17:21	6:17:21 PM	73479832183910.2895625PLM067	PLM067
	7127	7799008772110		1	1	73479832	2019-01-05 18:17:23	6:17:23 PM	73479832183910.2895625PLM067	PLM067
	7127	7799008750040		1	1	73479832	2019-01-05 18:17:41	6:17:41 PM	73479832183910.2895625PLM067	PLM067
	7127	7799008780405		1	1	73479832	2019-01-05 18:17:43	6:17:43 PM	73479832183910.2895625PLM067	PLM067
	7127	7799008836560		1	1	73479832	2019-01-05 18:17:52	6:17:52 PM	73479832183910.2895625PLM067	PLM067
	7127	7799008781112		1	1	73479832	2019-01-05 18:18:03	6:18:03 PM	73479832183910.2895625PLM067	PLM067
	7127	7799008750033		1	1	73479832	2019-01-05 18:18:33	6:18:33 PM	73479832183910.2895625PLM067	PLM067
	7127	7799008750033		1	1	73479832	2019-01-05 18:18:35	6:18:35 PM	73479832183910.2895625PLM067	PLM067
	7127	7799008738031		1	1	73479832	2019-01-05 18:19:11	6:19:11 PM	73479832183910.2895625PLM067	PLM067
	7127	7799008755298		1	1	73479832	2019-01-05 18:19:21	6:19:21 PM	73479832183910.2895625PLM067	PLM067
	7127	7799008755298		1	1	73479832	2019-01-05 18:19:38	6:19:38 PM	73479832183910.2895625PLM067	PLM067
	7127	7799008755298		1	1	73479832	2019-01-05 18:19:42	6:19:42 PM	73479832183910.2895625PLM067	PLM067
	7127	7799008755298		1	1	73479832	2019-01-05 18:19:44	6:19:44 PM	73479832183910.2895625PLM067	PLM067
	7127	7799008755298		1	1	73479832	2019-01-05 18:19:48	6:19:48 PM	73479832183910.2895625PLM067	PLM067
	7127	7799008779676		1	1	73479832	2019-01-05 18:20:19	6:20:19 PM	73479832183910.2895625PLM067	PLM067
	7127	7799008780504		1	1	73479832	2019-01-05 18:20:41	6:20:41 PM	73479832183910.2895625PLM067	PLM067
	7127	7799008772431		1	1	73479832	2019-01-05 18:20:50	6:20:50 PM	73479832183910.2895625PLM067	PLM067
	7127	7799008757599		1	1	73479832	2019-01-05 18:21:21	6:21:21 PM	73479832183910.2895625PLM067	PLM067
	7127	7799008757599		1	1	73479832	2019-01-05 18:21:23	6:21:23 PM	73479832183910.2895625PLM067	PLM067
	7127	7799008757582		1	1	73479832	2019-01-05 18:21:26	6:21:26 PM	73479832183910.2895625PLM067	PLM067
	7127	7799008780252		1	1	73479832	2019-01-05 18:22:04	6:22:04 PM	73479832183910.2895625PLM067	PLM067
	7127	7799008780252		1	1	73479832	2019-01-05 18:22:08	6:22:08 PM	73479832183910.2895625PLM067	PLM067
	7127	7799008780252		1	1	73479832	2019-01-05 18:22:10	6:22:10 PM	73479832183910.2895625PLM067	PLM067
	7127	7799008779249		1	1	73479832	2019-01-05 18:22:31	6:22:31 PM	73479832183910.2895625PLM067	PLM067
	7127	7799008833767		1	1	73479832	2019-01-05 18:22:52	6:22:52 PM	73479832183910.2895625PLM067	PLM067
	7127	7799008833767		1	1	73479832	2019-01-05 18:22:52	6:22:52 PM	73479832183910.2895625PLM067	PLM067
	7127	7799008834184		1	1	73479832	2019-01-05 18:23:01	6:23:01 PM	73479832183910.2895625PLM067	PLM067
	7127	7799008677774		1	1	73479832	2019-01-05 18:23:06	6:23:06 PM	73479832183910.2895625PLM067	PLM067
	7127	7799008677774		1	1	73479832	2019-01-05 18:23:09	6:23:09 PM	73479832183910.2895625PLM067	PLM067
	7127	7799008924588		1	1	73479832	2019-01-05 18:23:17	6:23:17 PM	73479832183910.2895625PLM067	PLM067
	7127	7799008836270		1	1	73479832	2019-01-05 18:23:42	6:23:42 PM	73479832183910.2895625PLM067	PLM067
	7127	7799008836270		1	1	73479832	2019-01-05 18:23:47	6:23:47 PM	73479832183910.2895625PLM067	PLM067
	7127	7799008836270		1	1	73479832	2019-01-05 18:23:56	6:23:56 PM	73479832183910.2895625PLM067	PLM067
	7127	7799008836270		1	1	73479832	2019-01-05 18:24:01	6:24:01 PM	73479832183910.2895625PLM067	PLM067
	7127	7799008831619		1	1	73479832	2019-01-05 18:24:16	6:24:16 PM	73479832183910.2895625PLM067	PLM067
	7127	7799008771366		1	1	73479832	2019-01-05 18:24:27	6:24:27 PM	73479832183910.2895625PLM067	PLM067
	7127	7799008780764		1	1	73479832	2019-01-05 18:25:00	6:25:00 PM	73479832183910.2895625PLM067	PLM067
	7127	7799008780764		1	1	73479832	2019-01-05 18:25:02	6:25:02 PM	73479832183910.2895625PLM067	PLM067
	7127	7799008779287		1	1	73479832	2019-01-05 18:25:15	6:25:15 PM	73479832183910.2895625PLM067	PLM067
	7127	7799008833774		1	1	73479832	2019-01-05 18:25:42	6:25:42 PM	73479832183910.2895625PLM067	PLM067
	7127	7799008829661		1	1	73479832	2019-01-05 18:25:49	6:25:49 PM	73479832183910.2895625PLM067	PLM067
	7127	7799008779249		1	1	73479832	2019-01-05 18:25:55	6:25:55 PM	73479832183910.2895625PLM067	PLM067
	7127	7799008779249		1	1	73479832	2019-01-05 18:25:56	6:25:56 PM	73479832183910.2895625PLM067	PLM067
	7127	7799008829463		1	1	73479832	2019-01-05 18:26:05	6:26:05 PM	73479832183910.2895625PLM067	PLM067
	7127	7799008780221		1	1	73479832	2019-01-05 18:26:10	6:26:10 PM	73479832183910.2895625PLM067	PLM067
	7127	7799008831596		1	1	73479832	2019-01-05 18:26:13	6:26:13 PM	73479832183910.2895625PLM067	PLM067
	7127	7799008831596		1	1	73479832	2019-01-05 18:26:16	6:26:16 PM	73479832183910.2895625PLM067	PLM067
	7127	7799008827872		1	1	73479832	2019-01-05 18:26:27	6:26:27 PM	73479832183910.2895625PLM067	PLM067
	7127	7799008780528		1	1	73479832	2019-01-05 18:26:45	6:26:45 PM	73479832183910.2895625PLM067	PLM067
	7127	7799008778976		1	1	73479832	2019-01-05 18:27:00	6:27:00 PM	73479832183910.2895625PLM067	PLM067
	7127	7799008830483		1	1	73479832	2019-01-05 18:27:08	6:27:08 PM	73479832183910.2895625PLM067	PLM067
	7127	7799008755205		1	1	73479832	2019-01-05 18:27:13	6:27:13 PM	73479832183910.2895625PLM067	PLM067
	7127	7799008780764		1	1	73479832	2019-01-05 18:27:37	6:27:37 PM	73479832183910.2895625PLM067	PLM067
	7127	7799008742366		1	1	73479832	2019-01-05 18:27:49	6:27:49 PM	73479832183910.2895625PLM067	PLM067
	7127	7799008833774		1	1	73479832	2019-01-05 18:27:58	6:27:58 PM	73479832183910.2895625PLM067	PLM067
	7127	7799008779461		1	1	73479832	2019-01-05 18:28:09	6:28:09 PM	73479832183910.2895625PLM067	PLM067
	7127	7799008833828		1	1	73479832	2019-01-05 18:28:14	6:28:14 PM	73479832183910.2895625PLM067	PLM067
	7127	7799008776224		1	1	73479832	2019-01-05 18:28:24	6:28:24 PM	73479832183910.2895625PLM067	PLM067
	7127	7799008835129		1	1	73479832	2019-01-05 18:28:47	6:28:47 PM	73479832183910.2895625PLM067	PLM067
	7127	7799008835112		1	1	73479832	2019-01-05 18:28:50	6:28:50 PM	73479832183910.2895625PLM067	PLM067
	7127	7799008835129		1	1	73479832	2019-01-05 18:28:51	6:28:51 PM	73479832183910.2895625PLM067	PLM067
	7127	7799008827759		1	1	73479832	2019-01-05 18:29:09	6:29:09 PM	73479832183910.2895625PLM067	PLM067
	7127	7799008755496		1	1	73479832	2019-01-05 18:29:28	6:29:28 PM	73479832183910.2895625PLM067	PLM067
	7127	7799008835914		1	1	73479832	2019-01-05 18:29:32	6:29:32 PM	73479832183910.2895625PLM067	PLM067
	7127	7799008779294		1	1	73479832	2019-01-05 18:29:55	6:29:55 PM	73479832183910.2895625PLM067	PLM067
	7127	7799008771311		1	1	73479832	2019-01-05 18:30:20	6:30:20 PM	73479832183910.2895625PLM067	PLM067
	7127	7799008835280		1	1	73479832	2019-01-05 18:30:33	6:30:33 PM	73479832183910.2895625PLM067	PLM067
	7127	7799008835280		1	1	73479832	2019-01-05 18:30:34	6:30:34 PM	73479832183910.2895625PLM067	PLM067
	7127	7799008780764		1	1	73479832	2019-01-05 18:30:45	6:30:45 PM	73479832183910.2895625PLM067	PLM067
	7127	7799008780290		1	1	73479832	2019-01-05 18:30:57	6:30:57 PM	73479832183910.2895625PLM067	PLM067
	7127	7799008742366		1	1	73479832	2019-01-05 18:31:08	6:31:08 PM	73479832183910.2895625PLM067	PLM067
	7127	7799008742366		1	1	73479832	2019-01-05 18:31:15	6:31:15 PM	73479832183910.2895625PLM067	PLM067
	7127	7799008742366		1	1	73479832	2019-01-05 18:31:29	6:31:29 PM	73479832183910.2895625PLM067	PLM067
	7127	7799008742366		1	1	73479832	2019-01-05 18:31:31	6:31:31 PM	73479832183910.2895625PLM067	PLM067
	7127	7799008781136		1	1	73479832	2019-01-05 18:31:43	6:31:43 PM	73479832183910.2895625PLM067	PLM067
	7127	7799008753966		1	1	73479832	2019-01-05 18:31:54	6:31:54 PM	73479832183910.2895625PLM067	PLM067
	7127	7799008803241		1	1	73479832	2019-01-05 18:32:07	6:32:07 PM	73479832183910.2895625PLM067	PLM067
	7127	7799008803241		1	1	73479832	2019-01-05 18:32:10	6:32:10 PM	73479832183910.2895625PLM067	PLM067
	7127	7799008803241		1	1	73479832	2019-01-05 18:32:13	6:32:13 PM	73479832183910.2895625PLM067	PLM067
	7127	7799008803241		1	1	73479832	2019-01-05 18:32:16	6:32:16 PM	73479832183910.2895625PLM067	PLM067
	7127	7799008829500		1	1	73479832	2019-01-05 18:32:30	6:32:30 PM	73479832183910.2895625PLM067	PLM067
	7127	7799008780290		1	1	73479832	2019-01-05 18:32:51	6:32:51 PM	73479832183910.2895625PLM067	PLM067
	7127	7799008835242		1	1	73479832	2019-01-05 18:32:57	6:32:57 PM	73479832183910.2895625PLM067	PLM067
	7127	7799008835242		1	1	73479832	2019-01-05 18:33:03	6:33:03 PM	73479832183910.2895625PLM067	PLM067
	7127	7799008755250		1	1	73479832	2019-01-05 18:33:20	6:33:20 PM	73479832183910.2895625PLM067	PLM067
	7127	7799008755250		1	1	73479832	2019-01-05 18:33:23	6:33:23 PM	73479832183910.2895625PLM067	PLM067
	7127	7799008804170		1	1	73479832	2019-01-05 18:33:26	6:33:26 PM	73479832183910.2895625PLM067	PLM067
	7127	7799008755472		1	1	73479832	2019-01-05 18:33:32	6:33:32 PM	73479832183910.2895625PLM067	PLM067
	7127	7799008836102		1	1	73479832	2019-01-05 18:33:36	6:33:36 PM	73479832183910.2895625PLM067	PLM067
	7127	7799008803241		1	1	73479832	2019-01-05 18:33:39	6:33:39 PM	73479832183910.2895625PLM067	PLM067
	7127	7799008846910		1	1	73479832	2019-01-05 18:33:59	6:33:59 PM	73479832183910.2895625PLM067	PLM067
	7127	7799008846910		1	1	73479832	2019-01-05 18:34:00	6:34:00 PM	73479832183910.2895625PLM067	PLM067
	7127	7799008746371		1	1	73479832	2019-01-05 18:34:17	6:34:17 PM	73479832183910.2895625PLM067	PLM067
	7127	7799008780870		1	1	73479832	2019-01-05 18:34:44	6:34:44 PM	73479832183910.2895625PLM067	PLM067
	7127	7799008780870		1	1	73479832	2019-01-05 18:34:45	6:34:45 PM	73479832183910.2895625PLM067	PLM067
	7127	7799008835907		1	1	73479832	2019-01-05 18:34:56	6:34:56 PM	73479832183910.2895625PLM067	PLM067
	7127	7799008835907		1	1	73479832	2019-01-05 18:35:05	6:35:05 PM	73479832183910.2895625PLM067	PLM067
	7127	7799008827599		1	1	73479832	2019-01-05 18:35:17	6:35:17 PM	73479832183910.2895625PLM067	PLM067
	7127	7799008803272		1	1	73479832	2019-01-05 18:35:28	6:35:28 PM	73479832183910.2895625PLM067	PLM067
	7127	7799008776729		1	1	73479832	2019-01-05 18:35:29	6:35:29 PM	73479832183910.2895625PLM067	PLM067
	7127	7799008742076		1	1	73479832	2019-01-05 18:35:37	6:35:37 PM	73479832183910.2895625PLM067	PLM067
	7127	7799008804019		1	1	73479832	2019-01-05 18:35:39	6:35:39 PM	73479832183910.2895625PLM067	PLM067
	7127	7799008829678		1	1	73479832	2019-01-05 18:35:43	6:35:43 PM	73479832183910.2895625PLM067	PLM067
	7127	7799008836171		1	1	73479832	2019-01-05 18:35:47	6:35:47 PM	73479832183910.2895625PLM067	PLM067
	7127	7799008829678		1	1	73479832	2019-01-05 18:35:51	6:35:51 PM	73479832183910.2895625PLM067	PLM067
	7127	7799008778976		1	1	73479832	2019-01-05 18:35:53	6:35:53 PM	73479832183910.2895625PLM067	PLM067
	7127	7799008804019		1	1	73479832	2019-01-05 18:35:57	6:35:57 PM	73479832183910.2895625PLM067	PLM067
	7127	7799008779232		1	1	73479832	2019-01-05 18:36:00	6:36:00 PM	73479832183910.2895625PLM067	PLM067
	7127	7799008831046		1	1	73479832	2019-01-05 18:36:03	6:36:03 PM	73479832183910.2895625PLM067	PLM067
	7127	7799008780283		1	1	73479832	2019-01-05 18:36:06	6:36:06 PM	73479832183910.2895625PLM067	PLM067
	7127	7799008780283		1	1	73479832	2019-01-05 18:36:09	6:36:09 PM	73479832183910.2895625PLM067	PLM067
	7127	7799008835198		1	1	73479832	2019-01-05 18:36:25	6:36:25 PM	73479832183910.2895625PLM067	PLM067
	7127	7799008835198		1	1	73479832	2019-01-05 18:36:26	6:36:26 PM	73479832183910.2895625PLM067	PLM067
	7127	7799008754925		1	1	73479832	2019-01-05 18:36:47	6:36:47 PM	73479832183910.2895625PLM067	PLM067
	7127	7799008806976		1	1	73479832	2019-01-05 18:36:53	6:36:53 PM	73479832183910.2895625PLM067	PLM067
	7127	7799008831671		1	1	73479832	2019-01-05 18:36:57	6:36:57 PM	73479832183910.2895625PLM067	PLM067
	7127	7799008836041		1	1	73479832	2019-01-05 18:37:01	6:37:01 PM	73479832183910.2895625PLM067	PLM067
	7127	7799008776842		1	1	73479832	2019-01-05 18:37:05	6:37:05 PM	73479832183910.2895625PLM067	PLM067
	7127	7799008772554		1	1	73479832	2019-01-05 18:37:12	6:37:12 PM	73479832183910.2895625PLM067	PLM067
	7127	7799008356570		1	1	73479832	2019-01-05 18:37:16	6:37:16 PM	73479832183910.2895625PLM067	PLM067
