	0622	7799008996608		1	1	73479832	2019-01-03 14:07:16	2:07:16 PM	734798321610290.533424PLM024	PLM024
	0622	7799008996608		1	1	73479832	2019-01-03 14:07:55	2:07:55 PM	734798321610290.533424PLM024	PLM024
	0622	7799008996608		1	1	73479832	2019-01-03 14:08:10	2:08:10 PM	734798321610290.533424PLM024	PLM024
	0622	7799008996608		1	1	73479832	2019-01-03 14:08:18	2:08:18 PM	734798321610290.533424PLM024	PLM024
	0622	7799008996608		1	1	73479832	2019-01-03 14:08:25	2:08:25 PM	734798321610290.533424PLM024	PLM024
	0622	7799008996608		1	1	73479832	2019-01-03 14:08:44	2:08:44 PM	734798321610290.533424PLM024	PLM024
	0622	7799008996608		1	1	73479832	2019-01-03 14:08:48	2:08:48 PM	734798321610290.533424PLM024	PLM024
	0622	7799008996608		1	1	73479832	2019-01-03 14:09:07	2:09:07 PM	734798321610290.533424PLM024	PLM024
	0622	7799008996608		1	1	73479832	2019-01-03 14:09:18	2:09:18 PM	734798321610290.533424PLM024	PLM024
	0622	7799008996608		1	1	73479832	2019-01-03 14:09:26	2:09:26 PM	734798321610290.533424PLM024	PLM024
	0622	7799008996608		1	1	73479832	2019-01-03 14:09:32	2:09:32 PM	734798321610290.533424PLM024	PLM024
	0622	7799008996608		1	1	73479832	2019-01-03 14:09:39	2:09:39 PM	734798321610290.533424PLM024	PLM024
	0622	7799008996608		1	1	73479832	2019-01-03 14:09:43	2:09:43 PM	734798321610290.533424PLM024	PLM024
	0622	7799008996608		1	1	73479832	2019-01-03 14:09:50	2:09:50 PM	734798321610290.533424PLM024	PLM024
	0622	7799008996608		1	1	73479832	2019-01-03 14:09:55	2:09:55 PM	734798321610290.533424PLM024	PLM024
	0622	7799008996608		1	1	73479832	2019-01-03 14:10:04	2:10:04 PM	734798321610290.533424PLM024	PLM024
	0622	7799008996608		1	1	73479832	2019-01-03 14:10:10	2:10:10 PM	734798321610290.533424PLM024	PLM024
	0622	7799008996608		1	1	73479832	2019-01-03 14:10:21	2:10:21 PM	734798321610290.533424PLM024	PLM024
	0622	7799008996608		1	1	73479832	2019-01-03 14:10:34	2:10:34 PM	734798321610290.533424PLM024	PLM024
	0622	7799008996608		1	1	73479832	2019-01-03 14:10:40	2:10:40 PM	734798321610290.533424PLM024	PLM024
	0622	7799008996608		1	1	73479832	2019-01-03 14:10:48	2:10:48 PM	734798321610290.533424PLM024	PLM024
	0622	7799008996608		1	1	73479832	2019-01-03 14:10:58	2:10:58 PM	734798321610290.533424PLM024	PLM024
	0622	7799008996608		1	1	73479832	2019-01-03 14:11:08	2:11:08 PM	734798321610290.533424PLM024	PLM024
	0622	7799008996608		1	1	73479832	2019-01-03 14:11:18	2:11:18 PM	734798321610290.533424PLM024	PLM024
	0622	7799008996608		1	1	73479832	2019-01-03 14:11:27	2:11:27 PM	734798321610290.533424PLM024	PLM024
	0622	7799008996608		1	1	73479832	2019-01-03 14:11:40	2:11:40 PM	734798321610290.533424PLM024	PLM024
	0622	7799008996608		1	1	73479832	2019-01-03 14:11:46	2:11:46 PM	734798321610290.533424PLM024	PLM024
	0622	7799008996608		1	1	73479832	2019-01-03 14:11:52	2:11:52 PM	734798321610290.533424PLM024	PLM024
	0622	7799008996608		1	1	73479832	2019-01-03 14:11:59	2:11:59 PM	734798321610290.533424PLM024	PLM024
	0622	7799008996608		1	1	73479832	2019-01-03 14:12:04	2:12:04 PM	734798321610290.533424PLM024	PLM024
	0622	7799008996608		1	1	73479832	2019-01-03 14:12:09	2:12:09 PM	734798321610290.533424PLM024	PLM024
	0622	7799008996608		1	1	73479832	2019-01-03 14:12:16	2:12:16 PM	734798321610290.533424PLM024	PLM024
	0622	7799008996608		1	1	73479832	2019-01-03 14:12:25	2:12:25 PM	734798321610290.533424PLM024	PLM024
	0622	7799008996608		1	1	73479832	2019-01-03 14:12:34	2:12:34 PM	734798321610290.533424PLM024	PLM024
	0622	7799008996608		1	1	73479832	2019-01-03 14:12:41	2:12:41 PM	734798321610290.533424PLM024	PLM024
	0622	7799008996608		1	1	73479832	2019-01-03 14:12:49	2:12:49 PM	734798321610290.533424PLM024	PLM024
	0622	7799008996608		1	1	73479832	2019-01-03 14:12:55	2:12:55 PM	734798321610290.533424PLM024	PLM024
	0622	7799008996608		1	1	73479832	2019-01-03 14:13:05	2:13:05 PM	734798321610290.533424PLM024	PLM024
	0622	7799008996608		1	1	73479832	2019-01-03 14:13:15	2:13:15 PM	734798321610290.533424PLM024	PLM024
	0622	7799008996608		1	1	73479832	2019-01-03 14:13:25	2:13:25 PM	734798321610290.533424PLM024	PLM024
	0622	7799008996608		1	1	73479832	2019-01-03 14:13:31	2:13:31 PM	734798321610290.533424PLM024	PLM024
	0622	7799008996608		1	1	73479832	2019-01-03 14:13:37	2:13:37 PM	734798321610290.533424PLM024	PLM024
	0622	7799008996608		1	1	73479832	2019-01-03 14:13:43	2:13:43 PM	734798321610290.533424PLM024	PLM024
	0622	7799008996608		1	1	73479832	2019-01-03 14:13:48	2:13:48 PM	734798321610290.533424PLM024	PLM024
	0622	7799008996608		1	1	73479832	2019-01-03 14:13:56	2:13:56 PM	734798321610290.533424PLM024	PLM024
	0622	7799008996608		1	1	73479832	2019-01-03 14:14:05	2:14:05 PM	734798321610290.533424PLM024	PLM024
	0622	7799008996608		1	1	73479832	2019-01-03 14:14:23	2:14:23 PM	734798321610290.533424PLM024	PLM024
	0622	7799008996608		1	1	73479832	2019-01-03 14:14:30	2:14:30 PM	734798321610290.533424PLM024	PLM024
	0622	7799008996608		1	1	73479832	2019-01-03 14:14:40	2:14:40 PM	734798321610290.533424PLM024	PLM024
	0622	7799008996608		1	1	73479832	2019-01-03 14:14:53	2:14:53 PM	734798321610290.533424PLM024	PLM024
	0622	7799008996608		1	1	73479832	2019-01-03 14:15:02	2:15:02 PM	734798321610290.533424PLM024	PLM024
	0622	7799008996608		1	1	73479832	2019-01-03 14:15:09	2:15:09 PM	734798321610290.533424PLM024	PLM024
	0622	7799008996608		1	1	73479832	2019-01-03 14:15:20	2:15:20 PM	734798321610290.533424PLM024	PLM024
	0622	7799008996608		1	1	73479832	2019-01-03 14:15:33	2:15:33 PM	734798321610290.533424PLM024	PLM024
	0622	7799008996608		1	1	73479832	2019-01-03 14:15:42	2:15:42 PM	734798321610290.533424PLM024	PLM024
	0622	7799008996608		1	1	73479832	2019-01-03 14:15:51	2:15:51 PM	734798321610290.533424PLM024	PLM024
	0622	7799008996608		1	1	73479832	2019-01-03 14:16:01	2:16:01 PM	734798321610290.533424PLM024	PLM024
	0622	7799008996608		1	1	73479832	2019-01-03 14:16:09	2:16:09 PM	734798321610290.533424PLM024	PLM024
	0622	7799008996608		1	1	73479832	2019-01-03 14:16:21	2:16:21 PM	734798321610290.533424PLM024	PLM024
	0622	7799008996608		1	1	73479832	2019-01-03 14:16:29	2:16:29 PM	734798321610290.533424PLM024	PLM024
	0622	7799008996608		1	1	73479832	2019-01-03 14:16:39	2:16:39 PM	734798321610290.533424PLM024	PLM024
	0622	7799008996608		1	1	73479832	2019-01-03 14:16:42	2:16:42 PM	734798321610290.533424PLM024	PLM024
	0622	7799008996608		1	1	73479832	2019-01-03 14:16:49	2:16:49 PM	734798321610290.533424PLM024	PLM024
	0622	7799008996608		1	1	73479832	2019-01-03 14:16:58	2:16:58 PM	734798321610290.533424PLM024	PLM024
	0622	7799008996608		1	1	73479832	2019-01-03 14:17:05	2:17:05 PM	734798321610290.533424PLM024	PLM024
	0622	7799008996608		1	1	73479832	2019-01-03 14:17:13	2:17:13 PM	734798321610290.533424PLM024	PLM024
	0622	7799008996608		1	1	73479832	2019-01-03 14:17:24	2:17:24 PM	734798321610290.533424PLM024	PLM024
	0622	7799008996608		1	1	73479832	2019-01-03 14:17:31	2:17:31 PM	734798321610290.533424PLM024	PLM024
	0622	7799008996608		1	1	73479832	2019-01-03 14:17:43	2:17:43 PM	734798321610290.533424PLM024	PLM024
	0622	7799008996608		1	1	73479832	2019-01-03 14:17:48	2:17:48 PM	734798321610290.533424PLM024	PLM024
	0622	7799008996608		1	1	73479832	2019-01-03 14:17:54	2:17:54 PM	734798321610290.533424PLM024	PLM024
	0622	7799008996608		1	1	73479832	2019-01-03 14:18:12	2:18:12 PM	734798321610290.533424PLM024	PLM024
	0622	7799008996608		1	1	73479832	2019-01-03 14:18:17	2:18:17 PM	734798321610290.533424PLM024	PLM024
	0622	7799008996608		1	1	73479832	2019-01-03 14:18:23	2:18:23 PM	734798321610290.533424PLM024	PLM024
	0622	7799008996608		1	1	73479832	2019-01-03 14:18:31	2:18:31 PM	734798321610290.533424PLM024	PLM024
	0622	7799008996608		1	1	73479832	2019-01-03 14:18:40	2:18:40 PM	734798321610290.533424PLM024	PLM024
	0622	7799008996608		1	1	73479832	2019-01-03 14:18:46	2:18:46 PM	734798321610290.533424PLM024	PLM024
	0622	7799008996608		1	1	73479832	2019-01-03 14:18:56	2:18:56 PM	734798321610290.533424PLM024	PLM024
	0622	7799008996608		1	1	73479832	2019-01-03 14:19:03	2:19:03 PM	734798321610290.533424PLM024	PLM024
	0622	7799008996608		1	1	73479832	2019-01-03 14:19:08	2:19:08 PM	734798321610290.533424PLM024	PLM024
	0622	7799008996608		1	1	73479832	2019-01-03 14:19:19	2:19:19 PM	734798321610290.533424PLM024	PLM024
	0622	7799008996608		1	1	73479832	2019-01-03 14:19:28	2:19:28 PM	734798321610290.533424PLM024	PLM024
	0622	7799008996608		1	1	73479832	2019-01-03 14:19:36	2:19:36 PM	734798321610290.533424PLM024	PLM024
	0622	7799008996608		1	1	73479832	2019-01-03 14:19:46	2:19:46 PM	734798321610290.533424PLM024	PLM024
	0622	7799008996608		1	1	73479832	2019-01-03 14:20:00	2:20:00 PM	734798321610290.533424PLM024	PLM024
	0622	7799008996608		1	1	73479832	2019-01-03 14:20:07	2:20:07 PM	734798321610290.533424PLM024	PLM024
	0622	7799008996608		1	1	73479832	2019-01-03 14:20:25	2:20:25 PM	734798321610290.533424PLM024	PLM024
	0622	7799008996608		1	1	73479832	2019-01-03 14:20:31	2:20:31 PM	734798321610290.533424PLM024	PLM024
	0622	7799008996608		1	1	73479832	2019-01-03 14:20:43	2:20:43 PM	734798321610290.533424PLM024	PLM024
	0622	7799008996608		1	1	73479832	2019-01-03 14:20:52	2:20:52 PM	734798321610290.533424PLM024	PLM024
	0622	7799008996608		1	1	73479832	2019-01-03 14:20:59	2:20:59 PM	734798321610290.533424PLM024	PLM024
	0622	7799008996608		1	1	73479832	2019-01-03 14:21:09	2:21:09 PM	734798321610290.533424PLM024	PLM024
	0622	7799008996608		1	1	73479832	2019-01-03 14:21:15	2:21:15 PM	734798321610290.533424PLM024	PLM024
	0622	7799008996608		1	1	73479832	2019-01-03 14:21:22	2:21:22 PM	734798321610290.533424PLM024	PLM024
	0622	7799008996608		1	1	73479832	2019-01-03 14:21:30	2:21:30 PM	734798321610290.533424PLM024	PLM024
	0622	7799008996608		1	1	73479832	2019-01-03 14:21:42	2:21:42 PM	734798321610290.533424PLM024	PLM024
	0622	7799008996608		1	1	73479832	2019-01-03 14:21:58	2:21:58 PM	734798321610290.533424PLM024	PLM024
	0622	7799008996608		1	1	73479832	2019-01-03 14:21:59	2:21:59 PM	734798321610290.533424PLM024	PLM024
	0622	7799008996608		1	1	73479832	2019-01-03 14:22:08	2:22:08 PM	734798321610290.533424PLM024	PLM024
	0622	7799008996608		1	1	73479832	2019-01-03 14:22:16	2:22:16 PM	734798321610290.533424PLM024	PLM024
	0622	7799008996608		1	1	73479832	2019-01-03 14:22:31	2:22:31 PM	734798321610290.533424PLM024	PLM024
	0622	7799008996608		1	1	73479832	2019-01-03 14:22:41	2:22:41 PM	734798321610290.533424PLM024	PLM024
	0622	7799008996608		1	1	73479832	2019-01-03 14:23:00	2:23:00 PM	734798321610290.533424PLM024	PLM024
	0622	7799008996608		1	1	73479832	2019-01-03 14:23:07	2:23:07 PM	734798321610290.533424PLM024	PLM024
	0622	7799008996608		1	1	73479832	2019-01-03 14:23:15	2:23:15 PM	734798321610290.533424PLM024	PLM024
	0622	7799008996608		1	1	73479832	2019-01-03 14:23:24	2:23:24 PM	734798321610290.533424PLM024	PLM024
	0622	7799008996608		1	1	73479832	2019-01-03 14:23:35	2:23:35 PM	734798321610290.533424PLM024	PLM024
	0622	7799008996608		1	1	73479832	2019-01-03 14:23:42	2:23:42 PM	734798321610290.533424PLM024	PLM024
	0622	7799008996608		1	1	73479832	2019-01-03 14:23:53	2:23:53 PM	734798321610290.533424PLM024	PLM024
	0622	7799008996608		1	1	73479832	2019-01-03 14:24:03	2:24:03 PM	734798321610290.533424PLM024	PLM024
	0622	7799008996608		1	1	73479832	2019-01-03 14:24:16	2:24:16 PM	734798321610290.533424PLM024	PLM024
	0622	7799008996608		1	1	73479832	2019-01-03 14:24:24	2:24:24 PM	734798321610290.533424PLM024	PLM024
	0622	7799008996608		1	1	73479832	2019-01-03 14:24:33	2:24:33 PM	734798321610290.533424PLM024	PLM024
	0622	7799008996608		1	1	73479832	2019-01-03 14:24:39	2:24:39 PM	734798321610290.533424PLM024	PLM024
	0622	7799008996608		1	1	73479832	2019-01-03 14:24:46	2:24:46 PM	734798321610290.533424PLM024	PLM024
	0622	7799008996608		1	1	73479832	2019-01-03 14:24:52	2:24:52 PM	734798321610290.533424PLM024	PLM024
	0622	7799008996608		1	1	73479832	2019-01-03 14:24:59	2:24:59 PM	734798321610290.533424PLM024	PLM024
	0622	7799008996608		1	1	73479832	2019-01-03 14:25:10	2:25:10 PM	734798321610290.533424PLM024	PLM024
	0622	7799008996608		1	1	73479832	2019-01-03 14:25:23	2:25:23 PM	734798321610290.533424PLM024	PLM024
	0622	7799008996608		1	1	73479832	2019-01-03 14:25:29	2:25:29 PM	734798321610290.533424PLM024	PLM024
	0622	7799008996608		1	1	73479832	2019-01-03 14:25:37	2:25:37 PM	734798321610290.533424PLM024	PLM024
	0622	7799008996608		1	1	73479832	2019-01-03 14:25:49	2:25:49 PM	734798321610290.533424PLM024	PLM024
	0622	7799008996608		1	1	73479832	2019-01-03 14:26:23	2:26:23 PM	734798321610290.533424PLM024	PLM024
	0622	7799008996608		1	1	73479832	2019-01-03 14:26:33	2:26:33 PM	734798321610290.533424PLM024	PLM024
	0622	7799008996608		1	1	73479832	2019-01-03 14:26:47	2:26:47 PM	734798321610290.533424PLM024	PLM024
	0622	7799008996608		1	1	73479832	2019-01-03 14:27:01	2:27:01 PM	734798321610290.533424PLM024	PLM024
	0622	7799008996608		1	1	73479832	2019-01-03 14:27:31	2:27:31 PM	734798321610290.533424PLM024	PLM024
	0622	7799008996608		1	1	73479832	2019-01-03 14:27:44	2:27:44 PM	734798321610290.533424PLM024	PLM024
	0622	7799008996608		1	1	73479832	2019-01-03 14:27:58	2:27:58 PM	734798321610290.533424PLM024	PLM024
	0622	7799008996608		1	1	73479832	2019-01-03 14:28:17	2:28:17 PM	734798321610290.533424PLM024	PLM024
	0622	7799008996608		1	1	73479832	2019-01-03 14:28:22	2:28:22 PM	734798321610290.533424PLM024	PLM024
	0622	7799008996608		1	1	73479832	2019-01-03 14:28:32	2:28:32 PM	734798321610290.533424PLM024	PLM024
	0622	7799008996608		1	1	73479832	2019-01-03 14:28:42	2:28:42 PM	734798321610290.533424PLM024	PLM024
	0622	7799008996608		1	1	73479832	2019-01-03 14:28:58	2:28:58 PM	734798321610290.533424PLM024	PLM024
	0622	7799008996608		1	1	73479832	2019-01-03 14:29:32	2:29:32 PM	734798321610290.533424PLM024	PLM024
	0622	7799008996608		1	1	73479832	2019-01-03 14:29:51	2:29:51 PM	734798321610290.533424PLM024	PLM024
	0622	7799008996608		1	1	73479832	2019-01-03 14:29:59	2:29:59 PM	734798321610290.533424PLM024	PLM024
	0622	7799008996608		1	1	73479832	2019-01-03 14:30:11	2:30:11 PM	734798321610290.533424PLM024	PLM024
	0622	7799008996608		1	1	73479832	2019-01-03 14:30:20	2:30:20 PM	734798321610290.533424PLM024	PLM024
	0622	7799008996608		1	1	73479832	2019-01-03 14:30:27	2:30:27 PM	734798321610290.533424PLM024	PLM024
	0622	7799008996608		1	1	73479832	2019-01-03 14:30:36	2:30:36 PM	734798321610290.533424PLM024	PLM024
	0622	7799008996608		1	1	73479832	2019-01-03 14:30:45	2:30:45 PM	734798321610290.533424PLM024	PLM024
	0622	7799008996608		1	1	73479832	2019-01-03 14:30:54	2:30:54 PM	734798321610290.533424PLM024	PLM024
	0622	7799008996608		1	1	73479832	2019-01-03 14:31:01	2:31:01 PM	734798321610290.533424PLM024	PLM024
	0622	7799008996608		1	1	73479832	2019-01-03 14:31:09	2:31:09 PM	734798321610290.533424PLM024	PLM024
	0622	7799008996608		1	1	73479832	2019-01-03 14:31:15	2:31:15 PM	734798321610290.533424PLM024	PLM024
	0622	7799008996608		1	1	73479832	2019-01-03 14:31:24	2:31:24 PM	734798321610290.533424PLM024	PLM024
	0622	7799008996608		1	1	73479832	2019-01-03 14:31:31	2:31:31 PM	734798321610290.533424PLM024	PLM024
	0622	7799008996608		1	1	73479832	2019-01-03 14:31:38	2:31:38 PM	734798321610290.533424PLM024	PLM024
	0622	7799008996608		1	1	73479832	2019-01-03 14:31:46	2:31:46 PM	734798321610290.533424PLM024	PLM024
	0622	7799008996608		1	1	73479832	2019-01-03 14:31:51	2:31:51 PM	734798321610290.533424PLM024	PLM024
	0622	7799008996608		1	1	73479832	2019-01-03 14:31:59	2:31:59 PM	734798321610290.533424PLM024	PLM024
	0636	7799008700700		1	1	73479832	2019-01-03 14:36:45	2:36:45 PM	734798321610290.533424PLM024	PLM024
	0636	7799008700700		1	1	73479832	2019-01-03 14:36:50	2:36:50 PM	734798321610290.533424PLM024	PLM024
	0636	7799008700700		1	1	73479832	2019-01-03 14:36:56	2:36:56 PM	734798321610290.533424PLM024	PLM024
	0636	7799008700700		1	1	73479832	2019-01-03 14:37:02	2:37:02 PM	734798321610290.533424PLM024	PLM024
	0636	7799008700700		1	1	73479832	2019-01-03 14:37:20	2:37:20 PM	734798321610290.533424PLM024	PLM024
	0636	7799008700700		1	1	73479832	2019-01-03 14:37:36	2:37:36 PM	734798321610290.533424PLM024	PLM024
	0621	7799021031775		1	1	73479832	2019-01-03 14:38:05	2:38:05 PM	734798321610290.533424PLM024	PLM024
	0621	7799021031775		1	1	73479832	2019-01-03 14:38:11	2:38:11 PM	734798321610290.533424PLM024	PLM024
	0621	7799021031775		1	1	73479832	2019-01-03 14:38:19	2:38:19 PM	734798321610290.533424PLM024	PLM024
	0621	7799021031775		1	1	73479832	2019-01-03 14:38:27	2:38:27 PM	734798321610290.533424PLM024	PLM024
	0621	7799021031775		1	1	73479832	2019-01-03 14:38:33	2:38:33 PM	734798321610290.533424PLM024	PLM024
	0621	7799021031775		1	1	73479832	2019-01-03 14:38:43	2:38:43 PM	734798321610290.533424PLM024	PLM024
	0621	7799021031775		1	1	73479832	2019-01-03 14:38:54	2:38:54 PM	734798321610290.533424PLM024	PLM024
	0621	7799021031775		1	1	73479832	2019-01-03 14:39:05	2:39:05 PM	734798321610290.533424PLM024	PLM024
	0621	7799021031775		1	1	73479832	2019-01-03 14:39:24	2:39:24 PM	734798321610290.533424PLM024	PLM024
	0621	7799021031775		1	1	73479832	2019-01-03 14:39:34	2:39:34 PM	734798321610290.533424PLM024	PLM024
	0621	7799021031775		1	1	73479832	2019-01-03 14:39:42	2:39:42 PM	734798321610290.533424PLM024	PLM024
	0621	7799021031775		1	1	73479832	2019-01-03 14:39:52	2:39:52 PM	734798321610290.533424PLM024	PLM024
	0621	7799021031775		1	1	73479832	2019-01-03 14:40:02	2:40:02 PM	734798321610290.533424PLM024	PLM024
	0621	7799021031775		1	1	73479832	2019-01-03 14:40:08	2:40:08 PM	734798321610290.533424PLM024	PLM024
	0621	7799021031775		1	1	73479832	2019-01-03 14:40:14	2:40:14 PM	734798321610290.533424PLM024	PLM024
	0621	7799021031775		1	1	73479832	2019-01-03 14:40:25	2:40:25 PM	734798321610290.533424PLM024	PLM024
	0621	7799021031775		1	1	73479832	2019-01-03 14:40:32	2:40:32 PM	734798321610290.533424PLM024	PLM024
	0621	7799021031775		1	1	73479832	2019-01-03 14:40:39	2:40:39 PM	734798321610290.533424PLM024	PLM024
	0621	7799021031775		1	1	73479832	2019-01-03 14:40:40	2:40:40 PM	734798321610290.533424PLM024	PLM024
	0629	7799008551609		1	1	73479832	2019-01-03 14:42:47	2:42:47 PM	734798321610290.533424PLM024	PLM024
	0629	7799008551609		1	1	73479832	2019-01-03 14:42:50	2:42:50 PM	734798321610290.533424PLM024	PLM024
	0629	7799008551609		1	1	73479832	2019-01-03 14:42:53	2:42:53 PM	734798321610290.533424PLM024	PLM024
	0629	7799008551609		1	1	73479832	2019-01-03 14:43:00	2:43:00 PM	734798321610290.533424PLM024	PLM024
	0629	7799008551609		1	1	73479832	2019-01-03 14:43:06	2:43:06 PM	734798321610290.533424PLM024	PLM024
	0629	7799008551609		1	1	73479832	2019-01-03 14:43:10	2:43:10 PM	734798321610290.533424PLM024	PLM024
	0629	7799008551609		1	1	73479832	2019-01-03 14:43:25	2:43:25 PM	734798321610290.533424PLM024	PLM024
	0629	7799008551609		1	1	73479832	2019-01-03 14:43:41	2:43:41 PM	734798321610290.533424PLM024	PLM024
	0629	7799008551609		1	1	73479832	2019-01-03 14:43:53	2:43:53 PM	734798321610290.533424PLM024	PLM024
	0629	7799008551609		1	1	73479832	2019-01-03 14:44:03	2:44:03 PM	734798321610290.533424PLM024	PLM024
	0629	7799008551609		1	1	73479832	2019-01-03 14:44:09	2:44:09 PM	734798321610290.533424PLM024	PLM024
	0629	7799008551609		1	1	73479832	2019-01-03 14:44:21	2:44:21 PM	734798321610290.533424PLM024	PLM024
	0629	7799008551609		1	1	73479832	2019-01-03 14:44:39	2:44:39 PM	734798321610290.533424PLM024	PLM024
	0629	7799008551609		1	1	73479832	2019-01-03 14:44:42	2:44:42 PM	734798321610290.533424PLM024	PLM024
	0629	7799008551609		1	1	73479832	2019-01-03 14:44:49	2:44:49 PM	734798321610290.533424PLM024	PLM024
	0629	7799008551609		1	1	73479832	2019-01-03 14:44:59	2:44:59 PM	734798321610290.533424PLM024	PLM024
	0629	7799008551609		1	1	73479832	2019-01-03 14:45:07	2:45:07 PM	734798321610290.533424PLM024	PLM024
	0629	7799008551609		1	1	73479832	2019-01-03 14:45:15	2:45:15 PM	734798321610290.533424PLM024	PLM024
	0629	7799008551609		1	1	73479832	2019-01-03 14:45:19	2:45:19 PM	734798321610290.533424PLM024	PLM024
	0629	7799008551609		1	1	73479832	2019-01-03 14:45:24	2:45:24 PM	734798321610290.533424PLM024	PLM024
	0629	7799008551609		1	1	73479832	2019-01-03 14:45:30	2:45:30 PM	734798321610290.533424PLM024	PLM024
	0629	7799008551609		1	1	73479832	2019-01-03 14:45:35	2:45:35 PM	734798321610290.533424PLM024	PLM024
	0629	7799008551609		1	1	73479832	2019-01-03 14:45:42	2:45:42 PM	734798321610290.533424PLM024	PLM024
	0629	7799008551609		1	1	73479832	2019-01-03 14:45:52	2:45:52 PM	734798321610290.533424PLM024	PLM024
	0629	7799008551609		1	1	73479832	2019-01-03 14:45:59	2:45:59 PM	734798321610290.533424PLM024	PLM024
	0629	7799008551609		1	1	73479832	2019-01-03 14:46:10	2:46:10 PM	734798321610290.533424PLM024	PLM024
	0629	7799008551609		1	1	73479832	2019-01-03 14:46:18	2:46:18 PM	734798321610290.533424PLM024	PLM024
	0629	7799008551609		1	1	73479832	2019-01-03 14:46:21	2:46:21 PM	734798321610290.533424PLM024	PLM024
	0629	7799008551609		1	1	73479832	2019-01-03 14:46:24	2:46:24 PM	734798321610290.533424PLM024	PLM024
	0629	7799008551609		1	1	73479832	2019-01-03 14:46:47	2:46:47 PM	734798321610290.533424PLM024	PLM024
	0629	7799008551609		1	1	73479832	2019-01-03 14:46:53	2:46:53 PM	734798321610290.533424PLM024	PLM024
	0629	7799008551609		1	1	73479832	2019-01-03 14:46:58	2:46:58 PM	734798321610290.533424PLM024	PLM024
	0629	7799008551609		1	1	73479832	2019-01-03 14:47:03	2:47:03 PM	734798321610290.533424PLM024	PLM024
	0629	7799008551609		1	1	73479832	2019-01-03 14:47:13	2:47:13 PM	734798321610290.533424PLM024	PLM024
	0629	7799008551609		1	1	73479832	2019-01-03 14:47:25	2:47:25 PM	734798321610290.533424PLM024	PLM024
	0629	7799008551609		1	1	73479832	2019-01-03 14:47:32	2:47:32 PM	734798321610290.533424PLM024	PLM024
	0629	7799008551609		1	1	73479832	2019-01-03 14:47:36	2:47:36 PM	734798321610290.533424PLM024	PLM024
	0629	7799008551609		1	1	73479832	2019-01-03 14:47:47	2:47:47 PM	734798321610290.533424PLM024	PLM024
	0629	7799008551609		1	1	73479832	2019-01-03 14:47:53	2:47:53 PM	734798321610290.533424PLM024	PLM024
	0629	7799008551609		1	1	73479832	2019-01-03 14:48:04	2:48:04 PM	734798321610290.533424PLM024	PLM024
	0629	7799008551609		1	1	73479832	2019-01-03 14:48:12	2:48:12 PM	734798321610290.533424PLM024	PLM024
	0629	7799008551609		1	1	73479832	2019-01-03 14:48:18	2:48:18 PM	734798321610290.533424PLM024	PLM024
	0629	7799008551609		1	1	73479832	2019-01-03 14:48:22	2:48:22 PM	734798321610290.533424PLM024	PLM024
	0629	7799008551609		1	1	73479832	2019-01-03 14:48:27	2:48:27 PM	734798321610290.533424PLM024	PLM024
	0629	7799008551609		1	1	73479832	2019-01-03 14:48:32	2:48:32 PM	734798321610290.533424PLM024	PLM024
	0629	7799008551609		1	1	73479832	2019-01-03 14:48:36	2:48:36 PM	734798321610290.533424PLM024	PLM024
	0629	7799008551609		1	1	73479832	2019-01-03 14:48:40	2:48:40 PM	734798321610290.533424PLM024	PLM024
	0629	7799008551609		1	1	73479832	2019-01-03 14:48:52	2:48:52 PM	734798321610290.533424PLM024	PLM024
	0629	7799008551609		1	1	73479832	2019-01-03 14:48:58	2:48:58 PM	734798321610290.533424PLM024	PLM024
	0629	7799008551609		1	1	73479832	2019-01-03 14:49:08	2:49:08 PM	734798321610290.533424PLM024	PLM024
	0629	7799008551609		1	1	73479832	2019-01-03 14:49:15	2:49:15 PM	734798321610290.533424PLM024	PLM024
	0629	7799008551609		1	1	73479832	2019-01-03 14:49:25	2:49:25 PM	734798321610290.533424PLM024	PLM024
	0629	7799008551609		1	1	73479832	2019-01-03 14:49:29	2:49:29 PM	734798321610290.533424PLM024	PLM024
	0629	7799008551609		1	1	73479832	2019-01-03 14:49:34	2:49:34 PM	734798321610290.533424PLM024	PLM024
	0629	7799008551609		1	1	73479832	2019-01-03 14:49:41	2:49:41 PM	734798321610290.533424PLM024	PLM024
	0629	7799008551609		1	1	73479832	2019-01-03 14:50:03	2:50:03 PM	734798321610290.533424PLM024	PLM024
	0629	7799008551609		1	1	73479832	2019-01-03 14:50:09	2:50:09 PM	734798321610290.533424PLM024	PLM024
	0629	7799008551609		1	1	73479832	2019-01-03 14:50:30	2:50:30 PM	734798321610290.533424PLM024	PLM024
	0629	7799008551609		1	1	73479832	2019-01-03 14:50:39	2:50:39 PM	734798321610290.533424PLM024	PLM024
	0629	7799008551609		1	1	73479832	2019-01-03 14:50:44	2:50:44 PM	734798321610290.533424PLM024	PLM024
	0637	7799008996110		1	1	73479832	2019-01-03 14:54:46	2:54:46 PM	734798321610290.533424PLM024	PLM024
	0637	7799008996110		1	1	73479832	2019-01-03 14:54:58	2:54:58 PM	734798321610290.533424PLM024	PLM024
	0637	7799008996110		1	1	73479832	2019-01-03 14:55:02	2:55:02 PM	734798321610290.533424PLM024	PLM024
	0637	7799008996110		1	1	73479832	2019-01-03 14:55:07	2:55:07 PM	734798321610290.533424PLM024	PLM024
	0637	7799008996110		1	1	73479832	2019-01-03 14:55:13	2:55:13 PM	734798321610290.533424PLM024	PLM024
	0637	7799008996110		1	1	73479832	2019-01-03 14:55:23	2:55:23 PM	734798321610290.533424PLM024	PLM024
	0637	7799008996110		1	1	73479832	2019-01-03 14:55:28	2:55:28 PM	734798321610290.533424PLM024	PLM024
	0637	7799008996110		1	1	73479832	2019-01-03 14:55:32	2:55:32 PM	734798321610290.533424PLM024	PLM024
	0637	7799008996110		1	1	73479832	2019-01-03 14:55:39	2:55:39 PM	734798321610290.533424PLM024	PLM024
	0637	7799008996110		1	1	73479832	2019-01-03 14:55:49	2:55:49 PM	734798321610290.533424PLM024	PLM024
	0637	7799008996110		1	1	73479832	2019-01-03 14:56:05	2:56:05 PM	734798321610290.533424PLM024	PLM024
	0637	7799008996110		1	1	73479832	2019-01-03 14:56:09	2:56:09 PM	734798321610290.533424PLM024	PLM024
	0637	7799008996110		1	1	73479832	2019-01-03 14:56:14	2:56:14 PM	734798321610290.533424PLM024	PLM024
	0637	7799008996110		1	1	73479832	2019-01-03 14:56:20	2:56:20 PM	734798321610290.533424PLM024	PLM024
	0637	7799008996110		1	1	73479832	2019-01-03 14:56:23	2:56:23 PM	734798321610290.533424PLM024	PLM024
	0637	7799008996110		1	1	73479832	2019-01-03 14:56:31	2:56:31 PM	734798321610290.533424PLM024	PLM024
	0637	7799008996110		1	1	73479832	2019-01-03 14:56:41	2:56:41 PM	734798321610290.533424PLM024	PLM024
	0637	7799008996110		1	1	73479832	2019-01-03 14:56:54	2:56:54 PM	734798321610290.533424PLM024	PLM024
	0637	7799008996110		1	1	73479832	2019-01-03 14:57:00	2:57:00 PM	734798321610290.533424PLM024	PLM024
	0637	7799008996110		1	1	73479832	2019-01-03 14:57:45	2:57:45 PM	734798321610290.533424PLM024	PLM024
	0637	7799008996110		1	1	73479832	2019-01-03 14:57:54	2:57:54 PM	734798321610290.533424PLM024	PLM024
	0637	7799021057683		1	1	73479832	2019-01-03 14:58:03	2:58:03 PM	734798321610290.533424PLM024	PLM024
	0637	7799021057683		1	1	73479832	2019-01-03 14:58:08	2:58:08 PM	734798321610290.533424PLM024	PLM024
	0637	7799021057683		1	1	73479832	2019-01-03 14:58:18	2:58:18 PM	734798321610290.533424PLM024	PLM024
	0637	7799021057683		1	1	73479832	2019-01-03 14:58:29	2:58:29 PM	734798321610290.533424PLM024	PLM024
	0637	7799021057683		1	1	73479832	2019-01-03 14:58:34	2:58:34 PM	734798321610290.533424PLM024	PLM024
	0637	7799021057683		1	1	73479832	2019-01-03 14:58:37	2:58:37 PM	734798321610290.533424PLM024	PLM024
	0637	7799021057683		1	1	73479832	2019-01-03 14:58:46	2:58:46 PM	734798321610290.533424PLM024	PLM024
	0637	7799021057683		1	1	73479832	2019-01-03 14:58:54	2:58:54 PM	734798321610290.533424PLM024	PLM024
	0637	7799021057683		1	1	73479832	2019-01-03 14:59:02	2:59:02 PM	734798321610290.533424PLM024	PLM024
	0637	7799021057683		1	1	73479832	2019-01-03 14:59:08	2:59:08 PM	734798321610290.533424PLM024	PLM024
	0637	7799021057683		1	1	73479832	2019-01-03 14:59:15	2:59:15 PM	734798321610290.533424PLM024	PLM024
	0637	7799021057683		1	1	73479832	2019-01-03 14:59:24	2:59:24 PM	734798321610290.533424PLM024	PLM024
	0637	7799021057683		1	1	73479832	2019-01-03 14:59:33	2:59:33 PM	734798321610290.533424PLM024	PLM024
	0637	7799021057683		1	1	73479832	2019-01-03 14:59:39	2:59:39 PM	734798321610290.533424PLM024	PLM024
	0637	7799021057683		1	1	73479832	2019-01-03 14:59:44	2:59:44 PM	734798321610290.533424PLM024	PLM024
	0637	7799021057683		1	1	73479832	2019-01-03 14:59:48	2:59:48 PM	734798321610290.533424PLM024	PLM024
	0637	7799021057683		1	1	73479832	2019-01-03 14:59:58	2:59:58 PM	734798321610290.533424PLM024	PLM024
	0637	7799021057683		1	1	73479832	2019-01-03 15:00:15	3:00:15 PM	734798321610290.533424PLM024	PLM024
	0637	7799021057683		1	1	73479832	2019-01-03 15:00:21	3:00:21 PM	734798321610290.533424PLM024	PLM024
	0637	7799021057683		1	1	73479832	2019-01-03 15:00:30	3:00:30 PM	734798321610290.533424PLM024	PLM024
	0637	7799021057683		1	1	73479832	2019-01-03 15:00:47	3:00:47 PM	734798321610290.533424PLM024	PLM024
	0637	7799021057683		1	1	73479832	2019-01-03 15:00:54	3:00:54 PM	734798321610290.533424PLM024	PLM024
	0637	7799021057683		1	1	73479832	2019-01-03 15:01:02	3:01:02 PM	734798321610290.533424PLM024	PLM024
	0637	7799021057683		1	1	73479832	2019-01-03 15:01:11	3:01:11 PM	734798321610290.533424PLM024	PLM024
	0637	7799021057683		1	1	73479832	2019-01-03 15:01:23	3:01:23 PM	734798321610290.533424PLM024	PLM024
	0637	7799021057683		1	1	73479832	2019-01-03 15:01:39	3:01:39 PM	734798321610290.533424PLM024	PLM024
	0637	7799021057683		1	1	73479832	2019-01-03 15:02:02	3:02:02 PM	734798321610290.533424PLM024	PLM024
	0637	7799021057683		1	1	73479832	2019-01-03 15:02:10	3:02:10 PM	734798321610290.533424PLM024	PLM024
	0637	7799021057683		1	1	73479832	2019-01-03 15:02:15	3:02:15 PM	734798321610290.533424PLM024	PLM024
	0637	7799008996110		1	1	73479832	2019-01-03 15:02:31	3:02:31 PM	734798321610290.533424PLM024	PLM024
	0637	7799008996110		1	1	73479832	2019-01-03 15:02:36	3:02:36 PM	734798321610290.533424PLM024	PLM024
	0637	7799008996110		1	1	73479832	2019-01-03 15:02:45	3:02:45 PM	734798321610290.533424PLM024	PLM024
	0637	7799008996110		1	1	73479832	2019-01-03 15:03:00	3:03:00 PM	734798321610290.533424PLM024	PLM024
	0637	7799008996110		1	1	73479832	2019-01-03 15:03:10	3:03:10 PM	734798321610290.533424PLM024	PLM024
	0637	7799008996110		1	1	73479832	2019-01-03 15:03:14	3:03:14 PM	734798321610290.533424PLM024	PLM024
	0637	7799008996110		1	1	73479832	2019-01-03 15:03:33	3:03:33 PM	734798321610290.533424PLM024	PLM024
	0637	7799008996110		1	1	73479832	2019-01-03 15:03:54	3:03:54 PM	734798321610290.533424PLM024	PLM024
	0637	7799021057683		1	1	73479832	2019-01-03 15:04:00	3:04:00 PM	734798321610290.533424PLM024	PLM024
	0637	7799008996110		1	1	73479832	2019-01-03 15:04:15	3:04:15 PM	734798321610290.533424PLM024	PLM024
	0637	7799008996110		1	1	73479832	2019-01-03 15:04:21	3:04:21 PM	734798321610290.533424PLM024	PLM024
	0637	7799021057683		1	1	73479832	2019-01-03 15:04:31	3:04:31 PM	734798321610290.533424PLM024	PLM024
	0637	7799021057683		1	1	73479832	2019-01-03 15:04:49	3:04:49 PM	734798321610290.533424PLM024	PLM024
	0637	7799021057683		1	1	73479832	2019-01-03 15:04:56	3:04:56 PM	734798321610290.533424PLM024	PLM024
	0637	7799021057683		1	1	73479832	2019-01-03 15:05:06	3:05:06 PM	734798321610290.533424PLM024	PLM024
	0637	7799021057683		1	1	73479832	2019-01-03 15:05:11	3:05:11 PM	734798321610290.533424PLM024	PLM024
	0637	7799021057683		1	1	73479832	2019-01-03 15:05:15	3:05:15 PM	734798321610290.533424PLM024	PLM024
	0637	7799021057683		1	1	73479832	2019-01-03 15:05:20	3:05:20 PM	734798321610290.533424PLM024	PLM024
	0637	7799021057683		1	1	73479832	2019-01-03 15:05:25	3:05:25 PM	734798321610290.533424PLM024	PLM024
	0637	7799021057683		1	1	73479832	2019-01-03 15:05:34	3:05:34 PM	734798321610290.533424PLM024	PLM024
	0645	7799008957920		1	1	73479832	2019-01-03 15:09:20	3:09:20 PM	734798321610290.533424PLM024	PLM024
	0645	7799008957920		1	1	73479832	2019-01-03 15:09:36	3:09:36 PM	734798321610290.533424PLM024	PLM024
	0645	7799008957920		1	1	73479832	2019-01-03 15:09:47	3:09:47 PM	734798321610290.533424PLM024	PLM024
	0645	7799008957920		1	1	73479832	2019-01-03 15:09:53	3:09:53 PM	734798321610290.533424PLM024	PLM024
	0645	7799008957920		1	1	73479832	2019-01-03 15:09:59	3:09:59 PM	734798321610290.533424PLM024	PLM024
	0645	7799008957920		1	1	73479832	2019-01-03 15:10:11	3:10:11 PM	734798321610290.533424PLM024	PLM024
	0645	7799008957920		1	1	73479832	2019-01-03 15:10:45	3:10:45 PM	734798321610290.533424PLM024	PLM024
	0645	7799008957920		1	1	73479832	2019-01-03 15:10:56	3:10:56 PM	734798321610290.533424PLM024	PLM024
	0645	7799008957920		1	1	73479832	2019-01-03 15:11:00	3:11:00 PM	734798321610290.533424PLM024	PLM024
	0645	7799008957920		1	1	73479832	2019-01-03 15:11:07	3:11:07 PM	734798321610290.533424PLM024	PLM024
	0645	7799008957920		1	1	73479832	2019-01-03 15:11:27	3:11:27 PM	734798321610290.533424PLM024	PLM024
	0645	7799008957920		1	1	73479832	2019-01-03 15:11:33	3:11:33 PM	734798321610290.533424PLM024	PLM024
	0645	7799008957920		1	1	73479832	2019-01-03 15:11:39	3:11:39 PM	734798321610290.533424PLM024	PLM024
	0645	7799008957920		1	1	73479832	2019-01-03 15:11:46	3:11:46 PM	734798321610290.533424PLM024	PLM024
	0645	7799008957920		1	1	73479832	2019-01-03 15:11:52	3:11:52 PM	734798321610290.533424PLM024	PLM024
	0645	7799008957920		1	1	73479832	2019-01-03 15:11:57	3:11:57 PM	734798321610290.533424PLM024	PLM024
	0645	7799008957920		1	1	73479832	2019-01-03 15:12:18	3:12:18 PM	734798321610290.533424PLM024	PLM024
	0645	7799008957920		1	1	73479832	2019-01-03 15:12:30	3:12:30 PM	734798321610290.533424PLM024	PLM024
	0645	7799008957920		1	1	73479832	2019-01-03 15:12:38	3:12:38 PM	734798321610290.533424PLM024	PLM024
	0645	7799008957920		1	1	73479832	2019-01-03 15:12:43	3:12:43 PM	734798321610290.533424PLM024	PLM024
	0645	7799008957920		1	1	73479832	2019-01-03 15:12:55	3:12:55 PM	734798321610290.533424PLM024	PLM024
	0645	7799008957920		1	1	73479832	2019-01-03 15:13:03	3:13:03 PM	734798321610290.533424PLM024	PLM024
	0645	7799008957920		1	1	73479832	2019-01-03 15:13:11	3:13:11 PM	734798321610290.533424PLM024	PLM024
	0645	7799008957920		1	1	73479832	2019-01-03 15:13:19	3:13:19 PM	734798321610290.533424PLM024	PLM024
	0645	7799008957920		1	1	73479832	2019-01-03 15:13:29	3:13:29 PM	734798321610290.533424PLM024	PLM024
	0645	7799008957920		1	1	73479832	2019-01-03 15:13:38	3:13:38 PM	734798321610290.533424PLM024	PLM024
	0645	7799008957920		1	1	73479832	2019-01-03 15:13:49	3:13:49 PM	734798321610290.533424PLM024	PLM024
	0645	7799008957920		1	1	73479832	2019-01-03 15:13:56	3:13:56 PM	734798321610290.533424PLM024	PLM024
	0645	7799008957920		1	1	73479832	2019-01-03 15:13:59	3:13:59 PM	734798321610290.533424PLM024	PLM024
	0645	7799008957920		1	1	73479832	2019-01-03 15:14:29	3:14:29 PM	734798321610290.533424PLM024	PLM024
	0645	7799008957920		1	1	73479832	2019-01-03 15:14:52	3:14:52 PM	734798321610290.533424PLM024	PLM024
	0645	7799008957920		1	1	73479832	2019-01-03 15:15:09	3:15:09 PM	734798321610290.533424PLM024	PLM024
	0645	7799008957920		1	1	73479832	2019-01-03 15:15:22	3:15:22 PM	734798321610290.533424PLM024	PLM024
	0646	7799008957807		1	1	73479832	2019-01-03 15:16:26	3:16:26 PM	734798321610290.533424PLM024	PLM024
	0646	7799008957807		1	1	73479832	2019-01-03 15:16:30	3:16:30 PM	734798321610290.533424PLM024	PLM024
	0646	7799008957807		1	1	73479832	2019-01-03 15:16:34	3:16:34 PM	734798321610290.533424PLM024	PLM024
	0646	7799008957807		1	1	73479832	2019-01-03 15:16:48	3:16:48 PM	734798321610290.533424PLM024	PLM024
	0646	7799008957807		1	1	73479832	2019-01-03 15:16:52	3:16:52 PM	734798321610290.533424PLM024	PLM024
	0646	7799008957807		1	1	73479832	2019-01-03 15:16:55	3:16:55 PM	734798321610290.533424PLM024	PLM024
	0646	7799008957807		1	1	73479832	2019-01-03 15:17:02	3:17:02 PM	734798321610290.533424PLM024	PLM024
	0646	7799008957807		1	1	73479832	2019-01-03 15:17:10	3:17:10 PM	734798321610290.533424PLM024	PLM024
	0646	7799008957807		1	1	73479832	2019-01-03 15:17:17	3:17:17 PM	734798321610290.533424PLM024	PLM024
	0646	7799008957807		1	1	73479832	2019-01-03 15:17:21	3:17:21 PM	734798321610290.533424PLM024	PLM024
	0646	7799008957807		1	1	73479832	2019-01-03 15:17:29	3:17:29 PM	734798321610290.533424PLM024	PLM024
	0646	7799008957807		1	1	73479832	2019-01-03 15:17:36	3:17:36 PM	734798321610290.533424PLM024	PLM024
	0646	7799008957807		1	1	73479832	2019-01-03 15:17:39	3:17:39 PM	734798321610290.533424PLM024	PLM024
	0646	7799008957807		1	1	73479832	2019-01-03 15:17:46	3:17:46 PM	734798321610290.533424PLM024	PLM024
	0646	7799008957807		1	1	73479832	2019-01-03 15:17:52	3:17:52 PM	734798321610290.533424PLM024	PLM024
	0646	7799008957807		1	1	73479832	2019-01-03 15:17:58	3:17:58 PM	734798321610290.533424PLM024	PLM024
	0646	7799008957807		1	1	73479832	2019-01-03 15:18:04	3:18:04 PM	734798321610290.533424PLM024	PLM024
	0646	7799008957807		1	1	73479832	2019-01-03 15:18:09	3:18:09 PM	734798321610290.533424PLM024	PLM024
	0646	7799008957807		1	1	73479832	2019-01-03 15:18:17	3:18:17 PM	734798321610290.533424PLM024	PLM024
	0646	7799008957807		1	1	73479832	2019-01-03 15:18:25	3:18:25 PM	734798321610290.533424PLM024	PLM024
	0646	7799008957807		1	1	73479832	2019-01-03 15:18:32	3:18:32 PM	734798321610290.533424PLM024	PLM024
	0646	7799008957807		1	1	73479832	2019-01-03 15:18:36	3:18:36 PM	734798321610290.533424PLM024	PLM024
	0646	7799008957807		1	1	73479832	2019-01-03 15:18:41	3:18:41 PM	734798321610290.533424PLM024	PLM024
	0646	7799008957807		1	1	73479832	2019-01-03 15:18:45	3:18:45 PM	734798321610290.533424PLM024	PLM024
	0646	7799008957807		1	1	73479832	2019-01-03 15:18:58	3:18:58 PM	734798321610290.533424PLM024	PLM024
	0646	7799008957807		1	1	73479832	2019-01-03 15:19:01	3:19:01 PM	734798321610290.533424PLM024	PLM024
	0646	7799008957807		1	1	73479832	2019-01-03 15:19:12	3:19:12 PM	734798321610290.533424PLM024	PLM024
	0646	7799008957807		1	1	73479832	2019-01-03 15:19:17	3:19:17 PM	734798321610290.533424PLM024	PLM024
	0646	7799008957807		1	1	73479832	2019-01-03 15:19:19	3:19:19 PM	734798321610290.533424PLM024	PLM024
	0646	7799008957807		1	1	73479832	2019-01-03 15:19:24	3:19:24 PM	734798321610290.533424PLM024	PLM024
	0646	7799008957807		1	1	73479832	2019-01-03 15:19:28	3:19:28 PM	734798321610290.533424PLM024	PLM024
	0646	7799008957807		1	1	73479832	2019-01-03 15:19:49	3:19:49 PM	734798321610290.533424PLM024	PLM024
	0646	7799008957807		1	1	73479832	2019-01-03 15:19:55	3:19:55 PM	734798321610290.533424PLM024	PLM024
	0646	7799008957807		1	1	73479832	2019-01-03 15:20:04	3:20:04 PM	734798321610290.533424PLM024	PLM024
	0646	7799008957807		1	1	73479832	2019-01-03 15:20:08	3:20:08 PM	734798321610290.533424PLM024	PLM024
	0646	7799008957807		1	1	73479832	2019-01-03 15:20:14	3:20:14 PM	734798321610290.533424PLM024	PLM024
	0646	7799008957807		1	1	73479832	2019-01-03 15:20:18	3:20:18 PM	734798321610290.533424PLM024	PLM024
	0646	7799008957807		1	1	73479832	2019-01-03 15:20:24	3:20:24 PM	734798321610290.533424PLM024	PLM024
	0646	7799008957807		1	1	73479832	2019-01-03 15:20:30	3:20:30 PM	734798321610290.533424PLM024	PLM024
	0646	7799008957807		1	1	73479832	2019-01-03 15:20:38	3:20:38 PM	734798321610290.533424PLM024	PLM024
	0646	7799008957807		1	1	73479832	2019-01-03 15:20:43	3:20:43 PM	734798321610290.533424PLM024	PLM024
	0646	7799008957807		1	1	73479832	2019-01-03 15:20:57	3:20:57 PM	734798321610290.533424PLM024	PLM024
	0646	7799008957807		1	1	73479832	2019-01-03 15:21:02	3:21:02 PM	734798321610290.533424PLM024	PLM024
	0646	7799008957807		1	1	73479832	2019-01-03 15:21:07	3:21:07 PM	734798321610290.533424PLM024	PLM024
	0646	7799008957807		1	1	73479832	2019-01-03 15:21:10	3:21:10 PM	734798321610290.533424PLM024	PLM024
	0646	7799008957807		1	1	73479832	2019-01-03 15:21:35	3:21:35 PM	734798321610290.533424PLM024	PLM024
	0646	7799008957807		1	1	73479832	2019-01-03 15:21:40	3:21:40 PM	734798321610290.533424PLM024	PLM024
	0646	7799008957807		1	1	73479832	2019-01-03 15:21:44	3:21:44 PM	734798321610290.533424PLM024	PLM024
	0646	7799008957807		1	1	73479832	2019-01-03 15:21:49	3:21:49 PM	734798321610290.533424PLM024	PLM024
	0646	7799008957807		1	1	73479832	2019-01-03 15:21:54	3:21:54 PM	734798321610290.533424PLM024	PLM024
	0646	7799008957807		1	1	73479832	2019-01-03 15:22:00	3:22:00 PM	734798321610290.533424PLM024	PLM024
	0646	7799008957807		1	1	73479832	2019-01-03 15:22:07	3:22:07 PM	734798321610290.533424PLM024	PLM024
	0646	7799008957807		1	1	73479832	2019-01-03 15:22:28	3:22:28 PM	734798321610290.533424PLM024	PLM024
	0646	7799008957807		1	1	73479832	2019-01-03 15:22:32	3:22:32 PM	734798321610290.533424PLM024	PLM024
	0646	7799008957807		1	1	73479832	2019-01-03 15:22:44	3:22:44 PM	734798321610290.533424PLM024	PLM024
	0646	7799008957807		1	1	73479832	2019-01-03 15:22:50	3:22:50 PM	734798321610290.533424PLM024	PLM024
	0646	7799008957807		1	1	73479832	2019-01-03 15:23:12	3:23:12 PM	734798321610290.533424PLM024	PLM024
	0646	7799008957807		1	1	73479832	2019-01-03 15:23:17	3:23:17 PM	734798321610290.533424PLM024	PLM024
	0646	7799008957807		1	1	73479832	2019-01-03 15:23:24	3:23:24 PM	734798321610290.533424PLM024	PLM024
	0646	7799008957807		1	1	73479832	2019-01-03 15:23:30	3:23:30 PM	734798321610290.533424PLM024	PLM024
	0646	7799008957807		1	1	73479832	2019-01-03 15:23:36	3:23:36 PM	734798321610290.533424PLM024	PLM024
	0646	7799008957807		1	1	73479832	2019-01-03 15:23:42	3:23:42 PM	734798321610290.533424PLM024	PLM024
	0646	7799008957807		1	1	73479832	2019-01-03 15:23:45	3:23:45 PM	734798321610290.533424PLM024	PLM024
	0646	7799008957807		1	1	73479832	2019-01-03 15:23:48	3:23:48 PM	734798321610290.533424PLM024	PLM024
	0646	7799008957807		1	1	73479832	2019-01-03 15:24:03	3:24:03 PM	734798321610290.533424PLM024	PLM024
	0646	7799008957807		1	1	73479832	2019-01-03 15:24:09	3:24:09 PM	734798321610290.533424PLM024	PLM024
	0646	7799008957807		1	1	73479832	2019-01-03 15:24:22	3:24:22 PM	734798321610290.533424PLM024	PLM024
	0646	7799008957807		1	1	73479832	2019-01-03 15:24:27	3:24:27 PM	734798321610290.533424PLM024	PLM024
	0646	7799008957807		1	1	73479832	2019-01-03 15:24:51	3:24:51 PM	734798321610290.533424PLM024	PLM024
	0646	7799008957807		1	1	73479832	2019-01-03 15:24:56	3:24:56 PM	734798321610290.533424PLM024	PLM024
	0646	7799008957807		1	1	73479832	2019-01-03 15:25:01	3:25:01 PM	734798321610290.533424PLM024	PLM024
	0646	7799008957807		1	1	73479832	2019-01-03 15:25:15	3:25:15 PM	734798321610290.533424PLM024	PLM024
	0646	7799008957807		1	1	73479832	2019-01-03 15:25:25	3:25:25 PM	734798321610290.533424PLM024	PLM024
	0646	7799008957807		1	1	73479832	2019-01-03 15:25:31	3:25:31 PM	734798321610290.533424PLM024	PLM024
	0646	7799008957807		1	1	73479832	2019-01-03 15:25:47	3:25:47 PM	734798321610290.533424PLM024	PLM024
	0646	7799008957807		1	1	73479832	2019-01-03 15:25:52	3:25:52 PM	734798321610290.533424PLM024	PLM024
	0646	7799008957807		1	1	73479832	2019-01-03 15:25:55	3:25:55 PM	734798321610290.533424PLM024	PLM024
	0646	7799008957807		1	1	73479832	2019-01-03 15:26:05	3:26:05 PM	734798321610290.533424PLM024	PLM024
	0638	7799021057638		1	1	73479832	2019-01-03 15:27:54	3:27:54 PM	734798321610290.533424PLM024	PLM024
	0638	7799021057638		1	1	73479832	2019-01-03 15:28:04	3:28:04 PM	734798321610290.533424PLM024	PLM024
	0638	7799021057638		1	1	73479832	2019-01-03 15:28:15	3:28:15 PM	734798321610290.533424PLM024	PLM024
	0638	7799021057638		1	1	73479832	2019-01-03 15:28:19	3:28:19 PM	734798321610290.533424PLM024	PLM024
	0638	7799021057638		1	1	73479832	2019-01-03 15:28:30	3:28:30 PM	734798321610290.533424PLM024	PLM024
	0638	7799021057638		1	1	73479832	2019-01-03 15:28:34	3:28:34 PM	734798321610290.533424PLM024	PLM024
	0638	7799021057638		1	1	73479832	2019-01-03 15:28:39	3:28:39 PM	734798321610290.533424PLM024	PLM024
	0638	7799021057638		1	1	73479832	2019-01-03 15:29:13	3:29:13 PM	734798321610290.533424PLM024	PLM024
	0638	7799021057638		1	1	73479832	2019-01-03 15:29:32	3:29:32 PM	734798321610290.533424PLM024	PLM024
	0638	7799021057638		1	1	73479832	2019-01-03 15:29:36	3:29:36 PM	734798321610290.533424PLM024	PLM024
	0638	7799021057638		1	1	73479832	2019-01-03 15:29:42	3:29:42 PM	734798321610290.533424PLM024	PLM024
	0638	7799021057638		1	1	73479832	2019-01-03 15:29:50	3:29:50 PM	734798321610290.533424PLM024	PLM024
	0638	7799021057638		1	1	73479832	2019-01-03 15:29:58	3:29:58 PM	734798321610290.533424PLM024	PLM024
	0638	7799021057638		1	1	73479832	2019-01-03 15:30:15	3:30:15 PM	734798321610290.533424PLM024	PLM024
	0638	7799021057638		1	1	73479832	2019-01-03 15:30:24	3:30:24 PM	734798321610290.533424PLM024	PLM024
	0638	7799021057638		1	1	73479832	2019-01-03 15:30:28	3:30:28 PM	734798321610290.533424PLM024	PLM024
	0638	7799021057638		1	1	73479832	2019-01-03 15:30:34	3:30:34 PM	734798321610290.533424PLM024	PLM024
	0638	7799021057638		1	1	73479832	2019-01-03 15:30:44	3:30:44 PM	734798321610290.533424PLM024	PLM024
	0638	7799021057638		1	1	73479832	2019-01-03 15:30:49	3:30:49 PM	734798321610290.533424PLM024	PLM024
	0638	7799021057638		1	1	73479832	2019-01-03 15:30:52	3:30:52 PM	734798321610290.533424PLM024	PLM024
	0638	7799021057638		1	1	73479832	2019-01-03 15:30:57	3:30:57 PM	734798321610290.533424PLM024	PLM024
	0638	7799021057638		1	1	73479832	2019-01-03 15:31:02	3:31:02 PM	734798321610290.533424PLM024	PLM024
	0638	7799021057638		1	1	73479832	2019-01-03 15:31:18	3:31:18 PM	734798321610290.533424PLM024	PLM024
	0638	7799021057638		1	1	73479832	2019-01-03 15:31:26	3:31:26 PM	734798321610290.533424PLM024	PLM024
	0638	7799021057638		1	1	73479832	2019-01-03 15:31:29	3:31:29 PM	734798321610290.533424PLM024	PLM024
	0638	7799021057638		1	1	73479832	2019-01-03 15:31:33	3:31:33 PM	734798321610290.533424PLM024	PLM024
	0638	7799021057638		1	1	73479832	2019-01-03 15:31:38	3:31:38 PM	734798321610290.533424PLM024	PLM024
	0638	7799021057638		1	1	73479832	2019-01-03 15:31:47	3:31:47 PM	734798321610290.533424PLM024	PLM024
	0638	7799021057638		1	1	73479832	2019-01-03 15:31:51	3:31:51 PM	734798321610290.533424PLM024	PLM024
	0638	7799021057638		1	1	73479832	2019-01-03 15:32:22	3:32:22 PM	734798321610290.533424PLM024	PLM024
	0638	7799021057638		1	1	73479832	2019-01-03 15:32:35	3:32:35 PM	734798321610290.533424PLM024	PLM024
	0638	7799021057638		1	1	73479832	2019-01-03 15:32:42	3:32:42 PM	734798321610290.533424PLM024	PLM024
	0638	7799021057638		1	1	73479832	2019-01-03 15:32:50	3:32:50 PM	734798321610290.533424PLM024	PLM024
	0638	7799021057638		1	1	73479832	2019-01-03 15:32:57	3:32:57 PM	734798321610290.533424PLM024	PLM024
	0638	7799021057638		1	1	73479832	2019-01-03 15:33:03	3:33:03 PM	734798321610290.533424PLM024	PLM024
	0638	7799021057638		1	1	73479832	2019-01-03 15:33:08	3:33:08 PM	734798321610290.533424PLM024	PLM024
	0638	7799021057638		1	1	73479832	2019-01-03 15:33:12	3:33:12 PM	734798321610290.533424PLM024	PLM024
	0638	7799021057638		1	1	73479832	2019-01-03 15:33:21	3:33:21 PM	734798321610290.533424PLM024	PLM024
	0638	7799021057638		1	1	73479832	2019-01-03 15:33:28	3:33:28 PM	734798321610290.533424PLM024	PLM024
	0638	7799021057638		1	1	73479832	2019-01-03 15:33:36	3:33:36 PM	734798321610290.533424PLM024	PLM024
	0638	7799021057638		1	1	73479832	2019-01-03 15:33:54	3:33:54 PM	734798321610290.533424PLM024	PLM024
	0638	7799021057638		1	1	73479832	2019-01-03 15:33:59	3:33:59 PM	734798321610290.533424PLM024	PLM024
	0638	7799021057638		1	1	73479832	2019-01-03 15:34:06	3:34:06 PM	734798321610290.533424PLM024	PLM024
	0638	7799021057638		1	1	73479832	2019-01-03 15:34:13	3:34:13 PM	734798321610290.533424PLM024	PLM024
	0638	7799021057638		1	1	73479832	2019-01-03 15:34:46	3:34:46 PM	734798321610290.533424PLM024	PLM024
	0630	7799008995366		1	1	73479832	2019-01-03 15:38:36	3:38:36 PM	734798321610290.533424PLM024	PLM024
	0630	7799008995366		1	1	73479832	2019-01-03 15:38:39	3:38:39 PM	734798321610290.533424PLM024	PLM024
	0630	7799008995366		1	1	73479832	2019-01-03 15:38:44	3:38:44 PM	734798321610290.533424PLM024	PLM024
	0630	7799008995366		1	1	73479832	2019-01-03 15:38:47	3:38:47 PM	734798321610290.533424PLM024	PLM024
	0630	7799008995366		1	1	73479832	2019-01-03 15:38:53	3:38:53 PM	734798321610290.533424PLM024	PLM024
	0630	7799008995366		1	1	73479832	2019-01-03 15:39:01	3:39:01 PM	734798321610290.533424PLM024	PLM024
	0630	7799008995366		1	1	73479832	2019-01-03 15:39:06	3:39:06 PM	734798321610290.533424PLM024	PLM024
	0630	7799008995366		1	1	73479832	2019-01-03 15:39:10	3:39:10 PM	734798321610290.533424PLM024	PLM024
	0630	7799008995366		1	1	73479832	2019-01-03 15:39:16	3:39:16 PM	734798321610290.533424PLM024	PLM024
	0630	7799008995366		1	1	73479832	2019-01-03 15:39:21	3:39:21 PM	734798321610290.533424PLM024	PLM024
	0630	7799008995366		1	1	73479832	2019-01-03 15:39:26	3:39:26 PM	734798321610290.533424PLM024	PLM024
	0630	7799008995366		1	1	73479832	2019-01-03 15:39:29	3:39:29 PM	734798321610290.533424PLM024	PLM024
	0630	7799008995366		1	1	73479832	2019-01-03 15:39:35	3:39:35 PM	734798321610290.533424PLM024	PLM024
	0630	7799008995366		1	1	73479832	2019-01-03 15:39:39	3:39:39 PM	734798321610290.533424PLM024	PLM024
	0630	7799008995366		1	1	73479832	2019-01-03 15:39:45	3:39:45 PM	734798321610290.533424PLM024	PLM024
	0630	7799008995366		1	1	73479832	2019-01-03 15:39:53	3:39:53 PM	734798321610290.533424PLM024	PLM024
	0630	7799008995366		1	1	73479832	2019-01-03 15:40:01	3:40:01 PM	734798321610290.533424PLM024	PLM024
	0630	7799008995366		1	1	73479832	2019-01-03 15:40:07	3:40:07 PM	734798321610290.533424PLM024	PLM024
	0630	7799008995366		1	1	73479832	2019-01-03 15:40:10	3:40:10 PM	734798321610290.533424PLM024	PLM024
	0630	7799008995366		1	1	73479832	2019-01-03 15:40:17	3:40:17 PM	734798321610290.533424PLM024	PLM024
	0630	7799008995366		1	1	73479832	2019-01-03 15:40:23	3:40:23 PM	734798321610290.533424PLM024	PLM024
	0630	7799008995366		1	1	73479832	2019-01-03 15:40:30	3:40:30 PM	734798321610290.533424PLM024	PLM024
	0630	7799008995366		1	1	73479832	2019-01-03 15:40:35	3:40:35 PM	734798321610290.533424PLM024	PLM024
	0630	7799008995366		1	1	73479832	2019-01-03 15:40:44	3:40:44 PM	734798321610290.533424PLM024	PLM024
	0630	7799008995366		1	1	73479832	2019-01-03 15:40:51	3:40:51 PM	734798321610290.533424PLM024	PLM024
	0630	7799008995366		1	1	73479832	2019-01-03 15:40:56	3:40:56 PM	734798321610290.533424PLM024	PLM024
	0630	7799008995366		1	1	73479832	2019-01-03 15:41:33	3:41:33 PM	734798321610290.533424PLM024	PLM024
	0630	7799008995366		1	1	73479832	2019-01-03 15:41:38	3:41:38 PM	734798321610290.533424PLM024	PLM024
	0630	7799008995366		1	1	73479832	2019-01-03 15:41:46	3:41:46 PM	734798321610290.533424PLM024	PLM024
	0630	7799008995366		1	1	73479832	2019-01-03 15:41:54	3:41:54 PM	734798321610290.533424PLM024	PLM024
	0630	7799008995366		1	1	73479832	2019-01-03 15:41:58	3:41:58 PM	734798321610290.533424PLM024	PLM024
	0630	7799008995366		1	1	73479832	2019-01-03 15:42:02	3:42:02 PM	734798321610290.533424PLM024	PLM024
	0630	7799008995366		1	1	73479832	2019-01-03 15:42:07	3:42:07 PM	734798321610290.533424PLM024	PLM024
	0630	7799008995366		1	1	73479832	2019-01-03 15:42:15	3:42:15 PM	734798321610290.533424PLM024	PLM024
	0630	7799008995366		1	1	73479832	2019-01-03 15:42:25	3:42:25 PM	734798321610290.533424PLM024	PLM024
	0630	7799008995366		1	1	73479832	2019-01-03 15:42:29	3:42:29 PM	734798321610290.533424PLM024	PLM024
	0630	7799008995366		1	1	73479832	2019-01-03 15:42:39	3:42:39 PM	734798321610290.533424PLM024	PLM024
	0630	7799008995366		1	1	73479832	2019-01-03 15:42:55	3:42:55 PM	734798321610290.533424PLM024	PLM024
	0630	7799008995366		1	1	73479832	2019-01-03 15:43:01	3:43:01 PM	734798321610290.533424PLM024	PLM024
	0630	7799008995366		1	1	73479832	2019-01-03 15:43:05	3:43:05 PM	734798321610290.533424PLM024	PLM024
	0630	7799008995366		1	1	73479832	2019-01-03 15:43:09	3:43:09 PM	734798321610290.533424PLM024	PLM024
	0630	7799008995366		1	1	73479832	2019-01-03 15:43:25	3:43:25 PM	734798321610290.533424PLM024	PLM024
	0623	7799021057706		1	1	73479832	2019-01-03 15:47:17	3:47:17 PM	734798321610290.533424PLM024	PLM024
	0623	7799021057706		1	1	73479832	2019-01-03 15:47:32	3:47:32 PM	734798321610290.533424PLM024	PLM024
	0623	7799021057706		1	1	73479832	2019-01-03 15:47:41	3:47:41 PM	734798321610290.533424PLM024	PLM024
	0623	7799021057706		1	1	73479832	2019-01-03 15:47:46	3:47:46 PM	734798321610290.533424PLM024	PLM024
	0623	7799021057706		1	1	73479832	2019-01-03 15:47:57	3:47:57 PM	734798321610290.533424PLM024	PLM024
	0623	7799021057706		1	1	73479832	2019-01-03 15:48:04	3:48:04 PM	734798321610290.533424PLM024	PLM024
	0623	7799021057706		1	1	73479832	2019-01-03 15:48:23	3:48:23 PM	734798321610290.533424PLM024	PLM024
	0623	7799021057706		1	1	73479832	2019-01-03 15:48:29	3:48:29 PM	734798321610290.533424PLM024	PLM024
	0623	7799021057706		1	1	73479832	2019-01-03 15:48:38	3:48:38 PM	734798321610290.533424PLM024	PLM024
	0623	7799021057706		1	1	73479832	2019-01-03 15:48:45	3:48:45 PM	734798321610290.533424PLM024	PLM024
	0623	7799021057706		1	1	73479832	2019-01-03 15:48:58	3:48:58 PM	734798321610290.533424PLM024	PLM024
	0623	7799021057706		1	1	73479832	2019-01-03 15:49:05	3:49:05 PM	734798321610290.533424PLM024	PLM024
	0623	7799021057706		1	1	73479832	2019-01-03 15:49:11	3:49:11 PM	734798321610290.533424PLM024	PLM024
	0623	7799021057706		1	1	73479832	2019-01-03 15:49:36	3:49:36 PM	734798321610290.533424PLM024	PLM024
	0623	7799021057706		1	1	73479832	2019-01-03 15:49:50	3:49:50 PM	734798321610290.533424PLM024	PLM024
	0623	7799021057706		1	1	73479832	2019-01-03 15:50:01	3:50:01 PM	734798321610290.533424PLM024	PLM024
	0623	7799021057706		1	1	73479832	2019-01-03 15:50:11	3:50:11 PM	734798321610290.533424PLM024	PLM024
	0623	7799021057706		1	1	73479832	2019-01-03 15:50:17	3:50:17 PM	734798321610290.533424PLM024	PLM024
	0623	7799021057706		1	1	73479832	2019-01-03 15:50:26	3:50:26 PM	734798321610290.533424PLM024	PLM024
	0623	7799021057706		1	1	73479832	2019-01-03 15:50:34	3:50:34 PM	734798321610290.533424PLM024	PLM024
	0623	7799021057706		1	1	73479832	2019-01-03 15:50:40	3:50:40 PM	734798321610290.533424PLM024	PLM024
	0623	7799021057706		1	1	73479832	2019-01-03 15:50:52	3:50:52 PM	734798321610290.533424PLM024	PLM024
	0631	7799008957784		1	1	73479832	2019-01-03 15:53:15	3:53:15 PM	734798321610290.533424PLM024	PLM024
	0631	7799008893099		1	1	73479832	2019-01-03 15:53:21	3:53:21 PM	734798321610290.533424PLM024	PLM024
	0631	7799008893099		1	1	73479832	2019-01-03 15:53:26	3:53:26 PM	734798321610290.533424PLM024	PLM024
	0631	7799008893099		1	1	73479832	2019-01-03 15:53:30	3:53:30 PM	734798321610290.533424PLM024	PLM024
	0631	7799008893099		1	1	73479832	2019-01-03 15:53:33	3:53:33 PM	734798321610290.533424PLM024	PLM024
	0631	7799008893099		1	1	73479832	2019-01-03 15:53:36	3:53:36 PM	734798321610290.533424PLM024	PLM024
	0631	7799008893099		1	1	73479832	2019-01-03 15:53:39	3:53:39 PM	734798321610290.533424PLM024	PLM024
	0631	7799008893099		1	1	73479832	2019-01-03 15:53:44	3:53:44 PM	734798321610290.533424PLM024	PLM024
	0631	7799008893099		1	1	73479832	2019-01-03 15:53:49	3:53:49 PM	734798321610290.533424PLM024	PLM024
	0631	7799008893099		1	1	73479832	2019-01-03 15:53:55	3:53:55 PM	734798321610290.533424PLM024	PLM024
	0631	7799008893099		1	1	73479832	2019-01-03 15:53:58	3:53:58 PM	734798321610290.533424PLM024	PLM024
	0631	7799008893099		1	1	73479832	2019-01-03 15:54:00	3:54:00 PM	734798321610290.533424PLM024	PLM024
	0631	7799008893099		1	1	73479832	2019-01-03 15:54:07	3:54:07 PM	734798321610290.533424PLM024	PLM024
	0631	7799008893099		1	1	73479832	2019-01-03 15:54:21	3:54:21 PM	734798321610290.533424PLM024	PLM024
	0631	7799008893099		1	1	73479832	2019-01-03 15:54:32	3:54:32 PM	734798321610290.533424PLM024	PLM024
	0631	7799008893099		1	1	73479832	2019-01-03 15:54:36	3:54:36 PM	734798321610290.533424PLM024	PLM024
	0631	7799008893099		1	1	73479832	2019-01-03 15:54:41	3:54:41 PM	734798321610290.533424PLM024	PLM024
	0631	7799008893099		1	1	73479832	2019-01-03 15:54:46	3:54:46 PM	734798321610290.533424PLM024	PLM024
	0631	7799008893099		1	1	73479832	2019-01-03 15:54:53	3:54:53 PM	734798321610290.533424PLM024	PLM024
	0631	7799008893099		1	1	73479832	2019-01-03 15:55:01	3:55:01 PM	734798321610290.533424PLM024	PLM024
	0631	7799008893099		1	1	73479832	2019-01-03 15:55:08	3:55:08 PM	734798321610290.533424PLM024	PLM024
	0631	7799008893099		1	1	73479832	2019-01-03 15:55:16	3:55:16 PM	734798321610290.533424PLM024	PLM024
	0631	7799008893099		1	1	73479832	2019-01-03 15:55:27	3:55:27 PM	734798321610290.533424PLM024	PLM024
	0631	7799008893099		1	1	73479832	2019-01-03 15:55:31	3:55:31 PM	734798321610290.533424PLM024	PLM024
	0631	7799008893099		1	1	73479832	2019-01-03 15:55:35	3:55:35 PM	734798321610290.533424PLM024	PLM024
	0631	7799008893099		1	1	73479832	2019-01-03 15:55:40	3:55:40 PM	734798321610290.533424PLM024	PLM024
	0631	7799008893099		1	1	73479832	2019-01-03 15:55:53	3:55:53 PM	734798321610290.533424PLM024	PLM024
	0631	7799008893099		1	1	73479832	2019-01-03 15:55:58	3:55:58 PM	734798321610290.533424PLM024	PLM024
	0631	7799008893099		1	1	73479832	2019-01-03 15:56:04	3:56:04 PM	734798321610290.533424PLM024	PLM024
	0631	7799008893099		1	1	73479832	2019-01-03 15:56:10	3:56:10 PM	734798321610290.533424PLM024	PLM024
	0631	7799008893099		1	1	73479832	2019-01-03 15:56:16	3:56:16 PM	734798321610290.533424PLM024	PLM024
	0631	7799008893099		1	1	73479832	2019-01-03 15:56:20	3:56:20 PM	734798321610290.533424PLM024	PLM024
	0631	7799008893099		1	1	73479832	2019-01-03 15:56:24	3:56:24 PM	734798321610290.533424PLM024	PLM024
	0631	7799008893099		1	1	73479832	2019-01-03 15:56:31	3:56:31 PM	734798321610290.533424PLM024	PLM024
	0631	7799008893099		1	1	73479832	2019-01-03 15:56:36	3:56:36 PM	734798321610290.533424PLM024	PLM024
	0631	7799008893099		1	1	73479832	2019-01-03 15:56:41	3:56:41 PM	734798321610290.533424PLM024	PLM024
	0631	7799008893099		1	1	73479832	2019-01-03 15:56:52	3:56:52 PM	734798321610290.533424PLM024	PLM024
	0631	7799008893099		1	1	73479832	2019-01-03 15:56:57	3:56:57 PM	734798321610290.533424PLM024	PLM024
	0631	7799008893099		1	1	73479832	2019-01-03 15:57:03	3:57:03 PM	734798321610290.533424PLM024	PLM024
	0631	7799008893099		1	1	73479832	2019-01-03 15:57:16	3:57:16 PM	734798321610290.533424PLM024	PLM024
	0631	7799008893099		1	1	73479832	2019-01-03 15:57:21	3:57:21 PM	734798321610290.533424PLM024	PLM024
	0631	7799008893099		1	1	73479832	2019-01-03 15:57:25	3:57:25 PM	734798321610290.533424PLM024	PLM024
	0631	7799008893099		1	1	73479832	2019-01-03 15:57:57	3:57:57 PM	734798321610290.533424PLM024	PLM024
	0639	7799008991986		1	1	73479832	2019-01-03 16:00:34	4:00:34 PM	734798321610290.533424PLM024	PLM024
	0639	7799008991986		1	1	73479832	2019-01-03 16:00:47	4:00:47 PM	734798321610290.533424PLM024	PLM024
	0639	7799008991986		1	1	73479832	2019-01-03 16:00:55	4:00:55 PM	734798321610290.533424PLM024	PLM024
	0639	7799008991986		1	1	73479832	2019-01-03 16:01:05	4:01:05 PM	734798321610290.533424PLM024	PLM024
	0639	7799008991986		1	1	73479832	2019-01-03 16:01:18	4:01:18 PM	734798321610290.533424PLM024	PLM024
	0639	7799008991986		1	1	73479832	2019-01-03 16:01:27	4:01:27 PM	734798321610290.533424PLM024	PLM024
	0639	7799008991986		1	1	73479832	2019-01-03 16:01:34	4:01:34 PM	734798321610290.533424PLM024	PLM024
	0639	7799008991986		1	1	73479832	2019-01-03 16:01:44	4:01:44 PM	734798321610290.533424PLM024	PLM024
	0639	7799008991986		1	1	73479832	2019-01-03 16:01:57	4:01:57 PM	734798321610290.533424PLM024	PLM024
	0639	7799008991986		1	1	73479832	2019-01-03 16:02:07	4:02:07 PM	734798321610290.533424PLM024	PLM024
	0639	7799008991986		1	1	73479832	2019-01-03 16:02:17	4:02:17 PM	734798321610290.533424PLM024	PLM024
	0639	7799008991986		1	1	73479832	2019-01-03 16:02:34	4:02:34 PM	734798321610290.533424PLM024	PLM024
	0639	7799008991986		1	1	73479832	2019-01-03 16:02:41	4:02:41 PM	734798321610290.533424PLM024	PLM024
	0639	7799008991986		1	1	73479832	2019-01-03 16:02:52	4:02:52 PM	734798321610290.533424PLM024	PLM024
	0639	7799008991986		1	1	73479832	2019-01-03 16:02:59	4:02:59 PM	734798321610290.533424PLM024	PLM024
	0639	7799008991986		1	1	73479832	2019-01-03 16:03:10	4:03:10 PM	734798321610290.533424PLM024	PLM024
	0639	7799008991986		1	1	73479832	2019-01-03 16:03:18	4:03:18 PM	734798321610290.533424PLM024	PLM024
	0639	7799008991986		1	1	73479832	2019-01-03 16:03:26	4:03:26 PM	734798321610290.533424PLM024	PLM024
	0639	7799008991986		1	1	73479832	2019-01-03 16:03:34	4:03:34 PM	734798321610290.533424PLM024	PLM024
	0639	7799008991986		1	1	73479832	2019-01-03 16:03:41	4:03:41 PM	734798321610290.533424PLM024	PLM024
	0647	7799008957937		1	1	73479832	2019-01-03 16:05:08	4:05:08 PM	734798321610290.533424PLM024	PLM024
	0647	7799008957937		1	1	73479832	2019-01-03 16:05:12	4:05:12 PM	734798321610290.533424PLM024	PLM024
	0647	7799008957937		1	1	73479832	2019-01-03 16:05:15	4:05:15 PM	734798321610290.533424PLM024	PLM024
	0647	7799008957937		1	1	73479832	2019-01-03 16:05:21	4:05:21 PM	734798321610290.533424PLM024	PLM024
	0647	7799008957937		1	1	73479832	2019-01-03 16:05:29	4:05:29 PM	734798321610290.533424PLM024	PLM024
	0647	7799008957937		1	1	73479832	2019-01-03 16:05:35	4:05:35 PM	734798321610290.533424PLM024	PLM024
	0647	7799008957937		1	1	73479832	2019-01-03 16:05:41	4:05:41 PM	734798321610290.533424PLM024	PLM024
	0647	7799008957937		1	1	73479832	2019-01-03 16:05:48	4:05:48 PM	734798321610290.533424PLM024	PLM024
	0647	7799008957937		1	1	73479832	2019-01-03 16:06:12	4:06:12 PM	734798321610290.533424PLM024	PLM024
	0647	7799008957937		1	1	73479832	2019-01-03 16:06:21	4:06:21 PM	734798321610290.533424PLM024	PLM024
	0647	7799008957937		1	1	73479832	2019-01-03 16:06:26	4:06:26 PM	734798321610290.533424PLM024	PLM024
	0647	7799008957937		1	1	73479832	2019-01-03 16:06:31	4:06:31 PM	734798321610290.533424PLM024	PLM024
	0647	7799008957937		1	1	73479832	2019-01-03 16:06:53	4:06:53 PM	734798321610290.533424PLM024	PLM024
	0647	7799008957937		1	1	73479832	2019-01-03 16:07:04	4:07:04 PM	734798321610290.533424PLM024	PLM024
	0647	7799008957937		1	1	73479832	2019-01-03 16:07:07	4:07:07 PM	734798321610290.533424PLM024	PLM024
	0647	7799008957937		1	1	73479832	2019-01-03 16:07:13	4:07:13 PM	734798321610290.533424PLM024	PLM024
	0647	7799008957937		1	1	73479832	2019-01-03 16:07:21	4:07:21 PM	734798321610290.533424PLM024	PLM024
	0647	7799008957937		1	1	73479832	2019-01-03 16:07:28	4:07:28 PM	734798321610290.533424PLM024	PLM024
	0647	7799008957937		1	1	73479832	2019-01-03 16:07:32	4:07:32 PM	734798321610290.533424PLM024	PLM024
	0647	7799008957937		1	1	73479832	2019-01-03 16:07:49	4:07:49 PM	734798321610290.533424PLM024	PLM024
	0647	7799008957937		1	1	73479832	2019-01-03 16:07:53	4:07:53 PM	734798321610290.533424PLM024	PLM024
	0647	7799008957937		1	1	73479832	2019-01-03 16:07:57	4:07:57 PM	734798321610290.533424PLM024	PLM024
	0647	7799008957937		1	1	73479832	2019-01-03 16:08:05	4:08:05 PM	734798321610290.533424PLM024	PLM024
	0647	7799008957937		1	1	73479832	2019-01-03 16:08:09	4:08:10 PM	734798321610290.533424PLM024	PLM024
	0647	7799008957937		1	1	73479832	2019-01-03 16:08:19	4:08:19 PM	734798321610290.533424PLM024	PLM024
	0647	7799008957937		1	1	73479832	2019-01-03 16:08:23	4:08:23 PM	734798321610290.533424PLM024	PLM024
	0647	7799008957937		1	1	73479832	2019-01-03 16:08:36	4:08:36 PM	734798321610290.533424PLM024	PLM024
	0647	7799008957937		1	1	73479832	2019-01-03 16:08:43	4:08:43 PM	734798321610290.533424PLM024	PLM024
	0647	7799008957937		1	1	73479832	2019-01-03 16:08:46	4:08:46 PM	734798321610290.533424PLM024	PLM024
	0647	7799008957937		1	1	73479832	2019-01-03 16:08:52	4:08:52 PM	734798321610290.533424PLM024	PLM024
	0647	7799008957937		1	1	73479832	2019-01-03 16:08:56	4:08:56 PM	734798321610290.533424PLM024	PLM024
	0647	7799008957937		1	1	73479832	2019-01-03 16:09:06	4:09:06 PM	734798321610290.533424PLM024	PLM024
	0647	7799008957937		1	1	73479832	2019-01-03 16:09:12	4:09:12 PM	734798321610290.533424PLM024	PLM024
	0647	7799008745725		1	1	73479832	2019-01-03 16:09:20	4:09:20 PM	734798321610290.533424PLM024	PLM024
