	2404	7799021038804		78	2	73479832	2013-01-09 10:55:05	10:55 AM	73479832115440.7747401PLM062	PLM062
	2403	7799021038286		114	2	73479832	2013-01-09 10:57:33	10:57 AM	73479832115440.7747401PLM062	PLM062
	2402	7799008079233		600	2	73479832	2013-01-09 11:05:30	11:05 AM	73479832115440.7747401PLM062	PLM062
	2401	7799008222226		633	2	73479832	2013-01-09 11:21:02	11:21 AM	73479832115440.7747401PLM062	PLM062
	2401	7799008370613		1	2	73479832	2013-01-09 11:21:06	11:21 AM	73479832115440.7747401PLM062	PLM062
	2408	7799008975030		60	2	73479832	2013-01-09 11:31:40	11:31 AM	73479832115440.7747401PLM062	PLM062
	2407	7799008975030		108	2	73479832	2013-01-09 11:34:21	11:34 AM	73479832115440.7747401PLM062	PLM062
	2406	7799008788708		141	2	73479832	2013-01-09 11:36:44	11:36 AM	73479832115440.7747401PLM062	PLM062
	2412	7799008975030		108	2	73479832	2013-01-09 11:39:02	11:39 AM	73479832115440.7747401PLM062	PLM062
	2411	7799008975030		108	2	73479832	2013-01-09 11:39:44	11:39 AM	73479832115440.7747401PLM062	PLM062
	2410	7799008370637		489	2	73479832	2013-01-09 11:45:26	11:45 AM	73479832115440.7747401PLM062	PLM062
	2409	7799008079233		187	2	73479832	2013-01-09 11:50:07	11:50 AM	73479832115440.7747401PLM062	PLM062
