	3500	7799008683775		60	2	73752233	2019-01-04 15:41:47	3:41 PM	737522331736350.9619532PLM029	PLM029
	3501	7799008683775		60	2	73752233	2019-01-04 15:43:52	3:43 PM	737522331736350.9619532PLM029	PLM029
	3502	7799008683775		60	2	73752233	2019-01-04 15:45:04	3:45 PM	737522331736350.9619532PLM029	PLM029
	3503	7799008683775		60	2	73752233	2019-01-04 15:50:24	3:50 PM	737522331736350.9619532PLM029	PLM029
	3513	7799008966779		27	2	73752233	2019-01-04 15:52:11	3:52 PM	737522331736350.9619532PLM029	PLM029
	3514	7799008683775		60	2	73752233	2019-01-04 15:54:30	3:54 PM	737522331736350.9619532PLM029	PLM029
	3504	7799008966748		30	2	73752233	2019-01-04 15:56:13	3:56 PM	737522331736350.9619532PLM029	PLM029
	3505	7799008966748		30	2	73752233	2019-01-04 15:57:45	3:57 PM	737522331736350.9619532PLM029	PLM029
	3452	7799021037449		81	2	73752233	2019-01-04 16:03:00	4:03 PM	737522331736350.9619532PLM029	PLM029
	3453	7799008978642		257	2	73752233	2019-01-04 16:12:22	4:12 PM	737522331736350.9619532PLM029	PLM029
	3454	7799008979588		1	1	73752233	2019-01-04 16:15:47	4:15:47 PM	737522331736350.9619532PLM029	PLM029
	3454	7799008979588		1	1	73752233	2019-01-04 16:15:47	4:15:47 PM	737522331736350.9619532PLM029	PLM029
	3454	7799008979588		1	1	73752233	2019-01-04 16:15:48	4:15:48 PM	737522331736350.9619532PLM029	PLM029
	3454	7799008979588		1	1	73752233	2019-01-04 16:15:53	4:15:53 PM	737522331736350.9619532PLM029	PLM029
	3454	7799008979588		1	1	73752233	2019-01-04 16:15:54	4:15:54 PM	737522331736350.9619532PLM029	PLM029
	3454	7799008979588		1	1	73752233	2019-01-04 16:15:55	4:15:55 PM	737522331736350.9619532PLM029	PLM029
	3454	7799008979588		1	1	73752233	2019-01-04 16:16:00	4:16:00 PM	737522331736350.9619532PLM029	PLM029
	3454	7799008979588		1	1	73752233	2019-01-04 16:16:00	4:16:00 PM	737522331736350.9619532PLM029	PLM029
	3454	7799008979588		1	1	73752233	2019-01-04 16:16:02	4:16:02 PM	737522331736350.9619532PLM029	PLM029
	3454	7799008979588		1	1	73752233	2019-01-04 16:16:10	4:16:10 PM	737522331736350.9619532PLM029	PLM029
	3454	7799008979588		1	1	73752233	2019-01-04 16:16:17	4:16:17 PM	737522331736350.9619532PLM029	PLM029
	3454	7799008979588		1	1	73752233	2019-01-04 16:16:26	4:16:26 PM	737522331736350.9619532PLM029	PLM029
	3454	7799008979588		1	1	73752233	2019-01-04 16:16:31	4:16:31 PM	737522331736350.9619532PLM029	PLM029
	3454	7799008979588		1	1	73752233	2019-01-04 16:16:32	4:16:32 PM	737522331736350.9619532PLM029	PLM029
	3454	7799008979588		1	1	73752233	2019-01-04 16:16:33	4:16:33 PM	737522331736350.9619532PLM029	PLM029
	3454	7799008979588		1	1	73752233	2019-01-04 16:16:38	4:16:38 PM	737522331736350.9619532PLM029	PLM029
	3454	7799008979588		1	1	73752233	2019-01-04 16:16:40	4:16:40 PM	737522331736350.9619532PLM029	PLM029
	3454	7799008979588		1	1	73752233	2019-01-04 16:16:41	4:16:41 PM	737522331736350.9619532PLM029	PLM029
	3454	7799008979588		1	1	73752233	2019-01-04 16:16:45	4:16:45 PM	737522331736350.9619532PLM029	PLM029
	3454	7799008979588		1	1	73752233	2019-01-04 16:16:46	4:16:46 PM	737522331736350.9619532PLM029	PLM029
	3454	7799008979588		1	1	73752233	2019-01-04 16:16:47	4:16:47 PM	737522331736350.9619532PLM029	PLM029
	3454	7799008979588		1	1	73752233	2019-01-04 16:16:51	4:16:51 PM	737522331736350.9619532PLM029	PLM029
	3454	7799008979588		1	1	73752233	2019-01-04 16:16:53	4:16:53 PM	737522331736350.9619532PLM029	PLM029
	3454	7799008979588		1	1	73752233	2019-01-04 16:16:54	4:16:54 PM	737522331736350.9619532PLM029	PLM029
	3454	7799008979588		1	1	73752233	2019-01-04 16:16:58	4:16:58 PM	737522331736350.9619532PLM029	PLM029
	3454	7799008979588		1	1	73752233	2019-01-04 16:17:00	4:17:00 PM	737522331736350.9619532PLM029	PLM029
	3454	7799008979588		1	1	73752233	2019-01-04 16:17:00	4:17:00 PM	737522331736350.9619532PLM029	PLM029
	3454	7799008979588		1	1	73752233	2019-01-04 16:17:06	4:17:06 PM	737522331736350.9619532PLM029	PLM029
	3454	7799008979588		1	1	73752233	2019-01-04 16:17:07	4:17:07 PM	737522331736350.9619532PLM029	PLM029
	3454	7799008979588		1	1	73752233	2019-01-04 16:17:08	4:17:08 PM	737522331736350.9619532PLM029	PLM029
	3454	7799008979588		1	1	73752233	2019-01-04 16:17:11	4:17:11 PM	737522331736350.9619532PLM029	PLM029
	3454	7799008979588		1	1	73752233	2019-01-04 16:17:12	4:17:12 PM	737522331736350.9619532PLM029	PLM029
	3454	7799008979588		1	1	73752233	2019-01-04 16:17:14	4:17:14 PM	737522331736350.9619532PLM029	PLM029
	3454	7799008979588		1	1	73752233	2019-01-04 16:17:17	4:17:17 PM	737522331736350.9619532PLM029	PLM029
	3454	7799008979588		1	1	73752233	2019-01-04 16:17:18	4:17:18 PM	737522331736350.9619532PLM029	PLM029
	3454	7799008979588		1	1	73752233	2019-01-04 16:17:19	4:17:19 PM	737522331736350.9619532PLM029	PLM029
	3454	7799008979588		1	1	73752233	2019-01-04 16:17:22	4:17:22 PM	737522331736350.9619532PLM029	PLM029
	3454	7799008979588		1	1	73752233	2019-01-04 16:17:23	4:17:23 PM	737522331736350.9619532PLM029	PLM029
	3454	7799008979588		1	1	73752233	2019-01-04 16:17:24	4:17:24 PM	737522331736350.9619532PLM029	PLM029
	3454	7799008979588		1	1	73752233	2019-01-04 16:17:27	4:17:27 PM	737522331736350.9619532PLM029	PLM029
	3454	7799008979588		1	1	73752233	2019-01-04 16:17:28	4:17:28 PM	737522331736350.9619532PLM029	PLM029
	3454	7799008979588		1	1	73752233	2019-01-04 16:17:29	4:17:29 PM	737522331736350.9619532PLM029	PLM029
	3454	7799008979588		1	1	73752233	2019-01-04 16:17:33	4:17:33 PM	737522331736350.9619532PLM029	PLM029
	3454	7799008979588		1	1	73752233	2019-01-04 16:17:34	4:17:34 PM	737522331736350.9619532PLM029	PLM029
	3454	7799008979588		1	1	73752233	2019-01-04 16:17:35	4:17:35 PM	737522331736350.9619532PLM029	PLM029
	3454	7799008979588		1	1	73752233	2019-01-04 16:17:39	4:17:39 PM	737522331736350.9619532PLM029	PLM029
	3454	7799008979588		1	1	73752233	2019-01-04 16:17:40	4:17:40 PM	737522331736350.9619532PLM029	PLM029
	3454	7799008979588		1	1	73752233	2019-01-04 16:17:42	4:17:42 PM	737522331736350.9619532PLM029	PLM029
	3454	7799008979588		1	1	73752233	2019-01-04 16:17:50	4:17:50 PM	737522331736350.9619532PLM029	PLM029
	3454	7799008979588		1	1	73752233	2019-01-04 16:17:51	4:17:51 PM	737522331736350.9619532PLM029	PLM029
	3454	7799008979588		1	1	73752233	2019-01-04 16:17:52	4:17:52 PM	737522331736350.9619532PLM029	PLM029
	3454	7799008979588		1	1	73752233	2019-01-04 16:17:56	4:17:56 PM	737522331736350.9619532PLM029	PLM029
	3454	7799008979588		1	1	73752233	2019-01-04 16:18:03	4:18:03 PM	737522331736350.9619532PLM029	PLM029
	3454	7799008979588		1	1	73752233	2019-01-04 16:18:04	4:18:04 PM	737522331736350.9619532PLM029	PLM029
	3454	7799008979588		1	1	73752233	2019-01-04 16:18:09	4:18:09 PM	737522331736350.9619532PLM029	PLM029
	3454	7799008979588		1	1	73752233	2019-01-04 16:18:11	4:18:11 PM	737522331736350.9619532PLM029	PLM029
	3454	7799008979588		1	1	73752233	2019-01-04 16:18:12	4:18:12 PM	737522331736350.9619532PLM029	PLM029
	3454	7799008979588		1	1	73752233	2019-01-04 16:18:15	4:18:15 PM	737522331736350.9619532PLM029	PLM029
	3454	7799008979588		1	1	73752233	2019-01-04 16:18:16	4:18:16 PM	737522331736350.9619532PLM029	PLM029
	3454	7799008979588		1	1	73752233	2019-01-04 16:18:18	4:18:18 PM	737522331736350.9619532PLM029	PLM029
	3454	7799008979588		1	1	73752233	2019-01-04 16:18:21	4:18:21 PM	737522331736350.9619532PLM029	PLM029
	3454	7799008979588		1	1	73752233	2019-01-04 16:18:22	4:18:22 PM	737522331736350.9619532PLM029	PLM029
	3454	7799008979588		1	1	73752233	2019-01-04 16:18:23	4:18:23 PM	737522331736350.9619532PLM029	PLM029
	3454	7799008979588		1	1	73752233	2019-01-04 16:18:27	4:18:27 PM	737522331736350.9619532PLM029	PLM029
	3454	7799008979588		1	1	73752233	2019-01-04 16:18:28	4:18:28 PM	737522331736350.9619532PLM029	PLM029
	3454	7799008979588		1	1	73752233	2019-01-04 16:18:28	4:18:28 PM	737522331736350.9619532PLM029	PLM029
	3454	7799008979588		1	1	73752233	2019-01-04 16:18:32	4:18:32 PM	737522331736350.9619532PLM029	PLM029
	3454	7799008979588		1	1	73752233	2019-01-04 16:18:34	4:18:34 PM	737522331736350.9619532PLM029	PLM029
	3454	7799008979588		1	1	73752233	2019-01-04 16:18:35	4:18:35 PM	737522331736350.9619532PLM029	PLM029
	3454	7799008979588		1	1	73752233	2019-01-04 16:18:38	4:18:38 PM	737522331736350.9619532PLM029	PLM029
	3454	7799008979588		1	1	73752233	2019-01-04 16:18:40	4:18:40 PM	737522331736350.9619532PLM029	PLM029
	3454	7799008979588		1	1	73752233	2019-01-04 16:18:42	4:18:42 PM	737522331736350.9619532PLM029	PLM029
	3454	7799008979588		1	1	73752233	2019-01-04 16:18:44	4:18:44 PM	737522331736350.9619532PLM029	PLM029
	3454	7799008979588		1	1	73752233	2019-01-04 16:18:45	4:18:45 PM	737522331736350.9619532PLM029	PLM029
	3454	7799008979588		1	1	73752233	2019-01-04 16:18:46	4:18:46 PM	737522331736350.9619532PLM029	PLM029
	3454	7799008979588		1	1	73752233	2019-01-04 16:18:51	4:18:51 PM	737522331736350.9619532PLM029	PLM029
	3454	7799008979588		1	1	73752233	2019-01-04 16:18:52	4:18:52 PM	737522331736350.9619532PLM029	PLM029
	3454	7799008979588		1	1	73752233	2019-01-04 16:18:53	4:18:53 PM	737522331736350.9619532PLM029	PLM029
	3454	7799008979588		1	1	73752233	2019-01-04 16:19:00	4:19:00 PM	737522331736350.9619532PLM029	PLM029
	3454	7799008979588		1	1	73752233	2019-01-04 16:19:01	4:19:01 PM	737522331736350.9619532PLM029	PLM029
	3454	7799008979588		1	1	73752233	2019-01-04 16:19:02	4:19:02 PM	737522331736350.9619532PLM029	PLM029
	3454	7799008979588		1	1	73752233	2019-01-04 16:19:05	4:19:05 PM	737522331736350.9619532PLM029	PLM029
	3454	7799008979588		1	1	73752233	2019-01-04 16:19:06	4:19:06 PM	737522331736350.9619532PLM029	PLM029
	3454	7799008979588		1	1	73752233	2019-01-04 16:19:07	4:19:07 PM	737522331736350.9619532PLM029	PLM029
	3454	7799008979588		1	1	73752233	2019-01-04 16:19:14	4:19:14 PM	737522331736350.9619532PLM029	PLM029
	3454	7799008979588		1	1	73752233	2019-01-04 16:19:15	4:19:15 PM	737522331736350.9619532PLM029	PLM029
	3454	7799008979588		1	1	73752233	2019-01-04 16:19:16	4:19:16 PM	737522331736350.9619532PLM029	PLM029
	3454	7799008979588		1	1	73752233	2019-01-04 16:19:21	4:19:21 PM	737522331736350.9619532PLM029	PLM029
	3454	7799008979588		1	1	73752233	2019-01-04 16:19:25	4:19:25 PM	737522331736350.9619532PLM029	PLM029
	3454	7799008979588		1	1	73752233	2019-01-04 16:19:26	4:19:26 PM	737522331736350.9619532PLM029	PLM029
	3454	7799008979588		1	1	73752233	2019-01-04 16:19:34	4:19:34 PM	737522331736350.9619532PLM029	PLM029
	3454	7799008979588		1	1	73752233	2019-01-04 16:19:35	4:19:35 PM	737522331736350.9619532PLM029	PLM029
	3454	7799008979588		1	1	73752233	2019-01-04 16:19:36	4:19:36 PM	737522331736350.9619532PLM029	PLM029
	3454	7799008979588		1	1	73752233	2019-01-04 16:19:40	4:19:40 PM	737522331736350.9619532PLM029	PLM029
	3454	7799008979588		1	1	73752233	2019-01-04 16:19:41	4:19:41 PM	737522331736350.9619532PLM029	PLM029
	3454	7799008979588		1	1	73752233	2019-01-04 16:19:42	4:19:42 PM	737522331736350.9619532PLM029	PLM029
	3454	7799008979588		1	1	73752233	2019-01-04 16:19:52	4:19:52 PM	737522331736350.9619532PLM029	PLM029
	3454	7799008979588		1	1	73752233	2019-01-04 16:19:54	4:19:54 PM	737522331736350.9619532PLM029	PLM029
	3454	7799008979588		1	1	73752233	2019-01-04 16:19:55	4:19:55 PM	737522331736350.9619532PLM029	PLM029
	3454	7799008979588		1	1	73752233	2019-01-04 16:19:59	4:19:59 PM	737522331736350.9619532PLM029	PLM029
	3454	7799008979588		1	1	73752233	2019-01-04 16:20:01	4:20:01 PM	737522331736350.9619532PLM029	PLM029
	3454	7799008979588		1	1	73752233	2019-01-04 16:20:02	4:20:02 PM	737522331736350.9619532PLM029	PLM029
	3454	7799008979588		1	1	73752233	2019-01-04 16:20:05	4:20:05 PM	737522331736350.9619532PLM029	PLM029
	3454	7799008979588		1	1	73752233	2019-01-04 16:20:06	4:20:06 PM	737522331736350.9619532PLM029	PLM029
	3454	7799008979588		1	1	73752233	2019-01-04 16:20:08	4:20:08 PM	737522331736350.9619532PLM029	PLM029
	3454	7799008979588		1	1	73752233	2019-01-04 16:20:12	4:20:12 PM	737522331736350.9619532PLM029	PLM029
	3454	7799008979588		1	1	73752233	2019-01-04 16:20:12	4:20:12 PM	737522331736350.9619532PLM029	PLM029
	3454	7799008979588		1	1	73752233	2019-01-04 16:20:14	4:20:14 PM	737522331736350.9619532PLM029	PLM029
	3454	7799008979588		1	1	73752233	2019-01-04 16:20:18	4:20:18 PM	737522331736350.9619532PLM029	PLM029
	3454	7799008979588		1	1	73752233	2019-01-04 16:20:20	4:20:20 PM	737522331736350.9619532PLM029	PLM029
	3454	7799008979588		1	1	73752233	2019-01-04 16:20:20	4:20:20 PM	737522331736350.9619532PLM029	PLM029
	3454	7799008979588		1	1	73752233	2019-01-04 16:20:25	4:20:25 PM	737522331736350.9619532PLM029	PLM029
	3454	7799008979588		1	1	73752233	2019-01-04 16:20:26	4:20:26 PM	737522331736350.9619532PLM029	PLM029
	3454	7799008979588		1	1	73752233	2019-01-04 16:20:27	4:20:27 PM	737522331736350.9619532PLM029	PLM029
	3454	7799008979588		1	1	73752233	2019-01-04 16:20:31	4:20:31 PM	737522331736350.9619532PLM029	PLM029
	3454	7799008979588		1	1	73752233	2019-01-04 16:20:32	4:20:32 PM	737522331736350.9619532PLM029	PLM029
	3454	7799008979588		1	1	73752233	2019-01-04 16:20:33	4:20:33 PM	737522331736350.9619532PLM029	PLM029
	3454	7799008979588		1	1	73752233	2019-01-04 16:20:37	4:20:37 PM	737522331736350.9619532PLM029	PLM029
	3454	7799008979588		1	1	73752233	2019-01-04 16:20:38	4:20:38 PM	737522331736350.9619532PLM029	PLM029
	3454	7799008979588		1	1	73752233	2019-01-04 16:20:39	4:20:39 PM	737522331736350.9619532PLM029	PLM029
	3454	7799008979588		1	1	73752233	2019-01-04 16:20:46	4:20:46 PM	737522331736350.9619532PLM029	PLM029
	3454	7799008979588		1	1	73752233	2019-01-04 16:20:47	4:20:47 PM	737522331736350.9619532PLM029	PLM029
	3454	7799008979588		1	1	73752233	2019-01-04 16:20:48	4:20:48 PM	737522331736350.9619532PLM029	PLM029
	3454	7799008979588		1	1	73752233	2019-01-04 16:20:53	4:20:53 PM	737522331736350.9619532PLM029	PLM029
	3454	7799008979588		1	1	73752233	2019-01-04 16:20:54	4:20:54 PM	737522331736350.9619532PLM029	PLM029
	3454	7799008979588		1	1	73752233	2019-01-04 16:20:56	4:20:56 PM	737522331736350.9619532PLM029	PLM029
	3454	7799008979588		1	1	73752233	2019-01-04 16:21:01	4:21:01 PM	737522331736350.9619532PLM029	PLM029
	3454	7799008979588		1	1	73752233	2019-01-04 16:21:02	4:21:02 PM	737522331736350.9619532PLM029	PLM029
	3454	7799008979588		1	1	73752233	2019-01-04 16:21:03	4:21:03 PM	737522331736350.9619532PLM029	PLM029
	3454	7799008979588		1	1	73752233	2019-01-04 16:21:07	4:21:07 PM	737522331736350.9619532PLM029	PLM029
	3454	7799008979588		1	1	73752233	2019-01-04 16:21:08	4:21:08 PM	737522331736350.9619532PLM029	PLM029
	3454	7799008979588		1	1	73752233	2019-01-04 16:21:09	4:21:09 PM	737522331736350.9619532PLM029	PLM029
	3454	7799008979588		1	1	73752233	2019-01-04 16:21:16	4:21:16 PM	737522331736350.9619532PLM029	PLM029
	3454	7799008979588		1	1	73752233	2019-01-04 16:21:16	4:21:16 PM	737522331736350.9619532PLM029	PLM029
	3454	7799008979588		1	1	73752233	2019-01-04 16:21:17	4:21:17 PM	737522331736350.9619532PLM029	PLM029
	3454	7799008979588		1	1	73752233	2019-01-04 16:21:22	4:21:22 PM	737522331736350.9619532PLM029	PLM029
	3454	7799008979588		1	1	73752233	2019-01-04 16:21:23	4:21:23 PM	737522331736350.9619532PLM029	PLM029
	3454	7799008979588		1	1	73752233	2019-01-04 16:21:24	4:21:24 PM	737522331736350.9619532PLM029	PLM029
	3454	7799008979588		1	1	73752233	2019-01-04 16:21:28	4:21:28 PM	737522331736350.9619532PLM029	PLM029
	3454	7799008979588		1	1	73752233	2019-01-04 16:21:29	4:21:29 PM	737522331736350.9619532PLM029	PLM029
	3454	7799008979588		1	1	73752233	2019-01-04 16:21:30	4:21:30 PM	737522331736350.9619532PLM029	PLM029
	3454	7799008979588		1	1	73752233	2019-01-04 16:21:35	4:21:35 PM	737522331736350.9619532PLM029	PLM029
	3454	7799008979588		1	1	73752233	2019-01-04 16:21:36	4:21:36 PM	737522331736350.9619532PLM029	PLM029
	3454	7799008979588		1	1	73752233	2019-01-04 16:21:37	4:21:37 PM	737522331736350.9619532PLM029	PLM029
	3454	7799008979588		1	1	73752233	2019-01-04 16:21:40	4:21:40 PM	737522331736350.9619532PLM029	PLM029
	3454	7799008979588		1	1	73752233	2019-01-04 16:21:41	4:21:41 PM	737522331736350.9619532PLM029	PLM029
	3454	7799008979588		1	1	73752233	2019-01-04 16:21:42	4:21:42 PM	737522331736350.9619532PLM029	PLM029
	3455	7799008979588		1	1	73752233	2019-01-04 16:24:33	4:24:33 PM	737522331736350.9619532PLM029	PLM029
	3455	7799008979588		1	1	73752233	2019-01-04 16:24:34	4:24:34 PM	737522331736350.9619532PLM029	PLM029
	3455	7799008979588		1	1	73752233	2019-01-04 16:24:35	4:24:35 PM	737522331736350.9619532PLM029	PLM029
	3455	7799008979588		1	1	73752233	2019-01-04 16:24:39	4:24:39 PM	737522331736350.9619532PLM029	PLM029
	3455	7799008979588		1	1	73752233	2019-01-04 16:24:40	4:24:40 PM	737522331736350.9619532PLM029	PLM029
	3455	7799008979588		1	1	73752233	2019-01-04 16:24:41	4:24:41 PM	737522331736350.9619532PLM029	PLM029
	3455	7799008979588		1	1	73752233	2019-01-04 16:24:44	4:24:44 PM	737522331736350.9619532PLM029	PLM029
	3455	7799008979588		1	1	73752233	2019-01-04 16:24:46	4:24:46 PM	737522331736350.9619532PLM029	PLM029
	3455	7799008979588		1	1	73752233	2019-01-04 16:24:47	4:24:47 PM	737522331736350.9619532PLM029	PLM029
	3455	7799008979588		1	1	73752233	2019-01-04 16:24:50	4:24:50 PM	737522331736350.9619532PLM029	PLM029
	3455	7799008979588		1	1	73752233	2019-01-04 16:24:51	4:24:51 PM	737522331736350.9619532PLM029	PLM029
	3455	7799008979588		1	1	73752233	2019-01-04 16:24:52	4:24:52 PM	737522331736350.9619532PLM029	PLM029
	3455	7799008979588		1	1	73752233	2019-01-04 16:24:55	4:24:55 PM	737522331736350.9619532PLM029	PLM029
	3455	7799008979588		1	1	73752233	2019-01-04 16:24:56	4:24:56 PM	737522331736350.9619532PLM029	PLM029
	3455	7799008979588		1	1	73752233	2019-01-04 16:24:57	4:24:57 PM	737522331736350.9619532PLM029	PLM029
	3455	7799008979588		1	1	73752233	2019-01-04 16:25:00	4:25:00 PM	737522331736350.9619532PLM029	PLM029
	3455	7799008979588		1	1	73752233	2019-01-04 16:25:01	4:25:01 PM	737522331736350.9619532PLM029	PLM029
	3455	7799008979588		1	1	73752233	2019-01-04 16:25:02	4:25:02 PM	737522331736350.9619532PLM029	PLM029
	3455	7799008979588		1	1	73752233	2019-01-04 16:25:04	4:25:04 PM	737522331736350.9619532PLM029	PLM029
	3455	7799008979588		1	1	73752233	2019-01-04 16:25:05	4:25:05 PM	737522331736350.9619532PLM029	PLM029
	3455	7799008979588		1	1	73752233	2019-01-04 16:25:07	4:25:07 PM	737522331736350.9619532PLM029	PLM029
	3455	7799008979588		1	1	73752233	2019-01-04 16:25:10	4:25:10 PM	737522331736350.9619532PLM029	PLM029
	3455	7799008979588		1	1	73752233	2019-01-04 16:25:11	4:25:11 PM	737522331736350.9619532PLM029	PLM029
	3455	7799008979588		1	1	73752233	2019-01-04 16:25:12	4:25:12 PM	737522331736350.9619532PLM029	PLM029
	3455	7799008979588		1	1	73752233	2019-01-04 16:25:16	4:25:16 PM	737522331736350.9619532PLM029	PLM029
	3455	7799008979588		1	1	73752233	2019-01-04 16:25:17	4:25:17 PM	737522331736350.9619532PLM029	PLM029
	3455	7799008979588		1	1	73752233	2019-01-04 16:25:17	4:25:17 PM	737522331736350.9619532PLM029	PLM029
	3455	7799008979588		1	1	73752233	2019-01-04 16:25:21	4:25:21 PM	737522331736350.9619532PLM029	PLM029
	3455	7799008979588		1	1	73752233	2019-01-04 16:25:22	4:25:22 PM	737522331736350.9619532PLM029	PLM029
	3455	7799008979588		1	1	73752233	2019-01-04 16:25:24	4:25:24 PM	737522331736350.9619532PLM029	PLM029
	3455	7799008979588		1	1	73752233	2019-01-04 16:25:26	4:25:26 PM	737522331736350.9619532PLM029	PLM029
	3455	7799008979588		1	1	73752233	2019-01-04 16:25:27	4:25:27 PM	737522331736350.9619532PLM029	PLM029
	3455	7799008979588		1	1	73752233	2019-01-04 16:25:28	4:25:28 PM	737522331736350.9619532PLM029	PLM029
	3455	7799008979588		1	1	73752233	2019-01-04 16:25:31	4:25:31 PM	737522331736350.9619532PLM029	PLM029
	3455	7799008979588		1	1	73752233	2019-01-04 16:25:31	4:25:31 PM	737522331736350.9619532PLM029	PLM029
	3455	7799008979588		1	1	73752233	2019-01-04 16:25:32	4:25:32 PM	737522331736350.9619532PLM029	PLM029
	3455	7799008979588		1	1	73752233	2019-01-04 16:25:34	4:25:34 PM	737522331736350.9619532PLM029	PLM029
	3455	7799008979588		1	1	73752233	2019-01-04 16:25:35	4:25:35 PM	737522331736350.9619532PLM029	PLM029
	3455	7799008979588		1	1	73752233	2019-01-04 16:25:36	4:25:36 PM	737522331736350.9619532PLM029	PLM029
	3455	7799008979588		1	1	73752233	2019-01-04 16:25:39	4:25:39 PM	737522331736350.9619532PLM029	PLM029
	3455	7799008979588		1	1	73752233	2019-01-04 16:25:40	4:25:40 PM	737522331736350.9619532PLM029	PLM029
	3455	7799008979588		1	1	73752233	2019-01-04 16:25:41	4:25:41 PM	737522331736350.9619532PLM029	PLM029
	3455	7799008979588		1	1	73752233	2019-01-04 16:25:44	4:25:44 PM	737522331736350.9619532PLM029	PLM029
	3455	7799008979588		1	1	73752233	2019-01-04 16:25:45	4:25:45 PM	737522331736350.9619532PLM029	PLM029
	3455	7799008979588		1	1	73752233	2019-01-04 16:25:47	4:25:47 PM	737522331736350.9619532PLM029	PLM029
	3455	7799008979588		1	1	73752233	2019-01-04 16:25:57	4:25:57 PM	737522331736350.9619532PLM029	PLM029
	3455	7799008979588		1	1	73752233	2019-01-04 16:25:58	4:25:58 PM	737522331736350.9619532PLM029	PLM029
	3455	7799008979588		1	1	73752233	2019-01-04 16:25:59	4:25:59 PM	737522331736350.9619532PLM029	PLM029
	3455	7799008979588		1	1	73752233	2019-01-04 16:26:01	4:26:01 PM	737522331736350.9619532PLM029	PLM029
	3455	7799008979588		1	1	73752233	2019-01-04 16:26:02	4:26:02 PM	737522331736350.9619532PLM029	PLM029
	3455	7799008979588		1	1	73752233	2019-01-04 16:26:03	4:26:03 PM	737522331736350.9619532PLM029	PLM029
	3455	7799008979588		1	1	73752233	2019-01-04 16:26:06	4:26:06 PM	737522331736350.9619532PLM029	PLM029
	3455	7799008979588		1	1	73752233	2019-01-04 16:26:06	4:26:06 PM	737522331736350.9619532PLM029	PLM029
	3455	7799008979588		1	1	73752233	2019-01-04 16:26:07	4:26:07 PM	737522331736350.9619532PLM029	PLM029
	3455	7799008979588		1	1	73752233	2019-01-04 16:26:11	4:26:11 PM	737522331736350.9619532PLM029	PLM029
	3455	7799008979588		1	1	73752233	2019-01-04 16:26:12	4:26:12 PM	737522331736350.9619532PLM029	PLM029
	3455	7799008979588		1	1	73752233	2019-01-04 16:26:13	4:26:13 PM	737522331736350.9619532PLM029	PLM029
	3455	7799008979588		1	1	73752233	2019-01-04 16:26:16	4:26:16 PM	737522331736350.9619532PLM029	PLM029
	3455	7799008979588		1	1	73752233	2019-01-04 16:26:17	4:26:17 PM	737522331736350.9619532PLM029	PLM029
	3455	7799008979588		1	1	73752233	2019-01-04 16:26:18	4:26:18 PM	737522331736350.9619532PLM029	PLM029
	3455	7799008979588		1	1	73752233	2019-01-04 16:26:21	4:26:21 PM	737522331736350.9619532PLM029	PLM029
	3455	7799008979588		1	1	73752233	2019-01-04 16:26:22	4:26:22 PM	737522331736350.9619532PLM029	PLM029
	3455	7799008979588		1	1	73752233	2019-01-04 16:26:23	4:26:23 PM	737522331736350.9619532PLM029	PLM029
	3455	7799008979588		1	1	73752233	2019-01-04 16:26:30	4:26:30 PM	737522331736350.9619532PLM029	PLM029
	3455	7799008979588		1	1	73752233	2019-01-04 16:26:31	4:26:31 PM	737522331736350.9619532PLM029	PLM029
	3455	7799008979588		1	1	73752233	2019-01-04 16:26:31	4:26:31 PM	737522331736350.9619532PLM029	PLM029
	3455	7799008979588		1	1	73752233	2019-01-04 16:26:34	4:26:34 PM	737522331736350.9619532PLM029	PLM029
	3455	7799008979588		1	1	73752233	2019-01-04 16:26:36	4:26:36 PM	737522331736350.9619532PLM029	PLM029
	3455	7799008979588		1	1	73752233	2019-01-04 16:26:37	4:26:37 PM	737522331736350.9619532PLM029	PLM029
	3455	7799008979588		1	1	73752233	2019-01-04 16:26:41	4:26:41 PM	737522331736350.9619532PLM029	PLM029
	3455	7799008979588		1	1	73752233	2019-01-04 16:26:42	4:26:42 PM	737522331736350.9619532PLM029	PLM029
	3455	7799008979588		1	1	73752233	2019-01-04 16:26:43	4:26:43 PM	737522331736350.9619532PLM029	PLM029
	3455	7799008979588		1	1	73752233	2019-01-04 16:26:46	4:26:46 PM	737522331736350.9619532PLM029	PLM029
	3455	7799008979588		1	1	73752233	2019-01-04 16:26:46	4:26:46 PM	737522331736350.9619532PLM029	PLM029
	3455	7799008979588		1	1	73752233	2019-01-04 16:26:49	4:26:49 PM	737522331736350.9619532PLM029	PLM029
	3455	7799008979588		1	1	73752233	2019-01-04 16:26:53	4:26:53 PM	737522331736350.9619532PLM029	PLM029
	3455	7799008979588		1	1	73752233	2019-01-04 16:26:54	4:26:54 PM	737522331736350.9619532PLM029	PLM029
	3455	7799008979588		1	1	73752233	2019-01-04 16:26:55	4:26:55 PM	737522331736350.9619532PLM029	PLM029
	3455	7799008979588		1	1	73752233	2019-01-04 16:26:59	4:26:59 PM	737522331736350.9619532PLM029	PLM029
	3455	7799008979588		1	1	73752233	2019-01-04 16:26:59	4:26:59 PM	737522331736350.9619532PLM029	PLM029
	3455	7799008979588		1	1	73752233	2019-01-04 16:27:00	4:27:00 PM	737522331736350.9619532PLM029	PLM029
	3455	7799008979588		1	1	73752233	2019-01-04 16:27:04	4:27:04 PM	737522331736350.9619532PLM029	PLM029
	3455	7799008979588		1	1	73752233	2019-01-04 16:27:05	4:27:05 PM	737522331736350.9619532PLM029	PLM029
	3455	7799008979588		1	1	73752233	2019-01-04 16:27:07	4:27:07 PM	737522331736350.9619532PLM029	PLM029
	3455	7799008979588		1	1	73752233	2019-01-04 16:27:14	4:27:14 PM	737522331736350.9619532PLM029	PLM029
	3455	7799008979588		1	1	73752233	2019-01-04 16:27:15	4:27:15 PM	737522331736350.9619532PLM029	PLM029
	3455	7799008979588		1	1	73752233	2019-01-04 16:27:16	4:27:16 PM	737522331736350.9619532PLM029	PLM029
	3455	7799008979588		1	1	73752233	2019-01-04 16:27:21	4:27:21 PM	737522331736350.9619532PLM029	PLM029
	3455	7799008979588		1	1	73752233	2019-01-04 16:27:21	4:27:21 PM	737522331736350.9619532PLM029	PLM029
	3455	7799008979588		1	1	73752233	2019-01-04 16:27:22	4:27:22 PM	737522331736350.9619532PLM029	PLM029
	3455	7799008979588		1	1	73752233	2019-01-04 16:27:26	4:27:26 PM	737522331736350.9619532PLM029	PLM029
	3455	7799008979588		1	1	73752233	2019-01-04 16:27:27	4:27:27 PM	737522331736350.9619532PLM029	PLM029
	3455	7799008979588		1	1	73752233	2019-01-04 16:27:28	4:27:28 PM	737522331736350.9619532PLM029	PLM029
	3455	7799008979588		1	1	73752233	2019-01-04 16:27:32	4:27:32 PM	737522331736350.9619532PLM029	PLM029
	3455	7799008979588		1	1	73752233	2019-01-04 16:27:34	4:27:34 PM	737522331736350.9619532PLM029	PLM029
	3455	7799008979588		1	1	73752233	2019-01-04 16:27:35	4:27:35 PM	737522331736350.9619532PLM029	PLM029
	3455	7799008979588		1	1	73752233	2019-01-04 16:27:41	4:27:41 PM	737522331736350.9619532PLM029	PLM029
	3455	7799008979588		1	1	73752233	2019-01-04 16:27:42	4:27:42 PM	737522331736350.9619532PLM029	PLM029
	3455	7799008979588		1	1	73752233	2019-01-04 16:27:43	4:27:43 PM	737522331736350.9619532PLM029	PLM029
	3455	7799008979588		1	1	73752233	2019-01-04 16:27:49	4:27:49 PM	737522331736350.9619532PLM029	PLM029
	3455	7799008979588		1	1	73752233	2019-01-04 16:27:50	4:27:50 PM	737522331736350.9619532PLM029	PLM029
	3455	7799008979588		1	1	73752233	2019-01-04 16:27:51	4:27:51 PM	737522331736350.9619532PLM029	PLM029
	3455	7799008979588		1	1	73752233	2019-01-04 16:27:55	4:27:55 PM	737522331736350.9619532PLM029	PLM029
	3455	7799008979588		1	1	73752233	2019-01-04 16:27:57	4:27:57 PM	737522331736350.9619532PLM029	PLM029
	3455	7799008979588		1	1	73752233	2019-01-04 16:27:57	4:27:57 PM	737522331736350.9619532PLM029	PLM029
	3455	7799008979588		1	1	73752233	2019-01-04 16:28:00	4:28:00 PM	737522331736350.9619532PLM029	PLM029
	3455	7799008979588		1	1	73752233	2019-01-04 16:28:01	4:28:01 PM	737522331736350.9619532PLM029	PLM029
	3455	7799008979588		1	1	73752233	2019-01-04 16:28:02	4:28:02 PM	737522331736350.9619532PLM029	PLM029
	3455	7799008979588		1	1	73752233	2019-01-04 16:28:10	4:28:10 PM	737522331736350.9619532PLM029	PLM029
	3455	7799008979588		1	1	73752233	2019-01-04 16:28:13	4:28:13 PM	737522331736350.9619532PLM029	PLM029
	3455	7799008979588		1	1	73752233	2019-01-04 16:28:13	4:28:13 PM	737522331736350.9619532PLM029	PLM029
	3455	7799008979588		1	1	73752233	2019-01-04 16:28:17	4:28:17 PM	737522331736350.9619532PLM029	PLM029
	3455	7799008979588		1	1	73752233	2019-01-04 16:28:18	4:28:18 PM	737522331736350.9619532PLM029	PLM029
	3455	7799008979588		1	1	73752233	2019-01-04 16:28:19	4:28:19 PM	737522331736350.9619532PLM029	PLM029
	3455	7799008979588		1	1	73752233	2019-01-04 16:28:22	4:28:22 PM	737522331736350.9619532PLM029	PLM029
	3455	7799008979588		1	1	73752233	2019-01-04 16:28:23	4:28:23 PM	737522331736350.9619532PLM029	PLM029
	3455	7799008979588		1	1	73752233	2019-01-04 16:28:28	4:28:28 PM	737522331736350.9619532PLM029	PLM029
	3455	7799008979588		1	1	73752233	2019-01-04 16:28:38	4:28:38 PM	737522331736350.9619532PLM029	PLM029
	3455	7799008979588		1	1	73752233	2019-01-04 16:28:39	4:28:39 PM	737522331736350.9619532PLM029	PLM029
	3455	7799008979588		1	1	73752233	2019-01-04 16:28:40	4:28:40 PM	737522331736350.9619532PLM029	PLM029
	3455	7799008979588		1	1	73752233	2019-01-04 16:28:43	4:28:43 PM	737522331736350.9619532PLM029	PLM029
	3455	7799008979588		1	1	73752233	2019-01-04 16:28:43	4:28:43 PM	737522331736350.9619532PLM029	PLM029
	3455	7799008979588		1	1	73752233	2019-01-04 16:28:45	4:28:45 PM	737522331736350.9619532PLM029	PLM029
	3455	7799008979588		1	1	73752233	2019-01-04 16:28:47	4:28:47 PM	737522331736350.9619532PLM029	PLM029
	3455	7799008979588		1	1	73752233	2019-01-04 16:28:48	4:28:48 PM	737522331736350.9619532PLM029	PLM029
	3455	7799008979588		1	1	73752233	2019-01-04 16:28:49	4:28:49 PM	737522331736350.9619532PLM029	PLM029
	3455	7799008979588		1	1	73752233	2019-01-04 16:28:53	4:28:53 PM	737522331736350.9619532PLM029	PLM029
	3455	7799008979588		1	1	73752233	2019-01-04 16:28:53	4:28:53 PM	737522331736350.9619532PLM029	PLM029
	3455	7799008979588		1	1	73752233	2019-01-04 16:28:54	4:28:54 PM	737522331736350.9619532PLM029	PLM029
	3455	7799008979588		1	1	73752233	2019-01-04 16:28:58	4:28:58 PM	737522331736350.9619532PLM029	PLM029
	3455	7799008979588		1	1	73752233	2019-01-04 16:28:59	4:28:59 PM	737522331736350.9619532PLM029	PLM029
	3455	7799008979588		1	1	73752233	2019-01-04 16:29:00	4:29:00 PM	737522331736350.9619532PLM029	PLM029
	3455	7799008979588		1	1	73752233	2019-01-04 16:29:03	4:29:03 PM	737522331736350.9619532PLM029	PLM029
	3455	7799008979588		1	1	73752233	2019-01-04 16:29:03	4:29:03 PM	737522331736350.9619532PLM029	PLM029
	3455	7799008979588		1	1	73752233	2019-01-04 16:29:05	4:29:05 PM	737522331736350.9619532PLM029	PLM029
	3455	7799008979588		1	1	73752233	2019-01-04 16:29:08	4:29:08 PM	737522331736350.9619532PLM029	PLM029
	3455	7799008979588		1	1	73752233	2019-01-04 16:29:09	4:29:09 PM	737522331736350.9619532PLM029	PLM029
	3455	7799008979588		1	1	73752233	2019-01-04 16:29:10	4:29:10 PM	737522331736350.9619532PLM029	PLM029
	3455	7799008979588		1	1	73752233	2019-01-04 16:29:13	4:29:13 PM	737522331736350.9619532PLM029	PLM029
	3455	7799008979588		1	1	73752233	2019-01-04 16:29:16	4:29:16 PM	737522331736350.9619532PLM029	PLM029
	3455	7799008979588		1	1	73752233	2019-01-04 16:29:17	4:29:17 PM	737522331736350.9619532PLM029	PLM029
	3455	7799008979588		1	1	73752233	2019-01-04 16:29:19	4:29:19 PM	737522331736350.9619532PLM029	PLM029
	3455	7799008979588		1	1	73752233	2019-01-04 16:29:21	4:29:21 PM	737522331736350.9619532PLM029	PLM029
	3455	7799008979588		1	1	73752233	2019-01-04 16:29:22	4:29:22 PM	737522331736350.9619532PLM029	PLM029
	3455	7799008979588		1	1	73752233	2019-01-04 16:29:24	4:29:24 PM	737522331736350.9619532PLM029	PLM029
	3455	7799008979588		1	1	73752233	2019-01-04 16:29:25	4:29:25 PM	737522331736350.9619532PLM029	PLM029
	3455	7799008979588		1	1	73752233	2019-01-04 16:29:26	4:29:26 PM	737522331736350.9619532PLM029	PLM029
	3455	7799008979588		1	1	73752233	2019-01-04 16:29:30	4:29:30 PM	737522331736350.9619532PLM029	PLM029
	3455	7799008979588		1	1	73752233	2019-01-04 16:29:30	4:29:30 PM	737522331736350.9619532PLM029	PLM029
	3455	7799008979588		1	1	73752233	2019-01-04 16:29:32	4:29:32 PM	737522331736350.9619532PLM029	PLM029
	3455	7799008979588		1	1	73752233	2019-01-04 16:29:35	4:29:35 PM	737522331736350.9619532PLM029	PLM029
	3455	7799008979588		1	1	73752233	2019-01-04 16:29:40	4:29:40 PM	737522331736350.9619532PLM029	PLM029
	3455	7799008979588		1	1	73752233	2019-01-04 16:29:41	4:29:41 PM	737522331736350.9619532PLM029	PLM029
	3455	7799008979588		1	1	73752233	2019-01-04 16:29:44	4:29:44 PM	737522331736350.9619532PLM029	PLM029
	3455	7799008979588		1	1	73752233	2019-01-04 16:29:45	4:29:45 PM	737522331736350.9619532PLM029	PLM029
	3455	7799008979588		1	1	73752233	2019-01-04 16:29:51	4:29:51 PM	737522331736350.9619532PLM029	PLM029
	3455	7799008979588		1	1	73752233	2019-01-04 16:29:56	4:29:56 PM	737522331736350.9619532PLM029	PLM029
	3455	7799008979588		1	1	73752233	2019-01-04 16:29:57	4:29:57 PM	737522331736350.9619532PLM029	PLM029
	3455	7799008979588		1	1	73752233	2019-01-04 16:29:58	4:29:58 PM	737522331736350.9619532PLM029	PLM029
	3455	7799008979588		1	1	73752233	2019-01-04 16:30:01	4:30:01 PM	737522331736350.9619532PLM029	PLM029
	3455	7799008979588		1	1	73752233	2019-01-04 16:30:02	4:30:02 PM	737522331736350.9619532PLM029	PLM029
	3455	7799008979588		1	1	73752233	2019-01-04 16:30:03	4:30:03 PM	737522331736350.9619532PLM029	PLM029
	3455	7799008979588		1	1	73752233	2019-01-04 16:30:06	4:30:06 PM	737522331736350.9619532PLM029	PLM029
	3455	7799008979588		1	1	73752233	2019-01-04 16:30:07	4:30:07 PM	737522331736350.9619532PLM029	PLM029
	3455	7799008979588		1	1	73752233	2019-01-04 16:30:08	4:30:08 PM	737522331736350.9619532PLM029	PLM029
	3455	7799008979588		1	1	73752233	2019-01-04 16:30:10	4:30:10 PM	737522331736350.9619532PLM029	PLM029
	3455	7799008979588		1	1	73752233	2019-01-04 16:30:11	4:30:11 PM	737522331736350.9619532PLM029	PLM029
	3455	7799008979588		1	1	73752233	2019-01-04 16:30:12	4:30:12 PM	737522331736350.9619532PLM029	PLM029
	3461	7799008986104		96	2	73752233	2019-01-04 16:39:00	4:39 PM	737522331736350.9619532PLM029	PLM029
	3447	7799008685052		85	2	73752233	2019-01-04 16:42:13	4:42 PM	737522331736350.9619532PLM029	PLM029
	3448	7799008940465		900	2	73752233	2019-01-04 16:59:35	4:59 PM	737522331736350.9619532PLM029	PLM029
	3448	7799008940465		900	2	73752233	2019-01-04 17:00:04	5:00 PM	737522331736350.9619532PLM029	PLM029
	3448	7799008940465		900	2	73752233	2019-01-04 17:00:17	5:00 PM	737522331736350.9619532PLM029	PLM029
	3448	7799008940465		100	2	73752233	2019-01-04 17:00:35	5:00 PM	737522331736350.9619532PLM029	PLM029
	3449	7799008940441		999	2	73752233	2019-01-04 17:08:54	5:08 PM	737522331736350.9619532PLM029	PLM029
	3449	7799008940441		200	2	73752233	2019-01-04 17:09:54	5:09 PM	737522331736350.9619532PLM029	PLM029
	3449	7799008940441		200	2	73752233	2019-01-04 17:10:02	5:10 PM	737522331736350.9619532PLM029	PLM029
	3449	7799008940441		140	2	73752233	2019-01-04 17:10:14	5:10 PM	737522331736350.9619532PLM029	PLM029
	3449	7799008940441		30	2	73752233	2019-01-04 17:10:32	5:10 PM	737522331736350.9619532PLM029	PLM029
	3449	7799008940441		30	2	73752233	2019-01-04 17:10:48	5:10 PM	737522331736350.9619532PLM029	PLM029
	3449	7799008940441		30	2	73752233	2019-01-04 17:10:54	5:10 PM	737522331736350.9619532PLM029	PLM029
	3449	7799008940441		1	2	73752233	2019-01-04 17:11:13	5:11 PM	737522331736350.9619532PLM029	PLM029
	3449	7799008940441		10	2	73752233	2019-01-04 17:11:19	5:11 PM	737522331736350.9619532PLM029	PLM029
	3450	7799008940472		900	2	73752233	2019-01-04 17:19:46	5:19 PM	737522331736350.9619532PLM029	PLM029
	3450	7799008940472		900	2	73752233	2019-01-04 17:19:50	5:19 PM	737522331736350.9619532PLM029	PLM029
	3450	7799008940472		200	2	73752233	2019-01-04 17:20:06	5:20 PM	737522331736350.9619532PLM029	PLM029
	3450	7799008940472		960	2	73752233	2019-01-04 17:20:19	5:20 PM	737522331736350.9619532PLM029	PLM029
	3459	7799008998282		150	2	73752233	2019-01-04 17:26:56	5:26 PM	737522331736350.9619532PLM029	PLM029
	3451	7799008940458		900	2	73752233	2019-01-04 17:34:59	5:34 PM	737522331736350.9619532PLM029	PLM029
	3451	7799008940458		900	2	73752233	2019-01-04 17:35:10	5:35 PM	737522331736350.9619532PLM029	PLM029
	3451	7799008940458		900	2	73752233	2019-01-04 17:35:16	5:35 PM	737522331736350.9619532PLM029	PLM029
	3451	7799008940458		300	2	73752233	2019-01-04 17:35:25	5:35 PM	737522331736350.9619532PLM029	PLM029
