	3201	7799008992266		123	2	73992910	2019-01-04 04:15:04	4:15 AM	73992910726450.7055475PLM088	PLM088
	3202	7799021058109		131	2	73992910	2019-01-04 04:23:08	4:23 AM	73992910726450.7055475PLM088	PLM088
	3202	7799021058109		69	2	73992910	2019-01-04 04:25:10	4:25 AM	73992910726450.7055475PLM088	PLM088
	3203	7799008974224		100	2	73992910	2019-01-04 04:33:43	4:33 AM	73992910726450.7055475PLM088	PLM088
	3203	7799008974224		100	2	73992910	2019-01-04 04:36:24	4:36 AM	73992910726450.7055475PLM088	PLM088
	3203	7799008974224		30	2	73992910	2019-01-04 04:37:02	4:37 AM	73992910726450.7055475PLM088	PLM088
	3203	7799008974224		3	2	73992910	2019-01-04 04:37:17	4:37 AM	73992910726450.7055475PLM088	PLM088
	3210	7799008383156		120	2	73992910	2019-01-04 04:43:31	4:43 AM	73992910726450.7055475PLM088	PLM088
	3210	7799008383156		120	2	73992910	2019-01-04 04:44:44	4:44 AM	73992910726450.7055475PLM088	PLM088
	3210	7799008383156		63	2	73992910	2019-01-04 04:46:07	4:46 AM	73992910726450.7055475PLM088	PLM088
	3211	7799008768212		180	2	73992910	2019-01-04 04:52:53	4:52 AM	73992910726450.7055475PLM088	PLM088
	3211	7799008768212		180	2	73992910	2019-01-04 04:54:16	4:54 AM	73992910726450.7055475PLM088	PLM088
	3211	7799008768212		180	2	73992910	2019-01-04 04:55:39	4:55 AM	73992910726450.7055475PLM088	PLM088
	3211	7799008768212		180	2	73992910	2019-01-04 04:56:51	4:56 AM	73992910726450.7055475PLM088	PLM088
	3211	7799008768212		153	2	73992910	2019-01-04 04:59:17	4:59 AM	73992910726450.7055475PLM088	PLM088
	3208	7799008998619		144	2	73992910	2019-01-04 05:05:43	5:05 AM	73992910726450.7055475PLM088	PLM088
	3209	7799008383156		180	2	73992910	2019-01-04 05:11:13	5:11 AM	73992910726450.7055475PLM088	PLM088
	3209	7799008383156		123	2	73992910	2019-01-04 05:13:00	5:13 AM	73992910726450.7055475PLM088	PLM088
	3206	7799008383156		254	2	73992910	2019-01-04 05:31:41	5:31 AM	73992910726450.7055475PLM088	PLM088
	3207	7791750133034		78	2	73992910	2019-01-04 05:33:44	5:33 AM	73992910726450.7055475PLM088	PLM088
	3204	7799008977454		66	2	73992910	2019-01-04 05:37:37	5:37 AM	73992910726450.7055475PLM088	PLM088
	3205	7799021097535		132	2	73992910	2019-01-04 05:40:30	5:40 AM	73992910726450.7055475PLM088	PLM088
	3215	7791750204703		180	2	73992910	2019-01-04 05:44:32	5:44 AM	73992910726450.7055475PLM088	PLM088
	3215	7791750204703		75	2	73992910	2019-01-04 05:46:12	5:46 AM	73992910726450.7055475PLM088	PLM088
	3187	7799008099095		180	2	73992910	2019-01-04 05:56:05	5:56 AM	73992910726450.7055475PLM088	PLM088
	3187	7799008099095		180	2	73992910	2019-01-04 05:58:35	5:58 AM	73992910726450.7055475PLM088	PLM088
	3187	7799008099095		45	2	73992910	2019-01-04 05:59:28	5:59 AM	73992910726450.7055475PLM088	PLM088
	3186	7799008099095		180	2	73992910	2019-01-04 06:11:34	6:11 AM	73992910726450.7055475PLM088	PLM088
	3186	7799008099095		147	2	73992910	2019-01-04 06:19:15	6:19 AM	73992910726450.7055475PLM088	PLM088
	3185	7799008768229		180	2	73992910	2019-01-04 06:22:21	6:22 AM	73992910726450.7055475PLM088	PLM088
	3185	7799008768229		60	2	73992910	2019-01-04 06:24:34	6:24 AM	73992910726450.7055475PLM088	PLM088
	3185	7799008768229		120	2	73992910	2019-01-04 06:24:46	6:24 AM	73992910726450.7055475PLM088	PLM088
	3185	7799008768229		300	2	73992910	2019-01-04 06:29:01	6:29 AM	73992910726450.7055475PLM088	PLM088
	3190	7799021061277		24	2	73992910	2019-01-04 06:37:43	6:37 AM	73992910726450.7055475PLM088	PLM088
	3191	7799008370965		177	2	73992910	2019-01-04 06:42:48	6:42 AM	73992910726450.7055475PLM088	PLM088
	3192	7799021061284		120	2	73992910	2019-01-04 06:50:14	6:50 AM	73992910726450.7055475PLM088	PLM088
	3193	7799021053289		75	2	73992910	2019-01-04 06:52:53	6:52 AM	73992910726450.7055475PLM088	PLM088
	3188	7799021053289		247	2	73992910	2019-01-04 06:58:52	6:58 AM	73992910726450.7055475PLM088	PLM088
	3189	7799021053302		176	2	73992910	2019-01-04 07:06:47	7:06 AM	73992910726450.7055475PLM088	PLM088
	3171	7799008370958		180	2	73992910	2019-01-04 07:20:11	7:20 AM	73992910726450.7055475PLM088	PLM088
	3171	7799008370958		180	2	73992910	2019-01-04 07:21:21	7:21 AM	73992910726450.7055475PLM088	PLM088
	3171	7799008370958		180	2	73992910	2019-01-04 07:22:57	7:22 AM	73992910726450.7055475PLM088	PLM088
	3171	7799008370958		36	2	73992910	2019-01-04 07:23:53	7:23 AM	73992910726450.7055475PLM088	PLM088
