	1074	7799008834221		1	1	75207485	2013-01-09 12:50:39	12:50:39 PM	752074851359500.533424PLM040	PLM040
	1074	7799008834221		1	1	75207485	2013-01-09 12:50:41	12:50:41 PM	752074851359500.533424PLM040	PLM040
	1074	7799008834221		1	1	75207485	2013-01-09 12:50:44	12:50:44 PM	752074851359500.533424PLM040	PLM040
	1074	7799008834221		1	1	75207485	2013-01-09 12:50:56	12:50:56 PM	752074851359500.533424PLM040	PLM040
	1074	7799008834221		1	1	75207485	2013-01-09 12:51:00	12:51:00 PM	752074851359500.533424PLM040	PLM040
	1074	7799008834221		1	1	75207485	2013-01-09 12:51:02	12:51:02 PM	752074851359500.533424PLM040	PLM040
	1074	7799008834221		1	1	75207485	2013-01-09 12:51:09	12:51:09 PM	752074851359500.533424PLM040	PLM040
	1074	7799008834221		1	1	75207485	2013-01-09 12:51:12	12:51:12 PM	752074851359500.533424PLM040	PLM040
	1074	7799008834221		1	1	75207485	2013-01-09 12:51:18	12:51:18 PM	752074851359500.533424PLM040	PLM040
	1074	7799008834221		1	1	75207485	2013-01-09 12:51:27	12:51:27 PM	752074851359500.533424PLM040	PLM040
	1074	7799008834221		1	1	75207485	2013-01-09 12:51:35	12:51:35 PM	752074851359500.533424PLM040	PLM040
	1074	7799008834221		1	1	75207485	2013-01-09 12:51:38	12:51:38 PM	752074851359500.533424PLM040	PLM040
	1074	7799008834221		1	1	75207485	2013-01-09 12:51:44	12:51:44 PM	752074851359500.533424PLM040	PLM040
	1074	7799008834221		1	1	75207485	2013-01-09 12:51:48	12:51:48 PM	752074851359500.533424PLM040	PLM040
	1074	7799008834221		1	1	75207485	2013-01-09 12:51:53	12:51:53 PM	752074851359500.533424PLM040	PLM040
	1074	7799008834221		1	1	75207485	2013-01-09 12:51:57	12:51:57 PM	752074851359500.533424PLM040	PLM040
	1074	7799008834221		1	1	75207485	2013-01-09 12:52:02	12:52:02 PM	752074851359500.533424PLM040	PLM040
	1074	7799008834221		1	1	75207485	2013-01-09 12:52:07	12:52:07 PM	752074851359500.533424PLM040	PLM040
	1074	7799008834221		1	1	75207485	2013-01-09 12:52:13	12:52:13 PM	752074851359500.533424PLM040	PLM040
	1074	7799008834221		1	1	75207485	2013-01-09 12:52:18	12:52:18 PM	752074851359500.533424PLM040	PLM040
	1074	7799008834221		1	1	75207485	2013-01-09 12:52:24	12:52:24 PM	752074851359500.533424PLM040	PLM040
	1074	7799008834221		1	1	75207485	2013-01-09 12:52:27	12:52:27 PM	752074851359500.533424PLM040	PLM040
	1074	7799008834221		1	1	75207485	2013-01-09 12:54:09	12:54:09 PM	752074851359500.533424PLM040	PLM040
	1074	7799008834221		1	1	75207485	2013-01-09 12:54:12	12:54:12 PM	752074851359500.533424PLM040	PLM040
	1074	7799008834221		1	1	75207485	2013-01-09 12:54:23	12:54:23 PM	752074851359500.533424PLM040	PLM040
	1074	7799008834221		1	1	75207485	2013-01-09 12:54:27	12:54:27 PM	752074851359500.533424PLM040	PLM040
	1074	7799008834221		1	1	75207485	2013-01-09 12:54:37	12:54:37 PM	752074851359500.533424PLM040	PLM040
	1074	7799008834221		1	1	75207485	2013-01-09 12:54:43	12:54:43 PM	752074851359500.533424PLM040	PLM040
	1074	7799008834221		1	1	75207485	2013-01-09 12:54:50	12:54:50 PM	752074851359500.533424PLM040	PLM040
	1074	7799008834221		1	1	75207485	2013-01-09 12:54:53	12:54:53 PM	752074851359500.533424PLM040	PLM040
	1074	7799008834221		1	1	75207485	2013-01-09 12:54:58	12:54:58 PM	752074851359500.533424PLM040	PLM040
	1074	7799008834221		1	1	75207485	2013-01-09 12:55:06	12:55:06 PM	752074851359500.533424PLM040	PLM040
	1074	7799008834221		1	1	75207485	2013-01-09 12:55:10	12:55:10 PM	752074851359500.533424PLM040	PLM040
	1074	7799008834221		1	1	75207485	2013-01-09 12:55:14	12:55:14 PM	752074851359500.533424PLM040	PLM040
	1074	7799008834221		1	1	75207485	2013-01-09 12:55:24	12:55:24 PM	752074851359500.533424PLM040	PLM040
	1074	7799008834221		1	1	75207485	2013-01-09 12:55:30	12:55:30 PM	752074851359500.533424PLM040	PLM040
	1074	7799008834221		1	1	75207485	2013-01-09 12:55:39	12:55:39 PM	752074851359500.533424PLM040	PLM040
	1074	7799008834221		1	1	75207485	2013-01-09 12:55:42	12:55:42 PM	752074851359500.533424PLM040	PLM040
	1074	7799008834221		1	1	75207485	2013-01-09 12:55:46	12:55:46 PM	752074851359500.533424PLM040	PLM040
	1074	7799008834221		1	1	75207485	2013-01-09 12:55:52	12:55:52 PM	752074851359500.533424PLM040	PLM040
	1074	7799008834221		1	1	75207485	2013-01-09 12:55:55	12:55:55 PM	752074851359500.533424PLM040	PLM040
	1074	7799008834221		1	1	75207485	2013-01-09 12:55:58	12:55:58 PM	752074851359500.533424PLM040	PLM040
	1074	7799008834221		1	1	75207485	2013-01-09 12:56:02	12:56:02 PM	752074851359500.533424PLM040	PLM040
	1074	7799008834221		1	1	75207485	2013-01-09 12:56:05	12:56:05 PM	752074851359500.533424PLM040	PLM040
	1074	7799008834221		1	1	75207485	2013-01-09 12:56:13	12:56:13 PM	752074851359500.533424PLM040	PLM040
	1074	7799008834221		1	1	75207485	2013-01-09 12:56:16	12:56:16 PM	752074851359500.533424PLM040	PLM040
	1074	7799008834221		1	1	75207485	2013-01-09 12:56:20	12:56:20 PM	752074851359500.533424PLM040	PLM040
	1074	7799008834221		1	1	75207485	2013-01-09 12:56:30	12:56:30 PM	752074851359500.533424PLM040	PLM040
	1074	7799008834221		1	1	75207485	2013-01-09 12:56:34	12:56:34 PM	752074851359500.533424PLM040	PLM040
	1074	7799008834221		1	1	75207485	2013-01-09 12:56:39	12:56:39 PM	752074851359500.533424PLM040	PLM040
	1074	7799008834221		1	1	75207485	2013-01-09 12:56:44	12:56:44 PM	752074851359500.533424PLM040	PLM040
	1074	7799008834221		1	1	75207485	2013-01-09 12:56:48	12:56:48 PM	752074851359500.533424PLM040	PLM040
	1074	7799008834221		1	1	75207485	2013-01-09 12:56:51	12:56:51 PM	752074851359500.533424PLM040	PLM040
	1074	7799008834221		1	1	75207485	2013-01-09 12:57:01	12:57:01 PM	752074851359500.533424PLM040	PLM040
	1074	7799008834221		1	1	75207485	2013-01-09 12:57:05	12:57:05 PM	752074851359500.533424PLM040	PLM040
	1074	7799008834221		1	1	75207485	2013-01-09 12:57:10	12:57:10 PM	752074851359500.533424PLM040	PLM040
	1074	7799008834221		1	1	75207485	2013-01-09 12:57:18	12:57:18 PM	752074851359500.533424PLM040	PLM040
	1074	7799008834221		1	1	75207485	2013-01-09 12:57:25	12:57:25 PM	752074851359500.533424PLM040	PLM040
	1074	7799008834221		1	1	75207485	2013-01-09 12:57:28	12:57:28 PM	752074851359500.533424PLM040	PLM040
	1074	7799008834221		1	1	75207485	2013-01-09 12:57:31	12:57:31 PM	752074851359500.533424PLM040	PLM040
	1074	7799008834221		1	1	75207485	2013-01-09 12:57:37	12:57:37 PM	752074851359500.533424PLM040	PLM040
	1074	7799008834221		1	1	75207485	2013-01-09 12:57:42	12:57:42 PM	752074851359500.533424PLM040	PLM040
	1074	7799008834221		1	1	75207485	2013-01-09 12:57:48	12:57:48 PM	752074851359500.533424PLM040	PLM040
	1074	7799008834221		1	1	75207485	2013-01-09 12:57:54	12:57:54 PM	752074851359500.533424PLM040	PLM040
	1074	7799008834221		1	1	75207485	2013-01-09 12:57:58	12:57:58 PM	752074851359500.533424PLM040	PLM040
	1074	7799008834221		1	1	75207485	2013-01-09 12:58:01	12:58:01 PM	752074851359500.533424PLM040	PLM040
	1074	7799008834221		1	1	75207485	2013-01-09 12:58:04	12:58:04 PM	752074851359500.533424PLM040	PLM040
	1074	7799008834221		1	1	75207485	2013-01-09 12:58:10	12:58:10 PM	752074851359500.533424PLM040	PLM040
	1074	7799008834221		1	1	75207485	2013-01-09 12:58:19	12:58:19 PM	752074851359500.533424PLM040	PLM040
	1074	7799008834221		1	1	75207485	2013-01-09 12:58:31	12:58:31 PM	752074851359500.533424PLM040	PLM040
	1074	7799008834221		1	1	75207485	2013-01-09 12:58:37	12:58:37 PM	752074851359500.533424PLM040	PLM040
	1074	7799008834221		1	1	75207485	2013-01-09 12:58:45	12:58:45 PM	752074851359500.533424PLM040	PLM040
	1074	7799008834221		1	1	75207485	2013-01-09 12:58:49	12:58:49 PM	752074851359500.533424PLM040	PLM040
	1074	7799008834221		1	1	75207485	2013-01-09 12:58:53	12:58:53 PM	752074851359500.533424PLM040	PLM040
	1074	7799008834221		1	1	75207485	2013-01-09 12:58:57	12:58:57 PM	752074851359500.533424PLM040	PLM040
	1074	7799008834221		1	1	75207485	2013-01-09 12:59:05	12:59:05 PM	752074851359500.533424PLM040	PLM040
	1074	7799008834221		1	1	75207485	2013-01-09 12:59:15	12:59:15 PM	752074851359500.533424PLM040	PLM040
	1074	7799008834221		1	1	75207485	2013-01-09 12:59:24	12:59:24 PM	752074851359500.533424PLM040	PLM040
	1074	7799008834221		1	1	75207485	2013-01-09 12:59:29	12:59:29 PM	752074851359500.533424PLM040	PLM040
	1074	7799008834221		1	1	75207485	2013-01-09 12:59:33	12:59:33 PM	752074851359500.533424PLM040	PLM040
	1074	7799008834221		1	1	75207485	2013-01-09 12:59:39	12:59:39 PM	752074851359500.533424PLM040	PLM040
	1074	7799008834221		1	1	75207485	2013-01-09 12:59:44	12:59:44 PM	752074851359500.533424PLM040	PLM040
	1074	7799008834221		1	1	75207485	2013-01-09 12:59:53	12:59:53 PM	752074851359500.533424PLM040	PLM040
	1074	7799008834221		1	1	75207485	2013-01-09 13:00:05	1:00:05 PM	752074851359500.533424PLM040	PLM040
	1074	7799008834221		1	1	75207485	2013-01-09 13:00:21	1:00:21 PM	752074851359500.533424PLM040	PLM040
	1074	7799008834221		1	1	75207485	2013-01-09 13:00:37	1:00:37 PM	752074851359500.533424PLM040	PLM040
	1074	7799008834221		1	1	75207485	2013-01-09 13:00:40	1:00:40 PM	752074851359500.533424PLM040	PLM040
	1074	7799008834221		1	1	75207485	2013-01-09 13:00:43	1:00:43 PM	752074851359500.533424PLM040	PLM040
	1074	7799008834221		1	1	75207485	2013-01-09 13:00:46	1:00:46 PM	752074851359500.533424PLM040	PLM040
	1074	7799008834221		1	1	75207485	2013-01-09 13:00:50	1:00:50 PM	752074851359500.533424PLM040	PLM040
	1074	7799008834221		1	1	75207485	2013-01-09 13:00:53	1:00:53 PM	752074851359500.533424PLM040	PLM040
	1074	7799008834221		1	1	75207485	2013-01-09 13:01:10	1:01:10 PM	752074851359500.533424PLM040	PLM040
	1074	7799008834221		1	1	75207485	2013-01-09 13:01:19	1:01:19 PM	752074851359500.533424PLM040	PLM040
	1074	7799008834221		1	1	75207485	2013-01-09 13:01:22	1:01:22 PM	752074851359500.533424PLM040	PLM040
	1074	7799008834221		1	1	75207485	2013-01-09 13:01:27	1:01:27 PM	752074851359500.533424PLM040	PLM040
	1074	7799008834221		1	1	75207485	2013-01-09 13:01:32	1:01:32 PM	752074851359500.533424PLM040	PLM040
	1074	7799008834221		1	1	75207485	2013-01-09 13:01:34	1:01:34 PM	752074851359500.533424PLM040	PLM040
	1074	7799008834221		1	1	75207485	2013-01-09 13:01:38	1:01:38 PM	752074851359500.533424PLM040	PLM040
	1074	7799008834221		1	1	75207485	2013-01-09 13:01:49	1:01:49 PM	752074851359500.533424PLM040	PLM040
	1074	7799008834221		1	1	75207485	2013-01-09 13:01:59	1:01:59 PM	752074851359500.533424PLM040	PLM040
	1074	7799008834221		1	1	75207485	2013-01-09 13:02:19	1:02:19 PM	752074851359500.533424PLM040	PLM040
	1074	7799008834221		1	1	75207485	2013-01-09 13:02:23	1:02:23 PM	752074851359500.533424PLM040	PLM040
	1074	7799008834221		1	1	75207485	2013-01-09 13:02:34	1:02:34 PM	752074851359500.533424PLM040	PLM040
	1074	7799008834221		1	1	75207485	2013-01-09 13:02:41	1:02:41 PM	752074851359500.533424PLM040	PLM040
	1074	7799008834221		1	1	75207485	2013-01-09 13:02:48	1:02:48 PM	752074851359500.533424PLM040	PLM040
	1074	7799008834221		1	1	75207485	2013-01-09 13:02:51	1:02:51 PM	752074851359500.533424PLM040	PLM040
	1074	7799008834221		1	1	75207485	2013-01-09 13:02:54	1:02:54 PM	752074851359500.533424PLM040	PLM040
	1074	7799008834221		1	1	75207485	2013-01-09 13:02:57	1:02:57 PM	752074851359500.533424PLM040	PLM040
	1074	7799008834221		1	1	75207485	2013-01-09 13:03:00	1:03:00 PM	752074851359500.533424PLM040	PLM040
	1074	7799008834221		1	1	75207485	2013-01-09 13:03:08	1:03:08 PM	752074851359500.533424PLM040	PLM040
	1074	7799008834221		1	1	75207485	2013-01-09 13:03:15	1:03:15 PM	752074851359500.533424PLM040	PLM040
	1074	7799008834221		1	1	75207485	2013-01-09 13:03:19	1:03:19 PM	752074851359500.533424PLM040	PLM040
	1074	7799008834221		1	1	75207485	2013-01-09 13:03:22	1:03:22 PM	752074851359500.533424PLM040	PLM040
	1074	7799008834221		1	1	75207485	2013-01-09 13:03:25	1:03:25 PM	752074851359500.533424PLM040	PLM040
	1074	7799008834221		1	1	75207485	2013-01-09 13:03:29	1:03:29 PM	752074851359500.533424PLM040	PLM040
	1073	7799021037395		1	1	75207485	2013-01-09 13:07:13	1:07:13 PM	752074851359500.533424PLM040	PLM040
	1073	7799021037395		1	1	75207485	2013-01-09 13:07:21	1:07:21 PM	752074851359500.533424PLM040	PLM040
	1073	7799021037395		1	1	75207485	2013-01-09 13:07:30	1:07:30 PM	752074851359500.533424PLM040	PLM040
	1073	7799021037395		1	1	75207485	2013-01-09 13:07:38	1:07:38 PM	752074851359500.533424PLM040	PLM040
	1073	7799021037395		1	1	75207485	2013-01-09 13:07:42	1:07:42 PM	752074851359500.533424PLM040	PLM040
	1073	7799021037395		1	1	75207485	2013-01-09 13:07:46	1:07:46 PM	752074851359500.533424PLM040	PLM040
	1073	7799021037395		1	1	75207485	2013-01-09 13:07:57	1:07:57 PM	752074851359500.533424PLM040	PLM040
	1073	7799021037395		1	1	75207485	2013-01-09 13:08:15	1:08:15 PM	752074851359500.533424PLM040	PLM040
	1073	7799021037395		1	1	75207485	2013-01-09 13:08:20	1:08:20 PM	752074851359500.533424PLM040	PLM040
	1073	7799021037395		1	1	75207485	2013-01-09 13:08:30	1:08:30 PM	752074851359500.533424PLM040	PLM040
	1073	7799021037395		1	1	75207485	2013-01-09 13:08:39	1:08:39 PM	752074851359500.533424PLM040	PLM040
	1073	7799021037395		1	1	75207485	2013-01-09 13:08:43	1:08:43 PM	752074851359500.533424PLM040	PLM040
	1073	7799021037395		1	1	75207485	2013-01-09 13:08:55	1:08:55 PM	752074851359500.533424PLM040	PLM040
	1073	7799021037395		1	1	75207485	2013-01-09 13:09:08	1:09:08 PM	752074851359500.533424PLM040	PLM040
	1073	7799021037395		1	1	75207485	2013-01-09 13:09:13	1:09:13 PM	752074851359500.533424PLM040	PLM040
	1073	7799021037395		1	1	75207485	2013-01-09 13:09:17	1:09:17 PM	752074851359500.533424PLM040	PLM040
	1073	7799021037395		1	1	75207485	2013-01-09 13:09:28	1:09:28 PM	752074851359500.533424PLM040	PLM040
	1073	7799021037395		1	1	75207485	2013-01-09 13:09:36	1:09:36 PM	752074851359500.533424PLM040	PLM040
	1073	7799021037395		1	1	75207485	2013-01-09 13:09:40	1:09:40 PM	752074851359500.533424PLM040	PLM040
	1073	7799021037395		1	1	75207485	2013-01-09 13:09:53	1:09:53 PM	752074851359500.533424PLM040	PLM040
	1073	7799021037395		1	1	75207485	2013-01-09 13:09:59	1:09:59 PM	752074851359500.533424PLM040	PLM040
	1073	7799021037395		1	1	75207485	2013-01-09 13:10:00	1:10:00 PM	752074851359500.533424PLM040	PLM040
	1073	7799008967097		1	1	75207485	2013-01-09 13:10:07	1:10:07 PM	752074851359500.533424PLM040	PLM040
	1073	7799021037395		1	1	75207485	2013-01-09 13:10:14	1:10:14 PM	752074851359500.533424PLM040	PLM040
	1073	7799021037395		1	1	75207485	2013-01-09 13:10:19	1:10:19 PM	752074851359500.533424PLM040	PLM040
	1073	7799021037395		1	1	75207485	2013-01-09 13:10:26	1:10:26 PM	752074851359500.533424PLM040	PLM040
	1073	7799008967097		1	1	75207485	2013-01-09 13:10:54	1:10:54 PM	752074851359500.533424PLM040	PLM040
	1073	7799008967097		1	1	75207485	2013-01-09 13:11:06	1:11:06 PM	752074851359500.533424PLM040	PLM040
	1073	7799021037395		1	1	75207485	2013-01-09 13:11:23	1:11:23 PM	752074851359500.533424PLM040	PLM040
	1073	7799021037395		1	1	75207485	2013-01-09 13:11:26	1:11:26 PM	752074851359500.533424PLM040	PLM040
	1073	7799021037395		1	1	75207485	2013-01-09 13:11:35	1:11:35 PM	752074851359500.533424PLM040	PLM040
	1073	7799021037395		1	1	75207485	2013-01-09 13:11:45	1:11:45 PM	752074851359500.533424PLM040	PLM040
	1073	7799021037395		1	1	75207485	2013-01-09 13:11:54	1:11:54 PM	752074851359500.533424PLM040	PLM040
	1073	7799021037395		1	1	75207485	2013-01-09 13:11:57	1:11:57 PM	752074851359500.533424PLM040	PLM040
	1073	7799021037395		1	1	75207485	2013-01-09 13:12:13	1:12:13 PM	752074851359500.533424PLM040	PLM040
	1073	7799021037395		1	1	75207485	2013-01-09 13:12:21	1:12:21 PM	752074851359500.533424PLM040	PLM040
	1073	7799021037395		1	1	75207485	2013-01-09 13:12:27	1:12:27 PM	752074851359500.533424PLM040	PLM040
	1073	7799021037395		1	1	75207485	2013-01-09 13:12:42	1:12:42 PM	752074851359500.533424PLM040	PLM040
	1073	7799021037395		1	1	75207485	2013-01-09 13:12:47	1:12:47 PM	752074851359500.533424PLM040	PLM040
	1073	7799021037395		1	1	75207485	2013-01-09 13:12:52	1:12:52 PM	752074851359500.533424PLM040	PLM040
	1073	7799021037395		1	1	75207485	2013-01-09 13:13:04	1:13:04 PM	752074851359500.533424PLM040	PLM040
	1073	7799021037395		1	1	75207485	2013-01-09 13:13:14	1:13:14 PM	752074851359500.533424PLM040	PLM040
	1073	7799021037395		1	1	75207485	2013-01-09 13:13:19	1:13:19 PM	752074851359500.533424PLM040	PLM040
	1073	7799021037395		1	1	75207485	2013-01-09 13:13:39	1:13:39 PM	752074851359500.533424PLM040	PLM040
	1073	7799021037395		1	1	75207485	2013-01-09 13:13:43	1:13:43 PM	752074851359500.533424PLM040	PLM040
	1073	7799021037395		1	1	75207485	2013-01-09 13:14:01	1:14:01 PM	752074851359500.533424PLM040	PLM040
	1073	7799008967097		1	1	75207485	2013-01-09 13:14:05	1:14:05 PM	752074851359500.533424PLM040	PLM040
	1073	7799021037395		1	1	75207485	2013-01-09 13:14:13	1:14:13 PM	752074851359500.533424PLM040	PLM040
	1073	7799021037395		1	1	75207485	2013-01-09 13:14:18	1:14:18 PM	752074851359500.533424PLM040	PLM040
	1073	7799021037395		1	1	75207485	2013-01-09 13:14:21	1:14:21 PM	752074851359500.533424PLM040	PLM040
	1073	7799021037395		1	1	75207485	2013-01-09 13:14:30	1:14:30 PM	752074851359500.533424PLM040	PLM040
	1073	7799021037395		1	1	75207485	2013-01-09 13:14:39	1:14:39 PM	752074851359500.533424PLM040	PLM040
	1073	7799021037395		1	1	75207485	2013-01-09 13:15:01	1:15:01 PM	752074851359500.533424PLM040	PLM040
	1073	7799021037395		1	1	75207485	2013-01-09 13:15:36	1:15:36 PM	752074851359500.533424PLM040	PLM040
	1073	7799021037395		1	1	75207485	2013-01-09 13:15:59	1:15:59 PM	752074851359500.533424PLM040	PLM040
	1073	7799021037395		1	1	75207485	2013-01-09 13:16:27	1:16:27 PM	752074851359500.533424PLM040	PLM040
	1073	7799021037395		1	1	75207485	2013-01-09 13:16:35	1:16:35 PM	752074851359500.533424PLM040	PLM040
	1073	7799021037395		1	1	75207485	2013-01-09 13:16:45	1:16:45 PM	752074851359500.533424PLM040	PLM040
	1073	7799021037395		1	1	75207485	2013-01-09 13:16:50	1:16:50 PM	752074851359500.533424PLM040	PLM040
	1073	7799021037395		1	1	75207485	2013-01-09 13:16:59	1:16:59 PM	752074851359500.533424PLM040	PLM040
	1073	7799021037395		1	1	75207485	2013-01-09 13:17:04	1:17:04 PM	752074851359500.533424PLM040	PLM040
	1073	7799021037395		1	1	75207485	2013-01-09 13:17:09	1:17:09 PM	752074851359500.533424PLM040	PLM040
	1073	7799021037395		1	1	75207485	2013-01-09 13:17:17	1:17:17 PM	752074851359500.533424PLM040	PLM040
	1073	7799021037395		1	1	75207485	2013-01-09 13:17:25	1:17:25 PM	752074851359500.533424PLM040	PLM040
	1073	7799021037395		1	1	75207485	2013-01-09 13:17:29	1:17:29 PM	752074851359500.533424PLM040	PLM040
	1073	7799021037395		1	1	75207485	2013-01-09 13:17:36	1:17:36 PM	752074851359500.533424PLM040	PLM040
	1073	7799021037395		1	1	75207485	2013-01-09 13:17:49	1:17:49 PM	752074851359500.533424PLM040	PLM040
	1073	7799021037395		1	1	75207485	2013-01-09 13:17:53	1:17:53 PM	752074851359500.533424PLM040	PLM040
	1073	7799021037395		1	1	75207485	2013-01-09 13:17:56	1:17:56 PM	752074851359500.533424PLM040	PLM040
	1073	7799021037395		1	1	75207485	2013-01-09 13:18:07	1:18:07 PM	752074851359500.533424PLM040	PLM040
	1073	7799021037395		1	1	75207485	2013-01-09 13:18:29	1:18:29 PM	752074851359500.533424PLM040	PLM040
	1073	7799021037395		1	1	75207485	2013-01-09 13:18:33	1:18:33 PM	752074851359500.533424PLM040	PLM040
	1073	7799021037395		1	1	75207485	2013-01-09 13:18:45	1:18:45 PM	752074851359500.533424PLM040	PLM040
	1073	7799021037395		1	1	75207485	2013-01-09 13:18:48	1:18:48 PM	752074851359500.533424PLM040	PLM040
	1073	7799021037395		1	1	75207485	2013-01-09 13:19:01	1:19:01 PM	752074851359500.533424PLM040	PLM040
	1073	7799021037395		1	1	75207485	2013-01-09 13:19:07	1:19:07 PM	752074851359500.533424PLM040	PLM040
	1073	7799021037395		1	1	75207485	2013-01-09 13:19:36	1:19:36 PM	752074851359500.533424PLM040	PLM040
	1073	7799021037395		1	1	75207485	2013-01-09 13:19:43	1:19:43 PM	752074851359500.533424PLM040	PLM040
	1073	7799021037395		1	1	75207485	2013-01-09 13:19:45	1:19:45 PM	752074851359500.533424PLM040	PLM040
	1073	7799021037395		1	1	75207485	2013-01-09 13:19:48	1:19:48 PM	752074851359500.533424PLM040	PLM040
	1073	7799021037395		1	1	75207485	2013-01-09 13:20:10	1:20:10 PM	752074851359500.533424PLM040	PLM040
	1073	7799021037395		1	1	75207485	2013-01-09 13:20:28	1:20:28 PM	752074851359500.533424PLM040	PLM040
	1073	7799021037395		1	1	75207485	2013-01-09 13:20:40	1:20:40 PM	752074851359500.533424PLM040	PLM040
	1073	7799021037395		1	1	75207485	2013-01-09 13:21:00	1:21:00 PM	752074851359500.533424PLM040	PLM040
	1073	7799021037395		1	1	75207485	2013-01-09 13:21:11	1:21:11 PM	752074851359500.533424PLM040	PLM040
	1073	7799021037395		1	1	75207485	2013-01-09 13:21:14	1:21:14 PM	752074851359500.533424PLM040	PLM040
	1073	7799021037395		1	1	75207485	2013-01-09 13:21:19	1:21:19 PM	752074851359500.533424PLM040	PLM040
	1073	7799021037395		1	1	75207485	2013-01-09 13:21:24	1:21:24 PM	752074851359500.533424PLM040	PLM040
	1073	7799021037395		1	1	75207485	2013-01-09 13:21:26	1:21:26 PM	752074851359500.533424PLM040	PLM040
	1073	7799021037395		1	1	75207485	2013-01-09 13:21:38	1:21:38 PM	752074851359500.533424PLM040	PLM040
	1073	7799021037395		1	1	75207485	2013-01-09 13:21:43	1:21:43 PM	752074851359500.533424PLM040	PLM040
	1073	7799021037395		1	1	75207485	2013-01-09 13:21:49	1:21:49 PM	752074851359500.533424PLM040	PLM040
	1073	7799021037395		1	1	75207485	2013-01-09 13:22:10	1:22:10 PM	752074851359500.533424PLM040	PLM040
	1073	7799021037395		1	1	75207485	2013-01-09 13:22:15	1:22:15 PM	752074851359500.533424PLM040	PLM040
	1073	7799021037395		1	1	75207485	2013-01-09 13:22:19	1:22:19 PM	752074851359500.533424PLM040	PLM040
	1073	7799021037395		1	1	75207485	2013-01-09 13:22:28	1:22:28 PM	752074851359500.533424PLM040	PLM040
	1073	7799021037395		1	1	75207485	2013-01-09 13:22:37	1:22:37 PM	752074851359500.533424PLM040	PLM040
	1073	7799021037395		1	1	75207485	2013-01-09 13:22:45	1:22:45 PM	752074851359500.533424PLM040	PLM040
	1073	7799021037395		1	1	75207485	2013-01-09 13:22:50	1:22:50 PM	752074851359500.533424PLM040	PLM040
	1073	7799021037395		1	1	75207485	2013-01-09 13:23:02	1:23:02 PM	752074851359500.533424PLM040	PLM040
	1073	7799021037395		1	1	75207485	2013-01-09 13:23:13	1:23:13 PM	752074851359500.533424PLM040	PLM040
	1073	7799021037395		1	1	75207485	2013-01-09 13:23:18	1:23:18 PM	752074851359500.533424PLM040	PLM040
	1073	7799021037395		1	1	75207485	2013-01-09 13:23:22	1:23:22 PM	752074851359500.533424PLM040	PLM040
	1073	7799021037395		1	1	75207485	2013-01-09 13:23:25	1:23:25 PM	752074851359500.533424PLM040	PLM040
	1073	7799021037395		1	1	75207485	2013-01-09 13:23:31	1:23:31 PM	752074851359500.533424PLM040	PLM040
	1073	7799021037395		1	1	75207485	2013-01-09 13:23:34	1:23:34 PM	752074851359500.533424PLM040	PLM040
	1073	7799021037395		1	1	75207485	2013-01-09 13:23:47	1:23:47 PM	752074851359500.533424PLM040	PLM040
	1073	7799021037395		1	1	75207485	2013-01-09 13:23:53	1:23:53 PM	752074851359500.533424PLM040	PLM040
	1073	7799021037395		1	1	75207485	2013-01-09 13:23:59	1:23:59 PM	752074851359500.533424PLM040	PLM040
	1073	7799021037395		1	1	75207485	2013-01-09 13:24:02	1:24:02 PM	752074851359500.533424PLM040	PLM040
	1073	7799021037395		1	1	75207485	2013-01-09 13:24:08	1:24:08 PM	752074851359500.533424PLM040	PLM040
	1073	7799008822907		1	1	75207485	2013-01-09 13:24:12	1:24:12 PM	752074851359500.533424PLM040	PLM040
	1073	7799021037395		1	1	75207485	2013-01-09 13:24:16	1:24:16 PM	752074851359500.533424PLM040	PLM040
	1073	7799021037395		1	1	75207485	2013-01-09 13:24:26	1:24:26 PM	752074851359500.533424PLM040	PLM040
	1073	7799021037395		1	1	75207485	2013-01-09 13:24:35	1:24:35 PM	752074851359500.533424PLM040	PLM040
	1073	7799021037395		1	1	75207485	2013-01-09 13:24:58	1:24:58 PM	752074851359500.533424PLM040	PLM040
	1073	7799021037395		1	1	75207485	2013-01-09 13:25:02	1:25:02 PM	752074851359500.533424PLM040	PLM040
	1073	7799021037395		1	1	75207485	2013-01-09 13:25:12	1:25:12 PM	752074851359500.533424PLM040	PLM040
	1073	7799021037395		1	1	75207485	2013-01-09 13:25:15	1:25:15 PM	752074851359500.533424PLM040	PLM040
	1073	7799021037395		1	1	75207485	2013-01-09 13:25:24	1:25:24 PM	752074851359500.533424PLM040	PLM040
	1073	7799021037395		1	1	75207485	2013-01-09 13:25:29	1:25:29 PM	752074851359500.533424PLM040	PLM040
	1073	7799021037395		1	1	75207485	2013-01-09 13:25:33	1:25:33 PM	752074851359500.533424PLM040	PLM040
	1073	7799021037395		1	1	75207485	2013-01-09 13:25:40	1:25:40 PM	752074851359500.533424PLM040	PLM040
	1073	7799021037395		1	1	75207485	2013-01-09 13:25:47	1:25:47 PM	752074851359500.533424PLM040	PLM040
	1073	7799021037395		1	1	75207485	2013-01-09 13:25:54	1:25:54 PM	752074851359500.533424PLM040	PLM040
	1073	7799021037395		1	1	75207485	2013-01-09 13:26:08	1:26:08 PM	752074851359500.533424PLM040	PLM040
	1073	7799021037395		1	1	75207485	2013-01-09 13:26:19	1:26:19 PM	752074851359500.533424PLM040	PLM040
	1073	7799021037395		1	1	75207485	2013-01-09 13:26:28	1:26:28 PM	752074851359500.533424PLM040	PLM040
	1073	7799021037395		1	1	75207485	2013-01-09 13:26:37	1:26:37 PM	752074851359500.533424PLM040	PLM040
	1073	7799021037395		1	1	75207485	2013-01-09 13:26:41	1:26:41 PM	752074851359500.533424PLM040	PLM040
	1073	7799021037395		1	1	75207485	2013-01-09 13:26:44	1:26:44 PM	752074851359500.533424PLM040	PLM040
	1073	7799021037395		1	1	75207485	2013-01-09 13:26:57	1:26:57 PM	752074851359500.533424PLM040	PLM040
	1073	7799021037395		1	1	75207485	2013-01-09 13:27:00	1:27:00 PM	752074851359500.533424PLM040	PLM040
	1073	7799021037395		1	1	75207485	2013-01-09 13:27:07	1:27:07 PM	752074851359500.533424PLM040	PLM040
	1073	7799021037395		1	1	75207485	2013-01-09 13:27:13	1:27:13 PM	752074851359500.533424PLM040	PLM040
	1073	7799021037395		1	1	75207485	2013-01-09 13:27:20	1:27:20 PM	752074851359500.533424PLM040	PLM040
	1073	7799021037395		1	1	75207485	2013-01-09 13:27:26	1:27:26 PM	752074851359500.533424PLM040	PLM040
	1073	7799021037395		1	1	75207485	2013-01-09 13:27:42	1:27:42 PM	752074851359500.533424PLM040	PLM040
	1073	7799021037395		1	1	75207485	2013-01-09 13:27:52	1:27:52 PM	752074851359500.533424PLM040	PLM040
	1073	7799021037395		1	1	75207485	2013-01-09 13:28:00	1:28:00 PM	752074851359500.533424PLM040	PLM040
	1073	7799021037395		1	1	75207485	2013-01-09 13:28:02	1:28:02 PM	752074851359500.533424PLM040	PLM040
	1073	7799021037395		1	1	75207485	2013-01-09 13:28:13	1:28:13 PM	752074851359500.533424PLM040	PLM040
	1073	7799021037395		1	1	75207485	2013-01-09 13:28:16	1:28:16 PM	752074851359500.533424PLM040	PLM040
	1073	7799021037395		1	1	75207485	2013-01-09 13:28:21	1:28:21 PM	752074851359500.533424PLM040	PLM040
	1073	7799021037395		1	1	75207485	2013-01-09 13:28:31	1:28:31 PM	752074851359500.533424PLM040	PLM040
	1073	7799021037395		1	1	75207485	2013-01-09 13:28:41	1:28:41 PM	752074851359500.533424PLM040	PLM040
	1073	7799021037395		1	1	75207485	2013-01-09 13:28:48	1:28:48 PM	752074851359500.533424PLM040	PLM040
	1073	7799008967097		1	1	75207485	2013-01-09 13:28:50	1:28:50 PM	752074851359500.533424PLM040	PLM040
	1073	7799008967097		1	1	75207485	2013-01-09 13:28:53	1:28:53 PM	752074851359500.533424PLM040	PLM040
	1073	7799021037395		1	1	75207485	2013-01-09 13:28:59	1:28:59 PM	752074851359500.533424PLM040	PLM040
	1073	7799021037395		1	1	75207485	2013-01-09 13:29:01	1:29:01 PM	752074851359500.533424PLM040	PLM040
	1073	7799021037395		1	1	75207485	2013-01-09 13:29:09	1:29:09 PM	752074851359500.533424PLM040	PLM040
	1073	7799021037395		1	1	75207485	2013-01-09 13:29:12	1:29:12 PM	752074851359500.533424PLM040	PLM040
	1073	7799021037395		1	1	75207485	2013-01-09 13:29:17	1:29:17 PM	752074851359500.533424PLM040	PLM040
	1073	7799021037395		1	1	75207485	2013-01-09 13:29:28	1:29:28 PM	752074851359500.533424PLM040	PLM040
	1073	7799021037395		1	1	75207485	2013-01-09 13:29:34	1:29:34 PM	752074851359500.533424PLM040	PLM040
	1073	7799021037395		1	1	75207485	2013-01-09 13:29:45	1:29:45 PM	752074851359500.533424PLM040	PLM040
	1073	7799021037395		1	1	75207485	2013-01-09 13:29:49	1:29:49 PM	752074851359500.533424PLM040	PLM040
	1073	7799021037395		1	1	75207485	2013-01-09 13:29:58	1:29:58 PM	752074851359500.533424PLM040	PLM040
	1073	7799021037395		1	1	75207485	2013-01-09 13:30:06	1:30:06 PM	752074851359500.533424PLM040	PLM040
	1073	7799021037395		1	1	75207485	2013-01-09 13:30:17	1:30:17 PM	752074851359500.533424PLM040	PLM040
	1073	7799021037395		1	1	75207485	2013-01-09 13:30:28	1:30:28 PM	752074851359500.533424PLM040	PLM040
	1073	7799021037395		1	1	75207485	2013-01-09 13:30:38	1:30:38 PM	752074851359500.533424PLM040	PLM040
	1073	7799021037395		1	1	75207485	2013-01-09 13:30:42	1:30:42 PM	752074851359500.533424PLM040	PLM040
	1073	7799021037395		1	1	75207485	2013-01-09 13:30:52	1:30:52 PM	752074851359500.533424PLM040	PLM040
	1073	7799021037395		1	1	75207485	2013-01-09 13:31:19	1:31:19 PM	752074851359500.533424PLM040	PLM040
	1073	7799021037395		1	1	75207485	2013-01-09 13:31:29	1:31:29 PM	752074851359500.533424PLM040	PLM040
	1073	7799021037395		1	1	75207485	2013-01-09 13:31:55	1:31:55 PM	752074851359500.533424PLM040	PLM040
	1073	7799021037395		1	1	75207485	2013-01-09 13:32:01	1:32:01 PM	752074851359500.533424PLM040	PLM040
	1073	7799021037395		1	1	75207485	2013-01-09 13:32:11	1:32:11 PM	752074851359500.533424PLM040	PLM040
	1073	7799021037395		1	1	75207485	2013-01-09 13:32:25	1:32:25 PM	752074851359500.533424PLM040	PLM040
	1073	7799021037395		1	1	75207485	2013-01-09 13:32:31	1:32:31 PM	752074851359500.533424PLM040	PLM040
	1073	7799021037395		1	1	75207485	2013-01-09 13:32:41	1:32:41 PM	752074851359500.533424PLM040	PLM040
	1073	7799021037395		1	1	75207485	2013-01-09 13:32:49	1:32:49 PM	752074851359500.533424PLM040	PLM040
	1073	7799021037395		1	1	75207485	2013-01-09 13:33:07	1:33:07 PM	752074851359500.533424PLM040	PLM040
	1073	7799021037395		1	1	75207485	2013-01-09 13:33:15	1:33:15 PM	752074851359500.533424PLM040	PLM040
	1073	7799021037395		1	1	75207485	2013-01-09 13:33:23	1:33:23 PM	752074851359500.533424PLM040	PLM040
	1073	7799021037395		1	1	75207485	2013-01-09 13:33:41	1:33:41 PM	752074851359500.533424PLM040	PLM040
	1073	7799021037395		1	1	75207485	2013-01-09 13:33:45	1:33:45 PM	752074851359500.533424PLM040	PLM040
	1073	7799021037395		1	1	75207485	2013-01-09 13:33:52	1:33:52 PM	752074851359500.533424PLM040	PLM040
	1073	7799021037395		1	1	75207485	2013-01-09 13:34:02	1:34:02 PM	752074851359500.533424PLM040	PLM040
	1073	7799021037395		1	1	75207485	2013-01-09 13:34:09	1:34:09 PM	752074851359500.533424PLM040	PLM040
	1073	7799021037395		1	1	75207485	2013-01-09 13:34:23	1:34:23 PM	752074851359500.533424PLM040	PLM040
	1073	7799021037395		1	1	75207485	2013-01-09 13:34:34	1:34:34 PM	752074851359500.533424PLM040	PLM040
	1073	7799021037395		1	1	75207485	2013-01-09 13:34:45	1:34:45 PM	752074851359500.533424PLM040	PLM040
	1073	7799021037395		1	1	75207485	2013-01-09 13:35:38	1:35:38 PM	752074851359500.533424PLM040	PLM040
	1073	7799021037395		1	1	75207485	2013-01-09 13:35:43	1:35:43 PM	752074851359500.533424PLM040	PLM040
	1073	7799021037395		1	1	75207485	2013-01-09 13:35:47	1:35:47 PM	752074851359500.533424PLM040	PLM040
	1073	7799021037395		1	1	75207485	2013-01-09 13:36:02	1:36:02 PM	752074851359500.533424PLM040	PLM040
	1073	7799021037395		1	1	75207485	2013-01-09 13:36:09	1:36:09 PM	752074851359500.533424PLM040	PLM040
	1073	7799021037395		1	1	75207485	2013-01-09 13:36:19	1:36:19 PM	752074851359500.533424PLM040	PLM040
	1073	7799021037395		1	1	75207485	2013-01-09 13:36:25	1:36:25 PM	752074851359500.533424PLM040	PLM040
	1073	7799021037395		1	1	75207485	2013-01-09 13:37:01	1:37:01 PM	752074851359500.533424PLM040	PLM040
	1073	7799021037395		1	1	75207485	2013-01-09 13:37:11	1:37:11 PM	752074851359500.533424PLM040	PLM040
	1073	7799021037395		1	1	75207485	2013-01-09 13:37:23	1:37:23 PM	752074851359500.533424PLM040	PLM040
	1073	7799021037395		1	1	75207485	2013-01-09 13:37:32	1:37:32 PM	752074851359500.533424PLM040	PLM040
	1073	7799021037395		1	1	75207485	2013-01-09 13:37:38	1:37:38 PM	752074851359500.533424PLM040	PLM040
	1073	7799021037395		1	1	75207485	2013-01-09 13:37:53	1:37:53 PM	752074851359500.533424PLM040	PLM040
	1073	7799021037395		1	1	75207485	2013-01-09 13:38:11	1:38:11 PM	752074851359500.533424PLM040	PLM040
	1073	7799021037395		1	1	75207485	2013-01-09 13:38:17	1:38:17 PM	752074851359500.533424PLM040	PLM040
	1073	7799021037395		1	1	75207485	2013-01-09 13:38:28	1:38:28 PM	752074851359500.533424PLM040	PLM040
	1073	7799021037395		1	1	75207485	2013-01-09 13:38:36	1:38:36 PM	752074851359500.533424PLM040	PLM040
	1073	7799021037395		1	1	75207485	2013-01-09 13:38:40	1:38:40 PM	752074851359500.533424PLM040	PLM040
	1073	7799021037395		1	1	75207485	2013-01-09 13:38:49	1:38:49 PM	752074851359500.533424PLM040	PLM040
	1073	7799021037395		1	1	75207485	2013-01-09 13:38:56	1:38:56 PM	752074851359500.533424PLM040	PLM040
	1073	7799021037395		1	1	75207485	2013-01-09 13:39:10	1:39:10 PM	752074851359500.533424PLM040	PLM040
	1073	7799021037395		1	1	75207485	2013-01-09 13:39:20	1:39:20 PM	752074851359500.533424PLM040	PLM040
	1073	7799021037395		1	1	75207485	2013-01-09 13:39:33	1:39:33 PM	752074851359500.533424PLM040	PLM040
	1073	7799021037395		1	1	75207485	2013-01-09 13:39:37	1:39:37 PM	752074851359500.533424PLM040	PLM040
	1073	7799021037395		1	1	75207485	2013-01-09 13:39:52	1:39:52 PM	752074851359500.533424PLM040	PLM040
	1073	7799021037395		1	1	75207485	2013-01-09 13:40:04	1:40:04 PM	752074851359500.533424PLM040	PLM040
	1073	7799021037395		1	1	75207485	2013-01-09 13:40:14	1:40:14 PM	752074851359500.533424PLM040	PLM040
	1073	7799021037395		1	1	75207485	2013-01-09 13:40:21	1:40:21 PM	752074851359500.533424PLM040	PLM040
	1073	7799021037395		1	1	75207485	2013-01-09 13:40:28	1:40:28 PM	752074851359500.533424PLM040	PLM040
	1073	7799021037395		1	1	75207485	2013-01-09 13:40:32	1:40:32 PM	752074851359500.533424PLM040	PLM040
	1073	7799021037395		1	1	75207485	2013-01-09 13:40:36	1:40:36 PM	752074851359500.533424PLM040	PLM040
	1073	7799021037395		1	1	75207485	2013-01-09 13:40:44	1:40:44 PM	752074851359500.533424PLM040	PLM040
	1073	7799021037395		1	1	75207485	2013-01-09 13:40:50	1:40:50 PM	752074851359500.533424PLM040	PLM040
	1073	7799021037395		1	1	75207485	2013-01-09 13:40:55	1:40:55 PM	752074851359500.533424PLM040	PLM040
	1073	7799021037395		1	1	75207485	2013-01-09 13:41:00	1:41:00 PM	752074851359500.533424PLM040	PLM040
	1073	7799021037395		1	1	75207485	2013-01-09 13:41:05	1:41:05 PM	752074851359500.533424PLM040	PLM040
	1073	7799021037395		1	1	75207485	2013-01-09 13:41:11	1:41:11 PM	752074851359500.533424PLM040	PLM040
	1073	7799021037395		1	1	75207485	2013-01-09 13:41:15	1:41:15 PM	752074851359500.533424PLM040	PLM040
	1073	7799021037395		1	1	75207485	2013-01-09 13:41:23	1:41:23 PM	752074851359500.533424PLM040	PLM040
	1073	7799021037395		1	1	75207485	2013-01-09 13:41:40	1:41:40 PM	752074851359500.533424PLM040	PLM040
	1073	7799021037395		1	1	75207485	2013-01-09 13:41:46	1:41:46 PM	752074851359500.533424PLM040	PLM040
	1073	7799021037395		1	1	75207485	2013-01-09 13:41:50	1:41:50 PM	752074851359500.533424PLM040	PLM040
	1073	7799021037395		1	1	75207485	2013-01-09 13:41:57	1:41:57 PM	752074851359500.533424PLM040	PLM040
	1073	7799021037395		1	1	75207485	2013-01-09 13:42:02	1:42:02 PM	752074851359500.533424PLM040	PLM040
	1073	7799021037395		1	1	75207485	2013-01-09 13:42:08	1:42:08 PM	752074851359500.533424PLM040	PLM040
	1073	7799021037395		1	1	75207485	2013-01-09 13:42:13	1:42:13 PM	752074851359500.533424PLM040	PLM040
	1073	7799021037395		1	1	75207485	2013-01-09 13:42:25	1:42:25 PM	752074851359500.533424PLM040	PLM040
	1073	7799021037395		1	1	75207485	2013-01-09 13:42:33	1:42:33 PM	752074851359500.533424PLM040	PLM040
	1073	7799021037395		1	1	75207485	2013-01-09 13:43:19	1:43:19 PM	752074851359500.533424PLM040	PLM040
	1073	7799021037395		1	1	75207485	2013-01-09 13:43:22	1:43:22 PM	752074851359500.533424PLM040	PLM040
	1073	7799021037395		1	1	75207485	2013-01-09 13:43:28	1:43:28 PM	752074851359500.533424PLM040	PLM040
	1073	7799021037395		1	1	75207485	2013-01-09 13:43:53	1:43:53 PM	752074851359500.533424PLM040	PLM040
	1073	7799021037395		1	1	75207485	2013-01-09 13:44:09	1:44:09 PM	752074851359500.533424PLM040	PLM040
	1073	7799021037395		1	1	75207485	2013-01-09 13:44:14	1:44:14 PM	752074851359500.533424PLM040	PLM040
	1073	7799021037395		1	1	75207485	2013-01-09 13:44:23	1:44:23 PM	752074851359500.533424PLM040	PLM040
	1073	7799021037395		1	1	75207485	2013-01-09 13:44:30	1:44:30 PM	752074851359500.533424PLM040	PLM040
	1073	7799021037395		1	1	75207485	2013-01-09 13:44:38	1:44:38 PM	752074851359500.533424PLM040	PLM040
	1073	7799021037395		1	1	75207485	2013-01-09 13:44:54	1:44:54 PM	752074851359500.533424PLM040	PLM040
	1073	7799021037395		1	1	75207485	2013-01-09 13:44:57	1:44:57 PM	752074851359500.533424PLM040	PLM040
	1073	7799021037395		1	1	75207485	2013-01-09 13:45:04	1:45:04 PM	752074851359500.533424PLM040	PLM040
	1073	7799021037395		1	1	75207485	2013-01-09 13:45:10	1:45:10 PM	752074851359500.533424PLM040	PLM040
	1073	7799021037395		1	1	75207485	2013-01-09 13:45:20	1:45:20 PM	752074851359500.533424PLM040	PLM040
	1073	7799021037395		1	1	75207485	2013-01-09 13:45:22	1:45:22 PM	752074851359500.533424PLM040	PLM040
	1073	7799021037395		1	1	75207485	2013-01-09 13:45:33	1:45:33 PM	752074851359500.533424PLM040	PLM040
	1073	7799021037395		1	1	75207485	2013-01-09 13:45:53	1:45:53 PM	752074851359500.533424PLM040	PLM040
	1073	7799021037395		1	1	75207485	2013-01-09 13:46:07	1:46:07 PM	752074851359500.533424PLM040	PLM040
	1073	7799021037395		1	1	75207485	2013-01-09 13:46:15	1:46:15 PM	752074851359500.533424PLM040	PLM040
	1073	7799021037395		1	1	75207485	2013-01-09 13:46:22	1:46:22 PM	752074851359500.533424PLM040	PLM040
	1073	7799021037395		1	1	75207485	2013-01-09 13:46:31	1:46:31 PM	752074851359500.533424PLM040	PLM040
	1073	7799021037395		1	1	75207485	2013-01-09 13:46:41	1:46:41 PM	752074851359500.533424PLM040	PLM040
	1073	7799021037395		1	1	75207485	2013-01-09 13:47:01	1:47:01 PM	752074851359500.533424PLM040	PLM040
	1073	7799021037395		1	1	75207485	2013-01-09 13:47:12	1:47:12 PM	752074851359500.533424PLM040	PLM040
	1073	7799021037395		1	1	75207485	2013-01-09 13:47:17	1:47:17 PM	752074851359500.533424PLM040	PLM040
	1073	7799021037395		1	1	75207485	2013-01-09 13:47:25	1:47:25 PM	752074851359500.533424PLM040	PLM040
	1073	7799021037395		1	1	75207485	2013-01-09 13:47:33	1:47:33 PM	752074851359500.533424PLM040	PLM040
	1073	7799021037395		1	1	75207485	2013-01-09 13:47:41	1:47:41 PM	752074851359500.533424PLM040	PLM040
	1073	7799021037395		1	1	75207485	2013-01-09 13:47:46	1:47:46 PM	752074851359500.533424PLM040	PLM040
	1073	7799021037395		1	1	75207485	2013-01-09 13:47:49	1:47:49 PM	752074851359500.533424PLM040	PLM040
	1073	7799021037395		1	1	75207485	2013-01-09 13:47:56	1:47:56 PM	752074851359500.533424PLM040	PLM040
	1073	7799021037395		1	1	75207485	2013-01-09 13:47:59	1:47:59 PM	752074851359500.533424PLM040	PLM040
	1073	7799021037395		1	1	75207485	2013-01-09 13:48:06	1:48:06 PM	752074851359500.533424PLM040	PLM040
	1073	7799021037395		1	1	75207485	2013-01-09 13:48:17	1:48:17 PM	752074851359500.533424PLM040	PLM040
	1073	7799021037395		1	1	75207485	2013-01-09 13:48:24	1:48:24 PM	752074851359500.533424PLM040	PLM040
	1073	7799021037395		1	1	75207485	2013-01-09 13:48:30	1:48:30 PM	752074851359500.533424PLM040	PLM040
	1073	7799021037395		1	1	75207485	2013-01-09 13:48:37	1:48:37 PM	752074851359500.533424PLM040	PLM040
	1073	7799021037395		1	1	75207485	2013-01-09 13:48:46	1:48:46 PM	752074851359500.533424PLM040	PLM040
	1073	7799021037395		1	1	75207485	2013-01-09 13:48:50	1:48:50 PM	752074851359500.533424PLM040	PLM040
	1073	7799021037395		1	1	75207485	2013-01-09 13:49:01	1:49:01 PM	752074851359500.533424PLM040	PLM040
	1073	7799021037395		1	1	75207485	2013-01-09 13:49:04	1:49:04 PM	752074851359500.533424PLM040	PLM040
	1073	7799021037395		1	1	75207485	2013-01-09 13:49:08	1:49:08 PM	752074851359500.533424PLM040	PLM040
	1073	7799021037395		1	1	75207485	2013-01-09 13:49:12	1:49:12 PM	752074851359500.533424PLM040	PLM040
	1073	7799021037395		1	1	75207485	2013-01-09 13:49:19	1:49:19 PM	752074851359500.533424PLM040	PLM040
	1073	7799021037395		1	1	75207485	2013-01-09 13:49:24	1:49:24 PM	752074851359500.533424PLM040	PLM040
	1073	7799021037395		1	1	75207485	2013-01-09 13:49:34	1:49:34 PM	752074851359500.533424PLM040	PLM040
	1073	7799021037395		1	1	75207485	2013-01-09 13:49:38	1:49:38 PM	752074851359500.533424PLM040	PLM040
	1073	7799021037395		1	1	75207485	2013-01-09 13:49:46	1:49:46 PM	752074851359500.533424PLM040	PLM040
	1073	7799021037395		1	1	75207485	2013-01-09 13:49:52	1:49:52 PM	752074851359500.533424PLM040	PLM040
	1073	7799021037395		1	1	75207485	2013-01-09 13:49:59	1:49:59 PM	752074851359500.533424PLM040	PLM040
	1073	7799021037395		1	1	75207485	2013-01-09 13:50:07	1:50:07 PM	752074851359500.533424PLM040	PLM040
	1073	7799021037395		1	1	75207485	2013-01-09 13:50:42	1:50:42 PM	752074851359500.533424PLM040	PLM040
	1073	7799021037395		1	1	75207485	2013-01-09 13:50:55	1:50:55 PM	752074851359500.533424PLM040	PLM040
	1073	7799021037395		1	1	75207485	2013-01-09 13:51:05	1:51:05 PM	752074851359500.533424PLM040	PLM040
	1073	7799021037395		1	1	75207485	2013-01-09 13:51:20	1:51:20 PM	752074851359500.533424PLM040	PLM040
	1073	7799021037395		1	1	75207485	2013-01-09 13:51:28	1:51:28 PM	752074851359500.533424PLM040	PLM040
	1073	7799021037395		1	1	75207485	2013-01-09 13:51:33	1:51:33 PM	752074851359500.533424PLM040	PLM040
	1073	7799021037395		1	1	75207485	2013-01-09 13:51:49	1:51:49 PM	752074851359500.533424PLM040	PLM040
	1073	7799021037395		1	1	75207485	2013-01-09 13:51:53	1:51:53 PM	752074851359500.533424PLM040	PLM040
	1073	7799021037395		1	1	75207485	2013-01-09 13:51:57	1:51:57 PM	752074851359500.533424PLM040	PLM040
	1073	7799021037395		1	1	75207485	2013-01-09 13:52:03	1:52:03 PM	752074851359500.533424PLM040	PLM040
	1073	7799021037395		1	1	75207485	2013-01-09 13:52:11	1:52:11 PM	752074851359500.533424PLM040	PLM040
	1073	7799021037395		1	1	75207485	2013-01-09 13:52:14	1:52:14 PM	752074851359500.533424PLM040	PLM040
	1073	7799021037395		1	1	75207485	2013-01-09 13:52:27	1:52:27 PM	752074851359500.533424PLM040	PLM040
	1073	7799021037395		1	1	75207485	2013-01-09 13:52:33	1:52:33 PM	752074851359500.533424PLM040	PLM040
	1073	7799021037395		1	1	75207485	2013-01-09 13:52:42	1:52:42 PM	752074851359500.533424PLM040	PLM040
	1073	7799021037395		1	1	75207485	2013-01-09 13:52:50	1:52:50 PM	752074851359500.533424PLM040	PLM040
	1073	7799021037395		1	1	75207485	2013-01-09 13:52:55	1:52:55 PM	752074851359500.533424PLM040	PLM040
	1073	7799021037395		1	1	75207485	2013-01-09 13:53:03	1:53:03 PM	752074851359500.533424PLM040	PLM040
	1073	7799021037395		1	1	75207485	2013-01-09 13:53:11	1:53:11 PM	752074851359500.533424PLM040	PLM040
	1073	7799021037395		1	1	75207485	2013-01-09 13:53:16	1:53:16 PM	752074851359500.533424PLM040	PLM040
	1073	7799021037395		1	1	75207485	2013-01-09 13:53:46	1:53:46 PM	752074851359500.533424PLM040	PLM040
	1073	7799021037395		1	1	75207485	2013-01-09 13:53:57	1:53:57 PM	752074851359500.533424PLM040	PLM040
	1073	7799021037395		1	1	75207485	2013-01-09 13:54:04	1:54:04 PM	752074851359500.533424PLM040	PLM040
	1073	7799021037395		1	1	75207485	2013-01-09 13:54:17	1:54:17 PM	752074851359500.533424PLM040	PLM040
	1073	7799021037395		1	1	75207485	2013-01-09 13:54:27	1:54:27 PM	752074851359500.533424PLM040	PLM040
	1073	7799021037395		1	1	75207485	2013-01-09 13:54:33	1:54:33 PM	752074851359500.533424PLM040	PLM040
	1073	7799021037395		1	1	75207485	2013-01-09 13:54:40	1:54:40 PM	752074851359500.533424PLM040	PLM040
	1073	7799021037395		1	1	75207485	2013-01-09 13:54:52	1:54:52 PM	752074851359500.533424PLM040	PLM040
	1073	7799021037395		1	1	75207485	2013-01-09 13:54:55	1:54:55 PM	752074851359500.533424PLM040	PLM040
	1073	7799021037395		1	1	75207485	2013-01-09 13:54:58	1:54:58 PM	752074851359500.533424PLM040	PLM040
	1073	7799021037395		1	1	75207485	2013-01-09 13:55:00	1:55:00 PM	752074851359500.533424PLM040	PLM040
	1073	7799021037395		1	1	75207485	2013-01-09 13:55:04	1:55:04 PM	752074851359500.533424PLM040	PLM040
	1073	7799021037395		1	1	75207485	2013-01-09 13:55:11	1:55:11 PM	752074851359500.533424PLM040	PLM040
	1073	7799021037395		1	1	75207485	2013-01-09 13:55:22	1:55:22 PM	752074851359500.533424PLM040	PLM040
	1073	7799021037395		1	1	75207485	2013-01-09 13:55:29	1:55:29 PM	752074851359500.533424PLM040	PLM040
	1073	7799021037395		1	1	75207485	2013-01-09 13:55:36	1:55:36 PM	752074851359500.533424PLM040	PLM040
	1073	7799021037395		1	1	75207485	2013-01-09 13:55:41	1:55:41 PM	752074851359500.533424PLM040	PLM040
	1073	7799021037395		1	1	75207485	2013-01-09 13:55:44	1:55:44 PM	752074851359500.533424PLM040	PLM040
	1073	7799021037395		1	1	75207485	2013-01-09 13:55:50	1:55:50 PM	752074851359500.533424PLM040	PLM040
	1073	7799021037395		1	1	75207485	2013-01-09 13:55:52	1:55:52 PM	752074851359500.533424PLM040	PLM040
	1073	7799008967097		1	1	75207485	2013-01-09 13:55:59	1:55:59 PM	752074851359500.533424PLM040	PLM040
	1073	7799021037395		1	1	75207485	2013-01-09 13:56:29	1:56:29 PM	752074851359500.533424PLM040	PLM040
	1073	7799021037395		1	1	75207485	2013-01-09 13:56:34	1:56:34 PM	752074851359500.533424PLM040	PLM040
	1073	7799021037395		1	1	75207485	2013-01-09 13:56:37	1:56:37 PM	752074851359500.533424PLM040	PLM040
	1073	7799021037395		1	1	75207485	2013-01-09 13:56:45	1:56:45 PM	752074851359500.533424PLM040	PLM040
	1073	7799021037395		1	1	75207485	2013-01-09 13:56:52	1:56:52 PM	752074851359500.533424PLM040	PLM040
	1073	7799021037395		1	1	75207485	2013-01-09 13:56:59	1:56:59 PM	752074851359500.533424PLM040	PLM040
	1073	7799021037395		1	1	75207485	2013-01-09 13:57:04	1:57:04 PM	752074851359500.533424PLM040	PLM040
	1073	7799008967097		1	1	75207485	2013-01-09 13:57:07	1:57:07 PM	752074851359500.533424PLM040	PLM040
	1073	7799021037395		1	1	75207485	2013-01-09 13:57:15	1:57:15 PM	752074851359500.533424PLM040	PLM040
	1073	7799008967097		1	1	75207485	2013-01-09 13:57:57	1:57:57 PM	752074851359500.533424PLM040	PLM040
