	5182	7799008986043		8	2	75207485	2013-01-10 20:16:32	8:16 PM	752074852232220.3735362PLM036	PLM036
	5183	7799008986043		15	2	75207485	2013-01-10 20:17:32	8:17 PM	752074852232220.3735362PLM036	PLM036
	5185	7799008986043		24	2	75207485	2013-01-10 20:18:51	8:18 PM	752074852232220.3735362PLM036	PLM036
	5183	7799008986043		8	2	75207485	2013-01-10 20:19:40	8:19 PM	752074852232220.3735362PLM036	PLM036
	5197	7799008986111		12	2	75207485	2013-01-10 20:20:19	8:20 PM	752074852232220.3735362PLM036	PLM036
	5198	7799008986111		12	2	75207485	2013-01-10 20:21:19	8:21 PM	752074852232220.3735362PLM036	PLM036
	5202	7799008986111		12	2	75207485	2013-01-10 20:22:28	8:22 PM	752074852232220.3735362PLM036	PLM036
	5201	7799008986111		12	2	75207485	2013-01-10 20:23:11	8:23 PM	752074852232220.3735362PLM036	PLM036
	5199	7799008986111		12	2	75207485	2013-01-10 20:24:38	8:24 PM	752074852232220.3735362PLM036	PLM036
	5200	7799008986111		12	2	75207485	2013-01-10 20:25:07	8:25 PM	752074852232220.3735362PLM036	PLM036
	5203	7799008986043		8	2	75207485	2013-01-10 20:26:05	8:26 PM	752074852232220.3735362PLM036	PLM036
	5204	7799008986111		12	2	75207485	2013-01-10 20:26:53	8:26 PM	752074852232220.3735362PLM036	PLM036
	5205	7799021048155		24	2	75207485	2013-01-10 20:28:21	8:28 PM	752074852232220.3735362PLM036	PLM036
	6143	7799021083552		30	2	75207485	2013-01-10 20:38:26	8:38 PM	752074852232220.3735362PLM036	PLM036
	6143	7799021083552		30	2	75207485	2013-01-10 20:40:32	8:40 PM	752074852232220.3735362PLM036	PLM036
	6143	7799021083552		41	2	75207485	2013-01-10 20:41:37	8:41 PM	752074852232220.3735362PLM036	PLM036
	6143	7799021083545		35	2	75207485	2013-01-10 20:43:06	8:43 PM	752074852232220.3735362PLM036	PLM036
	6143	7799021083569		50	2	75207485	2013-01-10 20:45:22	8:45 PM	752074852232220.3735362PLM036	PLM036
	6143	7799021083569		52	2	75207485	2013-01-10 20:46:49	8:46 PM	752074852232220.3735362PLM036	PLM036
	6144	7799021084337		30	2	75207485	2013-01-10 20:49:55	8:49 PM	752074852232220.3735362PLM036	PLM036
	6144	7799021084337		29	2	75207485	2013-01-10 20:50:49	8:50 PM	752074852232220.3735362PLM036	PLM036
	6144	7799021084085		59	2	75207485	2013-01-10 20:54:38	8:54 PM	752074852232220.3735362PLM036	PLM036
	6144	7799021084153		35	2	75207485	2013-01-10 20:56:55	8:56 PM	752074852232220.3735362PLM036	PLM036
	6151	7799008604954		102	2	75207485	2013-01-10 21:02:07	9:02 PM	752074852232220.3735362PLM036	PLM036
	6151	7799008397191		131	2	75207485	2013-01-10 21:04:53	9:04 PM	752074852232220.3735362PLM036	PLM036
	6151	7799008604947		103	2	75207485	2013-01-10 21:07:44	9:07 PM	752074852232220.3735362PLM036	PLM036
	6170	7799008212715		80	2	75207485	2013-01-10 21:13:42	9:13 PM	752074852232220.3735362PLM036	PLM036
	6170	7799008212715		80	2	75207485	2013-01-10 21:16:32	9:16 PM	752074852232220.3735362PLM036	PLM036
	6170	7799008212715		80	2	75207485	2013-01-10 21:18:46	9:18 PM	752074852232220.3735362PLM036	PLM036
	6170	7799008212715		60	2	75207485	2013-01-10 21:20:50	9:20 PM	752074852232220.3735362PLM036	PLM036
	6170	7799008212715		60	2	75207485	2013-01-10 21:22:46	9:22 PM	752074852232220.3735362PLM036	PLM036
	6170	7799008212715		121	2	75207485	2013-01-10 21:26:40	9:26 PM	752074852232220.3735362PLM036	PLM036
	6154	7799021084108		130	2	75207485	2013-01-10 21:33:01	9:33 PM	752074852232220.3735362PLM036	PLM036
	6153	7799021087055		20	2	75207485	2013-01-10 21:38:24	9:38 PM	752074852232220.3735362PLM036	PLM036
	6153	7799021087055		20	2	75207485	2013-01-10 21:38:55	9:38 PM	752074852232220.3735362PLM036	PLM036
	6153	7799021087055		110	2	75207485	2013-01-10 21:40:36	9:40 PM	752074852232220.3735362PLM036	PLM036
	6156	7799021084443		110	2	75207485	2013-01-10 21:48:23	9:48 PM	752074852232220.3735362PLM036	PLM036
	6156	7799021070842		69	2	75207485	2013-01-10 21:52:21	9:52 PM	752074852232220.3735362PLM036	PLM036
	6224	7799021084146		35	2	75207485	2013-01-10 21:57:35	9:57 PM	752074852232220.3735362PLM036	PLM036
	6160	7799021084382		100	2	75207485	2013-01-10 22:02:19	10:02 PM	752074852232220.3735362PLM036	PLM036
	6160	7799021084382		50	2	75207485	2013-01-10 22:03:51	10:03 PM	752074852232220.3735362PLM036	PLM036
	6160	7799021084382		87	2	75207485	2013-01-10 22:06:25	10:06 PM	752074852232220.3735362PLM036	PLM036
	6160	7799021084108		38	2	75207485	2013-01-10 22:07:33	10:07 PM	752074852232220.3735362PLM036	PLM036
	6161	7799021086508		79	2	75207485	2013-01-10 22:13:27	10:13 PM	752074852232220.3735362PLM036	PLM036
	6161	7799021086621		99	2	75207485	2013-01-10 22:17:42	10:17 PM	752074852232220.3735362PLM036	PLM036
	6148	7799021083132		59	2	75207485	2013-01-10 22:26:19	10:26 PM	752074852232220.3735362PLM036	PLM036
	6148	7799021083125		102	2	75207485	2013-01-10 22:28:02	10:28 PM	752074852232220.3735362PLM036	PLM036
	6148	7799021083118		29	2	75207485	2013-01-10 22:29:02	10:29 PM	752074852232220.3735362PLM036	PLM036
