	4990	7799008981536		192	2	75207485	2013-01-10 22:39:10	10:39 PM	7520748503090.05623686PLM036	PLM036
	4987	7799008942643		24	2	75207485	2013-01-10 22:44:09	10:44 PM	7520748503090.05623686PLM036	PLM036
	4987	7799008942643		25	2	75207485	2013-01-10 22:46:39	10:46 PM	7520748503090.05623686PLM036	PLM036
	4989	7799008957920		97	2	75207485	2013-01-10 22:54:37	10:54 PM	7520748503090.05623686PLM036	PLM036
	4988	7799008957227		50	2	75207485	2013-01-10 23:00:18	11:00 PM	7520748503090.05623686PLM036	PLM036
	4988	7799008957227		50	2	75207485	2013-01-10 23:03:04	11:03 PM	7520748503090.05623686PLM036	PLM036
	4988	7799008957227		50	2	75207485	2013-01-10 23:06:20	11:06 PM	7520748503090.05623686PLM036	PLM036
	4988	7799008957227		50	2	75207485	2013-01-10 23:07:59	11:07 PM	7520748503090.05623686PLM036	PLM036
	4988	7799008957227		50	2	75207485	2013-01-10 23:09:57	11:09 PM	7520748503090.05623686PLM036	PLM036
	4984	7799008942643		23	2	75207485	2013-01-10 23:20:32	11:20 PM	7520748503090.05623686PLM036	PLM036
	4984	7799008942643		27	2	75207485	2013-01-10 23:24:19	11:24 PM	7520748503090.05623686PLM036	PLM036
	4986	7799008978284		21	2	75207485	2013-01-10 23:28:50	11:28 PM	7520748503090.05623686PLM036	PLM036
	4986	7799008978284		20	2	75207485	2013-01-10 23:29:49	11:29 PM	7520748503090.05623686PLM036	PLM036
	5000	7799008104416		300	2	75207485	2013-01-10 23:38:56	11:38 PM	7520748503090.05623686PLM036	PLM036
	5000	7799008104416		101	2	75207485	2013-01-10 23:40:07	11:40 PM	7520748503090.05623686PLM036	PLM036
	5000	7799008104416		3	2	75207485	2013-01-10 23:41:28	11:41 PM	7520748503090.05623686PLM036	PLM036
	5997	7791750338583		240	2	75207485	2013-01-10 23:47:42	11:47 PM	7520748503090.05623686PLM036	PLM036
	5997	7791750338583		260	2	75207485	2013-01-10 23:51:12	11:51 PM	7520748503090.05623686PLM036	PLM036
	5996	7799008998114		60	2	75207485	2013-01-10 23:55:20	11:55 PM	7520748503090.05623686PLM036	PLM036
	4985	7799008957937		100	2	75207485	2013-01-11 00:07:49	12:07 AM	7520748503090.05623686PLM036	PLM036
	4985	7799008957937		100	2	75207485	2013-01-11 00:12:19	12:12 AM	7520748503090.05623686PLM036	PLM036
