	7109	7799008720517		1	1	75608166	2013-01-10 13:40:05	1:40:05 PM	756081661351590.01401764PLM040	PLM040
	7109	7799008720081		1	1	75608166	2013-01-10 13:40:07	1:40:07 PM	756081661351590.01401764PLM040	PLM040
	7109	7799008720838		1	1	75608166	2013-01-10 13:40:09	1:40:09 PM	756081661351590.01401764PLM040	PLM040
	7109	7799008242590		1	1	75608166	2013-01-10 13:40:11	1:40:11 PM	756081661351590.01401764PLM040	PLM040
	7109	7799008720081		1	1	75608166	2013-01-10 13:40:13	1:40:13 PM	756081661351590.01401764PLM040	PLM040
	7109	7799008913131		1	1	75608166	2013-01-10 13:40:15	1:40:15 PM	756081661351590.01401764PLM040	PLM040
	7109	7799008720302		1	1	75608166	2013-01-10 13:40:19	1:40:19 PM	756081661351590.01401764PLM040	PLM040
	7109	7799008718866		1	1	75608166	2013-01-10 13:40:21	1:40:21 PM	756081661351590.01401764PLM040	PLM040
	7109	7799008720524		1	1	75608166	2013-01-10 13:40:29	1:40:29 PM	756081661351590.01401764PLM040	PLM040
	7109	7799008720524		1	1	75608166	2013-01-10 13:40:31	1:40:31 PM	756081661351590.01401764PLM040	PLM040
	7109	7799008720302		1	1	75608166	2013-01-10 13:40:34	1:40:34 PM	756081661351590.01401764PLM040	PLM040
	7109	7799008720302		1	1	75608166	2013-01-10 13:40:36	1:40:36 PM	756081661351590.01401764PLM040	PLM040
	7109	7799008720524		1	1	75608166	2013-01-10 13:40:39	1:40:39 PM	756081661351590.01401764PLM040	PLM040
	7109	7799008720524		1	1	75608166	2013-01-10 13:40:43	1:40:43 PM	756081661351590.01401764PLM040	PLM040
	7109	7799008718903		1	1	75608166	2013-01-10 13:40:50	1:40:50 PM	756081661351590.01401764PLM040	PLM040
	7109	7799008720517		1	1	75608166	2013-01-10 13:40:52	1:40:52 PM	756081661351590.01401764PLM040	PLM040
	7109	7799008719511		1	1	75608166	2013-01-10 13:40:55	1:40:55 PM	756081661351590.01401764PLM040	PLM040
	7109	7799008744148		1	1	75608166	2013-01-10 13:41:01	1:41:01 PM	756081661351590.01401764PLM040	PLM040
	7109	7799008688343		1	1	75608166	2013-01-10 13:41:03	1:41:03 PM	756081661351590.01401764PLM040	PLM040
	7109	7799008744148		1	1	75608166	2013-01-10 13:41:08	1:41:08 PM	756081661351590.01401764PLM040	PLM040
	7109	7799008680392		1	1	75608166	2013-01-10 13:41:12	1:41:12 PM	756081661351590.01401764PLM040	PLM040
	7109	7799008913155		1	1	75608166	2013-01-10 13:41:15	1:41:15 PM	756081661351590.01401764PLM040	PLM040
	7109	7799008720524		1	1	75608166	2013-01-10 13:41:17	1:41:17 PM	756081661351590.01401764PLM040	PLM040
	7109	7799008680477		1	1	75608166	2013-01-10 13:41:20	1:41:20 PM	756081661351590.01401764PLM040	PLM040
	7109	7799008744148		1	1	75608166	2013-01-10 13:41:23	1:41:23 PM	756081661351590.01401764PLM040	PLM040
	7109	7799008824253		1	1	75608166	2013-01-10 13:41:29	1:41:29 PM	756081661351590.01401764PLM040	PLM040
	7109	7799008824253		1	1	75608166	2013-01-10 13:41:32	1:41:32 PM	756081661351590.01401764PLM040	PLM040
	7109	7799008718156		1	1	75608166	2013-01-10 13:41:34	1:41:34 PM	756081661351590.01401764PLM040	PLM040
	7109	7799008718156		1	1	75608166	2013-01-10 13:41:39	1:41:39 PM	756081661351590.01401764PLM040	PLM040
	7109	7799008720074		1	1	75608166	2013-01-10 13:41:42	1:41:42 PM	756081661351590.01401764PLM040	PLM040
	7109	7799008718156		1	1	75608166	2013-01-10 13:41:55	1:41:55 PM	756081661351590.01401764PLM040	PLM040
	7109	7799008720302		1	1	75608166	2013-01-10 13:42:00	1:42:00 PM	756081661351590.01401764PLM040	PLM040
	7109	7799008824253		1	1	75608166	2013-01-10 13:42:04	1:42:04 PM	756081661351590.01401764PLM040	PLM040
	7109	7799008719511		1	1	75608166	2013-01-10 13:42:07	1:42:07 PM	756081661351590.01401764PLM040	PLM040
	7109	7799008601182		1	1	75608166	2013-01-10 13:42:11	1:42:11 PM	756081661351590.01401764PLM040	PLM040
	7109	7799008913094		1	1	75608166	2013-01-10 13:42:16	1:42:16 PM	756081661351590.01401764PLM040	PLM040
	7109	7799008375410		1	1	75608166	2013-01-10 13:42:19	1:42:19 PM	756081661351590.01401764PLM040	PLM040
	7109	7799008718156		1	1	75608166	2013-01-10 13:42:21	1:42:21 PM	756081661351590.01401764PLM040	PLM040
	7109	7799008581002		1	1	75608166	2013-01-10 13:42:25	1:42:25 PM	756081661351590.01401764PLM040	PLM040
	7109	7799008581002		1	1	75608166	2013-01-10 13:42:32	1:42:32 PM	756081661351590.01401764PLM040	PLM040
	7109	7799008593951		1	1	75608166	2013-01-10 13:42:34	1:42:34 PM	756081661351590.01401764PLM040	PLM040
	7109	7799008593951		1	1	75608166	2013-01-10 13:42:38	1:42:38 PM	756081661351590.01401764PLM040	PLM040
	7109	7799008593951		1	1	75608166	2013-01-10 13:42:40	1:42:40 PM	756081661351590.01401764PLM040	PLM040
	7109	7799008593951		1	1	75608166	2013-01-10 13:42:45	1:42:45 PM	756081661351590.01401764PLM040	PLM040
	7109	7799008593951		1	1	75608166	2013-01-10 13:42:47	1:42:47 PM	756081661351590.01401764PLM040	PLM040
	7109	7799008593951		1	1	75608166	2013-01-10 13:42:50	1:42:50 PM	756081661351590.01401764PLM040	PLM040
	7109	7799008593951		1	1	75608166	2013-01-10 13:42:52	1:42:52 PM	756081661351590.01401764PLM040	PLM040
	7109	7799008913155		1	1	75608166	2013-01-10 13:42:55	1:42:55 PM	756081661351590.01401764PLM040	PLM040
	7109	7799008720524		1	1	75608166	2013-01-10 13:42:57	1:42:57 PM	756081661351590.01401764PLM040	PLM040
	7109	7799008719511		1	1	75608166	2013-01-10 13:43:00	1:43:00 PM	756081661351590.01401764PLM040	PLM040
	7109	7799008720524		1	1	75608166	2013-01-10 13:43:04	1:43:04 PM	756081661351590.01401764PLM040	PLM040
	7109	7799008680392		1	1	75608166	2013-01-10 13:43:12	1:43:12 PM	756081661351590.01401764PLM040	PLM040
	7109	7799008688381		1	1	75608166	2013-01-10 13:43:15	1:43:15 PM	756081661351590.01401764PLM040	PLM040
	7109	7799008680392		1	1	75608166	2013-01-10 13:43:21	1:43:21 PM	756081661351590.01401764PLM040	PLM040
	7109	7799008680392		1	1	75608166	2013-01-10 13:43:23	1:43:23 PM	756081661351590.01401764PLM040	PLM040
	7109	7799008680392		1	1	75608166	2013-01-10 13:43:25	1:43:25 PM	756081661351590.01401764PLM040	PLM040
	7109	7799008680460		1	1	75608166	2013-01-10 13:43:28	1:43:28 PM	756081661351590.01401764PLM040	PLM040
	7109	7799008680460		1	1	75608166	2013-01-10 13:43:30	1:43:30 PM	756081661351590.01401764PLM040	PLM040
	7109	7799008680460		1	1	75608166	2013-01-10 13:43:33	1:43:33 PM	756081661351590.01401764PLM040	PLM040
	7109	7799008680460		1	1	75608166	2013-01-10 13:43:35	1:43:35 PM	756081661351590.01401764PLM040	PLM040
	7109	7799008680477		1	1	75608166	2013-01-10 13:43:44	1:43:44 PM	756081661351590.01401764PLM040	PLM040
	7109	7799008680477		1	1	75608166	2013-01-10 13:43:46	1:43:46 PM	756081661351590.01401764PLM040	PLM040
	7109	7799008680477		1	1	75608166	2013-01-10 13:43:48	1:43:48 PM	756081661351590.01401764PLM040	PLM040
	7109	7799008680392		1	1	75608166	2013-01-10 13:43:57	1:43:57 PM	756081661351590.01401764PLM040	PLM040
	7109	7799008719511		1	1	75608166	2013-01-10 13:43:59	1:43:59 PM	756081661351590.01401764PLM040	PLM040
	7109	7799008688343		1	1	75608166	2013-01-10 13:44:02	1:44:02 PM	756081661351590.01401764PLM040	PLM040
	7109	7799008759821		1	1	75608166	2013-01-10 13:44:07	1:44:07 PM	756081661351590.01401764PLM040	PLM040
	7109	7799008680477		1	1	75608166	2013-01-10 13:44:09	1:44:09 PM	756081661351590.01401764PLM040	PLM040
	7109	7799008824291		1	1	75608166	2013-01-10 13:44:12	1:44:12 PM	756081661351590.01401764PLM040	PLM040
	7109	7799008720081		1	1	75608166	2013-01-10 13:44:19	1:44:19 PM	756081661351590.01401764PLM040	PLM040
	7109	7799008720838		1	1	75608166	2013-01-10 13:44:22	1:44:22 PM	756081661351590.01401764PLM040	PLM040
	7109	7799008913131		1	1	75608166	2013-01-10 13:44:29	1:44:29 PM	756081661351590.01401764PLM040	PLM040
	7109	7799008580944		1	1	75608166	2013-01-10 13:44:35	1:44:35 PM	756081661351590.01401764PLM040	PLM040
	7109	7799008913131		1	1	75608166	2013-01-10 13:44:40	1:44:40 PM	756081661351590.01401764PLM040	PLM040
	7109	7799008913131		1	1	75608166	2013-01-10 13:44:43	1:44:43 PM	756081661351590.01401764PLM040	PLM040
	7109	7799008913155		1	1	75608166	2013-01-10 13:44:45	1:44:45 PM	756081661351590.01401764PLM040	PLM040
	7109	7799008720623		1	1	75608166	2013-01-10 13:44:49	1:44:49 PM	756081661351590.01401764PLM040	PLM040
	7109	7799008720081		1	1	75608166	2013-01-10 13:44:52	1:44:52 PM	756081661351590.01401764PLM040	PLM040
	7109	7799008913155		1	1	75608166	2013-01-10 13:44:56	1:44:56 PM	756081661351590.01401764PLM040	PLM040
	7109	7799008913155		1	1	75608166	2013-01-10 13:44:59	1:44:59 PM	756081661351590.01401764PLM040	PLM040
	7109	7799008913155		1	1	75608166	2013-01-10 13:45:01	1:45:01 PM	756081661351590.01401764PLM040	PLM040
	7109	7799008805887		1	1	75608166	2013-01-10 13:45:05	1:45:05 PM	756081661351590.01401764PLM040	PLM040
	7109	7799008242590		1	1	75608166	2013-01-10 13:45:08	1:45:08 PM	756081661351590.01401764PLM040	PLM040
	7109	7799008719511		1	1	75608166	2013-01-10 13:45:11	1:45:11 PM	756081661351590.01401764PLM040	PLM040
	7109	7799008913155		1	1	75608166	2013-01-10 13:45:22	1:45:22 PM	756081661351590.01401764PLM040	PLM040
	7109	7799008913131		1	1	75608166	2013-01-10 13:45:24	1:45:24 PM	756081661351590.01401764PLM040	PLM040
	7109	7799008913131		1	1	75608166	2013-01-10 13:45:26	1:45:26 PM	756081661351590.01401764PLM040	PLM040
	7109	7799008688343		1	1	75608166	2013-01-10 13:45:29	1:45:29 PM	756081661351590.01401764PLM040	PLM040
	7109	7799008680392		1	1	75608166	2013-01-10 13:45:33	1:45:33 PM	756081661351590.01401764PLM040	PLM040
	7109	7799008913131		1	1	75608166	2013-01-10 13:45:35	1:45:35 PM	756081661351590.01401764PLM040	PLM040
	7109	7799008913131		1	1	75608166	2013-01-10 13:45:38	1:45:38 PM	756081661351590.01401764PLM040	PLM040
	7109	7799008824291		1	1	75608166	2013-01-10 13:45:41	1:45:41 PM	756081661351590.01401764PLM040	PLM040
	7109	7799008824291		1	1	75608166	2013-01-10 13:45:48	1:45:48 PM	756081661351590.01401764PLM040	PLM040
	7109	7799008913131		1	1	75608166	2013-01-10 13:45:50	1:45:50 PM	756081661351590.01401764PLM040	PLM040
	7109	7799008775746		1	1	75608166	2013-01-10 13:45:54	1:45:54 PM	756081661351590.01401764PLM040	PLM040
	7109	7799008824291		1	1	75608166	2013-01-10 13:45:57	1:45:57 PM	756081661351590.01401764PLM040	PLM040
	7109	7799008824291		1	1	75608166	2013-01-10 13:46:00	1:46:00 PM	756081661351590.01401764PLM040	PLM040
	7109	7799008824291		1	1	75608166	2013-01-10 13:46:02	1:46:02 PM	756081661351590.01401764PLM040	PLM040
	7109	7799008913131		1	1	75608166	2013-01-10 13:46:08	1:46:08 PM	756081661351590.01401764PLM040	PLM040
	7109	7799008718903		1	1	75608166	2013-01-10 13:46:10	1:46:10 PM	756081661351590.01401764PLM040	PLM040
	7109	7799008720296		1	1	75608166	2013-01-10 13:46:15	1:46:15 PM	756081661351590.01401764PLM040	PLM040
	7109	7799008913131		1	1	75608166	2013-01-10 13:46:19	1:46:19 PM	756081661351590.01401764PLM040	PLM040
	7109	7799008720296		1	1	75608166	2013-01-10 13:46:23	1:46:23 PM	756081661351590.01401764PLM040	PLM040
	7109	7799008720296		1	1	75608166	2013-01-10 13:46:26	1:46:26 PM	756081661351590.01401764PLM040	PLM040
	7109	7799008720517		1	1	75608166	2013-01-10 13:46:30	1:46:30 PM	756081661351590.01401764PLM040	PLM040
	7109	7799008720296		1	1	75608166	2013-01-10 13:46:33	1:46:33 PM	756081661351590.01401764PLM040	PLM040
	7109	7799008913155		1	1	75608166	2013-01-10 13:46:37	1:46:37 PM	756081661351590.01401764PLM040	PLM040
	7109	7799008913094		1	1	75608166	2013-01-10 13:46:40	1:46:40 PM	756081661351590.01401764PLM040	PLM040
	7109	7799008720838		1	1	75608166	2013-01-10 13:46:45	1:46:45 PM	756081661351590.01401764PLM040	PLM040
	7109	7799008720517		1	1	75608166	2013-01-10 13:46:52	1:46:52 PM	756081661351590.01401764PLM040	PLM040
	7109	7799008688343		1	1	75608166	2013-01-10 13:46:58	1:46:58 PM	756081661351590.01401764PLM040	PLM040
	7109	7799008688343		1	1	75608166	2013-01-10 13:47:01	1:47:01 PM	756081661351590.01401764PLM040	PLM040
	7109	7799008680460		1	1	75608166	2013-01-10 13:47:07	1:47:07 PM	756081661351590.01401764PLM040	PLM040
	7109	7799008720296		1	1	75608166	2013-01-10 13:47:35	1:47:35 PM	756081661351590.01401764PLM040	PLM040
