	0934	7799008917467		1	1	77211738	2019-01-04 12:16:28	12:16:28 PM	772117381335230.04535276PLM069	PLM069
	0934	7799008917467		1	1	77211738	2019-01-04 12:22:13	12:22:13 PM	772117381335230.04535276PLM069	PLM069
	0934	7799008917467		1	1	77211738	2019-01-04 12:22:16	12:22:16 PM	772117381335230.04535276PLM069	PLM069
	0934	7799008917467		1	1	77211738	2019-01-04 12:22:27	12:22:27 PM	772117381335230.04535276PLM069	PLM069
	0934	7799008917467		1	1	77211738	2019-01-04 12:22:45	12:22:45 PM	772117381335230.04535276PLM069	PLM069
	0934	7799008917467		1	1	77211738	2019-01-04 12:22:56	12:22:56 PM	772117381335230.04535276PLM069	PLM069
	0934	7799008917467		1	1	77211738	2019-01-04 12:23:13	12:23:13 PM	772117381335230.04535276PLM069	PLM069
	0934	7799008917467		1	1	77211738	2019-01-04 12:23:23	12:23:23 PM	772117381335230.04535276PLM069	PLM069
	0934	7799008917467		1	1	77211738	2019-01-04 12:23:23	12:23:23 PM	772117381335230.04535276PLM069	PLM069
	0934	7799008917467		1	1	77211738	2019-01-04 12:23:40	12:23:40 PM	772117381335230.04535276PLM069	PLM069
	0934	7799008917467		1	1	77211738	2019-01-04 12:23:42	12:23:42 PM	772117381335230.04535276PLM069	PLM069
	0934	7799008917467		1	1	77211738	2019-01-04 12:24:00	12:24:00 PM	772117381335230.04535276PLM069	PLM069
	0934	7799008917467		1	1	77211738	2019-01-04 12:24:07	12:24:07 PM	772117381335230.04535276PLM069	PLM069
	0934	7799008917467		1	1	77211738	2019-01-04 12:24:25	12:24:25 PM	772117381335230.04535276PLM069	PLM069
	0934	7799008917467		1	1	77211738	2019-01-04 12:24:26	12:24:26 PM	772117381335230.04535276PLM069	PLM069
	0934	7799008917467		1	1	77211738	2019-01-04 12:25:35	12:25:35 PM	772117381335230.04535276PLM069	PLM069
	0934	7799008917467		1	1	77211738	2019-01-04 12:25:38	12:25:38 PM	772117381335230.04535276PLM069	PLM069
	0934	7799008917467		1	1	77211738	2019-01-04 12:25:38	12:25:38 PM	772117381335230.04535276PLM069	PLM069
	0934	7799008917467		1	1	77211738	2019-01-04 12:25:42	12:25:42 PM	772117381335230.04535276PLM069	PLM069
	0934	7799008917467		1	1	77211738	2019-01-04 12:25:44	12:25:44 PM	772117381335230.04535276PLM069	PLM069
	0934	7799008917467		1	1	77211738	2019-01-04 12:25:46	12:25:46 PM	772117381335230.04535276PLM069	PLM069
	0934	7799008917467		1	1	77211738	2019-01-04 12:25:50	12:25:50 PM	772117381335230.04535276PLM069	PLM069
	0934	7799008917467		1	1	77211738	2019-01-04 12:25:53	12:25:53 PM	772117381335230.04535276PLM069	PLM069
	0934	7799008917467		1	1	77211738	2019-01-04 12:25:58	12:25:58 PM	772117381335230.04535276PLM069	PLM069
	0934	7799008917467		1	1	77211738	2019-01-04 12:28:15	12:28:15 PM	772117381335230.04535276PLM069	PLM069
	0934	7799008917467		1	1	77211738	2019-01-04 12:28:16	12:28:16 PM	772117381335230.04535276PLM069	PLM069
	0934	7799008917467		1	1	77211738	2019-01-04 12:28:18	12:28:18 PM	772117381335230.04535276PLM069	PLM069
	0934	7799008917467		1	1	77211738	2019-01-04 12:28:22	12:28:22 PM	772117381335230.04535276PLM069	PLM069
	0934	7799008917467		1	1	77211738	2019-01-04 12:28:27	12:28:27 PM	772117381335230.04535276PLM069	PLM069
	0934	7799008917467		1	1	77211738	2019-01-04 12:28:28	12:28:28 PM	772117381335230.04535276PLM069	PLM069
	0934	7799008917467		1	1	77211738	2019-01-04 12:28:33	12:28:33 PM	772117381335230.04535276PLM069	PLM069
	0934	7799008917467		1	1	77211738	2019-01-04 12:28:36	12:28:36 PM	772117381335230.04535276PLM069	PLM069
	0934	7799008917467		1	1	77211738	2019-01-04 12:28:37	12:28:37 PM	772117381335230.04535276PLM069	PLM069
	0934	7799008917467		1	1	77211738	2019-01-04 12:28:43	12:28:43 PM	772117381335230.04535276PLM069	PLM069
	0934	7799008917467		1	1	77211738	2019-01-04 12:28:46	12:28:46 PM	772117381335230.04535276PLM069	PLM069
	0934	7799008917467		1	1	77211738	2019-01-04 12:28:47	12:28:47 PM	772117381335230.04535276PLM069	PLM069
	0934	7799008917467		1	1	77211738	2019-01-04 12:28:56	12:28:56 PM	772117381335230.04535276PLM069	PLM069
	0934	7799008917467		1	1	77211738	2019-01-04 12:28:58	12:28:58 PM	772117381335230.04535276PLM069	PLM069
	0934	7799008917467		1	1	77211738	2019-01-04 12:29:00	12:29:00 PM	772117381335230.04535276PLM069	PLM069
	0934	7799008917467		1	1	77211738	2019-01-04 12:29:06	12:29:06 PM	772117381335230.04535276PLM069	PLM069
	0934	7799008917467		1	1	77211738	2019-01-04 12:29:08	12:29:08 PM	772117381335230.04535276PLM069	PLM069
	0934	7799008917467		1	1	77211738	2019-01-04 12:29:10	12:29:10 PM	772117381335230.04535276PLM069	PLM069
	0934	7799008917467		1	1	77211738	2019-01-04 12:29:17	12:29:17 PM	772117381335230.04535276PLM069	PLM069
	0934	7799008917467		1	1	77211738	2019-01-04 12:29:18	12:29:18 PM	772117381335230.04535276PLM069	PLM069
	0934	7799008917467		1	1	77211738	2019-01-04 12:29:21	12:29:21 PM	772117381335230.04535276PLM069	PLM069
	0934	7799008917467		1	1	77211738	2019-01-04 12:29:29	12:29:29 PM	772117381335230.04535276PLM069	PLM069
	0934	7799008917467		1	1	77211738	2019-01-04 12:29:35	12:29:35 PM	772117381335230.04535276PLM069	PLM069
	0934	7799008917467		1	1	77211738	2019-01-04 12:29:39	12:29:39 PM	772117381335230.04535276PLM069	PLM069
	0934	7799008917467		1	1	77211738	2019-01-04 12:29:43	12:29:43 PM	772117381335230.04535276PLM069	PLM069
	0934	7799008917467		1	1	77211738	2019-01-04 12:29:46	12:29:46 PM	772117381335230.04535276PLM069	PLM069
	0934	7799008917467		1	1	77211738	2019-01-04 12:29:49	12:29:49 PM	772117381335230.04535276PLM069	PLM069
	0934	7799008917467		1	1	77211738	2019-01-04 12:29:54	12:29:54 PM	772117381335230.04535276PLM069	PLM069
	0934	7799008917467		1	1	77211738	2019-01-04 12:29:57	12:29:57 PM	772117381335230.04535276PLM069	PLM069
	0934	7799008917467		1	1	77211738	2019-01-04 12:29:58	12:29:58 PM	772117381335230.04535276PLM069	PLM069
	0934	7799008917467		1	1	77211738	2019-01-04 12:30:04	12:30:04 PM	772117381335230.04535276PLM069	PLM069
	0934	7799008917467		1	1	77211738	2019-01-04 12:30:07	12:30:07 PM	772117381335230.04535276PLM069	PLM069
	0934	7799008917467		1	1	77211738	2019-01-04 12:30:09	12:30:09 PM	772117381335230.04535276PLM069	PLM069
	0934	7799008917467		1	1	77211738	2019-01-04 12:30:27	12:30:27 PM	772117381335230.04535276PLM069	PLM069
	0934	7799008917467		1	1	77211738	2019-01-04 12:30:28	12:30:28 PM	772117381335230.04535276PLM069	PLM069
	0934	7799008917467		1	1	77211738	2019-01-04 12:30:30	12:30:30 PM	772117381335230.04535276PLM069	PLM069
	0934	7799008917467		1	1	77211738	2019-01-04 12:31:49	12:31:49 PM	772117381335230.04535276PLM069	PLM069
	0934	7799008917467		1	1	77211738	2019-01-04 12:31:50	12:31:50 PM	772117381335230.04535276PLM069	PLM069
	0934	7799008917467		1	1	77211738	2019-01-04 12:31:52	12:31:52 PM	772117381335230.04535276PLM069	PLM069
	0934	7799008917467		1	1	77211738	2019-01-04 12:31:56	12:31:56 PM	772117381335230.04535276PLM069	PLM069
	0934	7799008917467		1	1	77211738	2019-01-04 12:31:58	12:31:58 PM	772117381335230.04535276PLM069	PLM069
	0934	7799008917467		1	1	77211738	2019-01-04 12:32:02	12:32:02 PM	772117381335230.04535276PLM069	PLM069
	0934	7799008917467		1	1	77211738	2019-01-04 12:32:10	12:32:10 PM	772117381335230.04535276PLM069	PLM069
	0934	7799008917467		1	1	77211738	2019-01-04 12:32:12	12:32:12 PM	772117381335230.04535276PLM069	PLM069
	0934	7799008917467		1	1	77211738	2019-01-04 12:32:15	12:32:15 PM	772117381335230.04535276PLM069	PLM069
	0934	7799008917467		1	1	77211738	2019-01-04 12:32:19	12:32:19 PM	772117381335230.04535276PLM069	PLM069
	0934	7799008917467		1	1	77211738	2019-01-04 12:32:21	12:32:21 PM	772117381335230.04535276PLM069	PLM069
	0934	7799008917467		1	1	77211738	2019-01-04 12:32:23	12:32:23 PM	772117381335230.04535276PLM069	PLM069
	0934	7799008917467		1	1	77211738	2019-01-04 12:33:08	12:33:08 PM	772117381335230.04535276PLM069	PLM069
	0934	7799008917467		1	1	77211738	2019-01-04 12:33:09	12:33:09 PM	772117381335230.04535276PLM069	PLM069
	0934	7799008917467		1	1	77211738	2019-01-04 12:33:10	12:33:10 PM	772117381335230.04535276PLM069	PLM069
	0934	7799008917467		1	1	77211738	2019-01-04 12:33:16	12:33:16 PM	772117381335230.04535276PLM069	PLM069
	0934	7799008917467		1	1	77211738	2019-01-04 12:33:17	12:33:17 PM	772117381335230.04535276PLM069	PLM069
	0934	7799008917467		1	1	77211738	2019-01-04 12:33:19	12:33:19 PM	772117381335230.04535276PLM069	PLM069
	0934	7799008917467		1	1	77211738	2019-01-04 12:33:23	12:33:23 PM	772117381335230.04535276PLM069	PLM069
	0934	7799008917467		1	1	77211738	2019-01-04 12:33:24	12:33:24 PM	772117381335230.04535276PLM069	PLM069
	0934	7799008917467		1	1	77211738	2019-01-04 12:33:27	12:33:27 PM	772117381335230.04535276PLM069	PLM069
	0934	7799008917467		1	1	77211738	2019-01-04 12:33:40	12:33:40 PM	772117381335230.04535276PLM069	PLM069
	0934	7799008917467		1	1	77211738	2019-01-04 12:33:41	12:33:41 PM	772117381335230.04535276PLM069	PLM069
	0934	7799008917467		1	1	77211738	2019-01-04 12:33:44	12:33:44 PM	772117381335230.04535276PLM069	PLM069
	0934	7799008917467		1	1	77211738	2019-01-04 12:33:56	12:33:56 PM	772117381335230.04535276PLM069	PLM069
	0934	7799008917467		1	1	77211738	2019-01-04 12:33:58	12:33:58 PM	772117381335230.04535276PLM069	PLM069
	0934	7799008917467		1	1	77211738	2019-01-04 12:34:00	12:34:00 PM	772117381335230.04535276PLM069	PLM069
	0934	7799008917467		1	1	77211738	2019-01-04 12:35:12	12:35:12 PM	772117381335230.04535276PLM069	PLM069
	0934	7799008917467		1	1	77211738	2019-01-04 12:35:14	12:35:14 PM	772117381335230.04535276PLM069	PLM069
	0934	7799008917467		1	1	77211738	2019-01-04 12:35:17	12:35:17 PM	772117381335230.04535276PLM069	PLM069
	0934	7799008917467		1	1	77211738	2019-01-04 12:35:24	12:35:24 PM	772117381335230.04535276PLM069	PLM069
	0934	7799008917467		1	1	77211738	2019-01-04 12:35:25	12:35:25 PM	772117381335230.04535276PLM069	PLM069
	0934	7799008917467		1	1	77211738	2019-01-04 12:35:27	12:35:27 PM	772117381335230.04535276PLM069	PLM069
	0934	7799008917467		1	1	77211738	2019-01-04 12:35:33	12:35:33 PM	772117381335230.04535276PLM069	PLM069
	0934	7799008917467		1	1	77211738	2019-01-04 12:35:36	12:35:36 PM	772117381335230.04535276PLM069	PLM069
	0934	7799008917467		1	1	77211738	2019-01-04 12:35:38	12:35:38 PM	772117381335230.04535276PLM069	PLM069
	0934	7799008917467		1	1	77211738	2019-01-04 12:35:47	12:35:47 PM	772117381335230.04535276PLM069	PLM069
	0934	7799008917467		1	1	77211738	2019-01-04 12:35:50	12:35:50 PM	772117381335230.04535276PLM069	PLM069
	0934	7799008917467		1	1	77211738	2019-01-04 12:35:52	12:35:52 PM	772117381335230.04535276PLM069	PLM069
	0934	7799008917467		1	1	77211738	2019-01-04 12:35:55	12:35:55 PM	772117381335230.04535276PLM069	PLM069
	0934	7799008917467		1	1	77211738	2019-01-04 12:35:57	12:35:57 PM	772117381335230.04535276PLM069	PLM069
	0934	7799008917467		1	1	77211738	2019-01-04 12:35:59	12:35:59 PM	772117381335230.04535276PLM069	PLM069
	0934	7799008917467		1	1	77211738	2019-01-04 12:36:08	12:36:08 PM	772117381335230.04535276PLM069	PLM069
	0934	7799008917467		1	1	77211738	2019-01-04 12:36:11	12:36:11 PM	772117381335230.04535276PLM069	PLM069
	0934	7799008917467		1	1	77211738	2019-01-04 12:36:13	12:36:13 PM	772117381335230.04535276PLM069	PLM069
	0934	7799008917467		1	1	77211738	2019-01-04 12:36:22	12:36:22 PM	772117381335230.04535276PLM069	PLM069
	0934	7799008917467		1	1	77211738	2019-01-04 12:36:23	12:36:23 PM	772117381335230.04535276PLM069	PLM069
	0934	7799008917467		1	1	77211738	2019-01-04 12:36:25	12:36:25 PM	772117381335230.04535276PLM069	PLM069
	0934	7799008917467		1	1	77211738	2019-01-04 12:37:41	12:37:41 PM	772117381335230.04535276PLM069	PLM069
	0934	7799008917467		1	1	77211738	2019-01-04 12:37:42	12:37:42 PM	772117381335230.04535276PLM069	PLM069
	0934	7799008917467		1	1	77211738	2019-01-04 12:37:45	12:37:45 PM	772117381335230.04535276PLM069	PLM069
	0934	7799008917467		1	1	77211738	2019-01-04 12:37:49	12:37:49 PM	772117381335230.04535276PLM069	PLM069
	0934	7799008917467		1	1	77211738	2019-01-04 12:37:51	12:37:51 PM	772117381335230.04535276PLM069	PLM069
	0934	7799008917467		1	1	77211738	2019-01-04 12:37:52	12:37:52 PM	772117381335230.04535276PLM069	PLM069
	0934	7799008917467		1	1	77211738	2019-01-04 12:37:57	12:37:57 PM	772117381335230.04535276PLM069	PLM069
	0934	7799008917467		1	1	77211738	2019-01-04 12:37:58	12:37:58 PM	772117381335230.04535276PLM069	PLM069
	0934	7799008917467		1	1	77211738	2019-01-04 12:37:59	12:37:59 PM	772117381335230.04535276PLM069	PLM069
	0934	7799008917467		1	1	77211738	2019-01-04 12:38:02	12:38:02 PM	772117381335230.04535276PLM069	PLM069
	0934	7799008917467		1	1	77211738	2019-01-04 12:38:05	12:38:05 PM	772117381335230.04535276PLM069	PLM069
	0934	7799008917467		1	1	77211738	2019-01-04 12:38:07	12:38:07 PM	772117381335230.04535276PLM069	PLM069
	0934	7799008917467		1	1	77211738	2019-01-04 12:38:11	12:38:11 PM	772117381335230.04535276PLM069	PLM069
	0934	7799008917467		1	1	77211738	2019-01-04 12:38:12	12:38:12 PM	772117381335230.04535276PLM069	PLM069
	0934	7799008917467		1	1	77211738	2019-01-04 12:38:14	12:38:14 PM	772117381335230.04535276PLM069	PLM069
	0934	7799008917467		1	1	77211738	2019-01-04 12:38:19	12:38:19 PM	772117381335230.04535276PLM069	PLM069
	0934	7799008917467		1	1	77211738	2019-01-04 12:38:20	12:38:20 PM	772117381335230.04535276PLM069	PLM069
	0934	7799008917467		1	1	77211738	2019-01-04 12:38:22	12:38:22 PM	772117381335230.04535276PLM069	PLM069
	0934	7799008917467		1	1	77211738	2019-01-04 12:38:27	12:38:27 PM	772117381335230.04535276PLM069	PLM069
	0934	7799008917467		1	1	77211738	2019-01-04 12:38:28	12:38:28 PM	772117381335230.04535276PLM069	PLM069
	0934	7799008917467		1	1	77211738	2019-01-04 12:38:31	12:38:31 PM	772117381335230.04535276PLM069	PLM069
	0934	7799008917467		1	1	77211738	2019-01-04 12:39:36	12:39:36 PM	772117381335230.04535276PLM069	PLM069
	0934	7799008917467		1	1	77211738	2019-01-04 12:39:37	12:39:37 PM	772117381335230.04535276PLM069	PLM069
	0934	7799008917467		1	1	77211738	2019-01-04 12:39:40	12:39:40 PM	772117381335230.04535276PLM069	PLM069
	0934	7799008917467		1	1	77211738	2019-01-04 12:39:44	12:39:44 PM	772117381335230.04535276PLM069	PLM069
	0934	7799008917467		1	1	77211738	2019-01-04 12:39:47	12:39:47 PM	772117381335230.04535276PLM069	PLM069
	0934	7799008917467		1	1	77211738	2019-01-04 12:39:49	12:39:49 PM	772117381335230.04535276PLM069	PLM069
	0934	7799008917467		1	1	77211738	2019-01-04 12:39:56	12:39:56 PM	772117381335230.04535276PLM069	PLM069
	0934	7799008917467		1	1	77211738	2019-01-04 12:39:57	12:39:57 PM	772117381335230.04535276PLM069	PLM069
	0934	7799008917467		1	1	77211738	2019-01-04 12:39:58	12:39:58 PM	772117381335230.04535276PLM069	PLM069
	0934	7799008917467		1	1	77211738	2019-01-04 12:40:05	12:40:05 PM	772117381335230.04535276PLM069	PLM069
	0934	7799008917467		1	1	77211738	2019-01-04 12:40:06	12:40:06 PM	772117381335230.04535276PLM069	PLM069
	0934	7799008917467		1	1	77211738	2019-01-04 12:40:07	12:40:07 PM	772117381335230.04535276PLM069	PLM069
	0934	7799008917467		1	1	77211738	2019-01-04 12:40:27	12:40:27 PM	772117381335230.04535276PLM069	PLM069
	0934	7799008917467		1	1	77211738	2019-01-04 12:40:29	12:40:29 PM	772117381335230.04535276PLM069	PLM069
	0934	7799008917467		1	1	77211738	2019-01-04 12:40:30	12:40:30 PM	772117381335230.04535276PLM069	PLM069
	0934	7799008917467		1	1	77211738	2019-01-04 12:40:38	12:40:38 PM	772117381335230.04535276PLM069	PLM069
	0934	7799008917467		1	1	77211738	2019-01-04 12:40:39	12:40:39 PM	772117381335230.04535276PLM069	PLM069
	0934	7799008917467		1	1	77211738	2019-01-04 12:40:41	12:40:41 PM	772117381335230.04535276PLM069	PLM069
	0934	7799008917467		1	1	77211738	2019-01-04 12:40:50	12:40:50 PM	772117381335230.04535276PLM069	PLM069
	0934	7799008917467		1	1	77211738	2019-01-04 12:40:51	12:40:51 PM	772117381335230.04535276PLM069	PLM069
	0934	7799008917467		1	1	77211738	2019-01-04 12:40:53	12:40:53 PM	772117381335230.04535276PLM069	PLM069
	0934	7799008917467		1	1	77211738	2019-01-04 12:42:04	12:42:04 PM	772117381335230.04535276PLM069	PLM069
	0934	7799008917467		1	1	77211738	2019-01-04 12:42:05	12:42:05 PM	772117381335230.04535276PLM069	PLM069
	0934	7799008917467		1	1	77211738	2019-01-04 12:42:08	12:42:08 PM	772117381335230.04535276PLM069	PLM069
	0934	7799008917467		1	1	77211738	2019-01-04 12:42:12	12:42:12 PM	772117381335230.04535276PLM069	PLM069
	0934	7799008917467		1	1	77211738	2019-01-04 12:42:14	12:42:14 PM	772117381335230.04535276PLM069	PLM069
	0934	7799008917467		1	1	77211738	2019-01-04 12:42:16	12:42:16 PM	772117381335230.04535276PLM069	PLM069
	0934	7799008917467		1	1	77211738	2019-01-04 12:42:22	12:42:22 PM	772117381335230.04535276PLM069	PLM069
	0934	7799008917467		1	1	77211738	2019-01-04 12:42:24	12:42:24 PM	772117381335230.04535276PLM069	PLM069
	0934	7799008917467		1	1	77211738	2019-01-04 12:42:26	12:42:26 PM	772117381335230.04535276PLM069	PLM069
	0934	7799008917467		1	1	77211738	2019-01-04 12:42:32	12:42:32 PM	772117381335230.04535276PLM069	PLM069
	0934	7799008917467		1	1	77211738	2019-01-04 12:42:34	12:42:34 PM	772117381335230.04535276PLM069	PLM069
	0934	7799008917467		1	1	77211738	2019-01-04 12:42:35	12:42:35 PM	772117381335230.04535276PLM069	PLM069
	0934	7799008917467		1	1	77211738	2019-01-04 12:42:41	12:42:41 PM	772117381335230.04535276PLM069	PLM069
	0934	7799008917467		1	1	77211738	2019-01-04 12:42:43	12:42:43 PM	772117381335230.04535276PLM069	PLM069
	0934	7799008917467		1	1	77211738	2019-01-04 12:42:44	12:42:44 PM	772117381335230.04535276PLM069	PLM069
	0934	7799008917467		1	1	77211738	2019-01-04 12:42:51	12:42:51 PM	772117381335230.04535276PLM069	PLM069
	0934	7799008917467		1	1	77211738	2019-01-04 12:42:52	12:42:52 PM	772117381335230.04535276PLM069	PLM069
	0934	7799008917467		1	1	77211738	2019-01-04 12:42:55	12:42:55 PM	772117381335230.04535276PLM069	PLM069
	0934	7799008917467		1	1	77211738	2019-01-04 12:43:50	12:43:50 PM	772117381335230.04535276PLM069	PLM069
	0934	7799008917467		1	1	77211738	2019-01-04 12:43:51	12:43:51 PM	772117381335230.04535276PLM069	PLM069
	0934	7799008917467		1	1	77211738	2019-01-04 12:43:53	12:43:53 PM	772117381335230.04535276PLM069	PLM069
	0934	7799008917467		1	1	77211738	2019-01-04 12:44:03	12:44:03 PM	772117381335230.04535276PLM069	PLM069
	0934	7799008917467		1	1	77211738	2019-01-04 12:44:05	12:44:05 PM	772117381335230.04535276PLM069	PLM069
	0934	7799008917467		1	1	77211738	2019-01-04 12:44:07	12:44:07 PM	772117381335230.04535276PLM069	PLM069
	0934	7799008917467		1	1	77211738	2019-01-04 12:44:14	12:44:14 PM	772117381335230.04535276PLM069	PLM069
	0934	7799008917467		1	1	77211738	2019-01-04 12:44:15	12:44:15 PM	772117381335230.04535276PLM069	PLM069
	0934	7799008917467		1	1	77211738	2019-01-04 12:44:17	12:44:17 PM	772117381335230.04535276PLM069	PLM069
	0934	7799008917467		1	1	77211738	2019-01-04 12:44:25	12:44:25 PM	772117381335230.04535276PLM069	PLM069
	0934	7799008917467		1	1	77211738	2019-01-04 12:44:26	12:44:26 PM	772117381335230.04535276PLM069	PLM069
	0934	7799008917467		1	1	77211738	2019-01-04 12:44:28	12:44:28 PM	772117381335230.04535276PLM069	PLM069
	0934	7799008917467		1	1	77211738	2019-01-04 12:45:10	12:45:10 PM	772117381335230.04535276PLM069	PLM069
	0934	7799008917467		1	1	77211738	2019-01-04 12:45:13	12:45:13 PM	772117381335230.04535276PLM069	PLM069
	0934	7799008917467		1	1	77211738	2019-01-04 12:45:16	12:45:16 PM	772117381335230.04535276PLM069	PLM069
	0934	7799008917467		1	1	77211738	2019-01-04 12:45:28	12:45:28 PM	772117381335230.04535276PLM069	PLM069
	0934	7799008917467		1	1	77211738	2019-01-04 12:45:29	12:45:29 PM	772117381335230.04535276PLM069	PLM069
	0934	7799008917467		1	1	77211738	2019-01-04 12:45:30	12:45:30 PM	772117381335230.04535276PLM069	PLM069
	0934	7799008917467		1	1	77211738	2019-01-04 12:45:47	12:45:47 PM	772117381335230.04535276PLM069	PLM069
	0934	7799008917467		1	1	77211738	2019-01-04 12:45:48	12:45:48 PM	772117381335230.04535276PLM069	PLM069
	0934	7799008917467		1	1	77211738	2019-01-04 12:45:49	12:45:49 PM	772117381335230.04535276PLM069	PLM069
	0934	7799008917467		1	1	77211738	2019-01-04 12:46:07	12:46:07 PM	772117381335230.04535276PLM069	PLM069
	0934	7799008917467		1	1	77211738	2019-01-04 12:46:07	12:46:07 PM	772117381335230.04535276PLM069	PLM069
	0934	7799008917467		1	1	77211738	2019-01-04 12:46:08	12:46:08 PM	772117381335230.04535276PLM069	PLM069
	0934	7799008917467		1	1	77211738	2019-01-04 12:46:33	12:46:33 PM	772117381335230.04535276PLM069	PLM069
	0934	7799008917467		1	1	77211738	2019-01-04 12:46:35	12:46:35 PM	772117381335230.04535276PLM069	PLM069
	0934	7799008917467		1	1	77211738	2019-01-04 12:46:37	12:46:37 PM	772117381335230.04535276PLM069	PLM069
	0934	7799008917467		1	1	77211738	2019-01-04 12:47:31	12:47:31 PM	772117381335230.04535276PLM069	PLM069
	0934	7799008917467		1	1	77211738	2019-01-04 12:47:32	12:47:32 PM	772117381335230.04535276PLM069	PLM069
	0934	7799008917467		1	1	77211738	2019-01-04 12:47:35	12:47:35 PM	772117381335230.04535276PLM069	PLM069
	0934	7799008917467		1	1	77211738	2019-01-04 12:47:40	12:47:40 PM	772117381335230.04535276PLM069	PLM069
	0934	7799008917467		1	1	77211738	2019-01-04 12:47:41	12:47:41 PM	772117381335230.04535276PLM069	PLM069
	0934	7799008917467		1	1	77211738	2019-01-04 12:47:45	12:47:45 PM	772117381335230.04535276PLM069	PLM069
	0934	7799008917467		1	1	77211738	2019-01-04 12:47:50	12:47:50 PM	772117381335230.04535276PLM069	PLM069
	0934	7799008917467		1	1	77211738	2019-01-04 12:47:52	12:47:52 PM	772117381335230.04535276PLM069	PLM069
	0934	7799008917467		1	1	77211738	2019-01-04 12:47:53	12:47:53 PM	772117381335230.04535276PLM069	PLM069
	0934	7799008917467		1	1	77211738	2019-01-04 12:47:57	12:47:57 PM	772117381335230.04535276PLM069	PLM069
	0934	7799008917467		1	1	77211738	2019-01-04 12:47:59	12:47:59 PM	772117381335230.04535276PLM069	PLM069
	0934	7799008917467		1	1	77211738	2019-01-04 12:48:00	12:48:00 PM	772117381335230.04535276PLM069	PLM069
	0934	7799008917467		1	1	77211738	2019-01-04 12:48:18	12:48:18 PM	772117381335230.04535276PLM069	PLM069
	0934	7799008917467		1	1	77211738	2019-01-04 12:48:19	12:48:19 PM	772117381335230.04535276PLM069	PLM069
	0934	7799008917467		1	1	77211738	2019-01-04 12:48:20	12:48:20 PM	772117381335230.04535276PLM069	PLM069
	0934	7799008917467		1	1	77211738	2019-01-04 12:48:34	12:48:34 PM	772117381335230.04535276PLM069	PLM069
	0934	7799021036961		1	1	77211738	2019-01-04 12:49:21	12:49:21 PM	772117381335230.04535276PLM069	PLM069
	0934	7799021036961		1	1	77211738	2019-01-04 12:49:21	12:49:21 PM	772117381335230.04535276PLM069	PLM069
	0934	7799021036961		1	1	77211738	2019-01-04 12:49:23	12:49:23 PM	772117381335230.04535276PLM069	PLM069
	0933	7799021038774		1	1	77211738	2019-01-04 12:52:10	12:52:10 PM	772117381335230.04535276PLM069	PLM069
	0933	7799008699103		1	1	77211738	2019-01-04 12:54:02	12:54:02 PM	772117381335230.04535276PLM069	PLM069
	0933	7799021038774		1	1	77211738	2019-01-04 12:54:36	12:54:36 PM	772117381335230.04535276PLM069	PLM069
	0933	7799021038774		1	1	77211738	2019-01-04 12:54:39	12:54:39 PM	772117381335230.04535276PLM069	PLM069
	0933	7799021038774		1	1	77211738	2019-01-04 12:54:44	12:54:44 PM	772117381335230.04535276PLM069	PLM069
	0933	7799021038774		1	1	77211738	2019-01-04 12:56:52	12:56:52 PM	772117381335230.04535276PLM069	PLM069
	0933	7799021038774		1	1	77211738	2019-01-04 12:56:54	12:56:54 PM	772117381335230.04535276PLM069	PLM069
	0933	7799021038774		1	1	77211738	2019-01-04 12:56:59	12:56:59 PM	772117381335230.04535276PLM069	PLM069
	0933	7799021038774		1	1	77211738	2019-01-04 12:57:02	12:57:02 PM	772117381335230.04535276PLM069	PLM069
	0933	7799021038774		1	1	77211738	2019-01-04 12:57:07	12:57:07 PM	772117381335230.04535276PLM069	PLM069
	0933	7799021038774		1	1	77211738	2019-01-04 12:57:12	12:57:12 PM	772117381335230.04535276PLM069	PLM069
	0933	7799021038774		1	1	77211738	2019-01-04 12:57:14	12:57:14 PM	772117381335230.04535276PLM069	PLM069
	0933	7799021038774		1	1	77211738	2019-01-04 12:57:19	12:57:19 PM	772117381335230.04535276PLM069	PLM069
	0933	7799021038774		1	1	77211738	2019-01-04 12:57:23	12:57:23 PM	772117381335230.04535276PLM069	PLM069
	0933	7799021038774		1	1	77211738	2019-01-04 12:57:25	12:57:25 PM	772117381335230.04535276PLM069	PLM069
	0933	7799021038774		1	1	77211738	2019-01-04 12:57:31	12:57:31 PM	772117381335230.04535276PLM069	PLM069
	0933	7799021038774		1	1	77211738	2019-01-04 12:57:33	12:57:33 PM	772117381335230.04535276PLM069	PLM069
	0933	7799021038774		1	1	77211738	2019-01-04 12:57:37	12:57:37 PM	772117381335230.04535276PLM069	PLM069
	0933	7799021038774		1	1	77211738	2019-01-04 12:57:42	12:57:42 PM	772117381335230.04535276PLM069	PLM069
	0933	7799021038774		1	1	77211738	2019-01-04 12:57:47	12:57:47 PM	772117381335230.04535276PLM069	PLM069
	0933	7799021038774		1	1	77211738	2019-01-04 12:57:51	12:57:51 PM	772117381335230.04535276PLM069	PLM069
	0933	7799021038774		1	1	77211738	2019-01-04 12:57:56	12:57:56 PM	772117381335230.04535276PLM069	PLM069
	0933	7799021038774		1	1	77211738	2019-01-04 12:57:58	12:57:58 PM	772117381335230.04535276PLM069	PLM069
	0933	7799021038774		1	1	77211738	2019-01-04 12:58:02	12:58:02 PM	772117381335230.04535276PLM069	PLM069
	0933	7799021038774		1	1	77211738	2019-01-04 12:58:04	12:58:04 PM	772117381335230.04535276PLM069	PLM069
	0933	7799021038774		1	1	77211738	2019-01-04 12:58:06	12:58:06 PM	772117381335230.04535276PLM069	PLM069
	0933	7799021038774		1	1	77211738	2019-01-04 12:58:22	12:58:22 PM	772117381335230.04535276PLM069	PLM069
	0933	7799021038774		1	1	77211738	2019-01-04 12:58:24	12:58:24 PM	772117381335230.04535276PLM069	PLM069
	0933	7799021038774		1	1	77211738	2019-01-04 12:58:26	12:58:26 PM	772117381335230.04535276PLM069	PLM069
	0933	7799021038774		1	1	77211738	2019-01-04 12:58:34	12:58:34 PM	772117381335230.04535276PLM069	PLM069
	0933	7799021038774		1	1	77211738	2019-01-04 12:58:36	12:58:36 PM	772117381335230.04535276PLM069	PLM069
	0933	7799021038774		1	1	77211738	2019-01-04 12:58:43	12:58:43 PM	772117381335230.04535276PLM069	PLM069
	0933	7799021038774		1	1	77211738	2019-01-04 12:58:44	12:58:44 PM	772117381335230.04535276PLM069	PLM069
	0933	7799021038774		1	1	77211738	2019-01-04 12:58:52	12:58:52 PM	772117381335230.04535276PLM069	PLM069
	0933	7799021038774		1	1	77211738	2019-01-04 12:58:53	12:58:53 PM	772117381335230.04535276PLM069	PLM069
	0933	7799021038774		1	1	77211738	2019-01-04 13:00:52	1:00:52 PM	772117381335230.04535276PLM069	PLM069
	0933	7799021038774		1	1	77211738	2019-01-04 13:00:54	1:00:54 PM	772117381335230.04535276PLM069	PLM069
	0933	7799021038774		1	1	77211738	2019-01-04 13:00:58	1:00:58 PM	772117381335230.04535276PLM069	PLM069
	0933	7799021038774		1	1	77211738	2019-01-04 13:01:02	1:01:02 PM	772117381335230.04535276PLM069	PLM069
	0933	7799021038774		1	1	77211738	2019-01-04 13:01:06	1:01:06 PM	772117381335230.04535276PLM069	PLM069
	0933	7799021038774		1	1	77211738	2019-01-04 13:01:07	1:01:07 PM	772117381335230.04535276PLM069	PLM069
	0933	7799021038774		1	1	77211738	2019-01-04 13:01:09	1:01:09 PM	772117381335230.04535276PLM069	PLM069
	0933	7799021038774		1	1	77211738	2019-01-04 13:01:16	1:01:16 PM	772117381335230.04535276PLM069	PLM069
	0933	7799021038774		1	1	77211738	2019-01-04 13:01:17	1:01:17 PM	772117381335230.04535276PLM069	PLM069
	0933	7799021038774		1	1	77211738	2019-01-04 13:01:20	1:01:20 PM	772117381335230.04535276PLM069	PLM069
	0933	7799021038774		1	1	77211738	2019-01-04 13:01:31	1:01:31 PM	772117381335230.04535276PLM069	PLM069
	0933	7799021038774		1	1	77211738	2019-01-04 13:01:33	1:01:33 PM	772117381335230.04535276PLM069	PLM069
	0933	7799021038774		1	1	77211738	2019-01-04 13:01:36	1:01:36 PM	772117381335230.04535276PLM069	PLM069
	0933	7799021038774		1	1	77211738	2019-01-04 13:01:46	1:01:46 PM	772117381335230.04535276PLM069	PLM069
	0933	7799021038774		1	1	77211738	2019-01-04 13:01:49	1:01:49 PM	772117381335230.04535276PLM069	PLM069
	0933	7799021038774		1	1	77211738	2019-01-04 13:01:54	1:01:54 PM	772117381335230.04535276PLM069	PLM069
	0933	7799021038774		1	1	77211738	2019-01-04 13:02:01	1:02:01 PM	772117381335230.04535276PLM069	PLM069
	0933	7799021038774		1	1	77211738	2019-01-04 13:02:05	1:02:05 PM	772117381335230.04535276PLM069	PLM069
	0933	7799021038774		1	1	77211738	2019-01-04 13:02:14	1:02:14 PM	772117381335230.04535276PLM069	PLM069
	0933	7799021038774		1	1	77211738	2019-01-04 13:02:22	1:02:22 PM	772117381335230.04535276PLM069	PLM069
	0933	7799021038774		1	1	77211738	2019-01-04 13:02:23	1:02:23 PM	772117381335230.04535276PLM069	PLM069
	0933	7799021038774		1	1	77211738	2019-01-04 13:02:25	1:02:25 PM	772117381335230.04535276PLM069	PLM069
	0933	7799021038774		1	1	77211738	2019-01-04 13:02:27	1:02:27 PM	772117381335230.04535276PLM069	PLM069
	0933	7799021038774		1	1	77211738	2019-01-04 13:02:32	1:02:32 PM	772117381335230.04535276PLM069	PLM069
	0933	7799021038774		1	1	77211738	2019-01-04 13:02:34	1:02:34 PM	772117381335230.04535276PLM069	PLM069
	0933	7799021038774		1	1	77211738	2019-01-04 13:02:36	1:02:36 PM	772117381335230.04535276PLM069	PLM069
	0933	7799021038774		1	1	77211738	2019-01-04 13:02:38	1:02:38 PM	772117381335230.04535276PLM069	PLM069
	0933	7799021038774		1	1	77211738	2019-01-04 13:02:48	1:02:48 PM	772117381335230.04535276PLM069	PLM069
	0933	7799021038774		1	1	77211738	2019-01-04 13:02:52	1:02:52 PM	772117381335230.04535276PLM069	PLM069
	0933	7799021038774		1	1	77211738	2019-01-04 13:02:53	1:02:53 PM	772117381335230.04535276PLM069	PLM069
	0933	7799021038774		1	1	77211738	2019-01-04 13:02:57	1:02:57 PM	772117381335230.04535276PLM069	PLM069
	0933	7799021038774		1	1	77211738	2019-01-04 13:03:05	1:03:05 PM	772117381335230.04535276PLM069	PLM069
	0933	7799021038774		1	1	77211738	2019-01-04 13:03:08	1:03:08 PM	772117381335230.04535276PLM069	PLM069
	0933	7799021038774		1	1	77211738	2019-01-04 13:03:11	1:03:11 PM	772117381335230.04535276PLM069	PLM069
	0933	7799021038774		1	1	77211738	2019-01-04 13:03:13	1:03:13 PM	772117381335230.04535276PLM069	PLM069
	0933	7799021038774		1	1	77211738	2019-01-04 13:03:22	1:03:22 PM	772117381335230.04535276PLM069	PLM069
	0933	7799021038774		1	1	77211738	2019-01-04 13:03:25	1:03:25 PM	772117381335230.04535276PLM069	PLM069
	0933	7799021038774		1	1	77211738	2019-01-04 13:03:27	1:03:27 PM	772117381335230.04535276PLM069	PLM069
	0933	7799021038774		1	1	77211738	2019-01-04 13:03:34	1:03:34 PM	772117381335230.04535276PLM069	PLM069
	0933	7799021038774		1	1	77211738	2019-01-04 13:04:16	1:04:16 PM	772117381335230.04535276PLM069	PLM069
	0933	7799021038774		1	1	77211738	2019-01-04 13:04:22	1:04:22 PM	772117381335230.04535276PLM069	PLM069
	0933	7799021038774		1	1	77211738	2019-01-04 13:04:24	1:04:24 PM	772117381335230.04535276PLM069	PLM069
	0933	7799021038774		1	1	77211738	2019-01-04 13:04:31	1:04:31 PM	772117381335230.04535276PLM069	PLM069
	0933	7799021038774		1	1	77211738	2019-01-04 13:04:41	1:04:41 PM	772117381335230.04535276PLM069	PLM069
	0933	7799021038774		1	1	77211738	2019-01-04 13:04:42	1:04:42 PM	772117381335230.04535276PLM069	PLM069
	0933	7799021038774		1	1	77211738	2019-01-04 13:04:43	1:04:43 PM	772117381335230.04535276PLM069	PLM069
	0933	7799021038774		1	1	77211738	2019-01-04 13:04:52	1:04:52 PM	772117381335230.04535276PLM069	PLM069
	0933	7799021038774		1	1	77211738	2019-01-04 13:04:53	1:04:53 PM	772117381335230.04535276PLM069	PLM069
	0933	7799021038774		1	1	77211738	2019-01-04 13:04:54	1:04:54 PM	772117381335230.04535276PLM069	PLM069
	0933	7799021038774		1	1	77211738	2019-01-04 13:05:06	1:05:06 PM	772117381335230.04535276PLM069	PLM069
	0933	7799021038774		1	1	77211738	2019-01-04 13:05:07	1:05:07 PM	772117381335230.04535276PLM069	PLM069
	0933	7799021038774		1	1	77211738	2019-01-04 13:05:15	1:05:15 PM	772117381335230.04535276PLM069	PLM069
	0933	7799021038774		1	1	77211738	2019-01-04 13:05:16	1:05:16 PM	772117381335230.04535276PLM069	PLM069
	0935	7799008699097		1	1	77211738	2019-01-04 13:09:06	1:09:06 PM	772117381335230.04535276PLM069	PLM069
	0935	7799008699097		1	1	77211738	2019-01-04 13:09:09	1:09:09 PM	772117381335230.04535276PLM069	PLM069
	0935	7799008699097		1	1	77211738	2019-01-04 13:09:11	1:09:11 PM	772117381335230.04535276PLM069	PLM069
	0935	7799008699097		1	1	77211738	2019-01-04 13:09:16	1:09:16 PM	772117381335230.04535276PLM069	PLM069
	0935	7799008699097		1	1	77211738	2019-01-04 13:09:17	1:09:17 PM	772117381335230.04535276PLM069	PLM069
	0935	7799008699097		1	1	77211738	2019-01-04 13:09:20	1:09:20 PM	772117381335230.04535276PLM069	PLM069
	0935	7799008699097		1	1	77211738	2019-01-04 13:09:30	1:09:30 PM	772117381335230.04535276PLM069	PLM069
	0935	7799008699097		1	1	77211738	2019-01-04 13:09:35	1:09:35 PM	772117381335230.04535276PLM069	PLM069
	0935	7799008699097		1	1	77211738	2019-01-04 13:09:36	1:09:36 PM	772117381335230.04535276PLM069	PLM069
	0935	7799008699097		1	1	77211738	2019-01-04 13:09:44	1:09:44 PM	772117381335230.04535276PLM069	PLM069
	0935	7799008699097		1	1	77211738	2019-01-04 13:09:47	1:09:47 PM	772117381335230.04535276PLM069	PLM069
	0935	7799008699097		1	1	77211738	2019-01-04 13:09:48	1:09:48 PM	772117381335230.04535276PLM069	PLM069
	0935	7799008699097		1	1	77211738	2019-01-04 13:09:54	1:09:54 PM	772117381335230.04535276PLM069	PLM069
	0935	7799008699097		1	1	77211738	2019-01-04 13:09:57	1:09:57 PM	772117381335230.04535276PLM069	PLM069
	0935	7799008699097		1	1	77211738	2019-01-04 13:09:58	1:09:58 PM	772117381335230.04535276PLM069	PLM069
	0935	7799008699097		1	1	77211738	2019-01-04 13:10:02	1:10:02 PM	772117381335230.04535276PLM069	PLM069
	0935	7799008699097		1	1	77211738	2019-01-04 13:10:04	1:10:04 PM	772117381335230.04535276PLM069	PLM069
	0935	7799008699097		1	1	77211738	2019-01-04 13:10:06	1:10:06 PM	772117381335230.04535276PLM069	PLM069
	0935	7799008699097		1	1	77211738	2019-01-04 13:10:11	1:10:11 PM	772117381335230.04535276PLM069	PLM069
	0935	7799008699097		1	1	77211738	2019-01-04 13:10:14	1:10:14 PM	772117381335230.04535276PLM069	PLM069
	0935	7799008699097		1	1	77211738	2019-01-04 13:10:18	1:10:18 PM	772117381335230.04535276PLM069	PLM069
	0935	7799008699097		1	1	77211738	2019-01-04 13:10:24	1:10:24 PM	772117381335230.04535276PLM069	PLM069
	0935	7799008699097		1	1	77211738	2019-01-04 13:10:28	1:10:28 PM	772117381335230.04535276PLM069	PLM069
	0935	7799008699097		1	1	77211738	2019-01-04 13:10:29	1:10:29 PM	772117381335230.04535276PLM069	PLM069
	0935	7799008699097		1	1	77211738	2019-01-04 13:10:35	1:10:35 PM	772117381335230.04535276PLM069	PLM069
	0935	7799008699097		1	1	77211738	2019-01-04 13:10:37	1:10:37 PM	772117381335230.04535276PLM069	PLM069
	0935	7799008699097		1	1	77211738	2019-01-04 13:10:38	1:10:38 PM	772117381335230.04535276PLM069	PLM069
	0935	7799008699097		1	1	77211738	2019-01-04 13:10:40	1:10:40 PM	772117381335230.04535276PLM069	PLM069
	0935	7799008699097		1	1	77211738	2019-01-04 13:10:42	1:10:42 PM	772117381335230.04535276PLM069	PLM069
	0935	7799008699097		1	1	77211738	2019-01-04 13:10:46	1:10:46 PM	772117381335230.04535276PLM069	PLM069
	0935	7799008699097		1	1	77211738	2019-01-04 13:10:48	1:10:48 PM	772117381335230.04535276PLM069	PLM069
	0935	7799008699097		1	1	77211738	2019-01-04 13:10:54	1:10:54 PM	772117381335230.04535276PLM069	PLM069
	0935	7799008699097		1	1	77211738	2019-01-04 13:10:56	1:10:56 PM	772117381335230.04535276PLM069	PLM069
	0935	7799008699097		1	1	77211738	2019-01-04 13:10:59	1:10:59 PM	772117381335230.04535276PLM069	PLM069
	0935	7799008699097		1	1	77211738	2019-01-04 13:11:01	1:11:01 PM	772117381335230.04535276PLM069	PLM069
	0935	7799008699097		1	1	77211738	2019-01-04 13:11:04	1:11:04 PM	772117381335230.04535276PLM069	PLM069
	0935	7799008699097		1	1	77211738	2019-01-04 13:11:09	1:11:09 PM	772117381335230.04535276PLM069	PLM069
	0935	7799008699097		1	1	77211738	2019-01-04 13:11:15	1:11:15 PM	772117381335230.04535276PLM069	PLM069
	0935	7799008699097		1	1	77211738	2019-01-04 13:11:25	1:11:25 PM	772117381335230.04535276PLM069	PLM069
	0935	7799008699097		1	1	77211738	2019-01-04 13:12:36	1:12:36 PM	772117381335230.04535276PLM069	PLM069
	0935	7799008699097		1	1	77211738	2019-01-04 13:12:37	1:12:37 PM	772117381335230.04535276PLM069	PLM069
	0935	7799008699097		1	1	77211738	2019-01-04 13:12:41	1:12:41 PM	772117381335230.04535276PLM069	PLM069
	0935	7799008699097		1	1	77211738	2019-01-04 13:12:45	1:12:45 PM	772117381335230.04535276PLM069	PLM069
	0935	7799008699097		1	1	77211738	2019-01-04 13:12:46	1:12:46 PM	772117381335230.04535276PLM069	PLM069
	0935	7799008699097		1	1	77211738	2019-01-04 13:12:52	1:12:52 PM	772117381335230.04535276PLM069	PLM069
	0935	7799008699097		1	1	77211738	2019-01-04 13:12:55	1:12:55 PM	772117381335230.04535276PLM069	PLM069
	0935	7799008699097		1	1	77211738	2019-01-04 13:12:56	1:12:56 PM	772117381335230.04535276PLM069	PLM069
	0935	7799008699097		1	1	77211738	2019-01-04 13:12:59	1:12:59 PM	772117381335230.04535276PLM069	PLM069
	0935	7799008699097		1	1	77211738	2019-01-04 13:13:02	1:13:02 PM	772117381335230.04535276PLM069	PLM069
	0935	7799008699097		1	1	77211738	2019-01-04 13:14:30	1:14:30 PM	772117381335230.04535276PLM069	PLM069
	0935	7799008699097		1	1	77211738	2019-01-04 13:14:32	1:14:32 PM	772117381335230.04535276PLM069	PLM069
	0935	7799008699097		1	1	77211738	2019-01-04 13:14:36	1:14:36 PM	772117381335230.04535276PLM069	PLM069
	0935	7799008699097		1	1	77211738	2019-01-04 13:14:45	1:14:45 PM	772117381335230.04535276PLM069	PLM069
	0935	7799008699097		1	1	77211738	2019-01-04 13:14:46	1:14:46 PM	772117381335230.04535276PLM069	PLM069
	0935	7799008699097		1	1	77211738	2019-01-04 13:14:49	1:14:49 PM	772117381335230.04535276PLM069	PLM069
	0935	7799008699097		1	1	77211738	2019-01-04 13:15:06	1:15:06 PM	772117381335230.04535276PLM069	PLM069
	0935	7799008699097		1	1	77211738	2019-01-04 13:15:10	1:15:10 PM	772117381335230.04535276PLM069	PLM069
	0935	7799008699097		1	1	77211738	2019-01-04 13:15:16	1:15:16 PM	772117381335230.04535276PLM069	PLM069
	0935	7799008699097		1	1	77211738	2019-01-04 13:15:19	1:15:19 PM	772117381335230.04535276PLM069	PLM069
	0935	7799008699097		1	1	77211738	2019-01-04 13:15:23	1:15:23 PM	772117381335230.04535276PLM069	PLM069
	0935	7799008699097		1	1	77211738	2019-01-04 13:15:27	1:15:27 PM	772117381335230.04535276PLM069	PLM069
	0935	7799008699097		1	1	77211738	2019-01-04 13:15:29	1:15:29 PM	772117381335230.04535276PLM069	PLM069
	0935	7799008699097		1	1	77211738	2019-01-04 13:15:29	1:15:29 PM	772117381335230.04535276PLM069	PLM069
	0935	7799008699097		1	1	77211738	2019-01-04 13:15:37	1:15:37 PM	772117381335230.04535276PLM069	PLM069
	0935	7799008699097		1	1	77211738	2019-01-04 13:15:38	1:15:38 PM	772117381335230.04535276PLM069	PLM069
	0935	7799008699097		1	1	77211738	2019-01-04 13:15:39	1:15:39 PM	772117381335230.04535276PLM069	PLM069
	0935	7799008699097		1	1	77211738	2019-01-04 13:15:47	1:15:47 PM	772117381335230.04535276PLM069	PLM069
	0935	7799008699097		1	1	77211738	2019-01-04 13:15:49	1:15:49 PM	772117381335230.04535276PLM069	PLM069
	0935	7799008699097		1	1	77211738	2019-01-04 13:15:51	1:15:51 PM	772117381335230.04535276PLM069	PLM069
	0935	7799008699097		1	1	77211738	2019-01-04 13:15:57	1:15:57 PM	772117381335230.04535276PLM069	PLM069
	0935	7799008699097		1	1	77211738	2019-01-04 13:16:06	1:16:06 PM	772117381335230.04535276PLM069	PLM069
	0935	7799008699097		1	1	77211738	2019-01-04 13:16:08	1:16:08 PM	772117381335230.04535276PLM069	PLM069
	0935	7799008699097		1	1	77211738	2019-01-04 13:16:09	1:16:09 PM	772117381335230.04535276PLM069	PLM069
	0935	7799008699097		1	1	77211738	2019-01-04 13:16:21	1:16:21 PM	772117381335230.04535276PLM069	PLM069
	0935	7799008699097		1	1	77211738	2019-01-04 13:16:22	1:16:22 PM	772117381335230.04535276PLM069	PLM069
	0935	7799008699097		1	1	77211738	2019-01-04 13:16:24	1:16:24 PM	772117381335230.04535276PLM069	PLM069
	0935	7799008699097		1	1	77211738	2019-01-04 13:16:37	1:16:37 PM	772117381335230.04535276PLM069	PLM069
	0935	7799008699097		1	1	77211738	2019-01-04 13:16:38	1:16:38 PM	772117381335230.04535276PLM069	PLM069
	0935	7799008699097		1	1	77211738	2019-01-04 13:16:43	1:16:43 PM	772117381335230.04535276PLM069	PLM069
	0935	7799008699097		1	1	77211738	2019-01-04 13:16:46	1:16:46 PM	772117381335230.04535276PLM069	PLM069
	0935	7799008699097		1	1	77211738	2019-01-04 13:16:47	1:16:47 PM	772117381335230.04535276PLM069	PLM069
	0935	7799008699097		1	1	77211738	2019-01-04 13:16:51	1:16:51 PM	772117381335230.04535276PLM069	PLM069
	0935	7799008699097		1	1	77211738	2019-01-04 13:16:54	1:16:54 PM	772117381335230.04535276PLM069	PLM069
	0935	7799008699097		1	1	77211738	2019-01-04 13:16:58	1:16:58 PM	772117381335230.04535276PLM069	PLM069
	0935	7799008699097		1	1	77211738	2019-01-04 13:16:59	1:16:59 PM	772117381335230.04535276PLM069	PLM069
	0935	7799008699097		1	1	77211738	2019-01-04 13:17:00	1:17:00 PM	772117381335230.04535276PLM069	PLM069
	0935	7799008699097		1	1	77211738	2019-01-04 13:17:08	1:17:08 PM	772117381335230.04535276PLM069	PLM069
	0935	7799008699097		1	1	77211738	2019-01-04 13:17:10	1:17:10 PM	772117381335230.04535276PLM069	PLM069
	0935	7799008699097		1	1	77211738	2019-01-04 13:17:13	1:17:13 PM	772117381335230.04535276PLM069	PLM069
	0935	7799008699097		1	1	77211738	2019-01-04 13:17:14	1:17:14 PM	772117381335230.04535276PLM069	PLM069
	0935	7799008699097		1	1	77211738	2019-01-04 13:17:27	1:17:27 PM	772117381335230.04535276PLM069	PLM069
	0935	7799008699097		1	1	77211738	2019-01-04 13:17:30	1:17:30 PM	772117381335230.04535276PLM069	PLM069
	0935	7799008699097		1	1	77211738	2019-01-04 13:17:34	1:17:34 PM	772117381335230.04535276PLM069	PLM069
	0935	7799008699097		1	1	77211738	2019-01-04 13:17:37	1:17:37 PM	772117381335230.04535276PLM069	PLM069
	0935	7799008699097		1	1	77211738	2019-01-04 13:17:44	1:17:44 PM	772117381335230.04535276PLM069	PLM069
	0935	7799008699097		1	1	77211738	2019-01-04 13:17:46	1:17:46 PM	772117381335230.04535276PLM069	PLM069
	0935	7799008699097		1	1	77211738	2019-01-04 13:17:49	1:17:49 PM	772117381335230.04535276PLM069	PLM069
	0935	7799008699097		1	1	77211738	2019-01-04 13:17:51	1:17:51 PM	772117381335230.04535276PLM069	PLM069
	0935	7799008699097		1	1	77211738	2019-01-04 13:17:57	1:17:57 PM	772117381335230.04535276PLM069	PLM069
	0935	7799008699097		1	1	77211738	2019-01-04 13:18:00	1:18:00 PM	772117381335230.04535276PLM069	PLM069
	0935	7799008699097		1	1	77211738	2019-01-04 13:18:01	1:18:01 PM	772117381335230.04535276PLM069	PLM069
	0935	7799008699097		1	1	77211738	2019-01-04 13:18:10	1:18:10 PM	772117381335230.04535276PLM069	PLM069
	0935	7799008699097		1	1	77211738	2019-01-04 13:18:13	1:18:13 PM	772117381335230.04535276PLM069	PLM069
	0935	7799008699097		1	1	77211738	2019-01-04 13:18:16	1:18:16 PM	772117381335230.04535276PLM069	PLM069
	0935	7799008699097		1	1	77211738	2019-01-04 13:18:19	1:18:19 PM	772117381335230.04535276PLM069	PLM069
	0935	7799008699097		1	1	77211738	2019-01-04 13:18:29	1:18:29 PM	772117381335230.04535276PLM069	PLM069
	0935	7799008699097		1	1	77211738	2019-01-04 13:18:32	1:18:32 PM	772117381335230.04535276PLM069	PLM069
	0935	7799008699097		1	1	77211738	2019-01-04 13:18:36	1:18:36 PM	772117381335230.04535276PLM069	PLM069
	0935	7799008699097		1	1	77211738	2019-01-04 13:18:44	1:18:44 PM	772117381335230.04535276PLM069	PLM069
	0935	7799008699097		1	1	77211738	2019-01-04 13:18:47	1:18:47 PM	772117381335230.04535276PLM069	PLM069
	0935	7799008699097		1	1	77211738	2019-01-04 13:18:56	1:18:56 PM	772117381335230.04535276PLM069	PLM069
	0935	7799008699097		1	1	77211738	2019-01-04 13:18:58	1:18:58 PM	772117381335230.04535276PLM069	PLM069
	0935	7799008699097		1	1	77211738	2019-01-04 13:18:59	1:18:59 PM	772117381335230.04535276PLM069	PLM069
	0935	7799008699097		1	1	77211738	2019-01-04 13:19:03	1:19:03 PM	772117381335230.04535276PLM069	PLM069
	0935	7799008699097		1	1	77211738	2019-01-04 13:19:09	1:19:09 PM	772117381335230.04535276PLM069	PLM069
	0935	7799008699097		1	1	77211738	2019-01-04 13:19:10	1:19:10 PM	772117381335230.04535276PLM069	PLM069
	0935	7799008699097		1	1	77211738	2019-01-04 13:19:13	1:19:13 PM	772117381335230.04535276PLM069	PLM069
	0935	7799008699097		1	1	77211738	2019-01-04 13:19:15	1:19:15 PM	772117381335230.04535276PLM069	PLM069
	0935	7799008699097		1	1	77211738	2019-01-04 13:19:16	1:19:16 PM	772117381335230.04535276PLM069	PLM069
	0935	7799008699097		1	1	77211738	2019-01-04 13:19:27	1:19:27 PM	772117381335230.04535276PLM069	PLM069
	0935	7799008699097		1	1	77211738	2019-01-04 13:19:37	1:19:37 PM	772117381335230.04535276PLM069	PLM069
	0935	7799008699097		1	1	77211738	2019-01-04 13:19:40	1:19:40 PM	772117381335230.04535276PLM069	PLM069
	0935	7799008699097		1	1	77211738	2019-01-04 13:19:47	1:19:47 PM	772117381335230.04535276PLM069	PLM069
	0935	7799008699097		1	1	77211738	2019-01-04 13:19:48	1:19:48 PM	772117381335230.04535276PLM069	PLM069
	0935	7799008699097		1	1	77211738	2019-01-04 13:19:57	1:19:57 PM	772117381335230.04535276PLM069	PLM069
	0935	7799008699097		1	1	77211738	2019-01-04 13:19:59	1:19:59 PM	772117381335230.04535276PLM069	PLM069
	0935	7799008699097		1	1	77211738	2019-01-04 13:20:04	1:20:04 PM	772117381335230.04535276PLM069	PLM069
	0935	7799008699097		1	1	77211738	2019-01-04 13:20:08	1:20:08 PM	772117381335230.04535276PLM069	PLM069
	0935	7799008699097		1	1	77211738	2019-01-04 13:20:10	1:20:10 PM	772117381335230.04535276PLM069	PLM069
	0935	7799008699097		1	1	77211738	2019-01-04 13:20:16	1:20:16 PM	772117381335230.04535276PLM069	PLM069
	0935	7799008699097		1	1	77211738	2019-01-04 13:20:19	1:20:19 PM	772117381335230.04535276PLM069	PLM069
	0935	7799008699097		1	1	77211738	2019-01-04 13:20:20	1:20:20 PM	772117381335230.04535276PLM069	PLM069
	0935	7799008699097		1	1	77211738	2019-01-04 13:20:21	1:20:21 PM	772117381335230.04535276PLM069	PLM069
	0935	7799008699097		1	1	77211738	2019-01-04 13:20:30	1:20:30 PM	772117381335230.04535276PLM069	PLM069
	0935	7799008699097		1	1	77211738	2019-01-04 13:20:30	1:20:30 PM	772117381335230.04535276PLM069	PLM069
	0935	7799008699097		1	1	77211738	2019-01-04 13:20:35	1:20:35 PM	772117381335230.04535276PLM069	PLM069
	0935	7799008699097		1	1	77211738	2019-01-04 13:20:36	1:20:36 PM	772117381335230.04535276PLM069	PLM069
	0935	7799008699097		1	1	77211738	2019-01-04 13:20:37	1:20:37 PM	772117381335230.04535276PLM069	PLM069
	0935	7799008699097		1	1	77211738	2019-01-04 13:20:49	1:20:49 PM	772117381335230.04535276PLM069	PLM069
	0935	7799008699097		1	1	77211738	2019-01-04 13:20:52	1:20:52 PM	772117381335230.04535276PLM069	PLM069
	0935	7799008699097		1	1	77211738	2019-01-04 13:20:56	1:20:56 PM	772117381335230.04535276PLM069	PLM069
	0935	7799008699097		1	1	77211738	2019-01-04 13:20:59	1:20:59 PM	772117381335230.04535276PLM069	PLM069
	0935	7799008699097		1	1	77211738	2019-01-04 13:21:01	1:21:01 PM	772117381335230.04535276PLM069	PLM069
	0935	7799008699097		1	1	77211738	2019-01-04 13:21:04	1:21:04 PM	772117381335230.04535276PLM069	PLM069
	0935	7799008699097		1	1	77211738	2019-01-04 13:21:07	1:21:07 PM	772117381335230.04535276PLM069	PLM069
	0935	7799008699097		1	1	77211738	2019-01-04 13:21:08	1:21:08 PM	772117381335230.04535276PLM069	PLM069
	0935	7799008699097		1	1	77211738	2019-01-04 13:21:15	1:21:15 PM	772117381335230.04535276PLM069	PLM069
	0935	7799008699097		1	1	77211738	2019-01-04 13:21:18	1:21:18 PM	772117381335230.04535276PLM069	PLM069
	0935	7799021032178		1	1	77211738	2019-01-04 13:23:53	1:23:53 PM	772117381335230.04535276PLM069	PLM069
	0935	7799021032178		1	1	77211738	2019-01-04 13:23:57	1:23:57 PM	772117381335230.04535276PLM069	PLM069
	0935	7799021032178		1	1	77211738	2019-01-04 13:23:58	1:23:58 PM	772117381335230.04535276PLM069	PLM069
	0935	7799021032178		1	1	77211738	2019-01-04 13:24:04	1:24:04 PM	772117381335230.04535276PLM069	PLM069
	0935	7799021032178		1	1	77211738	2019-01-04 13:24:08	1:24:08 PM	772117381335230.04535276PLM069	PLM069
	0935	7799021032178		1	1	77211738	2019-01-04 13:24:09	1:24:09 PM	772117381335230.04535276PLM069	PLM069
	0935	7799021032178		1	1	77211738	2019-01-04 13:24:11	1:24:11 PM	772117381335230.04535276PLM069	PLM069
	0935	7799021032178		1	1	77211738	2019-01-04 13:24:13	1:24:13 PM	772117381335230.04535276PLM069	PLM069
	0935	7799021032178		1	1	77211738	2019-01-04 13:24:14	1:24:14 PM	772117381335230.04535276PLM069	PLM069
	0935	7799021032178		1	1	77211738	2019-01-04 13:24:22	1:24:22 PM	772117381335230.04535276PLM069	PLM069
	0935	7799021032178		1	1	77211738	2019-01-04 13:24:24	1:24:24 PM	772117381335230.04535276PLM069	PLM069
	0935	7799021032178		1	1	77211738	2019-01-04 13:24:26	1:24:26 PM	772117381335230.04535276PLM069	PLM069
	0935	7799021032178		1	1	77211738	2019-01-04 13:24:29	1:24:29 PM	772117381335230.04535276PLM069	PLM069
	0935	7799021032178		1	1	77211738	2019-01-04 13:24:32	1:24:32 PM	772117381335230.04535276PLM069	PLM069
	0935	7799021032178		1	1	77211738	2019-01-04 13:24:34	1:24:34 PM	772117381335230.04535276PLM069	PLM069
	0935	7799021032178		1	1	77211738	2019-01-04 13:24:41	1:24:41 PM	772117381335230.04535276PLM069	PLM069
	0935	7799021032178		1	1	77211738	2019-01-04 13:24:49	1:24:49 PM	772117381335230.04535276PLM069	PLM069
	0935	7799021032178		1	1	77211738	2019-01-04 13:24:50	1:24:50 PM	772117381335230.04535276PLM069	PLM069
	0935	7799021032178		1	1	77211738	2019-01-04 13:24:53	1:24:53 PM	772117381335230.04535276PLM069	PLM069
	0935	7799021032178		1	1	77211738	2019-01-04 13:25:02	1:25:02 PM	772117381335230.04535276PLM069	PLM069
	0935	7799021032178		1	1	77211738	2019-01-04 13:25:03	1:25:03 PM	772117381335230.04535276PLM069	PLM069
	0935	7799021032178		1	1	77211738	2019-01-04 13:25:14	1:25:14 PM	772117381335230.04535276PLM069	PLM069
	0935	7799021032178		1	1	77211738	2019-01-04 13:25:20	1:25:20 PM	772117381335230.04535276PLM069	PLM069
	0935	7799021032178		1	1	77211738	2019-01-04 13:25:24	1:25:24 PM	772117381335230.04535276PLM069	PLM069
	0935	7799021032178		1	1	77211738	2019-01-04 13:25:28	1:25:28 PM	772117381335230.04535276PLM069	PLM069
	0935	7799021032178		1	1	77211738	2019-01-04 13:25:31	1:25:31 PM	772117381335230.04535276PLM069	PLM069
	0935	7799021032178		1	1	77211738	2019-01-04 13:25:34	1:25:34 PM	772117381335230.04535276PLM069	PLM069
	0935	7799021032178		1	1	77211738	2019-01-04 13:25:38	1:25:38 PM	772117381335230.04535276PLM069	PLM069
	0935	7799021032178		1	1	77211738	2019-01-04 13:25:39	1:25:39 PM	772117381335230.04535276PLM069	PLM069
	0935	7799021032178		1	1	77211738	2019-01-04 13:25:41	1:25:41 PM	772117381335230.04535276PLM069	PLM069
	0935	7799021032178		1	1	77211738	2019-01-04 13:25:45	1:25:45 PM	772117381335230.04535276PLM069	PLM069
	0935	7799021032178		1	1	77211738	2019-01-04 13:25:46	1:25:46 PM	772117381335230.04535276PLM069	PLM069
	0935	7799021032178		1	1	77211738	2019-01-04 13:25:48	1:25:48 PM	772117381335230.04535276PLM069	PLM069
	0935	7799021032178		1	1	77211738	2019-01-04 13:25:53	1:25:53 PM	772117381335230.04535276PLM069	PLM069
	0935	7799021032178		1	1	77211738	2019-01-04 13:25:55	1:25:55 PM	772117381335230.04535276PLM069	PLM069
	0935	7799021032178		1	1	77211738	2019-01-04 13:25:59	1:25:59 PM	772117381335230.04535276PLM069	PLM069
	0935	7799021032178		1	1	77211738	2019-01-04 13:26:09	1:26:09 PM	772117381335230.04535276PLM069	PLM069
	0935	7799021032178		1	1	77211738	2019-01-04 13:26:10	1:26:10 PM	772117381335230.04535276PLM069	PLM069
	0935	7799021032178		1	1	77211738	2019-01-04 13:26:12	1:26:12 PM	772117381335230.04535276PLM069	PLM069
	0935	7799021032178		1	1	77211738	2019-01-04 13:26:26	1:26:26 PM	772117381335230.04535276PLM069	PLM069
	0935	7799021032178		1	1	77211738	2019-01-04 13:26:27	1:26:27 PM	772117381335230.04535276PLM069	PLM069
	0935	7799021032178		1	1	77211738	2019-01-04 13:26:29	1:26:29 PM	772117381335230.04535276PLM069	PLM069
	0935	7799021032178		1	1	77211738	2019-01-04 13:26:34	1:26:34 PM	772117381335230.04535276PLM069	PLM069
	0935	7799021032178		1	1	77211738	2019-01-04 13:26:37	1:26:37 PM	772117381335230.04535276PLM069	PLM069
	0935	7799021032178		1	1	77211738	2019-01-04 13:26:38	1:26:38 PM	772117381335230.04535276PLM069	PLM069
	0935	7799021032178		1	1	77211738	2019-01-04 13:26:45	1:26:45 PM	772117381335230.04535276PLM069	PLM069
	0935	7799021032178		1	1	77211738	2019-01-04 13:26:47	1:26:47 PM	772117381335230.04535276PLM069	PLM069
	0935	7799021032178		1	1	77211738	2019-01-04 13:26:48	1:26:48 PM	772117381335230.04535276PLM069	PLM069
	0935	7799021032178		1	1	77211738	2019-01-04 13:26:53	1:26:53 PM	772117381335230.04535276PLM069	PLM069
	0935	7799021032178		1	1	77211738	2019-01-04 13:26:54	1:26:54 PM	772117381335230.04535276PLM069	PLM069
	0935	7799021032178		1	1	77211738	2019-01-04 13:27:01	1:27:01 PM	772117381335230.04535276PLM069	PLM069
	0935	7799021032178		1	1	77211738	2019-01-04 13:27:03	1:27:03 PM	772117381335230.04535276PLM069	PLM069
	0935	7799021032178		1	1	77211738	2019-01-04 13:27:05	1:27:05 PM	772117381335230.04535276PLM069	PLM069
	0935	7799021032178		1	1	77211738	2019-01-04 13:27:09	1:27:09 PM	772117381335230.04535276PLM069	PLM069
	0935	7799021032178		1	1	77211738	2019-01-04 13:27:10	1:27:10 PM	772117381335230.04535276PLM069	PLM069
	0935	7799021032178		1	1	77211738	2019-01-04 13:27:11	1:27:11 PM	772117381335230.04535276PLM069	PLM069
	0935	7799021032178		1	1	77211738	2019-01-04 13:27:15	1:27:15 PM	772117381335230.04535276PLM069	PLM069
	0935	7799021032178		1	1	77211738	2019-01-04 13:27:18	1:27:18 PM	772117381335230.04535276PLM069	PLM069
	0935	7799021032178		1	1	77211738	2019-01-04 13:27:21	1:27:21 PM	772117381335230.04535276PLM069	PLM069
	0935	7799021032178		1	1	77211738	2019-01-04 13:27:25	1:27:25 PM	772117381335230.04535276PLM069	PLM069
	0935	7799021032178		1	1	77211738	2019-01-04 13:27:27	1:27:27 PM	772117381335230.04535276PLM069	PLM069
	0935	7799021032178		1	1	77211738	2019-01-04 13:27:29	1:27:29 PM	772117381335230.04535276PLM069	PLM069
	0935	7799021032178		1	1	77211738	2019-01-04 13:27:33	1:27:33 PM	772117381335230.04535276PLM069	PLM069
	0935	7799021032178		1	1	77211738	2019-01-04 13:27:34	1:27:34 PM	772117381335230.04535276PLM069	PLM069
	0935	7799021032178		1	1	77211738	2019-01-04 13:27:35	1:27:35 PM	772117381335230.04535276PLM069	PLM069
	0935	7799021032178		1	1	77211738	2019-01-04 13:27:39	1:27:39 PM	772117381335230.04535276PLM069	PLM069
	0935	7799021032178		1	1	77211738	2019-01-04 13:27:43	1:27:43 PM	772117381335230.04535276PLM069	PLM069
	0935	7799021032178		1	1	77211738	2019-01-04 13:27:44	1:27:44 PM	772117381335230.04535276PLM069	PLM069
	0934	7799008917467		1	1	77211738	2019-01-04 13:28:17	1:28:17 PM	772117381335230.04535276PLM069	PLM069
	0934	7799008917467		1	1	77211738	2019-01-04 13:28:19	1:28:19 PM	772117381335230.04535276PLM069	PLM069
	0934	7799008917467		1	1	77211738	2019-01-04 13:28:20	1:28:20 PM	772117381335230.04535276PLM069	PLM069
