	0225	7799008990606		1	1	77211738	2019-01-04 10:25:46	10:25:46 AM	772117381117240.7607236PLM069	PLM069
	0225	7799008990606		1	1	77211738	2019-01-04 10:26:28	10:26:28 AM	772117381117240.7607236PLM069	PLM069
	0225	7799008990606		1	1	77211738	2019-01-04 10:26:29	10:26:29 AM	772117381117240.7607236PLM069	PLM069
	0225	7799008990606		1	1	77211738	2019-01-04 10:26:30	10:26:30 AM	772117381117240.7607236PLM069	PLM069
	0225	7799008990606		1	1	77211738	2019-01-04 10:26:39	10:26:39 AM	772117381117240.7607236PLM069	PLM069
	0225	7799008990606		1	1	77211738	2019-01-04 10:26:40	10:26:40 AM	772117381117240.7607236PLM069	PLM069
	0225	7799008990606		1	1	77211738	2019-01-04 10:26:41	10:26:41 AM	772117381117240.7607236PLM069	PLM069
	0225	7799008990606		1	1	77211738	2019-01-04 10:26:49	10:26:49 AM	772117381117240.7607236PLM069	PLM069
	0225	7799008990606		1	1	77211738	2019-01-04 10:26:50	10:26:50 AM	772117381117240.7607236PLM069	PLM069
	0225	7799008990606		1	1	77211738	2019-01-04 10:26:53	10:26:53 AM	772117381117240.7607236PLM069	PLM069
	0225	7799008990606		1	1	77211738	2019-01-04 10:27:01	10:27:01 AM	772117381117240.7607236PLM069	PLM069
	0225	7799008990606		1	1	77211738	2019-01-04 10:27:04	10:27:04 AM	772117381117240.7607236PLM069	PLM069
	0225	7799008990606		1	1	77211738	2019-01-04 10:27:05	10:27:05 AM	772117381117240.7607236PLM069	PLM069
	0225	7799008990606		1	1	77211738	2019-01-04 10:27:13	10:27:13 AM	772117381117240.7607236PLM069	PLM069
	0225	7799008990606		1	1	77211738	2019-01-04 10:27:14	10:27:14 AM	772117381117240.7607236PLM069	PLM069
	0225	7799008990606		1	1	77211738	2019-01-04 10:27:15	10:27:15 AM	772117381117240.7607236PLM069	PLM069
	0225	7799008990606		1	1	77211738	2019-01-04 10:27:25	10:27:25 AM	772117381117240.7607236PLM069	PLM069
	0225	7799008990606		1	1	77211738	2019-01-04 10:27:26	10:27:26 AM	772117381117240.7607236PLM069	PLM069
	0225	7799008990606		1	1	77211738	2019-01-04 10:27:27	10:27:27 AM	772117381117240.7607236PLM069	PLM069
	0225	7799008990606		1	1	77211738	2019-01-04 10:27:34	10:27:34 AM	772117381117240.7607236PLM069	PLM069
	0225	7799008768274		1	1	77211738	2019-01-04 10:27:57	10:27:57 AM	772117381117240.7607236PLM069	PLM069
	0225	7799008768274		1	1	77211738	2019-01-04 10:28:01	10:28:01 AM	772117381117240.7607236PLM069	PLM069
	0225	7799008768274		1	1	77211738	2019-01-04 10:28:03	10:28:03 AM	772117381117240.7607236PLM069	PLM069
	0225	7799008768274		1	1	77211738	2019-01-04 10:28:15	10:28:15 AM	772117381117240.7607236PLM069	PLM069
	0225	7799008768274		1	1	77211738	2019-01-04 10:28:35	10:28:35 AM	772117381117240.7607236PLM069	PLM069
	0225	7799008768274		1	1	77211738	2019-01-04 10:28:41	10:28:41 AM	772117381117240.7607236PLM069	PLM069
	0225	7799008768274		1	1	77211738	2019-01-04 10:29:01	10:29:01 AM	772117381117240.7607236PLM069	PLM069
	0225	7799008768274		1	1	77211738	2019-01-04 10:29:02	10:29:02 AM	772117381117240.7607236PLM069	PLM069
	0225	7799008768274		1	1	77211738	2019-01-04 10:29:03	10:29:03 AM	772117381117240.7607236PLM069	PLM069
	0225	7799008768274		1	1	77211738	2019-01-04 10:29:26	10:29:26 AM	772117381117240.7607236PLM069	PLM069
	0225	7799008768274		1	1	77211738	2019-01-04 10:29:28	10:29:28 AM	772117381117240.7607236PLM069	PLM069
	0225	7799008768274		1	1	77211738	2019-01-04 10:29:32	10:29:32 AM	772117381117240.7607236PLM069	PLM069
	0225	7799008768274		1	1	77211738	2019-01-04 10:29:50	10:29:50 AM	772117381117240.7607236PLM069	PLM069
	0225	7799008768274		1	1	77211738	2019-01-04 10:29:51	10:29:51 AM	772117381117240.7607236PLM069	PLM069
	0225	7799008768274		1	1	77211738	2019-01-04 10:29:52	10:29:52 AM	772117381117240.7607236PLM069	PLM069
	0225	7799008768274		1	1	77211738	2019-01-04 10:30:43	10:30:43 AM	772117381117240.7607236PLM069	PLM069
	0225	7799008768274		1	1	77211738	2019-01-04 10:30:45	10:30:45 AM	772117381117240.7607236PLM069	PLM069
	0225	7799008768274		1	1	77211738	2019-01-04 10:30:46	10:30:46 AM	772117381117240.7607236PLM069	PLM069
	0225	7799008768274		1	1	77211738	2019-01-04 10:31:03	10:31:03 AM	772117381117240.7607236PLM069	PLM069
	0225	7799008768274		1	1	77211738	2019-01-04 10:31:05	10:31:05 AM	772117381117240.7607236PLM069	PLM069
	0225	7799008768274		1	1	77211738	2019-01-04 10:31:06	10:31:06 AM	772117381117240.7607236PLM069	PLM069
	0225	7799008768274		1	1	77211738	2019-01-04 10:31:40	10:31:40 AM	772117381117240.7607236PLM069	PLM069
	0225	7799008768274		1	1	77211738	2019-01-04 10:31:41	10:31:41 AM	772117381117240.7607236PLM069	PLM069
	0225	7799008768274		1	1	77211738	2019-01-04 10:31:42	10:31:42 AM	772117381117240.7607236PLM069	PLM069
	0225	7799008768274		1	1	77211738	2019-01-04 10:32:15	10:32:15 AM	772117381117240.7607236PLM069	PLM069
	0225	7799008768274		1	1	77211738	2019-01-04 10:32:17	10:32:17 AM	772117381117240.7607236PLM069	PLM069
	0225	7799008768274		1	1	77211738	2019-01-04 10:32:18	10:32:18 AM	772117381117240.7607236PLM069	PLM069
	0225	7799008768274		1	1	77211738	2019-01-04 10:32:37	10:32:37 AM	772117381117240.7607236PLM069	PLM069
	0225	7799008768274		1	1	77211738	2019-01-04 10:32:38	10:32:38 AM	772117381117240.7607236PLM069	PLM069
	0225	7799008768274		1	1	77211738	2019-01-04 10:32:39	10:32:39 AM	772117381117240.7607236PLM069	PLM069
	0225	7799008768274		1	1	77211738	2019-01-04 10:32:50	10:32:50 AM	772117381117240.7607236PLM069	PLM069
	0225	7799008768274		1	1	77211738	2019-01-04 10:32:51	10:32:51 AM	772117381117240.7607236PLM069	PLM069
	0225	7799008768274		1	1	77211738	2019-01-04 10:32:52	10:32:52 AM	772117381117240.7607236PLM069	PLM069
	0225	7799008768274		1	1	77211738	2019-01-04 10:33:03	10:33:03 AM	772117381117240.7607236PLM069	PLM069
	0225	7799008768274		1	1	77211738	2019-01-04 10:33:08	10:33:08 AM	772117381117240.7607236PLM069	PLM069
	0225	7799008768274		1	1	77211738	2019-01-04 10:33:10	10:33:10 AM	772117381117240.7607236PLM069	PLM069
	0225	7799008768274		1	1	77211738	2019-01-04 10:35:32	10:35:32 AM	772117381117240.7607236PLM069	PLM069
	0231	7799008341262		1	1	77211738	2019-01-04 10:38:00	10:38:00 AM	772117381117240.7607236PLM069	PLM069
	0231	7799008341262		1	1	77211738	2019-01-04 10:38:01	10:38:01 AM	772117381117240.7607236PLM069	PLM069
	0231	7799008341262		1	1	77211738	2019-01-04 10:38:02	10:38:02 AM	772117381117240.7607236PLM069	PLM069
	0231	7799008341262		1	1	77211738	2019-01-04 10:38:10	10:38:10 AM	772117381117240.7607236PLM069	PLM069
	0231	7799008341262		1	1	77211738	2019-01-04 10:38:11	10:38:11 AM	772117381117240.7607236PLM069	PLM069
	0231	7799008341262		1	1	77211738	2019-01-04 10:38:13	10:38:13 AM	772117381117240.7607236PLM069	PLM069
	0231	7799008341262		1	1	77211738	2019-01-04 10:38:16	10:38:16 AM	772117381117240.7607236PLM069	PLM069
	0231	7799008341262		1	1	77211738	2019-01-04 10:38:17	10:38:17 AM	772117381117240.7607236PLM069	PLM069
	0231	7799008341262		1	1	77211738	2019-01-04 10:38:19	10:38:19 AM	772117381117240.7607236PLM069	PLM069
	0231	7799008341262		1	1	77211738	2019-01-04 10:38:24	10:38:24 AM	772117381117240.7607236PLM069	PLM069
	0231	7799008341262		1	1	77211738	2019-01-04 10:38:25	10:38:25 AM	772117381117240.7607236PLM069	PLM069
	0231	7799008341262		1	1	77211738	2019-01-04 10:38:26	10:38:26 AM	772117381117240.7607236PLM069	PLM069
	0231	7799008341262		1	1	77211738	2019-01-04 10:38:30	10:38:30 AM	772117381117240.7607236PLM069	PLM069
	0231	7799008341262		1	1	77211738	2019-01-04 10:38:31	10:38:31 AM	772117381117240.7607236PLM069	PLM069
	0231	7799008341262		1	1	77211738	2019-01-04 10:38:32	10:38:32 AM	772117381117240.7607236PLM069	PLM069
	0231	7799008341262		1	1	77211738	2019-01-04 10:38:35	10:38:35 AM	772117381117240.7607236PLM069	PLM069
	0231	7799008341262		1	1	77211738	2019-01-04 10:38:36	10:38:36 AM	772117381117240.7607236PLM069	PLM069
	0231	7799008341262		1	1	77211738	2019-01-04 10:38:38	10:38:38 AM	772117381117240.7607236PLM069	PLM069
	0231	7799008341262		1	1	77211738	2019-01-04 10:38:40	10:38:40 AM	772117381117240.7607236PLM069	PLM069
	0231	7799008341262		1	1	77211738	2019-01-04 10:38:41	10:38:41 AM	772117381117240.7607236PLM069	PLM069
	0231	7799008341262		1	1	77211738	2019-01-04 10:38:43	10:38:43 AM	772117381117240.7607236PLM069	PLM069
	0231	7799008341262		1	1	77211738	2019-01-04 10:38:49	10:38:49 AM	772117381117240.7607236PLM069	PLM069
	0231	7799008341262		1	1	77211738	2019-01-04 10:38:50	10:38:50 AM	772117381117240.7607236PLM069	PLM069
	0231	7799008341262		1	1	77211738	2019-01-04 10:38:53	10:38:53 AM	772117381117240.7607236PLM069	PLM069
	0231	7799008341262		1	1	77211738	2019-01-04 10:38:57	10:38:57 AM	772117381117240.7607236PLM069	PLM069
	0231	7799008341262		1	1	77211738	2019-01-04 10:38:59	10:38:59 AM	772117381117240.7607236PLM069	PLM069
	0231	7799008341262		1	1	77211738	2019-01-04 10:39:00	10:39:00 AM	772117381117240.7607236PLM069	PLM069
	0231	7799008341262		1	1	77211738	2019-01-04 10:39:07	10:39:07 AM	772117381117240.7607236PLM069	PLM069
	0231	7799008341262		1	1	77211738	2019-01-04 10:39:09	10:39:09 AM	772117381117240.7607236PLM069	PLM069
	0231	7799008341262		1	1	77211738	2019-01-04 10:39:13	10:39:13 AM	772117381117240.7607236PLM069	PLM069
	0231	7799008341262		1	1	77211738	2019-01-04 10:39:17	10:39:17 AM	772117381117240.7607236PLM069	PLM069
	0231	7799008341262		1	1	77211738	2019-01-04 10:39:19	10:39:19 AM	772117381117240.7607236PLM069	PLM069
	0231	7799008341262		1	1	77211738	2019-01-04 10:39:21	10:39:21 AM	772117381117240.7607236PLM069	PLM069
	0231	7799008341262		1	1	77211738	2019-01-04 10:39:24	10:39:24 AM	772117381117240.7607236PLM069	PLM069
	0231	7799008341262		1	1	77211738	2019-01-04 10:39:27	10:39:27 AM	772117381117240.7607236PLM069	PLM069
	0231	7799008341262		1	1	77211738	2019-01-04 10:39:30	10:39:30 AM	772117381117240.7607236PLM069	PLM069
	0231	7799008341262		1	1	77211738	2019-01-04 10:39:33	10:39:33 AM	772117381117240.7607236PLM069	PLM069
	0231	7799008341262		1	1	77211738	2019-01-04 10:39:36	10:39:36 AM	772117381117240.7607236PLM069	PLM069
	0231	7799008341262		1	1	77211738	2019-01-04 10:39:37	10:39:37 AM	772117381117240.7607236PLM069	PLM069
	0231	7799008341262		1	1	77211738	2019-01-04 10:39:42	10:39:42 AM	772117381117240.7607236PLM069	PLM069
	0231	7799008341262		1	1	77211738	2019-01-04 10:39:42	10:39:42 AM	772117381117240.7607236PLM069	PLM069
	0231	7799008341262		1	1	77211738	2019-01-04 10:40:05	10:40:05 AM	772117381117240.7607236PLM069	PLM069
	0231	7799008341262		1	1	77211738	2019-01-04 10:40:13	10:40:13 AM	772117381117240.7607236PLM069	PLM069
	0231	7799008341262		1	1	77211738	2019-01-04 10:40:14	10:40:14 AM	772117381117240.7607236PLM069	PLM069
	0231	7799008341262		1	1	77211738	2019-01-04 10:40:15	10:40:15 AM	772117381117240.7607236PLM069	PLM069
	0231	7799008341262		1	1	77211738	2019-01-04 10:40:24	10:40:24 AM	772117381117240.7607236PLM069	PLM069
	0231	7799008341262		1	1	77211738	2019-01-04 10:40:25	10:40:25 AM	772117381117240.7607236PLM069	PLM069
	0231	7799008341262		1	1	77211738	2019-01-04 10:40:29	10:40:29 AM	772117381117240.7607236PLM069	PLM069
	0231	7799008341262		1	1	77211738	2019-01-04 10:40:35	10:40:35 AM	772117381117240.7607236PLM069	PLM069
	0231	7799008341262		1	1	77211738	2019-01-04 10:40:35	10:40:35 AM	772117381117240.7607236PLM069	PLM069
	0231	7799008341262		1	1	77211738	2019-01-04 10:40:40	10:40:40 AM	772117381117240.7607236PLM069	PLM069
	0231	7799008341262		1	1	77211738	2019-01-04 10:40:43	10:40:43 AM	772117381117240.7607236PLM069	PLM069
	0231	7799008341262		1	1	77211738	2019-01-04 10:40:44	10:40:44 AM	772117381117240.7607236PLM069	PLM069
	0231	7799008341262		1	1	77211738	2019-01-04 10:40:46	10:40:46 AM	772117381117240.7607236PLM069	PLM069
	0231	7799008341262		1	1	77211738	2019-01-04 10:40:50	10:40:50 AM	772117381117240.7607236PLM069	PLM069
	0231	7799008341262		1	1	77211738	2019-01-04 10:40:51	10:40:51 AM	772117381117240.7607236PLM069	PLM069
	0231	7799008341262		1	1	77211738	2019-01-04 10:40:56	10:40:56 AM	772117381117240.7607236PLM069	PLM069
	0231	7799008341262		1	1	77211738	2019-01-04 10:41:00	10:41:00 AM	772117381117240.7607236PLM069	PLM069
	0231	7799008341262		1	1	77211738	2019-01-04 10:41:02	10:41:02 AM	772117381117240.7607236PLM069	PLM069
	0231	7799008341262		1	1	77211738	2019-01-04 10:41:05	10:41:05 AM	772117381117240.7607236PLM069	PLM069
	0231	7799008341262		1	1	77211738	2019-01-04 10:41:12	10:41:12 AM	772117381117240.7607236PLM069	PLM069
	0231	7799008341262		1	1	77211738	2019-01-04 10:41:12	10:41:12 AM	772117381117240.7607236PLM069	PLM069
	0231	7799008341262		1	1	77211738	2019-01-04 10:41:14	10:41:14 AM	772117381117240.7607236PLM069	PLM069
	0231	7799008341262		1	1	77211738	2019-01-04 10:41:22	10:41:22 AM	772117381117240.7607236PLM069	PLM069
	0231	7799008341262		1	1	77211738	2019-01-04 10:41:23	10:41:23 AM	772117381117240.7607236PLM069	PLM069
	0231	7799008341262		1	1	77211738	2019-01-04 10:41:31	10:41:31 AM	772117381117240.7607236PLM069	PLM069
	0231	7799008341262		1	1	77211738	2019-01-04 10:41:36	10:41:36 AM	772117381117240.7607236PLM069	PLM069
	0231	7799008341262		1	1	77211738	2019-01-04 10:41:37	10:41:37 AM	772117381117240.7607236PLM069	PLM069
	0231	7799008341262		1	1	77211738	2019-01-04 10:41:44	10:41:44 AM	772117381117240.7607236PLM069	PLM069
	0231	7799008341262		1	1	77211738	2019-01-04 10:41:47	10:41:47 AM	772117381117240.7607236PLM069	PLM069
	0231	7799008341262		1	1	77211738	2019-01-04 10:41:52	10:41:52 AM	772117381117240.7607236PLM069	PLM069
	0231	7799008341262		1	1	77211738	2019-01-04 10:41:53	10:41:53 AM	772117381117240.7607236PLM069	PLM069
	0231	7799008341262		1	1	77211738	2019-01-04 10:41:59	10:41:59 AM	772117381117240.7607236PLM069	PLM069
	0231	7799008341262		1	1	77211738	2019-01-04 10:42:00	10:42:00 AM	772117381117240.7607236PLM069	PLM069
	0231	7799008341262		1	1	77211738	2019-01-04 10:42:01	10:42:01 AM	772117381117240.7607236PLM069	PLM069
	0231	7799008341262		1	1	77211738	2019-01-04 10:42:06	10:42:06 AM	772117381117240.7607236PLM069	PLM069
	0231	7799008341262		1	1	77211738	2019-01-04 10:42:07	10:42:07 AM	772117381117240.7607236PLM069	PLM069
	0231	7799008341262		1	1	77211738	2019-01-04 10:42:12	10:42:12 AM	772117381117240.7607236PLM069	PLM069
	0231	7799008341262		1	1	77211738	2019-01-04 10:42:20	10:42:20 AM	772117381117240.7607236PLM069	PLM069
	0231	7799008341262		1	1	77211738	2019-01-04 10:42:25	10:42:25 AM	772117381117240.7607236PLM069	PLM069
	0231	7799008341262		1	1	77211738	2019-01-04 10:42:28	10:42:28 AM	772117381117240.7607236PLM069	PLM069
	0231	7799008341262		1	1	77211738	2019-01-04 10:42:35	10:42:35 AM	772117381117240.7607236PLM069	PLM069
	0231	7799008341262		1	1	77211738	2019-01-04 10:42:38	10:42:38 AM	772117381117240.7607236PLM069	PLM069
	0231	7799008341262		1	1	77211738	2019-01-04 10:42:46	10:42:46 AM	772117381117240.7607236PLM069	PLM069
	0231	7799008341262		1	1	77211738	2019-01-04 10:42:55	10:42:55 AM	772117381117240.7607236PLM069	PLM069
	0231	7799008341262		1	1	77211738	2019-01-04 10:42:55	10:42:55 AM	772117381117240.7607236PLM069	PLM069
	0231	7799008341262		1	1	77211738	2019-01-04 10:43:01	10:43:01 AM	772117381117240.7607236PLM069	PLM069
	0231	7799008341262		1	1	77211738	2019-01-04 10:43:06	10:43:06 AM	772117381117240.7607236PLM069	PLM069
	0231	7799008341262		1	1	77211738	2019-01-04 10:43:07	10:43:07 AM	772117381117240.7607236PLM069	PLM069
	0231	7799008341262		1	1	77211738	2019-01-04 10:43:09	10:43:09 AM	772117381117240.7607236PLM069	PLM069
	0231	7799008341262		1	1	77211738	2019-01-04 10:43:19	10:43:19 AM	772117381117240.7607236PLM069	PLM069
	0231	7799008341262		1	1	77211738	2019-01-04 10:43:20	10:43:20 AM	772117381117240.7607236PLM069	PLM069
	0231	7799008341262		1	1	77211738	2019-01-04 10:43:21	10:43:21 AM	772117381117240.7607236PLM069	PLM069
	0231	7799008341262		1	1	77211738	2019-01-04 10:43:23	10:43:23 AM	772117381117240.7607236PLM069	PLM069
	0231	7799008341262		1	1	77211738	2019-01-04 10:43:24	10:43:24 AM	772117381117240.7607236PLM069	PLM069
	0231	7799008341262		1	1	77211738	2019-01-04 10:43:25	10:43:25 AM	772117381117240.7607236PLM069	PLM069
	0231	7799008341262		1	1	77211738	2019-01-04 10:43:35	10:43:35 AM	772117381117240.7607236PLM069	PLM069
	0231	7799008341262		1	1	77211738	2019-01-04 10:43:35	10:43:35 AM	772117381117240.7607236PLM069	PLM069
	0231	7799008341262		1	1	77211738	2019-01-04 10:43:36	10:43:36 AM	772117381117240.7607236PLM069	PLM069
	0231	7799008341262		1	1	77211738	2019-01-04 10:43:42	10:43:42 AM	772117381117240.7607236PLM069	PLM069
	0231	7799008341262		1	1	77211738	2019-01-04 10:43:43	10:43:43 AM	772117381117240.7607236PLM069	PLM069
	0231	7799008341262		1	1	77211738	2019-01-04 10:43:53	10:43:53 AM	772117381117240.7607236PLM069	PLM069
	0231	7799008341262		1	1	77211738	2019-01-04 10:43:58	10:43:58 AM	772117381117240.7607236PLM069	PLM069
	0231	7799008341262		1	1	77211738	2019-01-04 10:43:59	10:43:59 AM	772117381117240.7607236PLM069	PLM069
	0231	7799008341262		1	1	77211738	2019-01-04 10:44:00	10:44:00 AM	772117381117240.7607236PLM069	PLM069
	0231	7799008341262		1	1	77211738	2019-01-04 10:44:04	10:44:04 AM	772117381117240.7607236PLM069	PLM069
	0231	7799008341262		1	1	77211738	2019-01-04 10:44:06	10:44:06 AM	772117381117240.7607236PLM069	PLM069
	0231	7799008341262		1	1	77211738	2019-01-04 10:44:13	10:44:13 AM	772117381117240.7607236PLM069	PLM069
	0231	7799008341262		1	1	77211738	2019-01-04 10:44:24	10:44:24 AM	772117381117240.7607236PLM069	PLM069
	0231	7799008341262		1	1	77211738	2019-01-04 10:44:25	10:44:25 AM	772117381117240.7607236PLM069	PLM069
	0231	7799008341262		1	1	77211738	2019-01-04 10:44:40	10:44:40 AM	772117381117240.7607236PLM069	PLM069
	0231	7799008341262		1	1	77211738	2019-01-04 10:44:44	10:44:44 AM	772117381117240.7607236PLM069	PLM069
	0231	7799008341262		1	1	77211738	2019-01-04 10:44:45	10:44:45 AM	772117381117240.7607236PLM069	PLM069
	0231	7799008341262		1	1	77211738	2019-01-04 10:44:54	10:44:54 AM	772117381117240.7607236PLM069	PLM069
	0231	7799008341262		1	1	77211738	2019-01-04 10:45:05	10:45:05 AM	772117381117240.7607236PLM069	PLM069
	0231	7799008341262		1	1	77211738	2019-01-04 10:45:06	10:45:06 AM	772117381117240.7607236PLM069	PLM069
	0231	7799008341262		1	1	77211738	2019-01-04 10:45:18	10:45:18 AM	772117381117240.7607236PLM069	PLM069
	0231	7799008341262		1	1	77211738	2019-01-04 10:45:23	10:45:23 AM	772117381117240.7607236PLM069	PLM069
	0231	7799008341262		1	1	77211738	2019-01-04 10:45:24	10:45:24 AM	772117381117240.7607236PLM069	PLM069
	0231	7799008341262		1	1	77211738	2019-01-04 10:45:25	10:45:25 AM	772117381117240.7607236PLM069	PLM069
	0231	7799008341262		1	1	77211738	2019-01-04 10:45:36	10:45:36 AM	772117381117240.7607236PLM069	PLM069
	0231	7799008341262		1	1	77211738	2019-01-04 10:45:43	10:45:43 AM	772117381117240.7607236PLM069	PLM069
	0231	7799008341262		1	1	77211738	2019-01-04 10:45:50	10:45:50 AM	772117381117240.7607236PLM069	PLM069
	0231	7799008341262		1	1	77211738	2019-01-04 10:45:56	10:45:56 AM	772117381117240.7607236PLM069	PLM069
	0231	7799008341262		1	1	77211738	2019-01-04 10:45:57	10:45:57 AM	772117381117240.7607236PLM069	PLM069
	0231	7799008341262		1	1	77211738	2019-01-04 10:46:00	10:46:00 AM	772117381117240.7607236PLM069	PLM069
	0231	7799008341262		1	1	77211738	2019-01-04 10:46:08	10:46:08 AM	772117381117240.7607236PLM069	PLM069
	0231	7799008341262		1	1	77211738	2019-01-04 10:46:09	10:46:09 AM	772117381117240.7607236PLM069	PLM069
	0231	7799008341262		1	1	77211738	2019-01-04 10:46:13	10:46:13 AM	772117381117240.7607236PLM069	PLM069
	0231	7799008341262		1	1	77211738	2019-01-04 10:46:19	10:46:19 AM	772117381117240.7607236PLM069	PLM069
	0231	7799008341262		1	1	77211738	2019-01-04 10:46:22	10:46:22 AM	772117381117240.7607236PLM069	PLM069
	0231	7799008341262		1	1	77211738	2019-01-04 10:46:43	10:46:43 AM	772117381117240.7607236PLM069	PLM069
	0231	7799008341262		1	1	77211738	2019-01-04 10:46:50	10:46:50 AM	772117381117240.7607236PLM069	PLM069
	0231	7799008341262		1	1	77211738	2019-01-04 10:46:51	10:46:51 AM	772117381117240.7607236PLM069	PLM069
	0231	7799008341262		1	1	77211738	2019-01-04 10:46:56	10:46:56 AM	772117381117240.7607236PLM069	PLM069
	0231	7799008341262		1	1	77211738	2019-01-04 10:47:01	10:47:01 AM	772117381117240.7607236PLM069	PLM069
	0231	7799008341262		1	1	77211738	2019-01-04 10:47:02	10:47:02 AM	772117381117240.7607236PLM069	PLM069
	0231	7799008341262		1	1	77211738	2019-01-04 10:47:04	10:47:04 AM	772117381117240.7607236PLM069	PLM069
	0231	7799008341262		1	1	77211738	2019-01-04 10:47:11	10:47:11 AM	772117381117240.7607236PLM069	PLM069
	0231	7799008341262		1	1	77211738	2019-01-04 10:47:12	10:47:12 AM	772117381117240.7607236PLM069	PLM069
	0231	7799008341262		1	1	77211738	2019-01-04 10:47:17	10:47:17 AM	772117381117240.7607236PLM069	PLM069
	0231	7799008341262		1	1	77211738	2019-01-04 10:47:22	10:47:22 AM	772117381117240.7607236PLM069	PLM069
	0231	7799008341262		1	1	77211738	2019-01-04 10:47:28	10:47:28 AM	772117381117240.7607236PLM069	PLM069
	0231	7799008341262		1	1	77211738	2019-01-04 10:47:35	10:47:35 AM	772117381117240.7607236PLM069	PLM069
	0231	7799008341262		1	1	77211738	2019-01-04 10:47:45	10:47:45 AM	772117381117240.7607236PLM069	PLM069
	0231	7799008341262		1	1	77211738	2019-01-04 10:47:46	10:47:46 AM	772117381117240.7607236PLM069	PLM069
	0231	7799008341262		1	1	77211738	2019-01-04 10:47:57	10:47:57 AM	772117381117240.7607236PLM069	PLM069
	0231	7799008341262		1	1	77211738	2019-01-04 10:48:04	10:48:04 AM	772117381117240.7607236PLM069	PLM069
	0231	7799008341262		1	1	77211738	2019-01-04 10:48:05	10:48:05 AM	772117381117240.7607236PLM069	PLM069
	0231	7799008341262		1	1	77211738	2019-01-04 10:48:06	10:48:06 AM	772117381117240.7607236PLM069	PLM069
	0231	7799008341262		1	1	77211738	2019-01-04 10:48:10	10:48:10 AM	772117381117240.7607236PLM069	PLM069
	0231	7799008341262		1	1	77211738	2019-01-04 10:48:11	10:48:11 AM	772117381117240.7607236PLM069	PLM069
	0231	7799008341262		1	1	77211738	2019-01-04 10:48:12	10:48:12 AM	772117381117240.7607236PLM069	PLM069
	0231	7799008341262		1	1	77211738	2019-01-04 10:48:22	10:48:22 AM	772117381117240.7607236PLM069	PLM069
	0231	7799008341262		1	1	77211738	2019-01-04 10:48:23	10:48:23 AM	772117381117240.7607236PLM069	PLM069
	0231	7799008341262		1	1	77211738	2019-01-04 10:48:24	10:48:24 AM	772117381117240.7607236PLM069	PLM069
	0231	7799008341262		1	1	77211738	2019-01-04 10:48:32	10:48:32 AM	772117381117240.7607236PLM069	PLM069
	0231	7799008341262		1	1	77211738	2019-01-04 10:48:33	10:48:33 AM	772117381117240.7607236PLM069	PLM069
	0231	7799008341262		1	1	77211738	2019-01-04 10:48:34	10:48:34 AM	772117381117240.7607236PLM069	PLM069
	0231	7799008341262		1	1	77211738	2019-01-04 10:48:42	10:48:42 AM	772117381117240.7607236PLM069	PLM069
	0231	7799008341262		1	1	77211738	2019-01-04 10:48:44	10:48:44 AM	772117381117240.7607236PLM069	PLM069
	0231	7799008341262		1	1	77211738	2019-01-04 10:48:44	10:48:44 AM	772117381117240.7607236PLM069	PLM069
	0231	7799008341262		1	1	77211738	2019-01-04 10:48:50	10:48:50 AM	772117381117240.7607236PLM069	PLM069
	0231	7799008341262		1	1	77211738	2019-01-04 10:48:55	10:48:55 AM	772117381117240.7607236PLM069	PLM069
	0231	7799008341262		1	1	77211738	2019-01-04 10:49:04	10:49:04 AM	772117381117240.7607236PLM069	PLM069
	0231	7799008341262		1	1	77211738	2019-01-04 10:49:13	10:49:13 AM	772117381117240.7607236PLM069	PLM069
	0231	7799008341262		1	1	77211738	2019-01-04 10:49:26	10:49:26 AM	772117381117240.7607236PLM069	PLM069
	0231	7799008341262		1	1	77211738	2019-01-04 10:49:37	10:49:37 AM	772117381117240.7607236PLM069	PLM069
	0231	7799008341262		1	1	77211738	2019-01-04 10:49:49	10:49:49 AM	772117381117240.7607236PLM069	PLM069
	0231	7799008341262		1	1	77211738	2019-01-04 10:49:55	10:49:55 AM	772117381117240.7607236PLM069	PLM069
	0231	7799008341262		1	1	77211738	2019-01-04 10:50:02	10:50:02 AM	772117381117240.7607236PLM069	PLM069
	0231	7799021070200		1	1	77211738	2019-01-04 10:50:30	10:50:30 AM	772117381117240.7607236PLM069	PLM069
	0231	7799021070200		1	1	77211738	2019-01-04 10:50:32	10:50:32 AM	772117381117240.7607236PLM069	PLM069
	0231	7799021070200		1	1	77211738	2019-01-04 10:50:34	10:50:34 AM	772117381117240.7607236PLM069	PLM069
	0231	7799008341262		1	1	77211738	2019-01-04 10:50:39	10:50:39 AM	772117381117240.7607236PLM069	PLM069
	0231	7799008341262		1	1	77211738	2019-01-04 10:50:42	10:50:42 AM	772117381117240.7607236PLM069	PLM069
	0231	7799008341262		1	1	77211738	2019-01-04 10:50:45	10:50:45 AM	772117381117240.7607236PLM069	PLM069
	0231	7799008341262		1	1	77211738	2019-01-04 10:50:48	10:50:48 AM	772117381117240.7607236PLM069	PLM069
	0231	7799008341262		1	1	77211738	2019-01-04 10:50:49	10:50:49 AM	772117381117240.7607236PLM069	PLM069
	0231	7799008341262		1	1	77211738	2019-01-04 10:50:54	10:50:54 AM	772117381117240.7607236PLM069	PLM069
	0231	7799008341262		1	1	77211738	2019-01-04 10:50:56	10:50:56 AM	772117381117240.7607236PLM069	PLM069
	0231	7799008341262		1	1	77211738	2019-01-04 10:50:58	10:50:58 AM	772117381117240.7607236PLM069	PLM069
	0231	7799008341262		1	1	77211738	2019-01-04 10:51:02	10:51:02 AM	772117381117240.7607236PLM069	PLM069
	0231	7799008341262		1	1	77211738	2019-01-04 10:51:04	10:51:04 AM	772117381117240.7607236PLM069	PLM069
	0231	7799008341262		1	1	77211738	2019-01-04 10:51:04	10:51:04 AM	772117381117240.7607236PLM069	PLM069
	0231	7799008341262		1	1	77211738	2019-01-04 10:51:07	10:51:07 AM	772117381117240.7607236PLM069	PLM069
	0231	7799008341262		1	1	77211738	2019-01-04 10:51:09	10:51:09 AM	772117381117240.7607236PLM069	PLM069
	0231	7799008341262		1	1	77211738	2019-01-04 10:51:15	10:51:15 AM	772117381117240.7607236PLM069	PLM069
	0231	7799008341262		1	1	77211738	2019-01-04 10:51:19	10:51:19 AM	772117381117240.7607236PLM069	PLM069
	0231	7799008341262		1	1	77211738	2019-01-04 10:51:20	10:51:20 AM	772117381117240.7607236PLM069	PLM069
	0231	7799008341262		1	1	77211738	2019-01-04 10:51:26	10:51:26 AM	772117381117240.7607236PLM069	PLM069
	0231	7799008341262		1	1	77211738	2019-01-04 10:51:31	10:51:31 AM	772117381117240.7607236PLM069	PLM069
	0231	7799008341262		1	1	77211738	2019-01-04 10:51:41	10:51:41 AM	772117381117240.7607236PLM069	PLM069
	0231	7799008341262		1	1	77211738	2019-01-04 10:51:47	10:51:47 AM	772117381117240.7607236PLM069	PLM069
	0231	7799008341262		1	1	77211738	2019-01-04 10:51:52	10:51:52 AM	772117381117240.7607236PLM069	PLM069
	0231	7799008341262		1	1	77211738	2019-01-04 10:51:53	10:51:53 AM	772117381117240.7607236PLM069	PLM069
	0231	7799008341262		1	1	77211738	2019-01-04 10:51:59	10:51:59 AM	772117381117240.7607236PLM069	PLM069
	0231	7799008341262		1	1	77211738	2019-01-04 10:52:04	10:52:04 AM	772117381117240.7607236PLM069	PLM069
	0231	7799008341262		1	1	77211738	2019-01-04 10:52:05	10:52:05 AM	772117381117240.7607236PLM069	PLM069
	0231	7799008341262		1	1	77211738	2019-01-04 10:52:13	10:52:13 AM	772117381117240.7607236PLM069	PLM069
	0231	7799008341262		1	1	77211738	2019-01-04 10:52:17	10:52:17 AM	772117381117240.7607236PLM069	PLM069
	0231	7799008341262		1	1	77211738	2019-01-04 10:52:21	10:52:21 AM	772117381117240.7607236PLM069	PLM069
	0231	7799008341262		1	1	77211738	2019-01-04 10:52:22	10:52:22 AM	772117381117240.7607236PLM069	PLM069
	0231	7799008341262		1	1	77211738	2019-01-04 10:52:26	10:52:26 AM	772117381117240.7607236PLM069	PLM069
	0231	7799008341262		1	1	77211738	2019-01-04 10:52:30	10:52:30 AM	772117381117240.7607236PLM069	PLM069
	0231	7799008341262		1	1	77211738	2019-01-04 10:52:39	10:52:39 AM	772117381117240.7607236PLM069	PLM069
	0231	7799008341262		1	1	77211738	2019-01-04 10:52:45	10:52:45 AM	772117381117240.7607236PLM069	PLM069
	0231	7799008341262		1	1	77211738	2019-01-04 10:52:49	10:52:49 AM	772117381117240.7607236PLM069	PLM069
	0231	7799008341262		1	1	77211738	2019-01-04 10:52:50	10:52:50 AM	772117381117240.7607236PLM069	PLM069
	0231	7799008341262		1	1	77211738	2019-01-04 10:52:56	10:52:56 AM	772117381117240.7607236PLM069	PLM069
	0231	7799008341262		1	1	77211738	2019-01-04 10:52:57	10:52:57 AM	772117381117240.7607236PLM069	PLM069
	0231	7799008341262		1	1	77211738	2019-01-04 10:53:03	10:53:03 AM	772117381117240.7607236PLM069	PLM069
	0231	7799008341262		1	1	77211738	2019-01-04 10:53:06	10:53:06 AM	772117381117240.7607236PLM069	PLM069
	0231	7799008341262		1	1	77211738	2019-01-04 10:53:07	10:53:07 AM	772117381117240.7607236PLM069	PLM069
	0231	7799008341262		1	1	77211738	2019-01-04 10:53:09	10:53:09 AM	772117381117240.7607236PLM069	PLM069
	0231	7799008341262		1	1	77211738	2019-01-04 10:53:17	10:53:17 AM	772117381117240.7607236PLM069	PLM069
	0231	7799008341262		1	1	77211738	2019-01-04 10:53:18	10:53:18 AM	772117381117240.7607236PLM069	PLM069
	0231	7799008341262		1	1	77211738	2019-01-04 10:53:22	10:53:22 AM	772117381117240.7607236PLM069	PLM069
	0231	7799008341262		1	1	77211738	2019-01-04 10:53:30	10:53:30 AM	772117381117240.7607236PLM069	PLM069
	0231	7799008341262		1	1	77211738	2019-01-04 10:53:33	10:53:33 AM	772117381117240.7607236PLM069	PLM069
	0231	7799008341262		1	1	77211738	2019-01-04 10:53:38	10:53:38 AM	772117381117240.7607236PLM069	PLM069
	0232	7799021056112		1	1	77211738	2019-01-04 10:58:26	10:58:26 AM	772117381117240.7607236PLM069	PLM069
	0232	7799021056112		1	1	77211738	2019-01-04 10:58:42	10:58:42 AM	772117381117240.7607236PLM069	PLM069
	0232	7799021056112		1	1	77211738	2019-01-04 10:58:43	10:58:43 AM	772117381117240.7607236PLM069	PLM069
	0232	7799021056112		1	1	77211738	2019-01-04 10:58:44	10:58:44 AM	772117381117240.7607236PLM069	PLM069
	0232	7799021056112		1	1	77211738	2019-01-04 10:59:01	10:59:01 AM	772117381117240.7607236PLM069	PLM069
	0232	7799021056112		1	1	77211738	2019-01-04 10:59:02	10:59:02 AM	772117381117240.7607236PLM069	PLM069
	0232	7799021056112		1	1	77211738	2019-01-04 10:59:30	10:59:30 AM	772117381117240.7607236PLM069	PLM069
	0232	7799021056112		1	1	77211738	2019-01-04 10:59:32	10:59:32 AM	772117381117240.7607236PLM069	PLM069
	0232	7799021056112		1	1	77211738	2019-01-04 10:59:32	10:59:32 AM	772117381117240.7607236PLM069	PLM069
	0232	7799021056112		1	1	77211738	2019-01-04 10:59:48	10:59:48 AM	772117381117240.7607236PLM069	PLM069
	0232	7799021056112		1	1	77211738	2019-01-04 10:59:48	10:59:48 AM	772117381117240.7607236PLM069	PLM069
	0232	7799021056112		1	1	77211738	2019-01-04 10:59:49	10:59:49 AM	772117381117240.7607236PLM069	PLM069
	0232	7799021056112		1	1	77211738	2019-01-04 11:00:08	11:00:08 AM	772117381117240.7607236PLM069	PLM069
	0232	7799021056112		1	1	77211738	2019-01-04 11:00:11	11:00:11 AM	772117381117240.7607236PLM069	PLM069
	0232	7799021056112		1	1	77211738	2019-01-04 11:00:12	11:00:12 AM	772117381117240.7607236PLM069	PLM069
	0232	7799021056112		1	1	77211738	2019-01-04 11:00:30	11:00:30 AM	772117381117240.7607236PLM069	PLM069
	0232	7799021056112		1	1	77211738	2019-01-04 11:00:31	11:00:31 AM	772117381117240.7607236PLM069	PLM069
	0232	7799021056112		1	1	77211738	2019-01-04 11:00:33	11:00:33 AM	772117381117240.7607236PLM069	PLM069
	0232	7799021056112		1	1	77211738	2019-01-04 11:00:54	11:00:54 AM	772117381117240.7607236PLM069	PLM069
	0232	7799021056112		1	1	77211738	2019-01-04 11:00:56	11:00:56 AM	772117381117240.7607236PLM069	PLM069
	0232	7799021056112		1	1	77211738	2019-01-04 11:00:56	11:00:56 AM	772117381117240.7607236PLM069	PLM069
	0232	7799021056112		1	1	77211738	2019-01-04 11:01:21	11:01:21 AM	772117381117240.7607236PLM069	PLM069
	0232	7799021056112		1	1	77211738	2019-01-04 11:01:21	11:01:21 AM	772117381117240.7607236PLM069	PLM069
	0232	7799021056112		1	1	77211738	2019-01-04 11:01:23	11:01:23 AM	772117381117240.7607236PLM069	PLM069
	0232	7799021056112		1	1	77211738	2019-01-04 11:01:45	11:01:45 AM	772117381117240.7607236PLM069	PLM069
	0232	7799021056112		1	1	77211738	2019-01-04 11:01:46	11:01:46 AM	772117381117240.7607236PLM069	PLM069
	0232	7799021056112		1	1	77211738	2019-01-04 11:01:47	11:01:47 AM	772117381117240.7607236PLM069	PLM069
	0232	7799021056112		1	1	77211738	2019-01-04 11:02:05	11:02:05 AM	772117381117240.7607236PLM069	PLM069
	0232	7799021056112		1	1	77211738	2019-01-04 11:02:06	11:02:06 AM	772117381117240.7607236PLM069	PLM069
	0232	7799021056112		1	1	77211738	2019-01-04 11:02:07	11:02:07 AM	772117381117240.7607236PLM069	PLM069
	0201	7799021048322		1	1	77211738	2019-01-04 11:05:29	11:05:29 AM	772117381117240.7607236PLM069	PLM069
	0201	7799021048322		1	1	77211738	2019-01-04 11:05:47	11:05:47 AM	772117381117240.7607236PLM069	PLM069
	0201	7799021048322		1	1	77211738	2019-01-04 11:05:54	11:05:54 AM	772117381117240.7607236PLM069	PLM069
	0201	7799021048322		1	1	77211738	2019-01-04 11:06:11	11:06:11 AM	772117381117240.7607236PLM069	PLM069
	0201	7799021048322		1	1	77211738	2019-01-04 11:06:12	11:06:12 AM	772117381117240.7607236PLM069	PLM069
	0201	7799021048322		1	1	77211738	2019-01-04 11:06:15	11:06:15 AM	772117381117240.7607236PLM069	PLM069
	0201	7799021048322		1	1	77211738	2019-01-04 11:06:44	11:06:44 AM	772117381117240.7607236PLM069	PLM069
	0201	7799021048322		1	1	77211738	2019-01-04 11:06:45	11:06:45 AM	772117381117240.7607236PLM069	PLM069
	0201	7799021048322		1	1	77211738	2019-01-04 11:06:47	11:06:47 AM	772117381117240.7607236PLM069	PLM069
	0201	7799021048322		1	1	77211738	2019-01-04 11:07:06	11:07:06 AM	772117381117240.7607236PLM069	PLM069
	0201	7799021048322		1	1	77211738	2019-01-04 11:07:10	11:07:10 AM	772117381117240.7607236PLM069	PLM069
	0201	7799021048322		1	1	77211738	2019-01-04 11:07:11	11:07:11 AM	772117381117240.7607236PLM069	PLM069
	0201	7799021048322		1	1	77211738	2019-01-04 11:07:19	11:07:19 AM	772117381117240.7607236PLM069	PLM069
	0201	7799021048322		1	1	77211738	2019-01-04 11:07:21	11:07:21 AM	772117381117240.7607236PLM069	PLM069
	0201	7799021048322		1	1	77211738	2019-01-04 11:07:23	11:07:23 AM	772117381117240.7607236PLM069	PLM069
	0201	7799021048322		1	1	77211738	2019-01-04 11:07:37	11:07:37 AM	772117381117240.7607236PLM069	PLM069
	0201	7799021048322		1	1	77211738	2019-01-04 11:07:38	11:07:38 AM	772117381117240.7607236PLM069	PLM069
	0201	7799021048322		1	1	77211738	2019-01-04 11:07:40	11:07:40 AM	772117381117240.7607236PLM069	PLM069
	0201	7799021048322		1	1	77211738	2019-01-04 11:08:01	11:08:01 AM	772117381117240.7607236PLM069	PLM069
	0201	7799021048322		1	1	77211738	2019-01-04 11:08:02	11:08:02 AM	772117381117240.7607236PLM069	PLM069
	0201	7799021048322		1	1	77211738	2019-01-04 11:08:04	11:08:04 AM	772117381117240.7607236PLM069	PLM069
	0201	7799021048322		1	1	77211738	2019-01-04 11:08:13	11:08:13 AM	772117381117240.7607236PLM069	PLM069
	0201	7799021048322		1	1	77211738	2019-01-04 11:08:15	11:08:15 AM	772117381117240.7607236PLM069	PLM069
	0201	7799021048322		1	1	77211738	2019-01-04 11:08:16	11:08:16 AM	772117381117240.7607236PLM069	PLM069
	0201	7799021048322		1	1	77211738	2019-01-04 11:08:24	11:08:24 AM	772117381117240.7607236PLM069	PLM069
	0201	7799021048322		1	1	77211738	2019-01-04 11:08:25	11:08:25 AM	772117381117240.7607236PLM069	PLM069
	0201	7799021048322		1	1	77211738	2019-01-04 11:08:27	11:08:27 AM	772117381117240.7607236PLM069	PLM069
	0201	7799021048322		1	1	77211738	2019-01-04 11:08:45	11:08:45 AM	772117381117240.7607236PLM069	PLM069
	0201	7799021048322		1	1	77211738	2019-01-04 11:08:46	11:08:46 AM	772117381117240.7607236PLM069	PLM069
	0201	7799021048322		1	1	77211738	2019-01-04 11:08:47	11:08:47 AM	772117381117240.7607236PLM069	PLM069
	0201	7799021048322		1	1	77211738	2019-01-04 11:09:00	11:09:00 AM	772117381117240.7607236PLM069	PLM069
	0201	7799021048322		1	1	77211738	2019-01-04 11:09:01	11:09:01 AM	772117381117240.7607236PLM069	PLM069
	0201	7799021048322		1	1	77211738	2019-01-04 11:09:05	11:09:05 AM	772117381117240.7607236PLM069	PLM069
	0201	7799021048322		1	1	77211738	2019-01-04 11:09:14	11:09:14 AM	772117381117240.7607236PLM069	PLM069
	0201	7799021048322		1	1	77211738	2019-01-04 11:09:16	11:09:16 AM	772117381117240.7607236PLM069	PLM069
	0201	7799021048322		1	1	77211738	2019-01-04 11:09:19	11:09:19 AM	772117381117240.7607236PLM069	PLM069
	0201	7799021048322		1	1	77211738	2019-01-04 11:09:38	11:09:38 AM	772117381117240.7607236PLM069	PLM069
	0201	7799021048322		1	1	77211738	2019-01-04 11:09:39	11:09:39 AM	772117381117240.7607236PLM069	PLM069
	0201	7799021048322		1	1	77211738	2019-01-04 11:09:44	11:09:44 AM	772117381117240.7607236PLM069	PLM069
	0201	7799021048322		1	1	77211738	2019-01-04 11:09:51	11:09:51 AM	772117381117240.7607236PLM069	PLM069
	0201	7799021048322		1	1	77211738	2019-01-04 11:09:54	11:09:54 AM	772117381117240.7607236PLM069	PLM069
	0201	7799021048322		1	1	77211738	2019-01-04 11:09:55	11:09:55 AM	772117381117240.7607236PLM069	PLM069
	0201	7799021048322		1	1	77211738	2019-01-04 11:10:02	11:10:02 AM	772117381117240.7607236PLM069	PLM069
	0201	7799021048322		1	1	77211738	2019-01-04 11:10:04	11:10:04 AM	772117381117240.7607236PLM069	PLM069
	0201	7799021048322		1	1	77211738	2019-01-04 11:10:07	11:10:07 AM	772117381117240.7607236PLM069	PLM069
	0201	7799021048322		1	1	77211738	2019-01-04 11:10:25	11:10:25 AM	772117381117240.7607236PLM069	PLM069
	0201	7799021048322		1	1	77211738	2019-01-04 11:10:28	11:10:28 AM	772117381117240.7607236PLM069	PLM069
	0201	7799021048322		1	1	77211738	2019-01-04 11:10:31	11:10:31 AM	772117381117240.7607236PLM069	PLM069
	0201	7799021048322		1	1	77211738	2019-01-04 11:10:39	11:10:39 AM	772117381117240.7607236PLM069	PLM069
	0201	7799021048322		1	1	77211738	2019-01-04 11:10:40	11:10:40 AM	772117381117240.7607236PLM069	PLM069
	0201	7799021048322		1	1	77211738	2019-01-04 11:10:42	11:10:42 AM	772117381117240.7607236PLM069	PLM069
	0201	7799021048322		1	1	77211738	2019-01-04 11:10:50	11:10:50 AM	772117381117240.7607236PLM069	PLM069
	0201	7799021048322		1	1	77211738	2019-01-04 11:10:51	11:10:51 AM	772117381117240.7607236PLM069	PLM069
	0201	7799021048322		1	1	77211738	2019-01-04 11:10:53	11:10:53 AM	772117381117240.7607236PLM069	PLM069
	0201	7799021048322		1	1	77211738	2019-01-04 11:11:08	11:11:08 AM	772117381117240.7607236PLM069	PLM069
	0201	7799021048322		1	1	77211738	2019-01-04 11:11:11	11:11:11 AM	772117381117240.7607236PLM069	PLM069
	0201	7799021048322		1	1	77211738	2019-01-04 11:11:12	11:11:12 AM	772117381117240.7607236PLM069	PLM069
	0201	7799021048322		1	1	77211738	2019-01-04 11:11:19	11:11:19 AM	772117381117240.7607236PLM069	PLM069
	0201	7799021048322		1	1	77211738	2019-01-04 11:11:20	11:11:20 AM	772117381117240.7607236PLM069	PLM069
	0201	7799021048322		1	1	77211738	2019-01-04 11:11:22	11:11:22 AM	772117381117240.7607236PLM069	PLM069
	0201	7799021048322		1	1	77211738	2019-01-04 11:11:30	11:11:30 AM	772117381117240.7607236PLM069	PLM069
	0201	7799021048322		1	1	77211738	2019-01-04 11:11:32	11:11:32 AM	772117381117240.7607236PLM069	PLM069
	0201	7799021048322		1	1	77211738	2019-01-04 11:11:33	11:11:33 AM	772117381117240.7607236PLM069	PLM069
	0201	7799021048322		1	1	77211738	2019-01-04 11:11:43	11:11:43 AM	772117381117240.7607236PLM069	PLM069
	0201	7799021048322		1	1	77211738	2019-01-04 11:11:46	11:11:46 AM	772117381117240.7607236PLM069	PLM069
	0201	7799021048322		1	1	77211738	2019-01-04 11:11:49	11:11:49 AM	772117381117240.7607236PLM069	PLM069
	0201	7799021048322		1	1	77211738	2019-01-04 11:12:00	11:12:00 AM	772117381117240.7607236PLM069	PLM069
	0201	7799021048322		1	1	77211738	2019-01-04 11:12:01	11:12:01 AM	772117381117240.7607236PLM069	PLM069
	0201	7799021048322		1	1	77211738	2019-01-04 11:12:02	11:12:02 AM	772117381117240.7607236PLM069	PLM069
	0201	7799021048322		1	1	77211738	2019-01-04 11:12:21	11:12:21 AM	772117381117240.7607236PLM069	PLM069
	0201	7799021048322		1	1	77211738	2019-01-04 11:12:22	11:12:22 AM	772117381117240.7607236PLM069	PLM069
	0201	7799021048322		1	1	77211738	2019-01-04 11:12:23	11:12:23 AM	772117381117240.7607236PLM069	PLM069
	0201	7799021048322		1	1	77211738	2019-01-04 11:12:26	11:12:26 AM	772117381117240.7607236PLM069	PLM069
	0201	7799021048322		1	1	77211738	2019-01-04 11:12:28	11:12:28 AM	772117381117240.7607236PLM069	PLM069
	0201	7799021048322		1	1	77211738	2019-01-04 11:12:29	11:12:29 AM	772117381117240.7607236PLM069	PLM069
	0201	7799021048322		1	1	77211738	2019-01-04 11:12:31	11:12:31 AM	772117381117240.7607236PLM069	PLM069
	0201	7799021048322		1	1	77211738	2019-01-04 11:12:34	11:12:34 AM	772117381117240.7607236PLM069	PLM069
	0201	7799021048322		1	1	77211738	2019-01-04 11:12:35	11:12:35 AM	772117381117240.7607236PLM069	PLM069
	0201	7799021048322		1	1	77211738	2019-01-04 11:12:52	11:12:52 AM	772117381117240.7607236PLM069	PLM069
	0201	7799021048322		1	1	77211738	2019-01-04 11:12:53	11:12:53 AM	772117381117240.7607236PLM069	PLM069
	0201	7799021048322		1	1	77211738	2019-01-04 11:12:54	11:12:54 AM	772117381117240.7607236PLM069	PLM069
	0201	7799021048322		1	1	77211738	2019-01-04 11:13:04	11:13:04 AM	772117381117240.7607236PLM069	PLM069
	0201	7799021048322		1	1	77211738	2019-01-04 11:13:06	11:13:06 AM	772117381117240.7607236PLM069	PLM069
	0201	7799021048322		1	1	77211738	2019-01-04 11:13:07	11:13:07 AM	772117381117240.7607236PLM069	PLM069
	0201	7799021048322		1	1	77211738	2019-01-04 11:13:14	11:13:14 AM	772117381117240.7607236PLM069	PLM069
	0201	7799021048322		1	1	77211738	2019-01-04 11:13:14	11:13:14 AM	772117381117240.7607236PLM069	PLM069
	0201	7799021048322		1	1	77211738	2019-01-04 11:13:16	11:13:16 AM	772117381117240.7607236PLM069	PLM069
